<?xml version="1.0" encoding="UTF-8" standalone="no"?><svg xmlns="http://www.w3.org/2000/svg" xmlns:xlink="http://www.w3.org/1999/xlink" contentScriptType="application/ecmascript" contentStyleType="text/css" height="483px" preserveAspectRatio="none" style="width:799px;height:483px;background:#FFFFFF;" version="1.1" viewBox="0 0 799 483" width="799px" zoomAndPan="magnify"><defs><filter height="300%" id="f14k3gidoyfdi0" width="300%" x="-1" y="-1"><feGaussianBlur result="blurOut" stdDeviation="2.0"/><feColorMatrix in="blurOut" result="blurOut2" type="matrix" values="0 0 0 0 0 0 0 0 0 0 0 0 0 0 0 0 0 0 .4 0"/><feOffset dx="4.0" dy="4.0" in="blurOut2" result="blurOut3"/><feBlend in="SourceGraphic" in2="blurOut3" mode="normal"/></filter></defs><g><!--MD5=[7f9a3db5e52734fe9e26e91538c05d08]
class ListCategoryView--><rect codeLine="6" fill="#FEFECE" filter="url(#f14k3gidoyfdi0)" height="40.1328" id="ListCategoryView" style="stroke:#A80036;stroke-width:1.5;" width="103" x="522" y="7"/><text fill="#000000" font-family="sans-serif" font-size="12" lengthAdjust="spacing" textLength="97" x="525" y="23.6016">ListCategoryView</text><line style="stroke:#A80036;stroke-width:1.5;" x1="523" x2="624" y1="31.1328" y2="31.1328"/><line style="stroke:#A80036;stroke-width:1.5;" x1="523" x2="624" y1="39.1328" y2="39.1328"/><!--MD5=[a2247dbdd28990ad571eb4183e329053]
class ListCategoryController--><rect codeLine="9" fill="#FEFECE" filter="url(#f14k3gidoyfdi0)" height="53.0879" id="ListCategoryController" style="stroke:#A80036;stroke-width:1.5;" width="152" x="402.5" y="108"/><text fill="#000000" font-family="sans-serif" font-size="12" lengthAdjust="spacing" textLength="126" x="415.5" y="124.6016">ListCategoryController</text><line style="stroke:#A80036;stroke-width:1.5;" x1="403.5" x2="553.5" y1="132.1328" y2="132.1328"/><line style="stroke:#A80036;stroke-width:1.5;" x1="403.5" x2="553.5" y1="140.1328" y2="140.1328"/><text fill="#000000" font-family="sans-serif" font-size="11" lengthAdjust="spacing" textLength="140" x="408.5" y="154.7676">+getAll(): List&lt;Category&gt;</text><!--MD5=[09ce52be0ee7de43c61b6e2d59bf108b]
class Person--><rect codeLine="13" fill="#FEFECE" filter="url(#f14k3gidoyfdi0)" height="66.043" id="Person" style="stroke:#A80036;stroke-width:1.5;" width="235" x="26" y="222"/><text fill="#000000" font-family="sans-serif" font-size="12" lengthAdjust="spacing" textLength="39" x="124" y="238.6016">Person</text><line style="stroke:#A80036;stroke-width:1.5;" x1="27" x2="260" y1="246.1328" y2="246.1328"/><text fill="#000000" font-family="sans-serif" font-size="11" lengthAdjust="spacing" textLength="35" x="32" y="260.7676">-name</text><line style="stroke:#A80036;stroke-width:1.5;" x1="27" x2="260" y1="267.0879" y2="267.0879"/><text fill="#000000" font-family="sans-serif" font-size="11" lengthAdjust="spacing" textLength="223" x="32" y="281.7227">+getCategoriesService(): CategoryService</text><!--MD5=[18e00b38c5644b2e127bdcf6e6ccd320]
class CategoryService--><rect codeLine="18" fill="#FEFECE" filter="url(#f14k3gidoyfdi0)" height="66.043" id="CategoryService" style="stroke:#A80036;stroke-width:1.5;" width="275" x="341" y="222"/><text fill="#000000" font-family="sans-serif" font-size="12" lengthAdjust="spacing" textLength="91" x="433" y="238.6016">CategoryService</text><line style="stroke:#A80036;stroke-width:1.5;" x1="342" x2="615" y1="246.1328" y2="246.1328"/><line style="stroke:#A80036;stroke-width:1.5;" x1="342" x2="615" y1="254.1328" y2="254.1328"/><text fill="#000000" font-family="sans-serif" font-size="11" lengthAdjust="spacing" textLength="263" x="347" y="268.7676">+CategoryService(CategoryRepository catsRepo)</text><text fill="#000000" font-family="sans-serif" font-size="11" lengthAdjust="spacing" textLength="140" x="347" y="281.7227">+getAll(): List&lt;Category&gt;</text><!--MD5=[b3c2230271250b561f28a9e8cd979a92]
class CategoryRepository--><rect codeLine="23" fill="#FEFECE" filter="url(#f14k3gidoyfdi0)" height="67.2207" id="CategoryRepository" style="stroke:#A80036;stroke-width:1.5;" width="152" x="317.5" y="384"/><text fill="#000000" font-family="sans-serif" font-size="12" font-style="italic" lengthAdjust="spacing" textLength="62" x="362.5" y="400.6016">«interface»</text><text fill="#000000" font-family="sans-serif" font-size="12" font-style="italic" lengthAdjust="spacing" textLength="112" x="337.5" y="414.7344">CategoryRepository</text><line style="stroke:#A80036;stroke-width:1.5;" x1="318.5" x2="468.5" y1="422.2656" y2="422.2656"/><line style="stroke:#A80036;stroke-width:1.5;" x1="318.5" x2="468.5" y1="430.2656" y2="430.2656"/><text fill="#000000" font-family="sans-serif" font-size="11" lengthAdjust="spacing" textLength="140" x="323.5" y="444.9004">+getAll(): List&lt;Category&gt;</text><!--MD5=[48590afff58a68e2fcba47824d6f8a11]
class RepositoryFactory--><rect codeLine="27" fill="#FEFECE" filter="url(#f14k3gidoyfdi0)" height="67.2207" id="RepositoryFactory" style="stroke:#A80036;stroke-width:1.5;" width="275" x="7" y="384"/><text fill="#000000" font-family="sans-serif" font-size="12" font-style="italic" lengthAdjust="spacing" textLength="62" x="113.5" y="400.6016">«interface»</text><text fill="#000000" font-family="sans-serif" font-size="12" font-style="italic" lengthAdjust="spacing" textLength="102" x="93.5" y="414.7344">RepositoryFactory</text><line style="stroke:#A80036;stroke-width:1.5;" x1="8" x2="281" y1="422.2656" y2="422.2656"/><line style="stroke:#A80036;stroke-width:1.5;" x1="8" x2="281" y1="430.2656" y2="430.2656"/><text fill="#000000" font-family="sans-serif" font-size="11" lengthAdjust="spacing" textLength="263" x="13" y="444.9004">+getCategoriesRepository(): CategoryRepository</text><!--MD5=[a96594a83e2ecdc78cbf17c2ddf01934]
class Category--><rect codeLine="31" fill="#FEFECE" filter="url(#f14k3gidoyfdi0)" height="104.9082" id="Category" style="stroke:#A80036;stroke-width:1.5;" width="232" x="553.5" y="365"/><text fill="#000000" font-family="sans-serif" font-size="12" lengthAdjust="spacing" textLength="51" x="644" y="381.6016">Category</text><line style="stroke:#A80036;stroke-width:1.5;" x1="554.5" x2="784.5" y1="389.1328" y2="389.1328"/><text fill="#000000" font-family="sans-serif" font-size="11" lengthAdjust="spacing" textLength="32" x="559.5" y="403.7676">-code</text><text fill="#000000" font-family="sans-serif" font-size="11" lengthAdjust="spacing" textLength="67" x="559.5" y="416.7227">-description</text><line style="stroke:#A80036;stroke-width:1.5;" x1="554.5" x2="784.5" y1="423.043" y2="423.043"/><text fill="#000000" font-family="sans-serif" font-size="11" lengthAdjust="spacing" textLength="220" x="559.5" y="437.6777">Category(string code, string description)</text><text fill="#000000" font-family="sans-serif" font-size="11" lengthAdjust="spacing" textLength="100" x="559.5" y="450.6328">+getCode(): string</text><text fill="#000000" font-family="sans-serif" font-size="11" lengthAdjust="spacing" textLength="134" x="559.5" y="463.5879">+getDescription(): string</text><!--MD5=[319e1356540cc122fc612065e939d96a]
link Person to RepositoryFactory--><path codeLine="39" d="M143.7,288.09 C143.86,314.27 144.09,351.31 144.27,378.88 " fill="none" id="Person-to-RepositoryFactory" style="stroke:#A80036;stroke-width:1.0;"/><polygon fill="#A80036" points="144.3,383.91,148.2485,374.8873,144.2714,378.9101,140.2486,374.933,144.3,383.91" style="stroke:#A80036;stroke-width:1.0;"/><text fill="#000000" font-family="sans-serif" font-size="13" lengthAdjust="spacing" textLength="29" x="145.5" y="331.5684">uses</text><text fill="#000000" font-family="sans-serif" font-size="13" lengthAdjust="spacing" textLength="8" x="134.9519" y="308.6759">1</text><text fill="#000000" font-family="sans-serif" font-size="13" lengthAdjust="spacing" textLength="8" x="135.4338" y="373.0128">1</text><!--MD5=[fb0b92275b6fb9ced4ecc1678c39a4eb]
link CategoryRepository to Category--><path codeLine="40" d="M469.65,417.5 C493.88,417.5 521.32,417.5 547.94,417.5 " fill="none" id="CategoryRepository-to-Category" style="stroke:#A80036;stroke-width:1.0;"/><polygon fill="#A80036" points="553.25,417.5,544.25,413.5,548.25,417.5,544.25,421.5,553.25,417.5" style="stroke:#A80036;stroke-width:1.0;"/><text fill="#000000" font-family="sans-serif" font-size="13" lengthAdjust="spacing" textLength="47" x="488" y="411.0684">records</text><text fill="#000000" font-family="sans-serif" font-size="13" lengthAdjust="spacing" textLength="8" x="477.5398" y="414.3345">1</text><text fill="#000000" font-family="sans-serif" font-size="13" lengthAdjust="spacing" textLength="22" x="523.4957" y="430.5376">0..*</text><!--MD5=[cea2a40c50a212930f8cf7c30c42b734]
link ListCategoryView to ListCategoryController--><path codeLine="42" d="M556.08,47.35 C541.83,63.17 521.46,85.79 505.17,103.88 " fill="none" id="ListCategoryView-to-ListCategoryController" style="stroke:#A80036;stroke-width:1.0;stroke-dasharray:7.0,7.0;"/><polygon fill="#A80036" points="501.55,107.91,510.5439,103.8962,504.8948,104.1935,504.5975,98.5445,501.55,107.91" style="stroke:#A80036;stroke-width:1.0;"/><!--MD5=[c8c83ec5914c5684e569b23c0aa996d6]
link ListCategoryView to Category--><path codeLine="43" d="M580.21,47.07 C592.19,81.6 617.48,156.96 633.5,222 C644.82,267.95 654.38,320.8 660.8,359.79 " fill="none" id="ListCategoryView-to-Category" style="stroke:#A80036;stroke-width:1.0;stroke-dasharray:7.0,7.0;"/><polygon fill="#A80036" points="661.65,364.96,664.1339,355.4295,660.8373,360.0265,656.2403,356.7299,661.65,364.96" style="stroke:#A80036;stroke-width:1.0;"/><!--MD5=[40cc7d273553ed52a87a099e0c278876]
link ListCategoryController to Person--><path codeLine="44" d="M406.22,161.07 C357.3,178.37 292.16,201.41 238.98,220.23 " fill="none" id="ListCategoryController-to-Person" style="stroke:#A80036;stroke-width:1.0;stroke-dasharray:7.0,7.0;"/><polygon fill="#A80036" points="234.2,221.92,244.0193,222.6826,238.9126,220.2492,241.346,215.1425,234.2,221.92" style="stroke:#A80036;stroke-width:1.0;"/><!--MD5=[3ae000c1825d22d838b23258ab223ce5]
link ListCategoryController to CategoryService--><path codeLine="45" d="M478.5,161.21 C478.5,177.51 478.5,198.87 478.5,216.98 " fill="none" id="ListCategoryController-to-CategoryService" style="stroke:#A80036;stroke-width:1.0;stroke-dasharray:7.0,7.0;"/><polygon fill="#A80036" points="478.5,221.99,482.5,212.99,478.5,216.99,474.5,212.99,478.5,221.99" style="stroke:#A80036;stroke-width:1.0;"/><!--MD5=[5fe5f66f58242069288beef9fde9411a]
link CategoryService to CategoryRepository--><path codeLine="46" d="M461.5,288.09 C447.58,314.38 427.86,351.61 413.24,379.22 " fill="none" id="CategoryService-to-CategoryRepository" style="stroke:#A80036;stroke-width:1.0;stroke-dasharray:7.0,7.0;"/><polygon fill="#A80036" points="410.76,383.91,418.5043,377.8252,413.0981,379.4904,411.4329,374.0842,410.76,383.91" style="stroke:#A80036;stroke-width:1.0;"/><!--MD5=[b83f5f0c83d3a7a15dd7763b4e938c63]
link Person to CategoryService--><path codeLine="48" d="M261.14,255 C285.16,255 310.69,255 335.49,255 " fill="none" id="Person-to-CategoryService" style="stroke:#A80036;stroke-width:1.0;"/><polygon fill="#A80036" points="340.77,255,331.77,251,335.77,255,331.77,259,340.77,255" style="stroke:#A80036;stroke-width:1.0;"/><text fill="#000000" font-family="sans-serif" font-size="13" lengthAdjust="spacing" textLength="43" x="279.5" y="248.5684">adopts</text><!--MD5=[982d16d4d7400e6c46bfc612526ecb29]
link RepositoryFactory to CategoryRepository--><path codeLine="49" d="M282.13,417.5 C292.13,417.5 302.14,417.5 312.14,417.5 " fill="none" id="RepositoryFactory-to-CategoryRepository" style="stroke:#A80036;stroke-width:1.0;stroke-dasharray:7.0,7.0;"/><polygon fill="#A80036" points="317.37,417.5,308.37,413.5,312.37,417.5,308.37,421.5,317.37,417.5" style="stroke:#A80036;stroke-width:1.0;"/><!--MD5=[59aedd7c2cfc956e453673a3218dbb39]
@startuml
'https://plantuml.com/class-diagram

hide circle
skinparam classAttributeIconSize 0

class ListCategoryView {
}

class ListCategoryController {
    +getAll(): List<Category>
}

class Person {
    - name
    +getCategoriesService(): CategoryService
}

class CategoryService {
+ CategoryService(CategoryRepository catsRepo)
+ getAll(): List<Category>
}

interface CategoryRepository <<interface>> {
+ getAll(): List<Category>
}

interface RepositoryFactory <<interface>> {
+ getCategoriesRepository(): CategoryRepository
}

class Category {
    - code
    - description
    Category(string code, string description)
    +getCode(): string
    +getDescription(): string
}

Person "1" -down-> "1" RepositoryFactory:  uses
CategoryRepository "1" -right-> "0..*" Category:  records

ListCategoryView ..> ListCategoryController
ListCategoryView ..> Category
ListCategoryController ..> Person
ListCategoryController ..> CategoryService
CategoryService ..> CategoryRepository

Person -> CategoryService: adopts
RepositoryFactory .right.> CategoryRepository

@enduml

@startuml

hide circle
skinparam classAttributeIconSize 0

class ListCategoryView {
}

class ListCategoryController {
    +getAll(): List<Category>
}

class Person {
    - name
    +getCategoriesService(): CategoryService
}

class CategoryService {
+ CategoryService(CategoryRepository catsRepo)
+ getAll(): List<Category>
}

interface CategoryRepository <<interface>> {
+ getAll(): List<Category>
}

interface RepositoryFactory <<interface>> {
+ getCategoriesRepository(): CategoryRepository
}

class Category {
    - code
    - description
    Category(string code, string description)
    +getCode(): string
    +getDescription(): string
}

Person "1" -down-> "1" RepositoryFactory:  uses
CategoryRepository "1" -right-> "0..*" Category:  records

ListCategoryView ..> ListCategoryController
ListCategoryView ..> Category
ListCategoryController ..> Person
ListCategoryController ..> CategoryService
CategoryService ..> CategoryRepository

Person -> CategoryService: adopts
RepositoryFactory .right.> CategoryRepository

@enduml

PlantUML version 1.2021.7(Sun May 23 13:40:07 WEST 2021)
(GPL source distribution)
Java Runtime: OpenJDK Runtime Environment
JVM: OpenJDK 64-Bit Server VM
Default Encoding: UTF-8
Language: en
Country: PT
--></g></svg>