@startuml
'https://plantuml.com/class-diagram

hide circle
skinparam classAttributeIconSize 0

class UpdateCategoryView {
}

class UpdateCategoryController {
    +getAll(): List<Category>
    +updateCategory(string code, string description): Result
}

class Person {
    - name
    +getCategoriesService(): CategoryService
}


class CategoryService {
+ CategoryService(CategoryRepository catsRepo)
+ getAll(): List<Category>
+ changeDescription(string code, string description): Result
}

interface CategoryRepository <<interface>> {
+ getAll(): List<Category>
+ getById(string code): Category
}

interface RepositoryFactory <<interface>> {
+ getCategoriesRepository(): CategoryRepository
}

class Category {
    - code
    - description
    Category(string code, string description)
    +getCode(): string
    +getDescription(): string
    +changeDescription(string description): Result
}

Person "1" -down-> "1" RepositoryFactory:  uses
CategoryRepository "1" -right-> "0..*" Category:  records

UpdateCategoryView ..> UpdateCategoryController
UpdateCategoryController ..> Person
UpdateCategoryController ..> CategoryService
UpdateCategoryController ..> Category

CategoryService ..> CategoryRepository

Person -> CategoryService: adopts
RepositoryFactory .right.> CategoryRepository

@enduml