<?xml version="1.0" encoding="UTF-8" standalone="no"?><svg xmlns="http://www.w3.org/2000/svg" xmlns:xlink="http://www.w3.org/1999/xlink" contentScriptType="application/ecmascript" contentStyleType="text/css" height="787px" preserveAspectRatio="none" style="width:1665px;height:787px;background:#FFFFFF;" version="1.1" viewBox="0 0 1665 787" width="1665px" zoomAndPan="magnify"><defs><filter height="300%" id="ff6vwueukgrt5" width="300%" x="-1" y="-1"><feGaussianBlur result="blurOut" stdDeviation="2.0"/><feColorMatrix in="blurOut" result="blurOut2" type="matrix" values="0 0 0 0 0 0 0 0 0 0 0 0 0 0 0 0 0 0 .4 0"/><feOffset dx="4.0" dy="4.0" in="blurOut2" result="blurOut3"/><feBlend in="SourceGraphic" in2="blurOut3" mode="normal"/></filter></defs><g><rect fill="#FFFFFF" filter="url(#ff6vwueukgrt5)" height="684.877" style="stroke:#A80036;stroke-width:1.0;" width="10" x="49" y="50.4883"/><rect fill="#FFFFFF" filter="url(#ff6vwueukgrt5)" height="654.5664" style="stroke:#A80036;stroke-width:1.0;" width="10" x="232" y="71.7988"/><rect fill="#FFFFFF" filter="url(#ff6vwueukgrt5)" height="40.3105" style="stroke:#A80036;stroke-width:1.0;" width="10" x="237" y="649.7441"/><rect fill="#FFFFFF" filter="url(#ff6vwueukgrt5)" height="472.0137" style="stroke:#A80036;stroke-width:1.0;" width="10" x="517" y="140.4199"/><rect fill="#FFFFFF" filter="url(#ff6vwueukgrt5)" height="133.4199" style="stroke:#A80036;stroke-width:1.0;" width="10" x="698" y="169.7305"/><rect fill="#FFFFFF" filter="url(#ff6vwueukgrt5)" height="205.1738" style="stroke:#A80036;stroke-width:1.0;" width="10" x="903.5" y="332.4609"/><rect fill="#FFFFFF" filter="url(#ff6vwueukgrt5)" height="29.3105" style="stroke:#A80036;stroke-width:1.0;" width="10" x="1099" y="199.041"/><rect fill="#FFFFFF" filter="url(#ff6vwueukgrt5)" height="29.3105" style="stroke:#A80036;stroke-width:1.0;" width="10" x="1299.5" y="361.7715"/><rect fill="#FFFFFF" filter="url(#ff6vwueukgrt5)" height="29.3105" style="stroke:#A80036;stroke-width:1.0;" width="10" x="1299.5" y="479.0137"/><rect fill="#FFFFFF" filter="url(#ff6vwueukgrt5)" height="29.3105" style="stroke:#A80036;stroke-width:1.0;" width="10" x="1456" y="420.3926"/><line style="stroke:#A80036;stroke-width:1.0;stroke-dasharray:5.0,5.0;" x1="54" x2="54" y1="40.4883" y2="744.3652"/><line style="stroke:#A80036;stroke-width:1.0;stroke-dasharray:5.0,5.0;" x1="236.5" x2="236.5" y1="40.4883" y2="744.3652"/><line style="stroke:#A80036;stroke-width:1.0;stroke-dasharray:5.0,5.0;" x1="522" x2="522" y1="40.4883" y2="744.3652"/><line style="stroke:#A80036;stroke-width:1.0;stroke-dasharray:5.0,5.0;" x1="702.5" x2="702.5" y1="40.4883" y2="744.3652"/><line style="stroke:#A80036;stroke-width:1.0;stroke-dasharray:5.0,5.0;" x1="908" x2="908" y1="269.0957" y2="744.3652"/><line style="stroke:#A80036;stroke-width:1.0;stroke-dasharray:5.0,5.0;" x1="1104" x2="1104" y1="40.4883" y2="744.3652"/><line style="stroke:#A80036;stroke-width:1.0;stroke-dasharray:5.0,5.0;" x1="1304" x2="1304" y1="40.4883" y2="744.3652"/><line style="stroke:#A80036;stroke-width:1.0;stroke-dasharray:5.0,5.0;" x1="1461" x2="1461" y1="40.4883" y2="744.3652"/><line style="stroke:#A80036;stroke-width:1.0;stroke-dasharray:5.0,5.0;" x1="1589" x2="1589" y1="578.3789" y2="744.3652"/><rect fill="#FEFECE" filter="url(#ff6vwueukgrt5)" height="30.4883" style="stroke:#A80036;stroke-width:1.5;" width="94" x="5" y="5"/><text fill="#000000" font-family="sans-serif" font-size="14" lengthAdjust="spacing" textLength="80" x="12" y="25.5352">:HTTPClient</text><rect fill="#FEFECE" filter="url(#ff6vwueukgrt5)" height="30.4883" style="stroke:#A80036;stroke-width:1.5;" width="94" x="5" y="743.3652"/><text fill="#000000" font-family="sans-serif" font-size="14" lengthAdjust="spacing" textLength="80" x="12" y="763.9004">:HTTPClient</text><rect fill="#FEFECE" filter="url(#ff6vwueukgrt5)" height="30.4883" style="stroke:#A80036;stroke-width:1.5;" width="165" x="152.5" y="5"/><text fill="#000000" font-family="sans-serif" font-size="14" lengthAdjust="spacing" textLength="151" x="159.5" y="25.5352">handler:RouteHandler</text><rect fill="#FEFECE" filter="url(#ff6vwueukgrt5)" height="30.4883" style="stroke:#A80036;stroke-width:1.5;" width="165" x="152.5" y="743.3652"/><text fill="#000000" font-family="sans-serif" font-size="14" lengthAdjust="spacing" textLength="151" x="159.5" y="763.9004">handler:RouteHandler</text><rect fill="#FEFECE" filter="url(#ff6vwueukgrt5)" height="30.4883" style="stroke:#A80036;stroke-width:1.5;" width="150" x="445" y="5"/><text fill="#000000" font-family="sans-serif" font-size="14" lengthAdjust="spacing" textLength="136" x="452" y="25.5352">:CategoryController</text><rect fill="#FEFECE" filter="url(#ff6vwueukgrt5)" height="30.4883" style="stroke:#A80036;stroke-width:1.5;" width="150" x="445" y="743.3652"/><text fill="#000000" font-family="sans-serif" font-size="14" lengthAdjust="spacing" textLength="136" x="452" y="763.9004">:CategoryController</text><rect fill="#FEFECE" filter="url(#ff6vwueukgrt5)" height="30.4883" style="stroke:#A80036;stroke-width:1.5;" width="65" x="668.5" y="5"/><text fill="#000000" font-family="sans-serif" font-size="14" lengthAdjust="spacing" textLength="51" x="675.5" y="25.5352">:Person</text><rect fill="#FEFECE" filter="url(#ff6vwueukgrt5)" height="30.4883" style="stroke:#A80036;stroke-width:1.5;" width="65" x="668.5" y="743.3652"/><text fill="#000000" font-family="sans-serif" font-size="14" lengthAdjust="spacing" textLength="51" x="675.5" y="763.9004">:Person</text><rect fill="#FEFECE" filter="url(#ff6vwueukgrt5)" height="30.4883" style="stroke:#A80036;stroke-width:1.5;" width="175" x="819" y="743.3652"/><text fill="#000000" font-family="sans-serif" font-size="14" lengthAdjust="spacing" textLength="161" x="826" y="763.9004">service:CategoryService</text><rect fill="#FEFECE" filter="url(#ff6vwueukgrt5)" height="30.4883" style="stroke:#A80036;stroke-width:1.5;" width="188" x="1008" y="5"/><text fill="#000000" font-family="sans-serif" font-size="14" lengthAdjust="spacing" textLength="174" x="1015" y="25.5352">factory:RepositoryFactory</text><rect fill="#FEFECE" filter="url(#ff6vwueukgrt5)" height="30.4883" style="stroke:#A80036;stroke-width:1.5;" width="188" x="1008" y="743.3652"/><text fill="#000000" font-family="sans-serif" font-size="14" lengthAdjust="spacing" textLength="174" x="1015" y="763.9004">factory:RepositoryFactory</text><rect fill="#FEFECE" filter="url(#ff6vwueukgrt5)" height="30.4883" style="stroke:#A80036;stroke-width:1.5;" width="185" x="1210" y="5"/><text fill="#000000" font-family="sans-serif" font-size="14" lengthAdjust="spacing" textLength="171" x="1217" y="25.5352">repo:CategoryRepository</text><rect fill="#FEFECE" filter="url(#ff6vwueukgrt5)" height="30.4883" style="stroke:#A80036;stroke-width:1.5;" width="185" x="1210" y="743.3652"/><text fill="#000000" font-family="sans-serif" font-size="14" lengthAdjust="spacing" textLength="171" x="1217" y="763.9004">repo:CategoryRepository</text><rect fill="#FEFECE" filter="url(#ff6vwueukgrt5)" height="30.4883" style="stroke:#A80036;stroke-width:1.5;" width="100" x="1409" y="5"/><text fill="#000000" font-family="sans-serif" font-size="14" lengthAdjust="spacing" textLength="86" x="1416" y="25.5352">cat:Category</text><rect fill="#FEFECE" filter="url(#ff6vwueukgrt5)" height="30.4883" style="stroke:#A80036;stroke-width:1.5;" width="100" x="1409" y="743.3652"/><text fill="#000000" font-family="sans-serif" font-size="14" lengthAdjust="spacing" textLength="86" x="1416" y="763.9004">cat:Category</text><rect fill="#FEFECE" filter="url(#ff6vwueukgrt5)" height="30.4883" style="stroke:#A80036;stroke-width:1.5;" width="128" x="1523" y="743.3652"/><text fill="#000000" font-family="sans-serif" font-size="14" lengthAdjust="spacing" textLength="114" x="1530" y="763.9004">result:HttpResult</text><rect fill="#FFFFFF" filter="url(#ff6vwueukgrt5)" height="684.877" style="stroke:#A80036;stroke-width:1.0;" width="10" x="49" y="50.4883"/><rect fill="#FFFFFF" filter="url(#ff6vwueukgrt5)" height="654.5664" style="stroke:#A80036;stroke-width:1.0;" width="10" x="232" y="71.7988"/><rect fill="#FFFFFF" filter="url(#ff6vwueukgrt5)" height="40.3105" style="stroke:#A80036;stroke-width:1.0;" width="10" x="237" y="649.7441"/><rect fill="#FFFFFF" filter="url(#ff6vwueukgrt5)" height="472.0137" style="stroke:#A80036;stroke-width:1.0;" width="10" x="517" y="140.4199"/><rect fill="#FFFFFF" filter="url(#ff6vwueukgrt5)" height="133.4199" style="stroke:#A80036;stroke-width:1.0;" width="10" x="698" y="169.7305"/><rect fill="#FFFFFF" filter="url(#ff6vwueukgrt5)" height="205.1738" style="stroke:#A80036;stroke-width:1.0;" width="10" x="903.5" y="332.4609"/><rect fill="#FFFFFF" filter="url(#ff6vwueukgrt5)" height="29.3105" style="stroke:#A80036;stroke-width:1.0;" width="10" x="1099" y="199.041"/><rect fill="#FFFFFF" filter="url(#ff6vwueukgrt5)" height="29.3105" style="stroke:#A80036;stroke-width:1.0;" width="10" x="1299.5" y="361.7715"/><rect fill="#FFFFFF" filter="url(#ff6vwueukgrt5)" height="29.3105" style="stroke:#A80036;stroke-width:1.0;" width="10" x="1299.5" y="479.0137"/><rect fill="#FFFFFF" filter="url(#ff6vwueukgrt5)" height="29.3105" style="stroke:#A80036;stroke-width:1.0;" width="10" x="1456" y="420.3926"/><polygon fill="#A80036" points="220,67.7988,230,71.7988,220,75.7988,224,71.7988" style="stroke:#A80036;stroke-width:1.0;"/><line style="stroke:#A80036;stroke-width:1.0;" x1="59" x2="226" y1="71.7988" y2="71.7988"/><text fill="#000000" font-family="sans-serif" font-size="13" font-weight="bold" lengthAdjust="spacing" textLength="9" x="66" y="67.0566">1</text><text fill="#000000" font-family="sans-serif" font-size="13" lengthAdjust="spacing" textLength="141" x="79" y="67.0566">PUT/categories/{code}</text><path d="M154,84.7988 L154,109.7988 L316,109.7988 L316,94.7988 L306,84.7988 L154,84.7988 " fill="#FBFB77" filter="url(#ff6vwueukgrt5)" style="stroke:#A80036;stroke-width:1.0;"/><path d="M306,84.7988 L306,94.7988 L316,94.7988 L306,84.7988 " fill="#FBFB77" style="stroke:#A80036;stroke-width:1.0;"/><text fill="#000000" font-family="sans-serif" font-size="13" lengthAdjust="spacing" textLength="141" x="160" y="102.3672">after doing some stuff</text><polygon fill="#A80036" points="505,136.4199,515,140.4199,505,144.4199,509,140.4199" style="stroke:#A80036;stroke-width:1.0;"/><line style="stroke:#A80036;stroke-width:1.0;" x1="242" x2="511" y1="140.4199" y2="140.4199"/><text fill="#000000" font-family="sans-serif" font-size="13" font-weight="bold" lengthAdjust="spacing" textLength="9" x="249" y="135.6777">2</text><text fill="#000000" font-family="sans-serif" font-size="13" lengthAdjust="spacing" textLength="243" x="262" y="135.6777">updateCategory(code, newDescription)</text><polygon fill="#A80036" points="686,165.7305,696,169.7305,686,173.7305,690,169.7305" style="stroke:#A80036;stroke-width:1.0;"/><line style="stroke:#A80036;stroke-width:1.0;" x1="527" x2="692" y1="169.7305" y2="169.7305"/><text fill="#000000" font-family="sans-serif" font-size="13" font-weight="bold" lengthAdjust="spacing" textLength="9" x="534" y="164.9883">3</text><text fill="#000000" font-family="sans-serif" font-size="13" lengthAdjust="spacing" textLength="139" x="547" y="164.9883">getCategoriesService()</text><polygon fill="#A80036" points="1087,195.041,1097,199.041,1087,203.041,1091,199.041" style="stroke:#A80036;stroke-width:1.0;"/><line style="stroke:#A80036;stroke-width:1.0;" x1="708" x2="1093" y1="199.041" y2="199.041"/><text fill="#000000" font-family="sans-serif" font-size="13" font-weight="bold" lengthAdjust="spacing" textLength="9" x="715" y="194.2988">4</text><text fill="#000000" font-family="sans-serif" font-size="13" lengthAdjust="spacing" textLength="162" x="728" y="194.2988">getCategoriesRepository()</text><polygon fill="#A80036" points="719,224.3516,709,228.3516,719,232.3516,715,228.3516" style="stroke:#A80036;stroke-width:1.0;"/><line style="stroke:#A80036;stroke-width:1.0;stroke-dasharray:2.0,2.0;" x1="713" x2="1103" y1="228.3516" y2="228.3516"/><text fill="#000000" font-family="sans-serif" font-size="13" font-weight="bold" lengthAdjust="spacing" textLength="9" x="725" y="223.6094">5</text><text fill="#000000" font-family="sans-serif" font-size="13" lengthAdjust="spacing" textLength="28" x="738" y="223.6094">repo</text><polygon fill="#A80036" points="807,253.6621,817,257.6621,807,261.6621,811,257.6621" style="stroke:#A80036;stroke-width:1.0;"/><line style="stroke:#A80036;stroke-width:1.0;stroke-dasharray:2.0,2.0;" x1="708" x2="813" y1="257.6621" y2="257.6621"/><text fill="#000000" font-family="sans-serif" font-size="13" font-weight="bold" lengthAdjust="spacing" textLength="9" x="715" y="252.9199">6</text><text fill="#000000" font-family="sans-serif" font-size="13" lengthAdjust="spacing" textLength="74" x="728" y="252.9199">create(repo)</text><rect fill="#FEFECE" filter="url(#ff6vwueukgrt5)" height="30.4883" style="stroke:#A80036;stroke-width:1.5;" width="175" x="819" y="236.3516"/><text fill="#000000" font-family="sans-serif" font-size="14" lengthAdjust="spacing" textLength="161" x="826" y="256.8867">service:CategoryService</text><polygon fill="#A80036" points="538,299.1504,528,303.1504,538,307.1504,534,303.1504" style="stroke:#A80036;stroke-width:1.0;"/><line style="stroke:#A80036;stroke-width:1.0;stroke-dasharray:2.0,2.0;" x1="532" x2="702" y1="303.1504" y2="303.1504"/><text fill="#000000" font-family="sans-serif" font-size="13" font-weight="bold" lengthAdjust="spacing" textLength="9" x="544" y="298.4082">7</text><text fill="#000000" font-family="sans-serif" font-size="13" lengthAdjust="spacing" textLength="44" x="557" y="298.4082">service</text><polygon fill="#A80036" points="891.5,328.4609,901.5,332.4609,891.5,336.4609,895.5,332.4609" style="stroke:#A80036;stroke-width:1.0;"/><line style="stroke:#A80036;stroke-width:1.0;" x1="527" x2="897.5" y1="332.4609" y2="332.4609"/><text fill="#000000" font-family="sans-serif" font-size="13" font-weight="bold" lengthAdjust="spacing" textLength="9" x="534" y="327.7188">8</text><text fill="#000000" font-family="sans-serif" font-size="13" lengthAdjust="spacing" textLength="262" x="547" y="327.7188">changeDescription(code, newDescription)</text><polygon fill="#A80036" points="1287.5,357.7715,1297.5,361.7715,1287.5,365.7715,1291.5,361.7715" style="stroke:#A80036;stroke-width:1.0;"/><line style="stroke:#A80036;stroke-width:1.0;" x1="913.5" x2="1293.5" y1="361.7715" y2="361.7715"/><text fill="#000000" font-family="sans-serif" font-size="13" font-weight="bold" lengthAdjust="spacing" textLength="9" x="920.5" y="357.0293">9</text><text fill="#000000" font-family="sans-serif" font-size="13" lengthAdjust="spacing" textLength="84" x="933.5" y="357.0293">getById(code)</text><polygon fill="#A80036" points="924.5,387.082,914.5,391.082,924.5,395.082,920.5,391.082" style="stroke:#A80036;stroke-width:1.0;"/><line style="stroke:#A80036;stroke-width:1.0;stroke-dasharray:2.0,2.0;" x1="918.5" x2="1303.5" y1="391.082" y2="391.082"/><text fill="#000000" font-family="sans-serif" font-size="13" font-weight="bold" lengthAdjust="spacing" textLength="18" x="930.5" y="386.3398">10</text><text fill="#000000" font-family="sans-serif" font-size="13" lengthAdjust="spacing" textLength="19" x="952.5" y="386.3398">cat</text><polygon fill="#A80036" points="1444,416.3926,1454,420.3926,1444,424.3926,1448,420.3926" style="stroke:#A80036;stroke-width:1.0;"/><line style="stroke:#A80036;stroke-width:1.0;" x1="913.5" x2="1450" y1="420.3926" y2="420.3926"/><text fill="#000000" font-family="sans-serif" font-size="13" font-weight="bold" lengthAdjust="spacing" textLength="18" x="920.5" y="415.6504">11</text><text fill="#000000" font-family="sans-serif" font-size="13" lengthAdjust="spacing" textLength="224" x="942.5" y="415.6504">changeDescription(newDescription)</text><polygon fill="#A80036" points="924.5,445.7031,914.5,449.7031,924.5,453.7031,920.5,449.7031" style="stroke:#A80036;stroke-width:1.0;"/><line style="stroke:#A80036;stroke-width:1.0;stroke-dasharray:2.0,2.0;" x1="918.5" x2="1460" y1="449.7031" y2="449.7031"/><text fill="#000000" font-family="sans-serif" font-size="13" font-weight="bold" lengthAdjust="spacing" textLength="18" x="930.5" y="444.9609">12</text><text fill="#000000" font-family="sans-serif" font-size="13" lengthAdjust="spacing" textLength="16" x="952.5" y="444.9609">ok</text><polygon fill="#A80036" points="1287.5,475.0137,1297.5,479.0137,1287.5,483.0137,1291.5,479.0137" style="stroke:#A80036;stroke-width:1.0;"/><line style="stroke:#A80036;stroke-width:1.0;" x1="913.5" x2="1293.5" y1="479.0137" y2="479.0137"/><text fill="#000000" font-family="sans-serif" font-size="13" font-weight="bold" lengthAdjust="spacing" textLength="18" x="920.5" y="474.2715">13</text><text fill="#000000" font-family="sans-serif" font-size="13" lengthAdjust="spacing" textLength="55" x="942.5" y="474.2715">save(cat)</text><polygon fill="#A80036" points="924.5,504.3242,914.5,508.3242,924.5,512.3242,920.5,508.3242" style="stroke:#A80036;stroke-width:1.0;"/><line style="stroke:#A80036;stroke-width:1.0;stroke-dasharray:2.0,2.0;" x1="918.5" x2="1303.5" y1="508.3242" y2="508.3242"/><text fill="#000000" font-family="sans-serif" font-size="13" font-weight="bold" lengthAdjust="spacing" textLength="18" x="930.5" y="503.582">14</text><text fill="#000000" font-family="sans-serif" font-size="13" lengthAdjust="spacing" textLength="16" x="952.5" y="503.582">ok</text><polygon fill="#A80036" points="538,533.6348,528,537.6348,538,541.6348,534,537.6348" style="stroke:#A80036;stroke-width:1.0;"/><line style="stroke:#A80036;stroke-width:1.0;stroke-dasharray:2.0,2.0;" x1="532" x2="907.5" y1="537.6348" y2="537.6348"/><text fill="#000000" font-family="sans-serif" font-size="13" font-weight="bold" lengthAdjust="spacing" textLength="18" x="544" y="532.8926">15</text><text fill="#000000" font-family="sans-serif" font-size="13" lengthAdjust="spacing" textLength="16" x="566" y="532.8926">ok</text><polygon fill="#A80036" points="1511,562.9453,1521,566.9453,1511,570.9453,1515,566.9453" style="stroke:#A80036;stroke-width:1.0;"/><line style="stroke:#A80036;stroke-width:1.0;stroke-dasharray:2.0,2.0;" x1="527" x2="1517" y1="566.9453" y2="566.9453"/><text fill="#000000" font-family="sans-serif" font-size="13" font-weight="bold" lengthAdjust="spacing" textLength="18" x="534" y="562.2031">16</text><text fill="#000000" font-family="sans-serif" font-size="13" lengthAdjust="spacing" textLength="70" x="556" y="562.2031">create(200)</text><rect fill="#FEFECE" filter="url(#ff6vwueukgrt5)" height="30.4883" style="stroke:#A80036;stroke-width:1.5;" width="128" x="1523" y="545.6348"/><text fill="#000000" font-family="sans-serif" font-size="14" lengthAdjust="spacing" textLength="114" x="1530" y="566.1699">result:HttpResult</text><polygon fill="#A80036" points="253,608.4336,243,612.4336,253,616.4336,249,612.4336" style="stroke:#A80036;stroke-width:1.0;"/><line style="stroke:#A80036;stroke-width:1.0;stroke-dasharray:2.0,2.0;" x1="247" x2="521" y1="612.4336" y2="612.4336"/><text fill="#000000" font-family="sans-serif" font-size="13" font-weight="bold" lengthAdjust="spacing" textLength="18" x="259" y="607.6914">17</text><text fill="#000000" font-family="sans-serif" font-size="13" lengthAdjust="spacing" textLength="36" x="281" y="607.6914">result</text><line style="stroke:#A80036;stroke-width:1.0;" x1="242" x2="289" y1="636.7441" y2="636.7441"/><line style="stroke:#A80036;stroke-width:1.0;" x1="289" x2="289" y1="636.7441" y2="649.7441"/><line style="stroke:#A80036;stroke-width:1.0;" x1="248" x2="289" y1="649.7441" y2="649.7441"/><polygon fill="#A80036" points="258,645.7441,248,649.7441,258,653.7441,254,649.7441" style="stroke:#A80036;stroke-width:1.0;"/><text fill="#000000" font-family="sans-serif" font-size="13" font-weight="bold" lengthAdjust="spacing" textLength="18" x="254" y="632.002">18</text><text fill="#000000" font-family="sans-serif" font-size="13" lengthAdjust="spacing" textLength="165" x="276" y="632.002">setHttpResult(resp, result)</text><line style="stroke:#A80036;stroke-width:1.0;stroke-dasharray:2.0,2.0;" x1="247" x2="289" y1="689.0547" y2="689.0547"/><line style="stroke:#A80036;stroke-width:1.0;stroke-dasharray:2.0,2.0;" x1="289" x2="289" y1="689.0547" y2="702.0547"/><line style="stroke:#A80036;stroke-width:1.0;stroke-dasharray:2.0,2.0;" x1="242" x2="289" y1="702.0547" y2="702.0547"/><polygon fill="#A80036" points="252,698.0547,242,702.0547,252,706.0547,248,702.0547" style="stroke:#A80036;stroke-width:1.0;"/><text fill="#000000" font-family="sans-serif" font-size="13" font-weight="bold" lengthAdjust="spacing" textLength="18" x="254" y="684.3125">19</text><text fill="#000000" font-family="sans-serif" font-size="13" lengthAdjust="spacing" textLength="0" x="280" y="684.3125"/><polygon fill="#A80036" points="70,722.3652,60,726.3652,70,730.3652,66,726.3652" style="stroke:#A80036;stroke-width:1.0;"/><line style="stroke:#A80036;stroke-width:1.0;stroke-dasharray:2.0,2.0;" x1="64" x2="236" y1="726.3652" y2="726.3652"/><text fill="#000000" font-family="sans-serif" font-size="13" font-weight="bold" lengthAdjust="spacing" textLength="18" x="76" y="721.623">20</text><text fill="#000000" font-family="sans-serif" font-size="13" lengthAdjust="spacing" textLength="27" x="98" y="721.623">resp</text><!--MD5=[e4de9dc6aa063b99cd09b0d83083cd8f]
@startuml
'https://plantuml.com/sequence-diagram

autoactivate on
autonumber

participant ":HTTPClient" as HTTPClient
participant "handler:RouteHandler" as System
participant ":CategoryController" as Ctrl
participant ":Person" as Person
participant "service:CategoryService" as Service
participant "factory:RepositoryFactory" as Factory
participant "repo:CategoryRepository" as Repo
participant "cat:Category" as Category
participant "result:HttpResult" as Result

activate HTTPClient

HTTPClient -> System: PUT/categories/{code}
note over System: after doing some stuff
System -> Ctrl:updateCategory(code, newDescription)
Ctrl -> Person: getCategoriesService()
Person -> Factory : getCategoriesRepository()
Factory - -> Person: repo
Person - ->Service**: create(repo)
Person - -> Ctrl: service
Ctrl -> Service: changeDescription(code, newDescription)
Service -> Repo: getById(code)
Repo - -> Service: cat
Service -> Category: changeDescription(newDescription)
Category - -> Service : ok
Service -> Repo: save(cat)
Repo - -> Service: ok
Service - -> Ctrl: ok
Ctrl - -> Result**: create(200)
Ctrl - -> System: result
System -> System: setHttpResult(resp, result)
System - -> System:
System - -> HTTPClient: resp
@enduml

@startuml

autoactivate on
autonumber

participant ":HTTPClient" as HTTPClient
participant "handler:RouteHandler" as System
participant ":CategoryController" as Ctrl
participant ":Person" as Person
participant "service:CategoryService" as Service
participant "factory:RepositoryFactory" as Factory
participant "repo:CategoryRepository" as Repo
participant "cat:Category" as Category
participant "result:HttpResult" as Result

activate HTTPClient

HTTPClient -> System: PUT/categories/{code}
note over System: after doing some stuff
System -> Ctrl:updateCategory(code, newDescription)
Ctrl -> Person: getCategoriesService()
Person -> Factory : getCategoriesRepository()
Factory - -> Person: repo
Person - ->Service**: create(repo)
Person - -> Ctrl: service
Ctrl -> Service: changeDescription(code, newDescription)
Service -> Repo: getById(code)
Repo - -> Service: cat
Service -> Category: changeDescription(newDescription)
Category - -> Service : ok
Service -> Repo: save(cat)
Repo - -> Service: ok
Service - -> Ctrl: ok
Ctrl - -> Result**: create(200)
Ctrl - -> System: result
System -> System: setHttpResult(resp, result)
System - -> System:
System - -> HTTPClient: resp
@enduml

PlantUML version 1.2021.7(Sun May 23 13:40:07 WEST 2021)
(GPL source distribution)
Java Runtime: OpenJDK Runtime Environment
JVM: OpenJDK 64-Bit Server VM
Default Encoding: UTF-8
Language: en
Country: PT
--></g></svg>