@startuml
'https://plantuml.com/sequence-diagram

autoactivate on
autonumber

actor "Person" as User
participant ":UpdateCategoryView" as System
participant ":UpdateCategoryController" as Ctrl
participant ":Person" as Person
participant "service:CategoryService" as Service
participant "factory:RepositoryFactory" as Factory
participant "repo:CategoryRepository" as Repo
participant "list:List<Category>" as List
participant "cat:Category" as Category

activate User

User -> System: asks to update description of a category
System -> Ctrl: getAll()
Ctrl -> Person: getCategoriesService()
Person -> Factory : getCategoriesRepository()
Factory --> Person: repo
Person -->Service**: create(repo)
Person --> Ctrl: service
Ctrl -> Service: getAll()
Service -> Repo: getAll()
Repo --> Service: list
Service --> Ctrl: list
Ctrl --> System: list
System --> User: shows all existing categories and \n asks to select the one to be updated


User -> System: selects the intended category
System -> System: findSelectedCategory()
System --> System: cat
System -> Category: getDescription()
Category --> System: description
System --> User: shows description of the select category \n and requests the new description

User -> System: types the new description
System -> Category: getCode()
Category --> System: code
System -> Ctrl:updateCategory(code, newDescription)
Ctrl -> Service: changeDescription(code, newDescription)
Service -> Repo: getById(code)
Repo --> Service: cat
Service -> Category: changeDescription(newDescription)
Category --> Service : ok
Service -> Repo: save(cat)
Repo --> Service: ok
Service --> Ctrl: ok
Ctrl --> System: ok
System --> User: informs operation success

@enduml