@startuml
'https://plantuml.com/sequence-diagram

autoactivate on
autonumber

actor "Person" as User
participant ":ListCategoryView" as System
participant ":ListCategoryController" as Ctrl
participant ":Person" as Person
participant "container:CategoryContainer" as Container
participant "list:List<Category>" as List
participant "cat:Category" as Category

activate User

User -> System: asks to list categories
System -> Ctrl: getAll()
Ctrl -> Person: getCategoriesContainer()
Person --> Ctrl: container
Ctrl -> Container: getAll()
Container --> List**: create()
Container -> List: insert(existingCategories)
note over List: adds each category in \n the "existingCategories"
List --> Container: ok
Container --> Ctrl: list
Ctrl --> System: list
loop for each 'cat' in 'list'
    System -> Category: getCode()
    Category --> System: code
    System -> Category: getDescription()
    Category --> System: description
    System --> User: shows code + description
end loop

@enduml