@startuml
'https://plantuml.com/class-diagram

hide circle
skinparam classAttributeIconSize 0

class ListCategoryView {
}

class ListCategoryController {
    +getAll(): List<Category>
}

class Person {
    - name
    +getCategoriesContainer(): CategoryContainer
}

class CategoryContainer {
    +getAll(): List<Category>
}

class Category {
    - code
    - description
    Category(string code, string description)
    +getCode(): string
    +getDescription(): string
}

Person "1" -right-> "1" CategoryContainer:  maintains
CategoryContainer "1" -right-> "0..*" Category:  records

ListCategoryView ..> ListCategoryController
ListCategoryView ..> Category
ListCategoryController ..> Person
ListCategoryController ..> CategoryContainer


@enduml