@startuml
'https://plantuml.com/sequence-diagram
autoactivate on
autonumber

actor "Person" as User
participant "System" as System

activate User

User -> System: asks to create a new task
System --> User: requests data (reference, title, informal description,\ntechnical description, effort estimation, deadline)

User -> System: types requested data
System --> User: shows existing categories and ask to select one

User -> System: select the intended category
System --> User: shows all data and requests confirmation

User -> System: confirms the data
System --> User: informs operation success
@enduml