<?xml version="1.0" encoding="UTF-8" standalone="no"?><svg xmlns="http://www.w3.org/2000/svg" xmlns:xlink="http://www.w3.org/1999/xlink" contentScriptType="application/ecmascript" contentStyleType="text/css" height="404px" preserveAspectRatio="none" style="width:646px;height:404px;background:#FFFFFF;" version="1.1" viewBox="0 0 646 404" width="646px" zoomAndPan="magnify"><defs><filter height="300%" id="f1apfik7ld37io" width="300%" x="-1" y="-1"><feGaussianBlur result="blurOut" stdDeviation="2.0"/><feColorMatrix in="blurOut" result="blurOut2" type="matrix" values="0 0 0 0 0 0 0 0 0 0 0 0 0 0 0 0 0 0 .4 0"/><feOffset dx="4.0" dy="4.0" in="blurOut2" result="blurOut3"/><feBlend in="SourceGraphic" in2="blurOut3" mode="normal"/></filter></defs><g><text fill="#000000" font-family="sans-serif" font-size="18" lengthAdjust="spacing" textLength="281" x="180" y="29.4023">Example of a Sequence Diagram</text><rect fill="#FFFFFF" filter="url(#f1apfik7ld37io)" height="176.8633" style="stroke:#A80036;stroke-width:1.0;" width="10" x="18.5" y="133.6875"/><rect fill="#FFFFFF" filter="url(#f1apfik7ld37io)" height="146.5527" style="stroke:#A80036;stroke-width:1.0;" width="10" x="222.5" y="154.998"/><rect fill="#FFFFFF" filter="url(#f1apfik7ld37io)" height="87.9316" style="stroke:#A80036;stroke-width:1.0;" width="10" x="423.5" y="184.3086"/><rect fill="#FFFFFF" filter="url(#f1apfik7ld37io)" height="29.3105" style="stroke:#A80036;stroke-width:1.0;" width="10" x="597.5" y="213.6191"/><line style="stroke:#A80036;stroke-width:1.0;stroke-dasharray:5.0,5.0;" x1="23" x2="23" y1="123.6875" y2="319.5508"/><line style="stroke:#A80036;stroke-width:1.0;stroke-dasharray:5.0,5.0;" x1="227" x2="227" y1="123.6875" y2="319.5508"/><line style="stroke:#A80036;stroke-width:1.0;stroke-dasharray:5.0,5.0;" x1="428" x2="428" y1="123.6875" y2="319.5508"/><line style="stroke:#A80036;stroke-width:1.0;stroke-dasharray:5.0,5.0;" x1="602" x2="602" y1="123.6875" y2="319.5508"/><text fill="#000000" font-family="sans-serif" font-size="14" lengthAdjust="spacing" textLength="31" x="5" y="120.7344">User</text><ellipse cx="23.5" cy="50.1992" fill="#FEFECE" filter="url(#f1apfik7ld37io)" rx="8" ry="8" style="stroke:#A80036;stroke-width:2.0;"/><path d="M23.5,58.1992 L23.5,85.1992 M10.5,66.1992 L36.5,66.1992 M23.5,85.1992 L10.5,100.1992 M23.5,85.1992 L36.5,100.1992 " fill="none" filter="url(#f1apfik7ld37io)" style="stroke:#A80036;stroke-width:2.0;"/><text fill="#000000" font-family="sans-serif" font-size="14" lengthAdjust="spacing" textLength="31" x="5" y="332.0859">User</text><ellipse cx="23.5" cy="345.0391" fill="#FEFECE" filter="url(#f1apfik7ld37io)" rx="8" ry="8" style="stroke:#A80036;stroke-width:2.0;"/><path d="M23.5,353.0391 L23.5,380.0391 M10.5,361.0391 L36.5,361.0391 M23.5,380.0391 L10.5,395.0391 M23.5,380.0391 L36.5,395.0391 " fill="none" filter="url(#f1apfik7ld37io)" style="stroke:#A80036;stroke-width:2.0;"/><rect fill="#FEFECE" filter="url(#f1apfik7ld37io)" height="30.4883" style="stroke:#A80036;stroke-width:1.5;" width="69" x="191" y="88.1992"/><text fill="#000000" font-family="sans-serif" font-size="14" lengthAdjust="spacing" textLength="55" x="198" y="108.7344">:{XXX}UI</text><rect fill="#FEFECE" filter="url(#f1apfik7ld37io)" height="30.4883" style="stroke:#A80036;stroke-width:1.5;" width="69" x="191" y="318.5508"/><text fill="#000000" font-family="sans-serif" font-size="14" lengthAdjust="spacing" textLength="55" x="198" y="339.0859">:{XXX}UI</text><rect fill="#FEFECE" filter="url(#f1apfik7ld37io)" height="30.4883" style="stroke:#A80036;stroke-width:1.5;" width="125" x="364" y="88.1992"/><text fill="#000000" font-family="sans-serif" font-size="14" lengthAdjust="spacing" textLength="111" x="371" y="108.7344">:{XXX}Controller</text><rect fill="#FEFECE" filter="url(#f1apfik7ld37io)" height="30.4883" style="stroke:#A80036;stroke-width:1.5;" width="125" x="364" y="318.5508"/><text fill="#000000" font-family="sans-serif" font-size="14" lengthAdjust="spacing" textLength="111" x="371" y="339.0859">:{XXX}Controller</text><rect fill="#FEFECE" filter="url(#f1apfik7ld37io)" height="30.4883" style="stroke:#A80036;stroke-width:1.5;" width="63" x="569" y="88.1992"/><text fill="#000000" font-family="sans-serif" font-size="14" lengthAdjust="spacing" textLength="49" x="576" y="108.7344">:Class1</text><rect fill="#FEFECE" filter="url(#f1apfik7ld37io)" height="30.4883" style="stroke:#A80036;stroke-width:1.5;" width="63" x="569" y="318.5508"/><text fill="#000000" font-family="sans-serif" font-size="14" lengthAdjust="spacing" textLength="49" x="576" y="339.0859">:Class1</text><rect fill="#FFFFFF" filter="url(#f1apfik7ld37io)" height="176.8633" style="stroke:#A80036;stroke-width:1.0;" width="10" x="18.5" y="133.6875"/><rect fill="#FFFFFF" filter="url(#f1apfik7ld37io)" height="146.5527" style="stroke:#A80036;stroke-width:1.0;" width="10" x="222.5" y="154.998"/><rect fill="#FFFFFF" filter="url(#f1apfik7ld37io)" height="87.9316" style="stroke:#A80036;stroke-width:1.0;" width="10" x="423.5" y="184.3086"/><rect fill="#FFFFFF" filter="url(#f1apfik7ld37io)" height="29.3105" style="stroke:#A80036;stroke-width:1.0;" width="10" x="597.5" y="213.6191"/><polygon fill="#A80036" points="210.5,150.998,220.5,154.998,210.5,158.998,214.5,154.998" style="stroke:#A80036;stroke-width:1.0;"/><line style="stroke:#A80036;stroke-width:1.0;" x1="28.5" x2="216.5" y1="154.998" y2="154.998"/><text fill="#000000" font-family="sans-serif" font-size="13" font-weight="bold" lengthAdjust="spacing" textLength="9" x="35.5" y="150.2559">1</text><text fill="#000000" font-family="sans-serif" font-size="13" lengthAdjust="spacing" textLength="147" x="48.5" y="150.2559">Authentication Request</text><polygon fill="#A80036" points="411.5,180.3086,421.5,184.3086,411.5,188.3086,415.5,184.3086" style="stroke:#A80036;stroke-width:1.0;"/><line style="stroke:#A80036;stroke-width:1.0;" x1="232.5" x2="417.5" y1="184.3086" y2="184.3086"/><text fill="#000000" font-family="sans-serif" font-size="13" font-weight="bold" lengthAdjust="spacing" textLength="9" x="239.5" y="179.5664">2</text><text fill="#000000" font-family="sans-serif" font-size="13" lengthAdjust="spacing" textLength="159" x="252.5" y="179.5664">authenticate(userId, pwd)</text><polygon fill="#A80036" points="585.5,209.6191,595.5,213.6191,585.5,217.6191,589.5,213.6191" style="stroke:#A80036;stroke-width:1.0;"/><line style="stroke:#A80036;stroke-width:1.0;" x1="433.5" x2="591.5" y1="213.6191" y2="213.6191"/><text fill="#000000" font-family="sans-serif" font-size="13" font-weight="bold" lengthAdjust="spacing" textLength="9" x="440.5" y="208.877">3</text><text fill="#000000" font-family="sans-serif" font-size="13" lengthAdjust="spacing" textLength="132" x="453.5" y="208.877">doLogIn(userId, pwd)</text><polygon fill="#A80036" points="444.5,238.9297,434.5,242.9297,444.5,246.9297,440.5,242.9297" style="stroke:#A80036;stroke-width:1.0;"/><line style="stroke:#A80036;stroke-width:1.0;stroke-dasharray:2.0,2.0;" x1="438.5" x2="601.5" y1="242.9297" y2="242.9297"/><text fill="#000000" font-family="sans-serif" font-size="13" font-weight="bold" lengthAdjust="spacing" textLength="9" x="450.5" y="238.1875">4</text><text fill="#000000" font-family="sans-serif" font-size="13" lengthAdjust="spacing" textLength="66" x="463.5" y="238.1875">userToken</text><polygon fill="#A80036" points="243.5,268.2402,233.5,272.2402,243.5,276.2402,239.5,272.2402" style="stroke:#A80036;stroke-width:1.0;"/><line style="stroke:#A80036;stroke-width:1.0;stroke-dasharray:2.0,2.0;" x1="237.5" x2="427.5" y1="272.2402" y2="272.2402"/><text fill="#000000" font-family="sans-serif" font-size="13" font-weight="bold" lengthAdjust="spacing" textLength="9" x="249.5" y="267.498">5</text><text fill="#000000" font-family="sans-serif" font-size="13" lengthAdjust="spacing" textLength="16" x="262.5" y="267.498">ok</text><polygon fill="#A80036" points="39.5,297.5508,29.5,301.5508,39.5,305.5508,35.5,301.5508" style="stroke:#A80036;stroke-width:1.0;"/><line style="stroke:#A80036;stroke-width:1.0;stroke-dasharray:2.0,2.0;" x1="33.5" x2="226.5" y1="301.5508" y2="301.5508"/><text fill="#000000" font-family="sans-serif" font-size="13" font-weight="bold" lengthAdjust="spacing" textLength="9" x="45.5" y="296.8086">6</text><text fill="#000000" font-family="sans-serif" font-size="13" lengthAdjust="spacing" textLength="157" x="58.5" y="296.8086">Authentication Response</text><!--MD5=[88f2b5b9c898b52c5a8f3d64b9dd268c]
@startuml
'https://plantuml.com/sequence-diagram

title Example of a Sequence Diagram

autoactivate on
autonumber

actor "User" as User
participant ":{XXX}UI" as System
participant ":{XXX}Controller" as Ctrl
participant ":Class1" as C1

activate User

User -> System: Authentication Request
System -> Ctrl: authenticate(userId, pwd)
Ctrl -> C1: doLogIn(userId, pwd)
C1 - -> Ctrl: userToken
Ctrl - -> System: ok
System - -> User: Authentication Response

@enduml

@startuml

title Example of a Sequence Diagram

autoactivate on
autonumber

actor "User" as User
participant ":{XXX}UI" as System
participant ":{XXX}Controller" as Ctrl
participant ":Class1" as C1

activate User

User -> System: Authentication Request
System -> Ctrl: authenticate(userId, pwd)
Ctrl -> C1: doLogIn(userId, pwd)
C1 - -> Ctrl: userToken
Ctrl - -> System: ok
System - -> User: Authentication Response

@enduml

PlantUML version 1.2021.7(Sun May 23 13:40:07 WEST 2021)
(GPL source distribution)
Java Runtime: OpenJDK Runtime Environment
JVM: OpenJDK 64-Bit Server VM
Default Encoding: UTF-8
Language: en
Country: PT
--></g></svg>