<?xml version="1.0" encoding="UTF-8" standalone="no"?><svg xmlns="http://www.w3.org/2000/svg" xmlns:xlink="http://www.w3.org/1999/xlink" contentScriptType="application/ecmascript" contentStyleType="text/css" height="349px" preserveAspectRatio="none" style="width:437px;height:349px;background:#FFFFFF;" version="1.1" viewBox="0 0 437 349" width="437px" zoomAndPan="magnify"><defs><filter height="300%" id="fgtu8cgsx9p9u" width="300%" x="-1" y="-1"><feGaussianBlur result="blurOut" stdDeviation="2.0"/><feColorMatrix in="blurOut" result="blurOut2" type="matrix" values="0 0 0 0 0 0 0 0 0 0 0 0 0 0 0 0 0 0 .4 0"/><feOffset dx="4.0" dy="4.0" in="blurOut2" result="blurOut3"/><feBlend in="SourceGraphic" in2="blurOut3" mode="normal"/></filter></defs><g><text fill="#000000" font-family="sans-serif" font-size="18" lengthAdjust="spacing" textLength="244" x="90.25" y="17.4023">Example of a Class Diagram</text><!--MD5=[8d114e539c3b6179089ac3bd128a0438]
class XXXUI--><rect codeLine="8" fill="#FEFECE" filter="url(#fgtu8cgsx9p9u)" height="40.1328" id="XXXUI" style="stroke:#A80036;stroke-width:1.5;" width="41" x="121" y="28.1992"/><text fill="#000000" font-family="sans-serif" font-size="12" lengthAdjust="spacing" textLength="35" x="124" y="44.8008">XXXUI</text><line style="stroke:#A80036;stroke-width:1.5;" x1="122" x2="161" y1="52.332" y2="52.332"/><line style="stroke:#A80036;stroke-width:1.5;" x1="122" x2="161" y1="60.332" y2="60.332"/><!--MD5=[cc32bb2566e6beaf2df6f9569a13f54b]
class XXXController--><rect codeLine="12" fill="#FEFECE" filter="url(#fgtu8cgsx9p9u)" height="53.0879" id="XXXController" style="stroke:#A80036;stroke-width:1.5;" width="257" x="13" y="129.1992"/><text fill="#000000" font-family="sans-serif" font-size="12" lengthAdjust="spacing" textLength="80" x="101.5" y="145.8008">XXXController</text><line style="stroke:#A80036;stroke-width:1.5;" x1="14" x2="269" y1="153.332" y2="153.332"/><line style="stroke:#A80036;stroke-width:1.5;" x1="14" x2="269" y1="161.332" y2="161.332"/><text fill="#000000" font-family="sans-serif" font-size="11" lengthAdjust="spacing" textLength="245" x="19" y="175.9668">+authenticate(string userId, string pwd): bool</text><!--MD5=[db8947410cfcb5febdf8f8cf27669db4]
class Class1--><rect codeLine="16" fill="#FEFECE" filter="url(#fgtu8cgsx9p9u)" height="66.043" id="Class1" style="stroke:#A80036;stroke-width:1.5;" width="269" x="7" y="256.1992"/><text fill="#000000" font-family="sans-serif" font-size="12" lengthAdjust="spacing" textLength="38" x="122.5" y="272.8008">Class1</text><line style="stroke:#A80036;stroke-width:1.5;" x1="8" x2="275" y1="280.332" y2="280.332"/><text fill="#000000" font-family="sans-serif" font-size="11" lengthAdjust="spacing" textLength="69" x="13" y="294.9668">-designation</text><line style="stroke:#A80036;stroke-width:1.5;" x1="8" x2="275" y1="301.2871" y2="301.2871"/><text fill="#000000" font-family="sans-serif" font-size="11" lengthAdjust="spacing" textLength="257" x="13" y="315.9219">+doLogin(string userId, string pwd): UserToken</text><!--MD5=[097cec2c4502543b4bc821e1e2f7ea8d]
class Class2--><rect codeLine="21" fill="#FEFECE" filter="url(#fgtu8cgsx9p9u)" height="91.9531" id="Class2" style="stroke:#A80036;stroke-width:1.5;" width="70" x="353.5" y="243.1992"/><text fill="#000000" font-family="sans-serif" font-size="12" lengthAdjust="spacing" textLength="38" x="369.5" y="259.8008">Class2</text><line style="stroke:#A80036;stroke-width:1.5;" x1="354.5" x2="422.5" y1="267.332" y2="267.332"/><text fill="#000000" font-family="sans-serif" font-size="11" lengthAdjust="spacing" textLength="16" x="359.5" y="281.9668">-id</text><text fill="#000000" font-family="sans-serif" font-size="11" lengthAdjust="spacing" textLength="35" x="359.5" y="294.9219">-name</text><text fill="#000000" font-family="sans-serif" font-size="11" lengthAdjust="spacing" textLength="49" x="359.5" y="307.877">-address</text><text fill="#000000" font-family="sans-serif" font-size="11" lengthAdjust="spacing" textLength="58" x="359.5" y="320.832">-password</text><line style="stroke:#A80036;stroke-width:1.5;" x1="354.5" x2="422.5" y1="327.1523" y2="327.1523"/><!--MD5=[6cab2b66726c40c83820885f5d3142d6]
link XXXUI to XXXController--><path codeLine="28" d="M141.5,68.5492 C141.5,83.9692 141.5,105.8492 141.5,123.7092 " fill="none" id="XXXUI-to-XXXController" style="stroke:#A80036;stroke-width:1.0;stroke-dasharray:7.0,7.0;"/><polygon fill="#A80036" points="141.5,129.1092,145.5,120.1092,141.5,124.1092,137.5,120.1092,141.5,129.1092" style="stroke:#A80036;stroke-width:1.0;"/><!--MD5=[c10737530f43bc48aa83eef75151b513]
link XXXController to Class1--><path codeLine="30" d="M141.5,182.3692 C141.5,201.8792 141.5,229.0092 141.5,250.9192 " fill="none" id="XXXController-to-Class1" style="stroke:#A80036;stroke-width:1.0;stroke-dasharray:7.0,7.0;"/><polygon fill="#A80036" points="141.5,256.0792,145.5,247.0792,141.5,251.0792,137.5,247.0792,141.5,256.0792" style="stroke:#A80036;stroke-width:1.0;"/><!--MD5=[5c217e4aeb1e3cff88f818337409e90f]
link Class1 to Class2--><path codeLine="32" d="M276.2,289.1992 C302.32,289.1992 327.76,289.1992 347.8,289.1992 " fill="none" id="Class1-to-Class2" style="stroke:#A80036;stroke-width:1.0;"/><polygon fill="#A80036" points="353.04,289.1992,344.04,285.1992,348.04,289.1992,344.04,293.1992,353.04,289.1992" style="stroke:#A80036;stroke-width:1.0;"/><text fill="#000000" font-family="sans-serif" font-size="13" lengthAdjust="spacing" textLength="41" x="294.25" y="282.7676">knows</text><text fill="#000000" font-family="sans-serif" font-size="13" lengthAdjust="spacing" textLength="8" x="283.7852" y="286.3647">1</text><text fill="#000000" font-family="sans-serif" font-size="13" lengthAdjust="spacing" textLength="22" x="323.6354" y="302.9914">0..*</text><!--MD5=[1046a13a6e178732e0764ee2e6be5d20]
@startuml
'https://plantuml.com/class-diagram

hide circle
skinparam classAttributeIconSize 0

title Example of a Class Diagram

class XXXUI {

}

class XXXController {
    +authenticate(string userId, string pwd): bool
}

class Class1 {
    -designation
    +doLogin(string userId, string pwd): UserToken
}

class Class2 {
    -id
    -name
    -address
    -password
}

XXXUI ..> XXXController

XXXController ..> Class1

Class1 "1" -> "0..*" Class2: knows

@enduml

@startuml

hide circle
skinparam classAttributeIconSize 0

title Example of a Class Diagram

class XXXUI {

}

class XXXController {
    +authenticate(string userId, string pwd): bool
}

class Class1 {
    -designation
    +doLogin(string userId, string pwd): UserToken
}

class Class2 {
    -id
    -name
    -address
    -password
}

XXXUI ..> XXXController

XXXController ..> Class1

Class1 "1" -> "0..*" Class2: knows

@enduml

PlantUML version 1.2021.7(Sun May 23 13:40:07 WEST 2021)
(GPL source distribution)
Java Runtime: OpenJDK Runtime Environment
JVM: OpenJDK 64-Bit Server VM
Default Encoding: UTF-8
Language: en
Country: PT
--></g></svg>