@startuml
'https://plantuml.com/sequence-diagram

autoactivate on
autonumber

actor "Person" as User
participant ":DeleteCategoryView" as System
participant ":DeleteCategoryController" as Ctrl
participant ":Person" as Person
participant "service:CategoryService" as Service
participant "factory:RepositoryFactory" as Factory
participant "repo:CategoryRepository" as Repo
participant "list:List<Category>" as List
participant "cat:Category" as Category

activate User

User -> System: asks to delete a category
System -> Ctrl: getAll()
Ctrl -> Person: getCategoriesService()
Person -> Factory : getCategoriesRepository()
Factory --> Person: repo
Person -->Service**: create(repo)
Person --> Ctrl: service
Ctrl -> Service: getAll()
Service -> Repo: getAll()
Repo --> Service: list
Service --> Ctrl: list
Ctrl --> System: list
System --> User: shows all existing categories and \n asks to select the one to be deleted


User -> System: selects the intended category
System -> System: findSelectedCategory()
System --> System: cat
System -> Category: getCode()
Category --> System: code
System -> Category: getDescription()
Category --> System: description
System --> User: shows code and description of the select category \n and requests a deleting confirmation

User -> System: confirms
System -> Ctrl:deleteCategory(code)
Ctrl -> Service: remove(code)
Service -> Repo: getById(code)
Repo --> Service: cat
Service -> Repo: remove(cat)
Repo --> Service: ok
Service --> Ctrl: ok
Ctrl --> System: ok
System --> User: informs operation success

@enduml