<?xml version="1.0" encoding="UTF-8" standalone="no"?><svg xmlns="http://www.w3.org/2000/svg" xmlns:xlink="http://www.w3.org/1999/xlink" contentScriptType="application/ecmascript" contentStyleType="text/css" height="734px" preserveAspectRatio="none" style="width:1201px;height:734px;background:#FFFFFF;" version="1.1" viewBox="0 0 1201 734" width="1201px" zoomAndPan="magnify"><defs><filter height="300%" id="fqlpyb4eo3tt7" width="300%" x="-1" y="-1"><feGaussianBlur result="blurOut" stdDeviation="2.0"/><feColorMatrix in="blurOut" result="blurOut2" type="matrix" values="0 0 0 0 0 0 0 0 0 0 0 0 0 0 0 0 0 0 .4 0"/><feOffset dx="4.0" dy="4.0" in="blurOut2" result="blurOut3"/><feBlend in="SourceGraphic" in2="blurOut3" mode="normal"/></filter></defs><g><rect fill="#FFFFFF" filter="url(#fqlpyb4eo3tt7)" height="542.7676" style="stroke:#A80036;stroke-width:1.0;" width="10" x="41.5" y="98.4883"/><rect fill="#FFFFFF" filter="url(#fqlpyb4eo3tt7)" height="505.457" style="stroke:#A80036;stroke-width:1.0;" width="10" x="260.5" y="119.7988"/><rect fill="#FFFFFF" filter="url(#fqlpyb4eo3tt7)" height="305.2832" style="stroke:#A80036;stroke-width:1.0;" width="10" x="428.5" y="149.1094"/><rect fill="#FFFFFF" filter="url(#fqlpyb4eo3tt7)" height="29.3105" style="stroke:#A80036;stroke-width:1.0;" width="10" x="626.5" y="178.4199"/><rect fill="#FFFFFF" filter="url(#fqlpyb4eo3tt7)" height="188.041" style="stroke:#A80036;stroke-width:1.0;" width="10" x="779.5" y="237.041"/><rect fill="#FFFFFF" filter="url(#fqlpyb4eo3tt7)" height="83.9316" style="stroke:#A80036;stroke-width:1.0;" width="10" x="983.5" y="311.8398"/><rect fill="#FFFFFF" filter="url(#fqlpyb4eo3tt7)" height="29.3105" style="stroke:#A80036;stroke-width:1.0;" width="10" x="1120" y="508.0137"/><rect fill="#FFFFFF" filter="url(#fqlpyb4eo3tt7)" height="29.3105" style="stroke:#A80036;stroke-width:1.0;" width="10" x="1120" y="566.6348"/><rect fill="#FFFFFF" filter="url(#fqlpyb4eo3tt7)" height="163.8633" style="stroke:#000000;stroke-width:2.0;" width="1177" x="10" y="469.3926"/><line style="stroke:#A80036;stroke-width:1.0;stroke-dasharray:5.0,5.0;" x1="46" x2="46" y1="88.4883" y2="650.2559"/><line style="stroke:#A80036;stroke-width:1.0;stroke-dasharray:5.0,5.0;" x1="265" x2="265" y1="88.4883" y2="650.2559"/><line style="stroke:#A80036;stroke-width:1.0;stroke-dasharray:5.0,5.0;" x1="433" x2="433" y1="88.4883" y2="650.2559"/><line style="stroke:#A80036;stroke-width:1.0;stroke-dasharray:5.0,5.0;" x1="631" x2="631" y1="88.4883" y2="650.2559"/><line style="stroke:#A80036;stroke-width:1.0;stroke-dasharray:5.0,5.0;" x1="784" x2="784" y1="88.4883" y2="650.2559"/><line style="stroke:#A80036;stroke-width:1.0;stroke-dasharray:5.0,5.0;" x1="988" x2="988" y1="277.7852" y2="650.2559"/><line style="stroke:#A80036;stroke-width:1.0;stroke-dasharray:5.0,5.0;" x1="1125" x2="1125" y1="88.4883" y2="650.2559"/><text fill="#000000" font-family="sans-serif" font-size="14" lengthAdjust="spacing" textLength="47" x="20" y="85.5352">Person</text><ellipse cx="46.5" cy="15" fill="#FEFECE" filter="url(#fqlpyb4eo3tt7)" rx="8" ry="8" style="stroke:#A80036;stroke-width:2.0;"/><path d="M46.5,23 L46.5,50 M33.5,31 L59.5,31 M46.5,50 L33.5,65 M46.5,50 L59.5,65 " fill="none" filter="url(#fqlpyb4eo3tt7)" style="stroke:#A80036;stroke-width:2.0;"/><text fill="#000000" font-family="sans-serif" font-size="14" lengthAdjust="spacing" textLength="47" x="20" y="662.791">Person</text><ellipse cx="46.5" cy="675.7441" fill="#FEFECE" filter="url(#fqlpyb4eo3tt7)" rx="8" ry="8" style="stroke:#A80036;stroke-width:2.0;"/><path d="M46.5,683.7441 L46.5,710.7441 M33.5,691.7441 L59.5,691.7441 M46.5,710.7441 L33.5,725.7441 M46.5,710.7441 L59.5,725.7441 " fill="none" filter="url(#fqlpyb4eo3tt7)" style="stroke:#A80036;stroke-width:2.0;"/><rect fill="#FEFECE" filter="url(#fqlpyb4eo3tt7)" height="30.4883" style="stroke:#A80036;stroke-width:1.5;" width="135" x="196" y="53"/><text fill="#000000" font-family="sans-serif" font-size="14" lengthAdjust="spacing" textLength="121" x="203" y="73.5352">:ListCategoryView</text><rect fill="#FEFECE" filter="url(#fqlpyb4eo3tt7)" height="30.4883" style="stroke:#A80036;stroke-width:1.5;" width="135" x="196" y="649.2559"/><text fill="#000000" font-family="sans-serif" font-size="14" lengthAdjust="spacing" textLength="121" x="203" y="669.791">:ListCategoryView</text><rect fill="#FEFECE" filter="url(#fqlpyb4eo3tt7)" height="30.4883" style="stroke:#A80036;stroke-width:1.5;" width="173" x="345" y="53"/><text fill="#000000" font-family="sans-serif" font-size="14" lengthAdjust="spacing" textLength="159" x="352" y="73.5352">:ListCategoryController</text><rect fill="#FEFECE" filter="url(#fqlpyb4eo3tt7)" height="30.4883" style="stroke:#A80036;stroke-width:1.5;" width="173" x="345" y="649.2559"/><text fill="#000000" font-family="sans-serif" font-size="14" lengthAdjust="spacing" textLength="159" x="352" y="669.791">:ListCategoryController</text><rect fill="#FEFECE" filter="url(#fqlpyb4eo3tt7)" height="30.4883" style="stroke:#A80036;stroke-width:1.5;" width="65" x="597" y="53"/><text fill="#000000" font-family="sans-serif" font-size="14" lengthAdjust="spacing" textLength="51" x="604" y="73.5352">:Person</text><rect fill="#FEFECE" filter="url(#fqlpyb4eo3tt7)" height="30.4883" style="stroke:#A80036;stroke-width:1.5;" width="65" x="597" y="649.2559"/><text fill="#000000" font-family="sans-serif" font-size="14" lengthAdjust="spacing" textLength="51" x="604" y="669.791">:Person</text><rect fill="#FEFECE" filter="url(#fqlpyb4eo3tt7)" height="30.4883" style="stroke:#A80036;stroke-width:1.5;" width="213" x="676" y="53"/><text fill="#000000" font-family="sans-serif" font-size="14" lengthAdjust="spacing" textLength="199" x="683" y="73.5352">container:CategoryContainer</text><rect fill="#FEFECE" filter="url(#fqlpyb4eo3tt7)" height="30.4883" style="stroke:#A80036;stroke-width:1.5;" width="213" x="676" y="649.2559"/><text fill="#000000" font-family="sans-serif" font-size="14" lengthAdjust="spacing" textLength="199" x="683" y="669.791">container:CategoryContainer</text><rect fill="#FEFECE" filter="url(#fqlpyb4eo3tt7)" height="30.4883" style="stroke:#A80036;stroke-width:1.5;" width="145" x="914" y="649.2559"/><text fill="#000000" font-family="sans-serif" font-size="14" lengthAdjust="spacing" textLength="131" x="921" y="669.791">list:List&lt;Category&gt;</text><rect fill="#FEFECE" filter="url(#fqlpyb4eo3tt7)" height="30.4883" style="stroke:#A80036;stroke-width:1.5;" width="100" x="1073" y="53"/><text fill="#000000" font-family="sans-serif" font-size="14" lengthAdjust="spacing" textLength="86" x="1080" y="73.5352">cat:Category</text><rect fill="#FEFECE" filter="url(#fqlpyb4eo3tt7)" height="30.4883" style="stroke:#A80036;stroke-width:1.5;" width="100" x="1073" y="649.2559"/><text fill="#000000" font-family="sans-serif" font-size="14" lengthAdjust="spacing" textLength="86" x="1080" y="669.791">cat:Category</text><rect fill="#FFFFFF" filter="url(#fqlpyb4eo3tt7)" height="542.7676" style="stroke:#A80036;stroke-width:1.0;" width="10" x="41.5" y="98.4883"/><rect fill="#FFFFFF" filter="url(#fqlpyb4eo3tt7)" height="505.457" style="stroke:#A80036;stroke-width:1.0;" width="10" x="260.5" y="119.7988"/><rect fill="#FFFFFF" filter="url(#fqlpyb4eo3tt7)" height="305.2832" style="stroke:#A80036;stroke-width:1.0;" width="10" x="428.5" y="149.1094"/><rect fill="#FFFFFF" filter="url(#fqlpyb4eo3tt7)" height="29.3105" style="stroke:#A80036;stroke-width:1.0;" width="10" x="626.5" y="178.4199"/><rect fill="#FFFFFF" filter="url(#fqlpyb4eo3tt7)" height="188.041" style="stroke:#A80036;stroke-width:1.0;" width="10" x="779.5" y="237.041"/><rect fill="#FFFFFF" filter="url(#fqlpyb4eo3tt7)" height="83.9316" style="stroke:#A80036;stroke-width:1.0;" width="10" x="983.5" y="311.8398"/><rect fill="#FFFFFF" filter="url(#fqlpyb4eo3tt7)" height="29.3105" style="stroke:#A80036;stroke-width:1.0;" width="10" x="1120" y="508.0137"/><rect fill="#FFFFFF" filter="url(#fqlpyb4eo3tt7)" height="29.3105" style="stroke:#A80036;stroke-width:1.0;" width="10" x="1120" y="566.6348"/><polygon fill="#A80036" points="248.5,115.7988,258.5,119.7988,248.5,123.7988,252.5,119.7988" style="stroke:#A80036;stroke-width:1.0;"/><line style="stroke:#A80036;stroke-width:1.0;" x1="51.5" x2="254.5" y1="119.7988" y2="119.7988"/><text fill="#000000" font-family="sans-serif" font-size="13" font-weight="bold" lengthAdjust="spacing" textLength="9" x="58.5" y="115.0566">1</text><text fill="#000000" font-family="sans-serif" font-size="13" lengthAdjust="spacing" textLength="139" x="71.5" y="115.0566">asks to list categories</text><polygon fill="#A80036" points="416.5,145.1094,426.5,149.1094,416.5,153.1094,420.5,149.1094" style="stroke:#A80036;stroke-width:1.0;"/><line style="stroke:#A80036;stroke-width:1.0;" x1="270.5" x2="422.5" y1="149.1094" y2="149.1094"/><text fill="#000000" font-family="sans-serif" font-size="13" font-weight="bold" lengthAdjust="spacing" textLength="9" x="277.5" y="144.3672">2</text><text fill="#000000" font-family="sans-serif" font-size="13" lengthAdjust="spacing" textLength="45" x="290.5" y="144.3672">getAll()</text><polygon fill="#A80036" points="614.5,174.4199,624.5,178.4199,614.5,182.4199,618.5,178.4199" style="stroke:#A80036;stroke-width:1.0;"/><line style="stroke:#A80036;stroke-width:1.0;" x1="438.5" x2="620.5" y1="178.4199" y2="178.4199"/><text fill="#000000" font-family="sans-serif" font-size="13" font-weight="bold" lengthAdjust="spacing" textLength="9" x="445.5" y="173.6777">3</text><text fill="#000000" font-family="sans-serif" font-size="13" lengthAdjust="spacing" textLength="156" x="458.5" y="173.6777">getCategoriesService()</text><polygon fill="#A80036" points="449.5,203.7305,439.5,207.7305,449.5,211.7305,445.5,207.7305" style="stroke:#A80036;stroke-width:1.0;"/><line style="stroke:#A80036;stroke-width:1.0;stroke-dasharray:2.0,2.0;" x1="443.5" x2="630.5" y1="207.7305" y2="207.7305"/><text fill="#000000" font-family="sans-serif" font-size="13" font-weight="bold" lengthAdjust="spacing" textLength="9" x="455.5" y="202.9883">4</text><text fill="#000000" font-family="sans-serif" font-size="13" lengthAdjust="spacing" textLength="59" x="468.5" y="202.9883">container</text><polygon fill="#A80036" points="767.5,233.041,777.5,237.041,767.5,241.041,771.5,237.041" style="stroke:#A80036;stroke-width:1.0;"/><line style="stroke:#A80036;stroke-width:1.0;" x1="438.5" x2="773.5" y1="237.041" y2="237.041"/><text fill="#000000" font-family="sans-serif" font-size="13" font-weight="bold" lengthAdjust="spacing" textLength="9" x="445.5" y="232.2988">5</text><text fill="#000000" font-family="sans-serif" font-size="13" lengthAdjust="spacing" textLength="45" x="458.5" y="232.2988">getAll()</text><polygon fill="#A80036" points="902,262.3516,912,266.3516,902,270.3516,906,266.3516" style="stroke:#A80036;stroke-width:1.0;"/><line style="stroke:#A80036;stroke-width:1.0;stroke-dasharray:2.0,2.0;" x1="789.5" x2="908" y1="266.3516" y2="266.3516"/><text fill="#000000" font-family="sans-serif" font-size="13" font-weight="bold" lengthAdjust="spacing" textLength="9" x="796.5" y="261.6094">6</text><text fill="#000000" font-family="sans-serif" font-size="13" lengthAdjust="spacing" textLength="46" x="809.5" y="261.6094">create()</text><rect fill="#FEFECE" filter="url(#fqlpyb4eo3tt7)" height="30.4883" style="stroke:#A80036;stroke-width:1.5;" width="145" x="914" y="245.041"/><text fill="#000000" font-family="sans-serif" font-size="14" lengthAdjust="spacing" textLength="131" x="921" y="265.5762">list:List&lt;Category&gt;</text><polygon fill="#A80036" points="971.5,307.8398,981.5,311.8398,971.5,315.8398,975.5,311.8398" style="stroke:#A80036;stroke-width:1.0;"/><line style="stroke:#A80036;stroke-width:1.0;" x1="789.5" x2="977.5" y1="311.8398" y2="311.8398"/><text fill="#000000" font-family="sans-serif" font-size="13" font-weight="bold" lengthAdjust="spacing" textLength="9" x="796.5" y="307.0977">7</text><text fill="#000000" font-family="sans-serif" font-size="13" lengthAdjust="spacing" textLength="162" x="809.5" y="307.0977">insert(existingCategories)</text><path d="M898,324.8398 L898,364.8398 L1075,364.8398 L1075,334.8398 L1065,324.8398 L898,324.8398 " fill="#FBFB77" filter="url(#fqlpyb4eo3tt7)" style="stroke:#A80036;stroke-width:1.0;"/><path d="M1065,324.8398 L1065,334.8398 L1075,334.8398 L1065,324.8398 " fill="#FBFB77" style="stroke:#A80036;stroke-width:1.0;"/><text fill="#000000" font-family="sans-serif" font-size="13" lengthAdjust="spacing" textLength="137" x="904" y="342.4082">adds each category in</text><text fill="#000000" font-family="sans-serif" font-size="13" lengthAdjust="spacing" textLength="152" x="908" y="357.7188">the "existingCategories"</text><polygon fill="#A80036" points="800.5,391.7715,790.5,395.7715,800.5,399.7715,796.5,395.7715" style="stroke:#A80036;stroke-width:1.0;"/><line style="stroke:#A80036;stroke-width:1.0;stroke-dasharray:2.0,2.0;" x1="794.5" x2="987.5" y1="395.7715" y2="395.7715"/><text fill="#000000" font-family="sans-serif" font-size="13" font-weight="bold" lengthAdjust="spacing" textLength="9" x="806.5" y="391.0293">8</text><text fill="#000000" font-family="sans-serif" font-size="13" lengthAdjust="spacing" textLength="16" x="819.5" y="391.0293">ok</text><polygon fill="#A80036" points="449.5,421.082,439.5,425.082,449.5,429.082,445.5,425.082" style="stroke:#A80036;stroke-width:1.0;"/><line style="stroke:#A80036;stroke-width:1.0;stroke-dasharray:2.0,2.0;" x1="443.5" x2="783.5" y1="425.082" y2="425.082"/><text fill="#000000" font-family="sans-serif" font-size="13" font-weight="bold" lengthAdjust="spacing" textLength="9" x="455.5" y="420.3398">9</text><text fill="#000000" font-family="sans-serif" font-size="13" lengthAdjust="spacing" textLength="20" x="468.5" y="420.3398">list</text><polygon fill="#A80036" points="281.5,450.3926,271.5,454.3926,281.5,458.3926,277.5,454.3926" style="stroke:#A80036;stroke-width:1.0;"/><line style="stroke:#A80036;stroke-width:1.0;stroke-dasharray:2.0,2.0;" x1="275.5" x2="432.5" y1="454.3926" y2="454.3926"/><text fill="#000000" font-family="sans-serif" font-size="13" font-weight="bold" lengthAdjust="spacing" textLength="18" x="287.5" y="449.6504">10</text><text fill="#000000" font-family="sans-serif" font-size="13" lengthAdjust="spacing" textLength="20" x="309.5" y="449.6504">list</text><path d="M10,469.3926 L84,469.3926 L84,476.3926 L74,486.3926 L10,486.3926 L10,469.3926 " fill="#EEEEEE" style="stroke:#000000;stroke-width:1.0;"/><rect fill="none" height="163.8633" style="stroke:#000000;stroke-width:2.0;" width="1177" x="10" y="469.3926"/><text fill="#000000" font-family="sans-serif" font-size="13" font-weight="bold" lengthAdjust="spacing" textLength="29" x="25" y="482.9609">loop</text><text fill="#000000" font-family="sans-serif" font-size="11" font-weight="bold" lengthAdjust="spacing" textLength="123" x="99" y="482.0273">[for each 'cat' in 'list']</text><polygon fill="#A80036" points="1108,504.0137,1118,508.0137,1108,512.0137,1112,508.0137" style="stroke:#A80036;stroke-width:1.0;"/><line style="stroke:#A80036;stroke-width:1.0;" x1="270.5" x2="1114" y1="508.0137" y2="508.0137"/><text fill="#000000" font-family="sans-serif" font-size="13" font-weight="bold" lengthAdjust="spacing" textLength="18" x="277.5" y="503.2715">11</text><text fill="#000000" font-family="sans-serif" font-size="13" lengthAdjust="spacing" textLength="60" x="299.5" y="503.2715">getCode()</text><polygon fill="#A80036" points="281.5,533.3242,271.5,537.3242,281.5,541.3242,277.5,537.3242" style="stroke:#A80036;stroke-width:1.0;"/><line style="stroke:#A80036;stroke-width:1.0;stroke-dasharray:2.0,2.0;" x1="275.5" x2="1124" y1="537.3242" y2="537.3242"/><text fill="#000000" font-family="sans-serif" font-size="13" font-weight="bold" lengthAdjust="spacing" textLength="18" x="287.5" y="532.582">12</text><text fill="#000000" font-family="sans-serif" font-size="13" lengthAdjust="spacing" textLength="30" x="309.5" y="532.582">code</text><polygon fill="#A80036" points="1108,562.6348,1118,566.6348,1108,570.6348,1112,566.6348" style="stroke:#A80036;stroke-width:1.0;"/><line style="stroke:#A80036;stroke-width:1.0;" x1="270.5" x2="1114" y1="566.6348" y2="566.6348"/><text fill="#000000" font-family="sans-serif" font-size="13" font-weight="bold" lengthAdjust="spacing" textLength="18" x="277.5" y="561.8926">13</text><text fill="#000000" font-family="sans-serif" font-size="13" lengthAdjust="spacing" textLength="101" x="299.5" y="561.8926">getDescription()</text><polygon fill="#A80036" points="281.5,591.9453,271.5,595.9453,281.5,599.9453,277.5,595.9453" style="stroke:#A80036;stroke-width:1.0;"/><line style="stroke:#A80036;stroke-width:1.0;stroke-dasharray:2.0,2.0;" x1="275.5" x2="1124" y1="595.9453" y2="595.9453"/><text fill="#000000" font-family="sans-serif" font-size="13" font-weight="bold" lengthAdjust="spacing" textLength="18" x="287.5" y="591.2031">14</text><text fill="#000000" font-family="sans-serif" font-size="13" lengthAdjust="spacing" textLength="71" x="309.5" y="591.2031">description</text><polygon fill="#A80036" points="62.5,621.2559,52.5,625.2559,62.5,629.2559,58.5,625.2559" style="stroke:#A80036;stroke-width:1.0;"/><line style="stroke:#A80036;stroke-width:1.0;stroke-dasharray:2.0,2.0;" x1="56.5" x2="264.5" y1="625.2559" y2="625.2559"/><text fill="#000000" font-family="sans-serif" font-size="13" font-weight="bold" lengthAdjust="spacing" textLength="18" x="68.5" y="620.5137">15</text><text fill="#000000" font-family="sans-serif" font-size="13" lengthAdjust="spacing" textLength="163" x="90.5" y="620.5137">shows code + description</text><!--MD5=[b7ba2b2a42be65f866a7e1777aa43cdd]
@startuml
'https://plantuml.com/sequence-diagram

autoactivate on
autonumber

actor "Person" as User
participant ":ListCategoryView" as System
participant ":ListCategoryController" as Ctrl
participant ":Person" as Person
participant "container:CategoryListRepository" as Container
participant "list:List<Category>" as List
participant "cat:Category" as Category

activate User

User -> System: asks to list categories
System -> Ctrl: getAll()
Ctrl -> Person: getCategoriesContainer()
Person - -> Ctrl: container
Ctrl -> Container: getAll()
Container - -> List**: create()
Container -> List: insert(existingCategories)
note over List: adds each category in \n the "existingCategories"
List - -> Container: ok
Container - -> Ctrl: list
Ctrl - -> System: list
loop for each 'cat' in 'list'
    System -> Category: getCode()
    Category - -> System: code
    System -> Category: getDescription()
    Category - -> System: description
    System - -> User: shows code + description
end loop

@enduml

@startuml

autoactivate on
autonumber

actor "Person" as User
participant ":ListCategoryView" as System
participant ":ListCategoryController" as Ctrl
participant ":Person" as Person
participant "container:CategoryListRepository" as Container
participant "list:List<Category>" as List
participant "cat:Category" as Category

activate User

User -> System: asks to list categories
System -> Ctrl: getAll()
Ctrl -> Person: getCategoriesService()
Person - -> Ctrl: container
Ctrl -> Container: getAll()
Container - -> List**: create()
Container -> List: insert(existingCategories)
note over List: adds each category in \n the "existingCategories"
List - -> Container: ok
Container - -> Ctrl: list
Ctrl - -> System: list
loop for each 'cat' in 'list'
    System -> Category: getCode()
    Category - -> System: code
    System -> Category: getDescription()
    Category - -> System: description
    System - -> User: shows code + description
end loop

@enduml

PlantUML version 1.2021.7(Sun May 23 13:40:07 WEST 2021)
(GPL source distribution)
Java Runtime: OpenJDK Runtime Environment
JVM: OpenJDK 64-Bit Server VM
Default Encoding: UTF-8
Language: en
Country: PT
--></g></svg>