<?xml version="1.0" encoding="UTF-8" standalone="no"?><svg xmlns="http://www.w3.org/2000/svg" xmlns:xlink="http://www.w3.org/1999/xlink" contentScriptType="application/ecmascript" contentStyleType="text/css" height="1229px" preserveAspectRatio="none" style="width:2129px;height:1229px;background:#FFFFFF;" version="1.1" viewBox="0 0 2129 1229" width="2129px" zoomAndPan="magnify"><defs><filter height="300%" id="fhc2vka2alag3" width="300%" x="-1" y="-1"><feGaussianBlur result="blurOut" stdDeviation="2.0"/><feColorMatrix in="blurOut" result="blurOut2" type="matrix" values="0 0 0 0 0 0 0 0 0 0 0 0 0 0 0 0 0 0 .4 0"/><feOffset dx="4.0" dy="4.0" in="blurOut2" result="blurOut3"/><feBlend in="SourceGraphic" in2="blurOut3" mode="normal"/></filter></defs><g><rect fill="#FFFFFF" filter="url(#fhc2vka2alag3)" height="1126.2695" style="stroke:#A80036;stroke-width:1.0;" width="10" x="49" y="50.4883"/><rect fill="#FFFFFF" filter="url(#fhc2vka2alag3)" height="1095.959" style="stroke:#A80036;stroke-width:1.0;" width="10" x="192.5" y="71.7988"/><rect fill="#FFFFFF" filter="url(#fhc2vka2alag3)" height="40.3105" style="stroke:#A80036;stroke-width:1.0;" width="10" x="197.5" y="1091.1367"/><rect fill="#FFFFFF" filter="url(#fhc2vka2alag3)" height="913.4063" style="stroke:#A80036;stroke-width:1.0;" width="10" x="403.5" y="140.4199"/><rect fill="#FFFFFF" filter="url(#fhc2vka2alag3)" height="133.4199" style="stroke:#A80036;stroke-width:1.0;" width="10" x="584.5" y="169.7305"/><rect fill="#FFFFFF" filter="url(#fhc2vka2alag3)" height="87.9316" style="stroke:#A80036;stroke-width:1.0;" width="10" x="790" y="332.4609"/><rect fill="#FFFFFF" filter="url(#fhc2vka2alag3)" height="29.3105" style="stroke:#A80036;stroke-width:1.0;" width="10" x="985.5" y="199.041"/><rect fill="#FFFFFF" filter="url(#fhc2vka2alag3)" height="29.3105" style="stroke:#A80036;stroke-width:1.0;" width="10" x="1186" y="361.7715"/><rect fill="#FFFFFF" filter="url(#fhc2vka2alag3)" height="29.3105" style="stroke:#A80036;stroke-width:1.0;" width="10" x="1501.5" y="591.123"/><rect fill="#FFFFFF" filter="url(#fhc2vka2alag3)" height="29.3105" style="stroke:#A80036;stroke-width:1.0;" width="10" x="1501.5" y="649.7441"/><rect fill="#FFFFFF" filter="url(#fhc2vka2alag3)" height="529.3242" style="stroke:#A80036;stroke-width:1.0;" width="10" x="1653.5" y="449.7031"/><rect fill="#FFFFFF" filter="url(#fhc2vka2alag3)" height="320.2832" style="stroke:#A80036;stroke-width:1.0;" width="10" x="1658.5" y="556.8125"/><rect fill="#FFFFFF" filter="url(#fhc2vka2alag3)" height="29.3105" style="stroke:#A80036;stroke-width:1.0;" width="10" x="1804.5" y="913.4063"/><rect fill="#FFFFFF" filter="url(#fhc2vka2alag3)" height="29.3105" style="stroke:#A80036;stroke-width:1.0;" width="10" x="1920.5" y="753.8535"/><rect fill="#FFFFFF" filter="url(#fhc2vka2alag3)" height="29.3105" style="stroke:#A80036;stroke-width:1.0;" width="10" x="1920.5" y="812.4746"/><rect fill="#FFFFFF" filter="url(#fhc2vka2alag3)" height="440.5254" style="stroke:#000000;stroke-width:2.0;" width="543" x="1444.5" y="510.1914"/><line style="stroke:#A80036;stroke-width:1.0;stroke-dasharray:5.0,5.0;" x1="54" x2="54" y1="40.4883" y2="1185.7578"/><line style="stroke:#A80036;stroke-width:1.0;stroke-dasharray:5.0,5.0;" x1="197" x2="197" y1="40.4883" y2="1185.7578"/><line style="stroke:#A80036;stroke-width:1.0;stroke-dasharray:5.0,5.0;" x1="408.5" x2="408.5" y1="40.4883" y2="1185.7578"/><line style="stroke:#A80036;stroke-width:1.0;stroke-dasharray:5.0,5.0;" x1="589" x2="589" y1="40.4883" y2="1185.7578"/><line style="stroke:#A80036;stroke-width:1.0;stroke-dasharray:5.0,5.0;" x1="794.5" x2="794.5" y1="269.0957" y2="1185.7578"/><line style="stroke:#A80036;stroke-width:1.0;stroke-dasharray:5.0,5.0;" x1="990.5" x2="990.5" y1="40.4883" y2="1185.7578"/><line style="stroke:#A80036;stroke-width:1.0;stroke-dasharray:5.0,5.0;" x1="1190.5" x2="1190.5" y1="40.4883" y2="1185.7578"/><line style="stroke:#A80036;stroke-width:1.0;stroke-dasharray:5.0,5.0;" x1="1369.5" x2="1369.5" y1="40.4883" y2="1185.7578"/><line style="stroke:#A80036;stroke-width:1.0;stroke-dasharray:5.0,5.0;" x1="1506.5" x2="1506.5" y1="40.4883" y2="1185.7578"/><line style="stroke:#A80036;stroke-width:1.0;stroke-dasharray:5.0,5.0;" x1="1658.5" x2="1658.5" y1="40.4883" y2="1185.7578"/><line style="stroke:#A80036;stroke-width:1.0;stroke-dasharray:5.0,5.0;" x1="1809.5" x2="1809.5" y1="490.4473" y2="1185.7578"/><line style="stroke:#A80036;stroke-width:1.0;stroke-dasharray:5.0,5.0;" x1="1925.5" x2="1925.5" y1="719.7988" y2="1185.7578"/><line style="stroke:#A80036;stroke-width:1.0;stroke-dasharray:5.0,5.0;" x1="2053.5" x2="2053.5" y1="1019.7715" y2="1185.7578"/><rect fill="#FEFECE" filter="url(#fhc2vka2alag3)" height="30.4883" style="stroke:#A80036;stroke-width:1.5;" width="94" x="5" y="5"/><text fill="#000000" font-family="sans-serif" font-size="14" lengthAdjust="spacing" textLength="80" x="12" y="25.5352">:HTTPClient</text><rect fill="#FEFECE" filter="url(#fhc2vka2alag3)" height="30.4883" style="stroke:#A80036;stroke-width:1.5;" width="94" x="5" y="1184.7578"/><text fill="#000000" font-family="sans-serif" font-size="14" lengthAdjust="spacing" textLength="80" x="12" y="1205.293">:HTTPClient</text><rect fill="#FEFECE" filter="url(#fhc2vka2alag3)" height="30.4883" style="stroke:#A80036;stroke-width:1.5;" width="165" x="113" y="5"/><text fill="#000000" font-family="sans-serif" font-size="14" lengthAdjust="spacing" textLength="151" x="120" y="25.5352">handler:RouteHandler</text><rect fill="#FEFECE" filter="url(#fhc2vka2alag3)" height="30.4883" style="stroke:#A80036;stroke-width:1.5;" width="165" x="113" y="1184.7578"/><text fill="#000000" font-family="sans-serif" font-size="14" lengthAdjust="spacing" textLength="151" x="120" y="1205.293">handler:RouteHandler</text><rect fill="#FEFECE" filter="url(#fhc2vka2alag3)" height="30.4883" style="stroke:#A80036;stroke-width:1.5;" width="150" x="331.5" y="5"/><text fill="#000000" font-family="sans-serif" font-size="14" lengthAdjust="spacing" textLength="136" x="338.5" y="25.5352">:CategoryController</text><rect fill="#FEFECE" filter="url(#fhc2vka2alag3)" height="30.4883" style="stroke:#A80036;stroke-width:1.5;" width="150" x="331.5" y="1184.7578"/><text fill="#000000" font-family="sans-serif" font-size="14" lengthAdjust="spacing" textLength="136" x="338.5" y="1205.293">:CategoryController</text><rect fill="#FEFECE" filter="url(#fhc2vka2alag3)" height="30.4883" style="stroke:#A80036;stroke-width:1.5;" width="65" x="555" y="5"/><text fill="#000000" font-family="sans-serif" font-size="14" lengthAdjust="spacing" textLength="51" x="562" y="25.5352">:Person</text><rect fill="#FEFECE" filter="url(#fhc2vka2alag3)" height="30.4883" style="stroke:#A80036;stroke-width:1.5;" width="65" x="555" y="1184.7578"/><text fill="#000000" font-family="sans-serif" font-size="14" lengthAdjust="spacing" textLength="51" x="562" y="1205.293">:Person</text><rect fill="#FEFECE" filter="url(#fhc2vka2alag3)" height="30.4883" style="stroke:#A80036;stroke-width:1.5;" width="175" x="705.5" y="1184.7578"/><text fill="#000000" font-family="sans-serif" font-size="14" lengthAdjust="spacing" textLength="161" x="712.5" y="1205.293">service:CategoryService</text><rect fill="#FEFECE" filter="url(#fhc2vka2alag3)" height="30.4883" style="stroke:#A80036;stroke-width:1.5;" width="188" x="894.5" y="5"/><text fill="#000000" font-family="sans-serif" font-size="14" lengthAdjust="spacing" textLength="174" x="901.5" y="25.5352">factory:RepositoryFactory</text><rect fill="#FEFECE" filter="url(#fhc2vka2alag3)" height="30.4883" style="stroke:#A80036;stroke-width:1.5;" width="188" x="894.5" y="1184.7578"/><text fill="#000000" font-family="sans-serif" font-size="14" lengthAdjust="spacing" textLength="174" x="901.5" y="1205.293">factory:RepositoryFactory</text><rect fill="#FEFECE" filter="url(#fhc2vka2alag3)" height="30.4883" style="stroke:#A80036;stroke-width:1.5;" width="185" x="1096.5" y="5"/><text fill="#000000" font-family="sans-serif" font-size="14" lengthAdjust="spacing" textLength="171" x="1103.5" y="25.5352">repo:CategoryRepository</text><rect fill="#FEFECE" filter="url(#fhc2vka2alag3)" height="30.4883" style="stroke:#A80036;stroke-width:1.5;" width="185" x="1096.5" y="1184.7578"/><text fill="#000000" font-family="sans-serif" font-size="14" lengthAdjust="spacing" textLength="171" x="1103.5" y="1205.293">repo:CategoryRepository</text><rect fill="#FEFECE" filter="url(#fhc2vka2alag3)" height="30.4883" style="stroke:#A80036;stroke-width:1.5;" width="145" x="1295.5" y="5"/><text fill="#000000" font-family="sans-serif" font-size="14" lengthAdjust="spacing" textLength="131" x="1302.5" y="25.5352">list:List&lt;Category&gt;</text><rect fill="#FEFECE" filter="url(#fhc2vka2alag3)" height="30.4883" style="stroke:#A80036;stroke-width:1.5;" width="145" x="1295.5" y="1184.7578"/><text fill="#000000" font-family="sans-serif" font-size="14" lengthAdjust="spacing" textLength="131" x="1302.5" y="1205.293">list:List&lt;Category&gt;</text><rect fill="#FEFECE" filter="url(#fhc2vka2alag3)" height="30.4883" style="stroke:#A80036;stroke-width:1.5;" width="100" x="1454.5" y="5"/><text fill="#000000" font-family="sans-serif" font-size="14" lengthAdjust="spacing" textLength="86" x="1461.5" y="25.5352">cat:Category</text><rect fill="#FEFECE" filter="url(#fhc2vka2alag3)" height="30.4883" style="stroke:#A80036;stroke-width:1.5;" width="100" x="1454.5" y="1184.7578"/><text fill="#000000" font-family="sans-serif" font-size="14" lengthAdjust="spacing" textLength="86" x="1461.5" y="1205.293">cat:Category</text><rect fill="#FEFECE" filter="url(#fhc2vka2alag3)" height="30.4883" style="stroke:#A80036;stroke-width:1.5;" width="128" x="1592.5" y="5"/><text fill="#000000" font-family="sans-serif" font-size="14" lengthAdjust="spacing" textLength="114" x="1599.5" y="25.5352">CategoryMapper</text><rect fill="#FEFECE" filter="url(#fhc2vka2alag3)" height="30.4883" style="stroke:#A80036;stroke-width:1.5;" width="128" x="1592.5" y="1184.7578"/><text fill="#000000" font-family="sans-serif" font-size="14" lengthAdjust="spacing" textLength="114" x="1599.5" y="1205.293">CategoryMapper</text><rect fill="#FEFECE" filter="url(#fhc2vka2alag3)" height="30.4883" style="stroke:#A80036;stroke-width:1.5;" width="104" x="1755.5" y="1184.7578"/><text fill="#000000" font-family="sans-serif" font-size="14" lengthAdjust="spacing" textLength="90" x="1762.5" y="1205.293">jsonObj:JSON</text><rect fill="#FEFECE" filter="url(#fhc2vka2alag3)" height="30.4883" style="stroke:#A80036;stroke-width:1.5;" width="100" x="1873.5" y="1184.7578"/><text fill="#000000" font-family="sans-serif" font-size="14" lengthAdjust="spacing" textLength="86" x="1880.5" y="1205.293">catJson:JSON</text><rect fill="#FEFECE" filter="url(#fhc2vka2alag3)" height="30.4883" style="stroke:#A80036;stroke-width:1.5;" width="128" x="1987.5" y="1184.7578"/><text fill="#000000" font-family="sans-serif" font-size="14" lengthAdjust="spacing" textLength="114" x="1994.5" y="1205.293">result:HttpResult</text><rect fill="#FFFFFF" filter="url(#fhc2vka2alag3)" height="1126.2695" style="stroke:#A80036;stroke-width:1.0;" width="10" x="49" y="50.4883"/><rect fill="#FFFFFF" filter="url(#fhc2vka2alag3)" height="1095.959" style="stroke:#A80036;stroke-width:1.0;" width="10" x="192.5" y="71.7988"/><rect fill="#FFFFFF" filter="url(#fhc2vka2alag3)" height="40.3105" style="stroke:#A80036;stroke-width:1.0;" width="10" x="197.5" y="1091.1367"/><rect fill="#FFFFFF" filter="url(#fhc2vka2alag3)" height="913.4063" style="stroke:#A80036;stroke-width:1.0;" width="10" x="403.5" y="140.4199"/><rect fill="#FFFFFF" filter="url(#fhc2vka2alag3)" height="133.4199" style="stroke:#A80036;stroke-width:1.0;" width="10" x="584.5" y="169.7305"/><rect fill="#FFFFFF" filter="url(#fhc2vka2alag3)" height="87.9316" style="stroke:#A80036;stroke-width:1.0;" width="10" x="790" y="332.4609"/><rect fill="#FFFFFF" filter="url(#fhc2vka2alag3)" height="29.3105" style="stroke:#A80036;stroke-width:1.0;" width="10" x="985.5" y="199.041"/><rect fill="#FFFFFF" filter="url(#fhc2vka2alag3)" height="29.3105" style="stroke:#A80036;stroke-width:1.0;" width="10" x="1186" y="361.7715"/><rect fill="#FFFFFF" filter="url(#fhc2vka2alag3)" height="29.3105" style="stroke:#A80036;stroke-width:1.0;" width="10" x="1501.5" y="591.123"/><rect fill="#FFFFFF" filter="url(#fhc2vka2alag3)" height="29.3105" style="stroke:#A80036;stroke-width:1.0;" width="10" x="1501.5" y="649.7441"/><rect fill="#FFFFFF" filter="url(#fhc2vka2alag3)" height="529.3242" style="stroke:#A80036;stroke-width:1.0;" width="10" x="1653.5" y="449.7031"/><rect fill="#FFFFFF" filter="url(#fhc2vka2alag3)" height="320.2832" style="stroke:#A80036;stroke-width:1.0;" width="10" x="1658.5" y="556.8125"/><rect fill="#FFFFFF" filter="url(#fhc2vka2alag3)" height="29.3105" style="stroke:#A80036;stroke-width:1.0;" width="10" x="1804.5" y="913.4063"/><rect fill="#FFFFFF" filter="url(#fhc2vka2alag3)" height="29.3105" style="stroke:#A80036;stroke-width:1.0;" width="10" x="1920.5" y="753.8535"/><rect fill="#FFFFFF" filter="url(#fhc2vka2alag3)" height="29.3105" style="stroke:#A80036;stroke-width:1.0;" width="10" x="1920.5" y="812.4746"/><polygon fill="#A80036" points="180.5,67.7988,190.5,71.7988,180.5,75.7988,184.5,71.7988" style="stroke:#A80036;stroke-width:1.0;"/><line style="stroke:#A80036;stroke-width:1.0;" x1="59" x2="186.5" y1="71.7988" y2="71.7988"/><text fill="#000000" font-family="sans-serif" font-size="13" font-weight="bold" lengthAdjust="spacing" textLength="9" x="66" y="67.0566">1</text><text fill="#000000" font-family="sans-serif" font-size="13" lengthAdjust="spacing" textLength="96" x="79" y="67.0566">GET/categories</text><path d="M114,84.7988 L114,109.7988 L276,109.7988 L276,94.7988 L266,84.7988 L114,84.7988 " fill="#FBFB77" filter="url(#fhc2vka2alag3)" style="stroke:#A80036;stroke-width:1.0;"/><path d="M266,84.7988 L266,94.7988 L276,94.7988 L266,84.7988 " fill="#FBFB77" style="stroke:#A80036;stroke-width:1.0;"/><text fill="#000000" font-family="sans-serif" font-size="13" lengthAdjust="spacing" textLength="141" x="120" y="102.3672">after doing some stuff</text><polygon fill="#A80036" points="391.5,136.4199,401.5,140.4199,391.5,144.4199,395.5,140.4199" style="stroke:#A80036;stroke-width:1.0;"/><line style="stroke:#A80036;stroke-width:1.0;" x1="202.5" x2="397.5" y1="140.4199" y2="140.4199"/><text fill="#000000" font-family="sans-serif" font-size="13" font-weight="bold" lengthAdjust="spacing" textLength="9" x="209.5" y="135.6777">2</text><text fill="#000000" font-family="sans-serif" font-size="13" lengthAdjust="spacing" textLength="45" x="222.5" y="135.6777">getAll()</text><polygon fill="#A80036" points="572.5,165.7305,582.5,169.7305,572.5,173.7305,576.5,169.7305" style="stroke:#A80036;stroke-width:1.0;"/><line style="stroke:#A80036;stroke-width:1.0;" x1="413.5" x2="578.5" y1="169.7305" y2="169.7305"/><text fill="#000000" font-family="sans-serif" font-size="13" font-weight="bold" lengthAdjust="spacing" textLength="9" x="420.5" y="164.9883">3</text><text fill="#000000" font-family="sans-serif" font-size="13" lengthAdjust="spacing" textLength="139" x="433.5" y="164.9883">getCategoriesService()</text><polygon fill="#A80036" points="973.5,195.041,983.5,199.041,973.5,203.041,977.5,199.041" style="stroke:#A80036;stroke-width:1.0;"/><line style="stroke:#A80036;stroke-width:1.0;" x1="594.5" x2="979.5" y1="199.041" y2="199.041"/><text fill="#000000" font-family="sans-serif" font-size="13" font-weight="bold" lengthAdjust="spacing" textLength="9" x="601.5" y="194.2988">4</text><text fill="#000000" font-family="sans-serif" font-size="13" lengthAdjust="spacing" textLength="162" x="614.5" y="194.2988">getCategoriesRepository()</text><polygon fill="#A80036" points="605.5,224.3516,595.5,228.3516,605.5,232.3516,601.5,228.3516" style="stroke:#A80036;stroke-width:1.0;"/><line style="stroke:#A80036;stroke-width:1.0;stroke-dasharray:2.0,2.0;" x1="599.5" x2="989.5" y1="228.3516" y2="228.3516"/><text fill="#000000" font-family="sans-serif" font-size="13" font-weight="bold" lengthAdjust="spacing" textLength="9" x="611.5" y="223.6094">5</text><text fill="#000000" font-family="sans-serif" font-size="13" lengthAdjust="spacing" textLength="28" x="624.5" y="223.6094">repo</text><polygon fill="#A80036" points="693.5,253.6621,703.5,257.6621,693.5,261.6621,697.5,257.6621" style="stroke:#A80036;stroke-width:1.0;"/><line style="stroke:#A80036;stroke-width:1.0;stroke-dasharray:2.0,2.0;" x1="594.5" x2="699.5" y1="257.6621" y2="257.6621"/><text fill="#000000" font-family="sans-serif" font-size="13" font-weight="bold" lengthAdjust="spacing" textLength="9" x="601.5" y="252.9199">6</text><text fill="#000000" font-family="sans-serif" font-size="13" lengthAdjust="spacing" textLength="74" x="614.5" y="252.9199">create(repo)</text><rect fill="#FEFECE" filter="url(#fhc2vka2alag3)" height="30.4883" style="stroke:#A80036;stroke-width:1.5;" width="175" x="705.5" y="236.3516"/><text fill="#000000" font-family="sans-serif" font-size="14" lengthAdjust="spacing" textLength="161" x="712.5" y="256.8867">service:CategoryService</text><polygon fill="#A80036" points="424.5,299.1504,414.5,303.1504,424.5,307.1504,420.5,303.1504" style="stroke:#A80036;stroke-width:1.0;"/><line style="stroke:#A80036;stroke-width:1.0;stroke-dasharray:2.0,2.0;" x1="418.5" x2="588.5" y1="303.1504" y2="303.1504"/><text fill="#000000" font-family="sans-serif" font-size="13" font-weight="bold" lengthAdjust="spacing" textLength="9" x="430.5" y="298.4082">7</text><text fill="#000000" font-family="sans-serif" font-size="13" lengthAdjust="spacing" textLength="44" x="443.5" y="298.4082">service</text><polygon fill="#A80036" points="778,328.4609,788,332.4609,778,336.4609,782,332.4609" style="stroke:#A80036;stroke-width:1.0;"/><line style="stroke:#A80036;stroke-width:1.0;" x1="413.5" x2="784" y1="332.4609" y2="332.4609"/><text fill="#000000" font-family="sans-serif" font-size="13" font-weight="bold" lengthAdjust="spacing" textLength="9" x="420.5" y="327.7188">8</text><text fill="#000000" font-family="sans-serif" font-size="13" lengthAdjust="spacing" textLength="45" x="433.5" y="327.7188">getAll()</text><polygon fill="#A80036" points="1174,357.7715,1184,361.7715,1174,365.7715,1178,361.7715" style="stroke:#A80036;stroke-width:1.0;"/><line style="stroke:#A80036;stroke-width:1.0;" x1="800" x2="1180" y1="361.7715" y2="361.7715"/><text fill="#000000" font-family="sans-serif" font-size="13" font-weight="bold" lengthAdjust="spacing" textLength="9" x="807" y="357.0293">9</text><text fill="#000000" font-family="sans-serif" font-size="13" lengthAdjust="spacing" textLength="45" x="820" y="357.0293">getAll()</text><polygon fill="#A80036" points="811,387.082,801,391.082,811,395.082,807,391.082" style="stroke:#A80036;stroke-width:1.0;"/><line style="stroke:#A80036;stroke-width:1.0;stroke-dasharray:2.0,2.0;" x1="805" x2="1190" y1="391.082" y2="391.082"/><text fill="#000000" font-family="sans-serif" font-size="13" font-weight="bold" lengthAdjust="spacing" textLength="18" x="817" y="386.3398">10</text><text fill="#000000" font-family="sans-serif" font-size="13" lengthAdjust="spacing" textLength="20" x="839" y="386.3398">list</text><polygon fill="#A80036" points="424.5,416.3926,414.5,420.3926,424.5,424.3926,420.5,420.3926" style="stroke:#A80036;stroke-width:1.0;"/><line style="stroke:#A80036;stroke-width:1.0;stroke-dasharray:2.0,2.0;" x1="418.5" x2="794" y1="420.3926" y2="420.3926"/><text fill="#000000" font-family="sans-serif" font-size="13" font-weight="bold" lengthAdjust="spacing" textLength="18" x="430.5" y="415.6504">11</text><text fill="#000000" font-family="sans-serif" font-size="13" lengthAdjust="spacing" textLength="20" x="452.5" y="415.6504">list</text><polygon fill="#A80036" points="1641.5,445.7031,1651.5,449.7031,1641.5,453.7031,1645.5,449.7031" style="stroke:#A80036;stroke-width:1.0;"/><line style="stroke:#A80036;stroke-width:1.0;" x1="413.5" x2="1647.5" y1="449.7031" y2="449.7031"/><text fill="#000000" font-family="sans-serif" font-size="13" font-weight="bold" lengthAdjust="spacing" textLength="18" x="420.5" y="444.9609">12</text><text fill="#000000" font-family="sans-serif" font-size="13" lengthAdjust="spacing" textLength="68" x="442.5" y="444.9609">toJson(list)</text><polygon fill="#A80036" points="1743.5,475.0137,1753.5,479.0137,1743.5,483.0137,1747.5,479.0137" style="stroke:#A80036;stroke-width:1.0;"/><line style="stroke:#A80036;stroke-width:1.0;stroke-dasharray:2.0,2.0;" x1="1663.5" x2="1749.5" y1="479.0137" y2="479.0137"/><text fill="#000000" font-family="sans-serif" font-size="13" font-weight="bold" lengthAdjust="spacing" textLength="18" x="1670.5" y="474.2715">13</text><text fill="#000000" font-family="sans-serif" font-size="13" lengthAdjust="spacing" textLength="46" x="1692.5" y="474.2715">create()</text><rect fill="#FEFECE" filter="url(#fhc2vka2alag3)" height="30.4883" style="stroke:#A80036;stroke-width:1.5;" width="104" x="1755.5" y="457.7031"/><text fill="#000000" font-family="sans-serif" font-size="14" lengthAdjust="spacing" textLength="90" x="1762.5" y="478.2383">jsonObj:JSON</text><path d="M1444.5,510.1914 L1518.5,510.1914 L1518.5,517.1914 L1508.5,527.1914 L1444.5,527.1914 L1444.5,510.1914 " fill="#EEEEEE" style="stroke:#000000;stroke-width:1.0;"/><rect fill="none" height="440.5254" style="stroke:#000000;stroke-width:2.0;" width="543" x="1444.5" y="510.1914"/><text fill="#000000" font-family="sans-serif" font-size="13" font-weight="bold" lengthAdjust="spacing" textLength="29" x="1459.5" y="523.7598">loop</text><text fill="#000000" font-family="sans-serif" font-size="11" font-weight="bold" lengthAdjust="spacing" textLength="123" x="1533.5" y="522.8262">[for each 'cat' in 'list']</text><line style="stroke:#A80036;stroke-width:1.0;" x1="1663.5" x2="1710.5" y1="543.8125" y2="543.8125"/><line style="stroke:#A80036;stroke-width:1.0;" x1="1710.5" x2="1710.5" y1="543.8125" y2="556.8125"/><line style="stroke:#A80036;stroke-width:1.0;" x1="1669.5" x2="1710.5" y1="556.8125" y2="556.8125"/><polygon fill="#A80036" points="1679.5,552.8125,1669.5,556.8125,1679.5,560.8125,1675.5,556.8125" style="stroke:#A80036;stroke-width:1.0;"/><text fill="#000000" font-family="sans-serif" font-size="13" font-weight="bold" lengthAdjust="spacing" textLength="18" x="1675.5" y="539.0703">14</text><text fill="#000000" font-family="sans-serif" font-size="13" lengthAdjust="spacing" textLength="67" x="1697.5" y="539.0703">toJson(cat)</text><polygon fill="#A80036" points="1522.5,587.123,1512.5,591.123,1522.5,595.123,1518.5,591.123" style="stroke:#A80036;stroke-width:1.0;"/><line style="stroke:#A80036;stroke-width:1.0;" x1="1516.5" x2="1657.5" y1="591.123" y2="591.123"/><text fill="#000000" font-family="sans-serif" font-size="13" font-weight="bold" lengthAdjust="spacing" textLength="18" x="1528.5" y="586.3809">15</text><text fill="#000000" font-family="sans-serif" font-size="13" lengthAdjust="spacing" textLength="60" x="1550.5" y="586.3809">getCode()</text><polygon fill="#A80036" points="1646.5,616.4336,1656.5,620.4336,1646.5,624.4336,1650.5,620.4336" style="stroke:#A80036;stroke-width:1.0;"/><line style="stroke:#A80036;stroke-width:1.0;stroke-dasharray:2.0,2.0;" x1="1506.5" x2="1652.5" y1="620.4336" y2="620.4336"/><text fill="#000000" font-family="sans-serif" font-size="13" font-weight="bold" lengthAdjust="spacing" textLength="18" x="1513.5" y="615.6914">16</text><text fill="#000000" font-family="sans-serif" font-size="13" lengthAdjust="spacing" textLength="30" x="1535.5" y="615.6914">code</text><polygon fill="#A80036" points="1522.5,645.7441,1512.5,649.7441,1522.5,653.7441,1518.5,649.7441" style="stroke:#A80036;stroke-width:1.0;"/><line style="stroke:#A80036;stroke-width:1.0;" x1="1516.5" x2="1657.5" y1="649.7441" y2="649.7441"/><text fill="#000000" font-family="sans-serif" font-size="13" font-weight="bold" lengthAdjust="spacing" textLength="18" x="1528.5" y="645.002">17</text><text fill="#000000" font-family="sans-serif" font-size="13" lengthAdjust="spacing" textLength="101" x="1550.5" y="645.002">getDescription()</text><polygon fill="#A80036" points="1646.5,675.0547,1656.5,679.0547,1646.5,683.0547,1650.5,679.0547" style="stroke:#A80036;stroke-width:1.0;"/><line style="stroke:#A80036;stroke-width:1.0;stroke-dasharray:2.0,2.0;" x1="1506.5" x2="1652.5" y1="679.0547" y2="679.0547"/><text fill="#000000" font-family="sans-serif" font-size="13" font-weight="bold" lengthAdjust="spacing" textLength="18" x="1513.5" y="674.3125">18</text><text fill="#000000" font-family="sans-serif" font-size="13" lengthAdjust="spacing" textLength="71" x="1535.5" y="674.3125">description</text><polygon fill="#A80036" points="1861.5,704.3652,1871.5,708.3652,1861.5,712.3652,1865.5,708.3652" style="stroke:#A80036;stroke-width:1.0;"/><line style="stroke:#A80036;stroke-width:1.0;stroke-dasharray:2.0,2.0;" x1="1668.5" x2="1867.5" y1="708.3652" y2="708.3652"/><text fill="#000000" font-family="sans-serif" font-size="13" font-weight="bold" lengthAdjust="spacing" textLength="18" x="1675.5" y="703.623">19</text><text fill="#000000" font-family="sans-serif" font-size="13" lengthAdjust="spacing" textLength="46" x="1697.5" y="703.623">create()</text><rect fill="#FEFECE" filter="url(#fhc2vka2alag3)" height="30.4883" style="stroke:#A80036;stroke-width:1.5;" width="100" x="1873.5" y="687.0547"/><text fill="#000000" font-family="sans-serif" font-size="14" lengthAdjust="spacing" textLength="86" x="1880.5" y="707.5898">catJson:JSON</text><polygon fill="#A80036" points="1908.5,749.8535,1918.5,753.8535,1908.5,757.8535,1912.5,753.8535" style="stroke:#A80036;stroke-width:1.0;"/><line style="stroke:#A80036;stroke-width:1.0;" x1="1668.5" x2="1914.5" y1="753.8535" y2="753.8535"/><text fill="#000000" font-family="sans-serif" font-size="13" font-weight="bold" lengthAdjust="spacing" textLength="18" x="1675.5" y="749.1113">20</text><text fill="#000000" font-family="sans-serif" font-size="13" lengthAdjust="spacing" textLength="89" x="1697.5" y="749.1113">setCode(code)</text><polygon fill="#A80036" points="1679.5,779.1641,1669.5,783.1641,1679.5,787.1641,1675.5,783.1641" style="stroke:#A80036;stroke-width:1.0;"/><line style="stroke:#A80036;stroke-width:1.0;stroke-dasharray:2.0,2.0;" x1="1673.5" x2="1924.5" y1="783.1641" y2="783.1641"/><text fill="#000000" font-family="sans-serif" font-size="13" font-weight="bold" lengthAdjust="spacing" textLength="18" x="1685.5" y="778.4219">21</text><text fill="#000000" font-family="sans-serif" font-size="13" lengthAdjust="spacing" textLength="0" x="1711.5" y="778.4219"/><polygon fill="#A80036" points="1908.5,808.4746,1918.5,812.4746,1908.5,816.4746,1912.5,812.4746" style="stroke:#A80036;stroke-width:1.0;"/><line style="stroke:#A80036;stroke-width:1.0;" x1="1668.5" x2="1914.5" y1="812.4746" y2="812.4746"/><text fill="#000000" font-family="sans-serif" font-size="13" font-weight="bold" lengthAdjust="spacing" textLength="18" x="1675.5" y="807.7324">22</text><text fill="#000000" font-family="sans-serif" font-size="13" lengthAdjust="spacing" textLength="171" x="1697.5" y="807.7324">setDescription(description)</text><polygon fill="#A80036" points="1679.5,837.7852,1669.5,841.7852,1679.5,845.7852,1675.5,841.7852" style="stroke:#A80036;stroke-width:1.0;"/><line style="stroke:#A80036;stroke-width:1.0;stroke-dasharray:2.0,2.0;" x1="1673.5" x2="1924.5" y1="841.7852" y2="841.7852"/><text fill="#000000" font-family="sans-serif" font-size="13" font-weight="bold" lengthAdjust="spacing" textLength="18" x="1685.5" y="837.043">23</text><text fill="#000000" font-family="sans-serif" font-size="13" lengthAdjust="spacing" textLength="0" x="1711.5" y="837.043"/><line style="stroke:#A80036;stroke-width:1.0;stroke-dasharray:2.0,2.0;" x1="1668.5" x2="1710.5" y1="876.0957" y2="876.0957"/><line style="stroke:#A80036;stroke-width:1.0;stroke-dasharray:2.0,2.0;" x1="1710.5" x2="1710.5" y1="876.0957" y2="889.0957"/><line style="stroke:#A80036;stroke-width:1.0;stroke-dasharray:2.0,2.0;" x1="1663.5" x2="1710.5" y1="889.0957" y2="889.0957"/><polygon fill="#A80036" points="1673.5,885.0957,1663.5,889.0957,1673.5,893.0957,1669.5,889.0957" style="stroke:#A80036;stroke-width:1.0;"/><text fill="#000000" font-family="sans-serif" font-size="13" font-weight="bold" lengthAdjust="spacing" textLength="18" x="1675.5" y="871.3535">24</text><text fill="#000000" font-family="sans-serif" font-size="13" lengthAdjust="spacing" textLength="46" x="1697.5" y="871.3535">catJson</text><polygon fill="#A80036" points="1792.5,909.4063,1802.5,913.4063,1792.5,917.4063,1796.5,913.4063" style="stroke:#A80036;stroke-width:1.0;"/><line style="stroke:#A80036;stroke-width:1.0;" x1="1663.5" x2="1798.5" y1="913.4063" y2="913.4063"/><text fill="#000000" font-family="sans-serif" font-size="13" font-weight="bold" lengthAdjust="spacing" textLength="18" x="1670.5" y="908.6641">25</text><text fill="#000000" font-family="sans-serif" font-size="13" lengthAdjust="spacing" textLength="77" x="1692.5" y="908.6641">add(catJson)</text><polygon fill="#A80036" points="1674.5,938.7168,1664.5,942.7168,1674.5,946.7168,1670.5,942.7168" style="stroke:#A80036;stroke-width:1.0;"/><line style="stroke:#A80036;stroke-width:1.0;stroke-dasharray:2.0,2.0;" x1="1668.5" x2="1808.5" y1="942.7168" y2="942.7168"/><text fill="#000000" font-family="sans-serif" font-size="13" font-weight="bold" lengthAdjust="spacing" textLength="18" x="1680.5" y="937.9746">26</text><text fill="#000000" font-family="sans-serif" font-size="13" lengthAdjust="spacing" textLength="0" x="1706.5" y="937.9746"/><polygon fill="#A80036" points="424.5,975.0273,414.5,979.0273,424.5,983.0273,420.5,979.0273" style="stroke:#A80036;stroke-width:1.0;"/><line style="stroke:#A80036;stroke-width:1.0;stroke-dasharray:2.0,2.0;" x1="418.5" x2="1657.5" y1="979.0273" y2="979.0273"/><text fill="#000000" font-family="sans-serif" font-size="13" font-weight="bold" lengthAdjust="spacing" textLength="18" x="430.5" y="974.2852">27</text><text fill="#000000" font-family="sans-serif" font-size="13" lengthAdjust="spacing" textLength="49" x="452.5" y="974.2852">jsonObj</text><polygon fill="#A80036" points="1975.5,1004.3379,1985.5,1008.3379,1975.5,1012.3379,1979.5,1008.3379" style="stroke:#A80036;stroke-width:1.0;"/><line style="stroke:#A80036;stroke-width:1.0;stroke-dasharray:2.0,2.0;" x1="413.5" x2="1981.5" y1="1008.3379" y2="1008.3379"/><text fill="#000000" font-family="sans-serif" font-size="13" font-weight="bold" lengthAdjust="spacing" textLength="18" x="420.5" y="1003.5957">28</text><text fill="#000000" font-family="sans-serif" font-size="13" lengthAdjust="spacing" textLength="127" x="442.5" y="1003.5957">create(200, jsonObj)</text><rect fill="#FEFECE" filter="url(#fhc2vka2alag3)" height="30.4883" style="stroke:#A80036;stroke-width:1.5;" width="128" x="1987.5" y="987.0273"/><text fill="#000000" font-family="sans-serif" font-size="14" lengthAdjust="spacing" textLength="114" x="1994.5" y="1007.5625">result:HttpResult</text><polygon fill="#A80036" points="213.5,1049.8262,203.5,1053.8262,213.5,1057.8262,209.5,1053.8262" style="stroke:#A80036;stroke-width:1.0;"/><line style="stroke:#A80036;stroke-width:1.0;stroke-dasharray:2.0,2.0;" x1="207.5" x2="407.5" y1="1053.8262" y2="1053.8262"/><text fill="#000000" font-family="sans-serif" font-size="13" font-weight="bold" lengthAdjust="spacing" textLength="18" x="219.5" y="1049.084">29</text><text fill="#000000" font-family="sans-serif" font-size="13" lengthAdjust="spacing" textLength="36" x="241.5" y="1049.084">result</text><line style="stroke:#A80036;stroke-width:1.0;" x1="202.5" x2="249.5" y1="1078.1367" y2="1078.1367"/><line style="stroke:#A80036;stroke-width:1.0;" x1="249.5" x2="249.5" y1="1078.1367" y2="1091.1367"/><line style="stroke:#A80036;stroke-width:1.0;" x1="208.5" x2="249.5" y1="1091.1367" y2="1091.1367"/><polygon fill="#A80036" points="218.5,1087.1367,208.5,1091.1367,218.5,1095.1367,214.5,1091.1367" style="stroke:#A80036;stroke-width:1.0;"/><text fill="#000000" font-family="sans-serif" font-size="13" font-weight="bold" lengthAdjust="spacing" textLength="18" x="214.5" y="1073.3945">30</text><text fill="#000000" font-family="sans-serif" font-size="13" lengthAdjust="spacing" textLength="165" x="236.5" y="1073.3945">setHttpResult(resp, result)</text><line style="stroke:#A80036;stroke-width:1.0;stroke-dasharray:2.0,2.0;" x1="207.5" x2="249.5" y1="1130.4473" y2="1130.4473"/><line style="stroke:#A80036;stroke-width:1.0;stroke-dasharray:2.0,2.0;" x1="249.5" x2="249.5" y1="1130.4473" y2="1143.4473"/><line style="stroke:#A80036;stroke-width:1.0;stroke-dasharray:2.0,2.0;" x1="202.5" x2="249.5" y1="1143.4473" y2="1143.4473"/><polygon fill="#A80036" points="212.5,1139.4473,202.5,1143.4473,212.5,1147.4473,208.5,1143.4473" style="stroke:#A80036;stroke-width:1.0;"/><text fill="#000000" font-family="sans-serif" font-size="13" font-weight="bold" lengthAdjust="spacing" textLength="18" x="214.5" y="1125.7051">31</text><text fill="#000000" font-family="sans-serif" font-size="13" lengthAdjust="spacing" textLength="0" x="240.5" y="1125.7051"/><polygon fill="#A80036" points="70,1163.7578,60,1167.7578,70,1171.7578,66,1167.7578" style="stroke:#A80036;stroke-width:1.0;"/><line style="stroke:#A80036;stroke-width:1.0;stroke-dasharray:2.0,2.0;" x1="64" x2="196.5" y1="1167.7578" y2="1167.7578"/><text fill="#000000" font-family="sans-serif" font-size="13" font-weight="bold" lengthAdjust="spacing" textLength="18" x="76" y="1163.0156">32</text><text fill="#000000" font-family="sans-serif" font-size="13" lengthAdjust="spacing" textLength="27" x="98" y="1163.0156">resp</text><!--MD5=[fae569f65010be549bf838183e83240f]
@startuml
'https://plantuml.com/sequence-diagram

autoactivate on
autonumber

participant ":HTTPClient" as HTTPClient
participant "handler:RouteHandler" as System
participant ":CategoryController" as Ctrl
participant ":Person" as Person
participant "service:CategoryService" as Service
participant "factory:RepositoryFactory" as Factory
participant "repo:CategoryRepository" as Repo
participant "list:List<Category>" as List
participant "cat:Category" as Category
participant "CategoryMapper" as Mapper
participant "jsonObj:JSON" as Json
participant "catJson:JSON" as JsonCat
participant "result:HttpResult" as Result

activate HTTPClient

HTTPClient -> System: GET/categories
note over System: after doing some stuff
System -> Ctrl: getAll()
Ctrl -> Person: getCategoriesService()
Person -> Factory : getCategoriesRepository()
Factory - -> Person: repo
Person - ->Service**: create(repo)
Person - -> Ctrl: service

Ctrl -> Service: getAll()
Service -> Repo: getAll()
Repo - -> Service: list
Service - -> Ctrl: list

Ctrl -> Mapper: toJson(list)
Mapper - -> Json**: create()
loop for each 'cat' in 'list'
    Mapper -> Mapper: toJson(cat)
    Mapper -> Category: getCode()
    Category - -> Mapper: code
    Mapper -> Category: getDescription()
    Category - -> Mapper: description
    Mapper - -> JsonCat**: create()
    Mapper -> JsonCat: setCode(code)
    JsonCat - -> Mapper
    Mapper -> JsonCat: setDescription(description)
    JsonCat - -> Mapper
    Mapper - -> Mapper: catJson
    Mapper -> Json: add(catJson)
    Json - -> Mapper:
end loop
Mapper - -> Ctrl: jsonObj
Ctrl - -> Result**: create(200, jsonObj)
Ctrl - -> System: result
System -> System: setHttpResult(resp, result)
System - -> System:
System - -> HTTPClient: resp



@enduml

@startuml

autoactivate on
autonumber

participant ":HTTPClient" as HTTPClient
participant "handler:RouteHandler" as System
participant ":CategoryController" as Ctrl
participant ":Person" as Person
participant "service:CategoryService" as Service
participant "factory:RepositoryFactory" as Factory
participant "repo:CategoryRepository" as Repo
participant "list:List<Category>" as List
participant "cat:Category" as Category
participant "CategoryMapper" as Mapper
participant "jsonObj:JSON" as Json
participant "catJson:JSON" as JsonCat
participant "result:HttpResult" as Result

activate HTTPClient

HTTPClient -> System: GET/categories
note over System: after doing some stuff
System -> Ctrl: getAll()
Ctrl -> Person: getCategoriesService()
Person -> Factory : getCategoriesRepository()
Factory - -> Person: repo
Person - ->Service**: create(repo)
Person - -> Ctrl: service

Ctrl -> Service: getAll()
Service -> Repo: getAll()
Repo - -> Service: list
Service - -> Ctrl: list

Ctrl -> Mapper: toJson(list)
Mapper - -> Json**: create()
loop for each 'cat' in 'list'
    Mapper -> Mapper: toJson(cat)
    Mapper -> Category: getCode()
    Category - -> Mapper: code
    Mapper -> Category: getDescription()
    Category - -> Mapper: description
    Mapper - -> JsonCat**: create()
    Mapper -> JsonCat: setCode(code)
    JsonCat - -> Mapper
    Mapper -> JsonCat: setDescription(description)
    JsonCat - -> Mapper
    Mapper - -> Mapper: catJson
    Mapper -> Json: add(catJson)
    Json - -> Mapper:
end loop
Mapper - -> Ctrl: jsonObj
Ctrl - -> Result**: create(200, jsonObj)
Ctrl - -> System: result
System -> System: setHttpResult(resp, result)
System - -> System:
System - -> HTTPClient: resp



@enduml

PlantUML version 1.2021.7(Sun May 23 13:40:07 WEST 2021)
(GPL source distribution)
Java Runtime: OpenJDK Runtime Environment
JVM: OpenJDK 64-Bit Server VM
Default Encoding: UTF-8
Language: en
Country: PT
--></g></svg>