<?xml version="1.0" encoding="UTF-8" standalone="no"?><svg xmlns="http://www.w3.org/2000/svg" xmlns:xlink="http://www.w3.org/1999/xlink" contentScriptType="application/ecmascript" contentStyleType="text/css" height="251px" preserveAspectRatio="none" style="width:306px;height:251px;background:#FFFFFF;" version="1.1" viewBox="0 0 306 251" width="306px" zoomAndPan="magnify"><defs><filter height="300%" id="fiome5zwg6fu7" width="300%" x="-1" y="-1"><feGaussianBlur result="blurOut" stdDeviation="2.0"/><feColorMatrix in="blurOut" result="blurOut2" type="matrix" values="0 0 0 0 0 0 0 0 0 0 0 0 0 0 0 0 0 0 .4 0"/><feOffset dx="4.0" dy="4.0" in="blurOut2" result="blurOut3"/><feBlend in="SourceGraphic" in2="blurOut3" mode="normal"/></filter></defs><g><rect fill="#FFFFFF" filter="url(#fiome5zwg6fu7)" height="59.6211" style="stroke:#A80036;stroke-width:1.0;" width="10" x="26.5" y="98.4883"/><rect fill="#FFFFFF" filter="url(#fiome5zwg6fu7)" height="29.3105" style="stroke:#A80036;stroke-width:1.0;" width="10" x="256.5" y="119.7988"/><line style="stroke:#A80036;stroke-width:1.0;stroke-dasharray:5.0,5.0;" x1="31" x2="31" y1="88.4883" y2="167.1094"/><line style="stroke:#A80036;stroke-width:1.0;stroke-dasharray:5.0,5.0;" x1="261.5" x2="261.5" y1="88.4883" y2="167.1094"/><text fill="#000000" font-family="sans-serif" font-size="14" lengthAdjust="spacing" textLength="47" x="5" y="85.5352">Person</text><ellipse cx="31.5" cy="15" fill="#FEFECE" filter="url(#fiome5zwg6fu7)" rx="8" ry="8" style="stroke:#A80036;stroke-width:2.0;"/><path d="M31.5,23 L31.5,50 M18.5,31 L44.5,31 M31.5,50 L18.5,65 M31.5,50 L44.5,65 " fill="none" filter="url(#fiome5zwg6fu7)" style="stroke:#A80036;stroke-width:2.0;"/><text fill="#000000" font-family="sans-serif" font-size="14" lengthAdjust="spacing" textLength="47" x="5" y="179.6445">Person</text><ellipse cx="31.5" cy="192.5977" fill="#FEFECE" filter="url(#fiome5zwg6fu7)" rx="8" ry="8" style="stroke:#A80036;stroke-width:2.0;"/><path d="M31.5,200.5977 L31.5,227.5977 M18.5,208.5977 L44.5,208.5977 M31.5,227.5977 L18.5,242.5977 M31.5,227.5977 L44.5,242.5977 " fill="none" filter="url(#fiome5zwg6fu7)" style="stroke:#A80036;stroke-width:2.0;"/><rect fill="#FEFECE" filter="url(#fiome5zwg6fu7)" height="30.4883" style="stroke:#A80036;stroke-width:1.5;" width="66" x="226.5" y="53"/><text fill="#000000" font-family="sans-serif" font-size="14" lengthAdjust="spacing" textLength="52" x="233.5" y="73.5352">:System</text><rect fill="#FEFECE" filter="url(#fiome5zwg6fu7)" height="30.4883" style="stroke:#A80036;stroke-width:1.5;" width="66" x="226.5" y="166.1094"/><text fill="#000000" font-family="sans-serif" font-size="14" lengthAdjust="spacing" textLength="52" x="233.5" y="186.6445">:System</text><rect fill="#FFFFFF" filter="url(#fiome5zwg6fu7)" height="59.6211" style="stroke:#A80036;stroke-width:1.0;" width="10" x="26.5" y="98.4883"/><rect fill="#FFFFFF" filter="url(#fiome5zwg6fu7)" height="29.3105" style="stroke:#A80036;stroke-width:1.0;" width="10" x="256.5" y="119.7988"/><polygon fill="#A80036" points="244.5,115.7988,254.5,119.7988,244.5,123.7988,248.5,119.7988" style="stroke:#A80036;stroke-width:1.0;"/><line style="stroke:#A80036;stroke-width:1.0;" x1="36.5" x2="250.5" y1="119.7988" y2="119.7988"/><text fill="#000000" font-family="sans-serif" font-size="13" font-weight="bold" lengthAdjust="spacing" textLength="9" x="43.5" y="115.0566">1</text><text fill="#000000" font-family="sans-serif" font-size="13" lengthAdjust="spacing" textLength="139" x="56.5" y="115.0566">asks to list categories</text><polygon fill="#A80036" points="47.5,145.1094,37.5,149.1094,47.5,153.1094,43.5,149.1094" style="stroke:#A80036;stroke-width:1.0;"/><line style="stroke:#A80036;stroke-width:1.0;stroke-dasharray:2.0,2.0;" x1="41.5" x2="260.5" y1="149.1094" y2="149.1094"/><text fill="#000000" font-family="sans-serif" font-size="13" font-weight="bold" lengthAdjust="spacing" textLength="9" x="53.5" y="144.3672">2</text><text fill="#000000" font-family="sans-serif" font-size="13" lengthAdjust="spacing" textLength="183" x="66.5" y="144.3672">shows all existing categories</text><!--MD5=[da49a35cfa35b3fad900f0a062178ac9]
@startuml
'https://plantuml.com/sequence-diagram

autoactivate on
autonumber

actor "Person" as Person
participant ":System" as System

activate Person

Person -> System: asks to list categories
System - -> Person: shows all existing categories

@enduml

@startuml

autoactivate on
autonumber

actor "Person" as Person
participant ":System" as System

activate Person

Person -> System: asks to list categories
System - -> Person: shows all existing categories

@enduml

PlantUML version 1.2021.7(Sun May 23 13:40:07 WEST 2021)
(GPL source distribution)
Java Runtime: OpenJDK Runtime Environment
JVM: OpenJDK 64-Bit Server VM
Default Encoding: UTF-8
Language: en
Country: PT
--></g></svg>