@startuml
'https://plantuml.com/class-diagram
left to right direction

hide circle
skinparam classAttributeIconSize 0

class CategoryController {
    +getAll(): HttpResult
}

class CategoryMapper {
    +toJson(Category cat): json
    +toJson(List<Category> cats): json
}

class HttpResult {
    -status: HttpStatus
    -result: json
    HttpResult();
    HttpResult(HttpStatus status);
    HttpResult(HttpStatus status, const wstring &message);
    HttpResult(HttpStatus status, const string &message);
    HttpResult(HttpStatus status, const char *message);
    HttpResult(HttpStatus status, const json &result);
}

CategoryController ..> CategoryMapper
CategoryController ..> HttpResult
@enduml