@startuml
'https://plantuml.com/sequence-diagram

autoactivate on
autonumber

actor "Person" as User
participant ":ListCategoryView" as System
participant ":ListCategoryController" as Ctrl
participant ":Person" as Person
participant "service:CategoryService" as Service
participant "factory:RepositoryFactory" as Factory
participant "repo:CategoryRepository" as Repo
participant "list:List<Category>" as List
participant "cat:Category" as Category

activate User

User -> System: asks to list categories
System -> Ctrl: getAll()
Ctrl -> Person: getCategoriesService()
Person -> Factory : getCategoriesRepository()
Factory --> Person: repo
Person -->Service**: create(repo)
Person --> Ctrl: service

Ctrl -> Service: getAll()
Service -> Repo: getAll()
Repo --> Service: list
Service --> Ctrl: list
Ctrl --> System: list
loop for each 'cat' in 'list'
    System -> Category: getCode()
    Category --> System: code
    System -> Category: getDescription()
    Category --> System: description
    System --> User: shows code + description
end loop

@enduml