<?xml version="1.0" encoding="UTF-8" standalone="no"?><svg xmlns="http://www.w3.org/2000/svg" xmlns:xlink="http://www.w3.org/1999/xlink" contentScriptType="application/ecmascript" contentStyleType="text/css" height="266px" preserveAspectRatio="none" style="width:486px;height:266px;background:#FFFFFF;" version="1.1" viewBox="0 0 486 266" width="486px" zoomAndPan="magnify"><defs><filter height="300%" id="f1s3rwgoe0el8t" width="300%" x="-1" y="-1"><feGaussianBlur result="blurOut" stdDeviation="2.0"/><feColorMatrix in="blurOut" result="blurOut2" type="matrix" values="0 0 0 0 0 0 0 0 0 0 0 0 0 0 0 0 0 0 .4 0"/><feOffset dx="4.0" dy="4.0" in="blurOut2" result="blurOut3"/><feBlend in="SourceGraphic" in2="blurOut3" mode="normal"/></filter></defs><g><!--MD5=[09ce52be0ee7de43c61b6e2d59bf108b]
class Person--><rect codeLine="8" fill="#FEFECE" filter="url(#f1s3rwgoe0el8t)" height="45.0879" id="Person" style="stroke:#A80036;stroke-width:1.5;" width="47" x="201.5" y="39.5"/><text fill="#000000" font-family="sans-serif" font-size="12" lengthAdjust="spacing" textLength="39" x="205.5" y="56.1016">Person</text><line style="stroke:#A80036;stroke-width:1.5;" x1="202.5" x2="247.5" y1="63.6328" y2="63.6328"/><text fill="#000000" font-family="sans-serif" font-size="11" lengthAdjust="spacing" textLength="35" x="207.5" y="78.2676">-name</text><!--MD5=[b34797a66dc35cbf1d65f7e3ca75530e]
class Task--><rect codeLine="12" fill="#FEFECE" filter="url(#f1s3rwgoe0el8t)" height="109.8633" id="Task" style="stroke:#A80036;stroke-width:1.5;" width="128" x="344" y="7"/><text fill="#000000" font-family="sans-serif" font-size="12" lengthAdjust="spacing" textLength="28" x="394" y="23.6016">Task</text><line style="stroke:#A80036;stroke-width:1.5;" x1="345" x2="471" y1="31.1328" y2="31.1328"/><text fill="#000000" font-family="sans-serif" font-size="11" lengthAdjust="spacing" textLength="57" x="350" y="45.7676">-reference</text><text fill="#000000" font-family="sans-serif" font-size="11" lengthAdjust="spacing" textLength="26" x="350" y="58.7227">-title</text><text fill="#000000" font-family="sans-serif" font-size="11" lengthAdjust="spacing" textLength="113" x="350" y="71.6777">-informalDescription</text><text fill="#000000" font-family="sans-serif" font-size="11" lengthAdjust="spacing" textLength="116" x="350" y="84.6328">-technicalDescription</text><text fill="#000000" font-family="sans-serif" font-size="11" lengthAdjust="spacing" textLength="92" x="350" y="97.5879">-effortEstimation</text><text fill="#000000" font-family="sans-serif" font-size="11" lengthAdjust="spacing" textLength="51" x="350" y="110.543">-deadline</text><!--MD5=[a96594a83e2ecdc78cbf17c2ddf01934]
class Category--><rect codeLine="21" fill="#FEFECE" filter="url(#f1s3rwgoe0el8t)" height="58.043" id="Category" style="stroke:#A80036;stroke-width:1.5;" width="79" x="276.5" y="194"/><text fill="#000000" font-family="sans-serif" font-size="12" lengthAdjust="spacing" textLength="51" x="290.5" y="210.6016">Category</text><line style="stroke:#A80036;stroke-width:1.5;" x1="277.5" x2="354.5" y1="218.1328" y2="218.1328"/><text fill="#000000" font-family="sans-serif" font-size="11" lengthAdjust="spacing" textLength="32" x="282.5" y="232.7676">-code</text><text fill="#000000" font-family="sans-serif" font-size="11" lengthAdjust="spacing" textLength="67" x="282.5" y="245.7227">-description</text><!--MD5=[9bcdbda858e5bea0ee19368a445e5d5a]
class JoeProfiles--><rect codeLine="26" fill="#FEFECE" filter="url(#f1s3rwgoe0el8t)" height="32.1328" id="JoeProfiles" style="stroke:#A80036;stroke-width:1.5;" width="66" x="7" y="46"/><text fill="#000000" font-family="sans-serif" font-size="12" lengthAdjust="spacing" textLength="60" x="10" y="62.6016">JoeProfiles</text><line style="stroke:#A80036;stroke-width:1.5;" x1="8" x2="72" y1="70.1328" y2="70.1328"/><!--MD5=[5dce7317adc87d979763006d2dedd108]
link JoeProfiles to Person--><path codeLine="29" d="M73.07,62 C109.97,62 168.74,62 201.31,62 " fill="none" id="JoeProfiles-Person" style="stroke:#A80036;stroke-width:1.0;"/><polygon fill="#000000" points="90.25,50.6553,99.2951,53.5942,99.2951,47.7163,90.25,50.6553" style="stroke:#000000;stroke-width:1.0;"/><text fill="#000000" font-family="sans-serif" font-size="13" lengthAdjust="spacing" textLength="79" x="104.25" y="55.5684">registered in</text><text fill="#000000" font-family="sans-serif" font-size="13" lengthAdjust="spacing" textLength="8" x="81.1791" y="57.9472">1</text><text fill="#000000" font-family="sans-serif" font-size="13" lengthAdjust="spacing" textLength="6" x="187.4698" y="57.3979">*</text><!--MD5=[8665a39baf447c773b5d79c4dc09e86a]
link Person to Category--><path codeLine="30" d="M233.14,84.62 C241.42,105.58 255.25,137.95 271,164 C277.13,174.14 284.75,184.57 291.96,193.74 " fill="none" id="Person-Category" style="stroke:#A80036;stroke-width:1.0;"/><polygon fill="#000000" points="278.3725,160.0566,276.6676,150.7,271.4936,153.4891,278.3725,160.0566" style="stroke:#000000;stroke-width:1.0;"/><text fill="#000000" font-family="sans-serif" font-size="13" lengthAdjust="spacing" textLength="62" x="285" y="160.5684">maintains</text><text fill="#000000" font-family="sans-serif" font-size="13" lengthAdjust="spacing" textLength="8" x="226.2526" y="105.313">1</text><text fill="#000000" font-family="sans-serif" font-size="13" lengthAdjust="spacing" textLength="22" x="262.295" y="183.2964">0..*</text><!--MD5=[b54da3a895b8dec754ede7c5ab9e2c21]
link Person to Task--><path codeLine="31" d="M248.55,62 C272.49,62 310.65,62 343.63,62 " fill="none" id="Person-Task" style="stroke:#A80036;stroke-width:1.0;"/><polygon fill="#000000" points="275.75,50.6553,266.7049,47.7163,266.7049,53.5942,275.75,50.6553" style="stroke:#000000;stroke-width:1.0;"/><text fill="#000000" font-family="sans-serif" font-size="13" lengthAdjust="spacing" textLength="46" x="279.75" y="55.5684">defines</text><text fill="#000000" font-family="sans-serif" font-size="13" lengthAdjust="spacing" textLength="8" x="256.6428" y="57.3979">1</text><text fill="#000000" font-family="sans-serif" font-size="13" lengthAdjust="spacing" textLength="22" x="313.8575" y="75.3649">0..*</text><!--MD5=[85b93ec21fe3232efb6e895d06aa0361]
link Task to Category--><path codeLine="32" d="M378.7,117.01 C370.23,132.28 360.88,148.87 352,164 C346.24,173.81 339.74,184.42 333.86,193.85 " fill="none" id="Task-Category" style="stroke:#A80036;stroke-width:1.0;"/><polygon fill="#000000" points="363.4799,159.9738,370.5771,153.6428,365.5004,150.6803,363.4799,159.9738" style="stroke:#000000;stroke-width:1.0;"/><text fill="#000000" font-family="sans-serif" font-size="13" lengthAdjust="spacing" textLength="89" x="375" y="160.5684">categorized in</text><text fill="#000000" font-family="sans-serif" font-size="13" lengthAdjust="spacing" textLength="6" x="368.5616" y="137.6161">*</text><text fill="#000000" font-family="sans-serif" font-size="13" lengthAdjust="spacing" textLength="8" x="328.8919" y="183.4304">1</text><!--MD5=[71b9d9f90aa6dc89b1bfd3ff41cd6c57]
@startuml
'https://plantuml.com/class-diagram
skinparam classAttributeIconSize 0
hide circle
hide methods



class Person {
    - name
}

class Task {
    - reference
    - title
    - informalDescription
    - technicalDescription
    - effortEstimation
    - deadline
}

class Category {
    - code
    - description
}

class JoeProfiles {
}

Person "*" -left- - "1" JoeProfiles:  registered in >
Person "1" -right- - "0..*" Category:  maintains >
Person "1" -right- - "0..*" Task:  defines >
Task "*" - - "1" Category:  categorized in >


@enduml

@startuml
skinparam classAttributeIconSize 0
hide circle
hide methods



class Person {
    - name
}

class Task {
    - reference
    - title
    - informalDescription
    - technicalDescription
    - effortEstimation
    - deadline
}

class Category {
    - code
    - description
}

class JoeProfiles {
}

Person "*" -left- - "1" JoeProfiles:  registered in >
Person "1" -right- - "0..*" Category:  maintains >
Person "1" -right- - "0..*" Task:  defines >
Task "*" - - "1" Category:  categorized in >


@enduml

PlantUML version 1.2021.7(Sun May 23 13:40:07 WEST 2021)
(GPL source distribution)
Java Runtime: OpenJDK Runtime Environment
JVM: OpenJDK 64-Bit Server VM
Default Encoding: UTF-8
Language: en
Country: PT
--></g></svg>