@startuml
'https://plantuml.com/use-case-diagram

title Use Case Diagram - Updated for Sprint 1

left to right direction

actor :Time: as System
actor :Person: as Person
note bottom: Please notice that \n the actor' name \n has been clarified
actor :Unregistered User: as NotAuthUser


(US01 - To create Category) as (CategoryCreate)
(US02 - To list Categories) as (CategoryList)
(US03 - To update Category Description) as (CategoryDescriptionUpdate)
(US04 - To delete Category) as (CategoryDelete)

(US05 - To create Task) as (TaskCreate)
(US?? - To list Tasks) as (TaskList)
(US?? - To update Task) as (TaskUpdate)
(US?? - To delete Task) as (TaskDelete)

(US?? - To get a Report) as (GetReport)

(US?? - To alert for approaching tasks completion) as (TaskAlert)

(US?? - To consult system goals) as (SystemGoals)
(US?? - To consult system credits) as (SystemCredits)


NotAuthUser --> SystemGoals
NotAuthUser --> SystemCredits

Person --> CategoryCreate
Person --> CategoryList
Person --> CategoryDescriptionUpdate
note right: Please notice the \n changes made here
Person --> CategoryDelete
Person --> TaskCreate
Person --> TaskList
Person --> TaskUpdate
Person --> TaskDelete
Person --> GetReport

System --> TaskAlert

@enduml