<?xml version="1.0" encoding="UTF-8" standalone="no"?><svg xmlns="http://www.w3.org/2000/svg" xmlns:xlink="http://www.w3.org/1999/xlink" contentScriptType="application/ecmascript" contentStyleType="text/css" height="442px" preserveAspectRatio="none" style="width:445px;height:442px;background:#FFFFFF;" version="1.1" viewBox="0 0 445 442" width="445px" zoomAndPan="magnify"><defs><filter height="300%" id="f1guvkqiliua2f" width="300%" x="-1" y="-1"><feGaussianBlur result="blurOut" stdDeviation="2.0"/><feColorMatrix in="blurOut" result="blurOut2" type="matrix" values="0 0 0 0 0 0 0 0 0 0 0 0 0 0 0 0 0 0 .4 0"/><feOffset dx="4.0" dy="4.0" in="blurOut2" result="blurOut3"/><feBlend in="SourceGraphic" in2="blurOut3" mode="normal"/></filter></defs><g><rect fill="#FFFFFF" filter="url(#f1guvkqiliua2f)" height="250.7949" style="stroke:#A80036;stroke-width:1.0;" width="10" x="26.5" y="98.4883"/><rect fill="#FFFFFF" filter="url(#f1guvkqiliua2f)" height="44.6211" style="stroke:#A80036;stroke-width:1.0;" width="10" x="397.5" y="119.7988"/><rect fill="#FFFFFF" filter="url(#f1guvkqiliua2f)" height="29.3105" style="stroke:#A80036;stroke-width:1.0;" width="10" x="397.5" y="193.7305"/><rect fill="#FFFFFF" filter="url(#f1guvkqiliua2f)" height="29.3105" style="stroke:#A80036;stroke-width:1.0;" width="10" x="397.5" y="252.3516"/><rect fill="#FFFFFF" filter="url(#f1guvkqiliua2f)" height="29.3105" style="stroke:#A80036;stroke-width:1.0;" width="10" x="397.5" y="310.9727"/><line style="stroke:#A80036;stroke-width:1.0;stroke-dasharray:5.0,5.0;" x1="31" x2="31" y1="88.4883" y2="358.2832"/><line style="stroke:#A80036;stroke-width:1.0;stroke-dasharray:5.0,5.0;" x1="402.5" x2="402.5" y1="88.4883" y2="358.2832"/><text fill="#000000" font-family="sans-serif" font-size="14" lengthAdjust="spacing" textLength="47" x="5" y="85.5352">Person</text><ellipse cx="31.5" cy="15" fill="#FEFECE" filter="url(#f1guvkqiliua2f)" rx="8" ry="8" style="stroke:#A80036;stroke-width:2.0;"/><path d="M31.5,23 L31.5,50 M18.5,31 L44.5,31 M31.5,50 L18.5,65 M31.5,50 L44.5,65 " fill="none" filter="url(#f1guvkqiliua2f)" style="stroke:#A80036;stroke-width:2.0;"/><text fill="#000000" font-family="sans-serif" font-size="14" lengthAdjust="spacing" textLength="47" x="5" y="370.8184">Person</text><ellipse cx="31.5" cy="383.7715" fill="#FEFECE" filter="url(#f1guvkqiliua2f)" rx="8" ry="8" style="stroke:#A80036;stroke-width:2.0;"/><path d="M31.5,391.7715 L31.5,418.7715 M18.5,399.7715 L44.5,399.7715 M31.5,418.7715 L18.5,433.7715 M31.5,418.7715 L44.5,433.7715 " fill="none" filter="url(#f1guvkqiliua2f)" style="stroke:#A80036;stroke-width:2.0;"/><rect fill="#FEFECE" filter="url(#f1guvkqiliua2f)" height="30.4883" style="stroke:#A80036;stroke-width:1.5;" width="62" x="369.5" y="53"/><text fill="#000000" font-family="sans-serif" font-size="14" lengthAdjust="spacing" textLength="48" x="376.5" y="73.5352">System</text><rect fill="#FEFECE" filter="url(#f1guvkqiliua2f)" height="30.4883" style="stroke:#A80036;stroke-width:1.5;" width="62" x="369.5" y="357.2832"/><text fill="#000000" font-family="sans-serif" font-size="14" lengthAdjust="spacing" textLength="48" x="376.5" y="377.8184">System</text><rect fill="#FFFFFF" filter="url(#f1guvkqiliua2f)" height="250.7949" style="stroke:#A80036;stroke-width:1.0;" width="10" x="26.5" y="98.4883"/><rect fill="#FFFFFF" filter="url(#f1guvkqiliua2f)" height="44.6211" style="stroke:#A80036;stroke-width:1.0;" width="10" x="397.5" y="119.7988"/><rect fill="#FFFFFF" filter="url(#f1guvkqiliua2f)" height="29.3105" style="stroke:#A80036;stroke-width:1.0;" width="10" x="397.5" y="193.7305"/><rect fill="#FFFFFF" filter="url(#f1guvkqiliua2f)" height="29.3105" style="stroke:#A80036;stroke-width:1.0;" width="10" x="397.5" y="252.3516"/><rect fill="#FFFFFF" filter="url(#f1guvkqiliua2f)" height="29.3105" style="stroke:#A80036;stroke-width:1.0;" width="10" x="397.5" y="310.9727"/><polygon fill="#A80036" points="385.5,115.7988,395.5,119.7988,385.5,123.7988,389.5,119.7988" style="stroke:#A80036;stroke-width:1.0;"/><line style="stroke:#A80036;stroke-width:1.0;" x1="36.5" x2="391.5" y1="119.7988" y2="119.7988"/><text fill="#000000" font-family="sans-serif" font-size="13" font-weight="bold" lengthAdjust="spacing" textLength="9" x="43.5" y="115.0566">1</text><text fill="#000000" font-family="sans-serif" font-size="13" lengthAdjust="spacing" textLength="159" x="56.5" y="115.0566">asks to create a new task</text><polygon fill="#A80036" points="47.5,160.4199,37.5,164.4199,47.5,168.4199,43.5,164.4199" style="stroke:#A80036;stroke-width:1.0;"/><line style="stroke:#A80036;stroke-width:1.0;stroke-dasharray:2.0,2.0;" x1="41.5" x2="401.5" y1="164.4199" y2="164.4199"/><text fill="#000000" font-family="sans-serif" font-size="13" font-weight="bold" lengthAdjust="spacing" textLength="9" x="53.5" y="152.0225">2</text><text fill="#000000" font-family="sans-serif" font-size="13" lengthAdjust="spacing" textLength="324" x="66.5" y="144.3672">requests data (reference, title, informal description,</text><text fill="#000000" font-family="sans-serif" font-size="13" lengthAdjust="spacing" textLength="311" x="66.5" y="159.6777">technical description, effort estimation, deadline)</text><polygon fill="#A80036" points="385.5,189.7305,395.5,193.7305,385.5,197.7305,389.5,193.7305" style="stroke:#A80036;stroke-width:1.0;"/><line style="stroke:#A80036;stroke-width:1.0;" x1="36.5" x2="391.5" y1="193.7305" y2="193.7305"/><text fill="#000000" font-family="sans-serif" font-size="13" font-weight="bold" lengthAdjust="spacing" textLength="9" x="43.5" y="188.9883">3</text><text fill="#000000" font-family="sans-serif" font-size="13" lengthAdjust="spacing" textLength="131" x="56.5" y="188.9883">types requested data</text><polygon fill="#A80036" points="47.5,219.041,37.5,223.041,47.5,227.041,43.5,223.041" style="stroke:#A80036;stroke-width:1.0;"/><line style="stroke:#A80036;stroke-width:1.0;stroke-dasharray:2.0,2.0;" x1="41.5" x2="401.5" y1="223.041" y2="223.041"/><text fill="#000000" font-family="sans-serif" font-size="13" font-weight="bold" lengthAdjust="spacing" textLength="9" x="53.5" y="218.2988">4</text><text fill="#000000" font-family="sans-serif" font-size="13" lengthAdjust="spacing" textLength="302" x="66.5" y="218.2988">shows existing categories and ask to select one</text><polygon fill="#A80036" points="385.5,248.3516,395.5,252.3516,385.5,256.3516,389.5,252.3516" style="stroke:#A80036;stroke-width:1.0;"/><line style="stroke:#A80036;stroke-width:1.0;" x1="36.5" x2="391.5" y1="252.3516" y2="252.3516"/><text fill="#000000" font-family="sans-serif" font-size="13" font-weight="bold" lengthAdjust="spacing" textLength="9" x="43.5" y="247.6094">5</text><text fill="#000000" font-family="sans-serif" font-size="13" lengthAdjust="spacing" textLength="178" x="56.5" y="247.6094">select the intended category</text><polygon fill="#A80036" points="47.5,277.6621,37.5,281.6621,47.5,285.6621,43.5,281.6621" style="stroke:#A80036;stroke-width:1.0;"/><line style="stroke:#A80036;stroke-width:1.0;stroke-dasharray:2.0,2.0;" x1="41.5" x2="401.5" y1="281.6621" y2="281.6621"/><text fill="#000000" font-family="sans-serif" font-size="13" font-weight="bold" lengthAdjust="spacing" textLength="9" x="53.5" y="276.9199">6</text><text fill="#000000" font-family="sans-serif" font-size="13" lengthAdjust="spacing" textLength="260" x="66.5" y="276.9199">shows all data and requests confirmation</text><polygon fill="#A80036" points="385.5,306.9727,395.5,310.9727,385.5,314.9727,389.5,310.9727" style="stroke:#A80036;stroke-width:1.0;"/><line style="stroke:#A80036;stroke-width:1.0;" x1="36.5" x2="391.5" y1="310.9727" y2="310.9727"/><text fill="#000000" font-family="sans-serif" font-size="13" font-weight="bold" lengthAdjust="spacing" textLength="9" x="43.5" y="306.2305">7</text><text fill="#000000" font-family="sans-serif" font-size="13" lengthAdjust="spacing" textLength="111" x="56.5" y="306.2305">confirms the data</text><polygon fill="#A80036" points="47.5,336.2832,37.5,340.2832,47.5,344.2832,43.5,340.2832" style="stroke:#A80036;stroke-width:1.0;"/><line style="stroke:#A80036;stroke-width:1.0;stroke-dasharray:2.0,2.0;" x1="41.5" x2="401.5" y1="340.2832" y2="340.2832"/><text fill="#000000" font-family="sans-serif" font-size="13" font-weight="bold" lengthAdjust="spacing" textLength="9" x="53.5" y="335.541">8</text><text fill="#000000" font-family="sans-serif" font-size="13" lengthAdjust="spacing" textLength="167" x="66.5" y="335.541">informs operation success</text><!--MD5=[24c5f86201034290499095bbcdddab6f]
@startuml
'https://plantuml.com/sequence-diagram
autoactivate on
autonumber

actor "Person" as User
participant "System" as System

activate User

User -> System: asks to create a new task
System - -> User: requests data (reference, title, informal description,\ntechnical description, effort estimation, deadline)

User -> System: types requested data
System - -> User: shows existing categories and ask to select one

User -> System: select the intended category
System - -> User: shows all data and requests confirmation

User -> System: confirms the data
System - -> User: informs operation success
@enduml

@startuml
autoactivate on
autonumber

actor "Person" as User
participant "System" as System

activate User

User -> System: asks to create a new task
System - -> User: requests data (reference, title, informal description,\ntechnical description, effort estimation, deadline)

User -> System: types requested data
System - -> User: shows existing categories and ask to select one

User -> System: select the intended category
System - -> User: shows all data and requests confirmation

User -> System: confirms the data
System - -> User: informs operation success
@enduml

PlantUML version 1.2021.7(Sun May 23 13:40:07 WEST 2021)
(GPL source distribution)
Java Runtime: OpenJDK Runtime Environment
JVM: OpenJDK 64-Bit Server VM
Default Encoding: UTF-8
Language: en
Country: PT
--></g></svg>