<?xml version="1.0" encoding="UTF-8" standalone="no"?><svg xmlns="http://www.w3.org/2000/svg" xmlns:xlink="http://www.w3.org/1999/xlink" contentScriptType="application/ecmascript" contentStyleType="text/css" height="1259px" preserveAspectRatio="none" style="width:1841px;height:1259px;background:#FFFFFF;" version="1.1" viewBox="0 0 1841 1259" width="1841px" zoomAndPan="magnify"><defs><filter height="300%" id="f12fofh478tcte" width="300%" x="-1" y="-1"><feGaussianBlur result="blurOut" stdDeviation="2.0"/><feColorMatrix in="blurOut" result="blurOut2" type="matrix" values="0 0 0 0 0 0 0 0 0 0 0 0 0 0 0 0 0 0 .4 0"/><feOffset dx="4.0" dy="4.0" in="blurOut2" result="blurOut3"/><feBlend in="SourceGraphic" in2="blurOut3" mode="normal"/></filter></defs><g><rect fill="#FFFFFF" filter="url(#f12fofh478tcte)" height="1067.2246" style="stroke:#A80036;stroke-width:1.0;" width="10" x="26.5" y="98.4883"/><rect fill="#FFFFFF" filter="url(#f12fofh478tcte)" height="294.416" style="stroke:#A80036;stroke-width:1.0;" width="10" x="406.5" y="119.7988"/><rect fill="#FFFFFF" filter="url(#f12fofh478tcte)" height="394.082" style="stroke:#A80036;stroke-width:1.0;" width="10" x="406.5" y="443.5254"/><rect fill="#FFFFFF" filter="url(#f12fofh478tcte)" height="289.7949" style="stroke:#A80036;stroke-width:1.0;" width="10" x="406.5" y="866.918"/><rect fill="#FFFFFF" filter="url(#f12fofh478tcte)" height="205.1738" style="stroke:#A80036;stroke-width:1.0;" width="10" x="571.5" y="149.1094"/><rect fill="#FFFFFF" filter="url(#f12fofh478tcte)" height="289.9727" style="stroke:#A80036;stroke-width:1.0;" width="10" x="571.5" y="518.3242"/><rect fill="#FFFFFF" filter="url(#f12fofh478tcte)" height="231.1738" style="stroke:#A80036;stroke-width:1.0;" width="10" x="571.5" y="896.2285"/><rect fill="#FFFFFF" filter="url(#f12fofh478tcte)" height="29.3105" style="stroke:#A80036;stroke-width:1.0;" width="10" x="752.5" y="178.4199"/><rect fill="#FFFFFF" filter="url(#f12fofh478tcte)" height="29.3105" style="stroke:#A80036;stroke-width:1.0;" width="10" x="752.5" y="237.041"/><rect fill="#FFFFFF" filter="url(#f12fofh478tcte)" height="231.3516" style="stroke:#A80036;stroke-width:1.0;" width="10" x="848" y="547.6348"/><rect fill="#FFFFFF" filter="url(#f12fofh478tcte)" height="172.5527" style="stroke:#A80036;stroke-width:1.0;" width="10" x="848" y="925.5391"/><rect fill="#FFFFFF" filter="url(#f12fofh478tcte)" height="40.3105" style="stroke:#A80036;stroke-width:1.0;" width="10" x="853" y="962.8496"/><rect fill="#FFFFFF" filter="url(#f12fofh478tcte)" height="29.3105" style="stroke:#A80036;stroke-width:1.0;" width="10" x="978" y="295.6621"/><rect fill="#FFFFFF" filter="url(#f12fofh478tcte)" height="29.3105" style="stroke:#A80036;stroke-width:1.0;" width="10" x="1102.5" y="576.9453"/><rect fill="#FFFFFF" filter="url(#f12fofh478tcte)" height="29.3105" style="stroke:#A80036;stroke-width:1.0;" width="10" x="1226.5" y="1039.4707"/><rect fill="#FFFFFF" filter="url(#f12fofh478tcte)" height="29.3105" style="stroke:#A80036;stroke-width:1.0;" width="10" x="1378.5" y="635.5664"/><line style="stroke:#A80036;stroke-width:1.0;stroke-dasharray:5.0,5.0;" x1="31" x2="31" y1="88.4883" y2="1174.7129"/><line style="stroke:#A80036;stroke-width:1.0;stroke-dasharray:5.0,5.0;" x1="411" x2="411" y1="88.4883" y2="1174.7129"/><line style="stroke:#A80036;stroke-width:1.0;stroke-dasharray:5.0,5.0;" x1="576" x2="576" y1="88.4883" y2="1174.7129"/><line style="stroke:#A80036;stroke-width:1.0;stroke-dasharray:5.0,5.0;" x1="757" x2="757" y1="88.4883" y2="1174.7129"/><line style="stroke:#A80036;stroke-width:1.0;stroke-dasharray:5.0,5.0;" x1="853" x2="853" y1="88.4883" y2="1174.7129"/><line style="stroke:#A80036;stroke-width:1.0;stroke-dasharray:5.0,5.0;" x1="983" x2="983" y1="88.4883" y2="1174.7129"/><line style="stroke:#A80036;stroke-width:1.0;stroke-dasharray:5.0,5.0;" x1="1107" x2="1107" y1="484.2695" y2="1174.7129"/><line style="stroke:#A80036;stroke-width:1.0;stroke-dasharray:5.0,5.0;" x1="1231" x2="1231" y1="88.4883" y2="1174.7129"/><line style="stroke:#A80036;stroke-width:1.0;stroke-dasharray:5.0,5.0;" x1="1383" x2="1383" y1="88.4883" y2="1174.7129"/><line style="stroke:#A80036;stroke-width:1.0;stroke-dasharray:5.0,5.0;" x1="1513" x2="1513" y1="744.9316" y2="1174.7129"/><line style="stroke:#A80036;stroke-width:1.0;stroke-dasharray:5.0,5.0;" x1="1616" x2="1616" y1="88.4883" y2="1174.7129"/><line style="stroke:#A80036;stroke-width:1.0;stroke-dasharray:5.0,5.0;" x1="1754" x2="1754" y1="88.4883" y2="1174.7129"/><text fill="#000000" font-family="sans-serif" font-size="14" lengthAdjust="spacing" textLength="47" x="5" y="85.5352">Person</text><ellipse cx="31.5" cy="15" fill="#FEFECE" filter="url(#f12fofh478tcte)" rx="8" ry="8" style="stroke:#A80036;stroke-width:2.0;"/><path d="M31.5,23 L31.5,50 M18.5,31 L44.5,31 M31.5,50 L18.5,65 M31.5,50 L44.5,65 " fill="none" filter="url(#f12fofh478tcte)" style="stroke:#A80036;stroke-width:2.0;"/><text fill="#000000" font-family="sans-serif" font-size="14" lengthAdjust="spacing" textLength="47" x="5" y="1187.248">Person</text><ellipse cx="31.5" cy="1200.2012" fill="#FEFECE" filter="url(#f12fofh478tcte)" rx="8" ry="8" style="stroke:#A80036;stroke-width:2.0;"/><path d="M31.5,1208.2012 L31.5,1235.2012 M18.5,1216.2012 L44.5,1216.2012 M31.5,1235.2012 L18.5,1250.2012 M31.5,1235.2012 L44.5,1250.2012 " fill="none" filter="url(#f12fofh478tcte)" style="stroke:#A80036;stroke-width:2.0;"/><rect fill="#FEFECE" filter="url(#f12fofh478tcte)" height="30.4883" style="stroke:#A80036;stroke-width:1.5;" width="127" x="346" y="53"/><text fill="#000000" font-family="sans-serif" font-size="14" lengthAdjust="spacing" textLength="113" x="353" y="73.5352">:CreateTaskView</text><rect fill="#FEFECE" filter="url(#f12fofh478tcte)" height="30.4883" style="stroke:#A80036;stroke-width:1.5;" width="127" x="346" y="1173.7129"/><text fill="#000000" font-family="sans-serif" font-size="14" lengthAdjust="spacing" textLength="113" x="353" y="1194.248">:CreateTaskView</text><rect fill="#FEFECE" filter="url(#f12fofh478tcte)" height="30.4883" style="stroke:#A80036;stroke-width:1.5;" width="165" x="492" y="53"/><text fill="#000000" font-family="sans-serif" font-size="14" lengthAdjust="spacing" textLength="151" x="499" y="73.5352">:CreateTaskController</text><rect fill="#FEFECE" filter="url(#f12fofh478tcte)" height="30.4883" style="stroke:#A80036;stroke-width:1.5;" width="165" x="492" y="1173.7129"/><text fill="#000000" font-family="sans-serif" font-size="14" lengthAdjust="spacing" textLength="151" x="499" y="1194.248">:CreateTaskController</text><rect fill="#FEFECE" filter="url(#f12fofh478tcte)" height="30.4883" style="stroke:#A80036;stroke-width:1.5;" width="65" x="723" y="53"/><text fill="#000000" font-family="sans-serif" font-size="14" lengthAdjust="spacing" textLength="51" x="730" y="73.5352">:Person</text><rect fill="#FEFECE" filter="url(#f12fofh478tcte)" height="30.4883" style="stroke:#A80036;stroke-width:1.5;" width="65" x="723" y="1173.7129"/><text fill="#000000" font-family="sans-serif" font-size="14" lengthAdjust="spacing" textLength="51" x="730" y="1194.248">:Person</text><rect fill="#FEFECE" filter="url(#f12fofh478tcte)" height="46.9766" style="stroke:#A80036;stroke-width:1.5;" width="98" x="802" y="36.5117"/><text fill="#000000" font-family="sans-serif" font-size="14" lengthAdjust="spacing" textLength="47" x="827.5" y="57.0469">service</text><text fill="#000000" font-family="sans-serif" font-size="14" lengthAdjust="spacing" textLength="84" x="809" y="73.5352">:TaskService</text><rect fill="#FEFECE" filter="url(#f12fofh478tcte)" height="46.9766" style="stroke:#A80036;stroke-width:1.5;" width="98" x="802" y="1173.7129"/><text fill="#000000" font-family="sans-serif" font-size="14" lengthAdjust="spacing" textLength="47" x="827.5" y="1194.248">service</text><text fill="#000000" font-family="sans-serif" font-size="14" lengthAdjust="spacing" textLength="84" x="809" y="1210.7363">:TaskService</text><rect fill="#FEFECE" filter="url(#f12fofh478tcte)" height="46.9766" style="stroke:#A80036;stroke-width:1.5;" width="124" x="919" y="36.5117"/><text fill="#000000" font-family="sans-serif" font-size="14" lengthAdjust="spacing" textLength="54" x="954" y="57.0469">srvCats:</text><text fill="#000000" font-family="sans-serif" font-size="14" lengthAdjust="spacing" textLength="110" x="926" y="73.5352">CategoryService</text><rect fill="#FEFECE" filter="url(#f12fofh478tcte)" height="46.9766" style="stroke:#A80036;stroke-width:1.5;" width="124" x="919" y="1173.7129"/><text fill="#000000" font-family="sans-serif" font-size="14" lengthAdjust="spacing" textLength="54" x="954" y="1194.248">srvCats:</text><text fill="#000000" font-family="sans-serif" font-size="14" lengthAdjust="spacing" textLength="110" x="926" y="1210.7363">CategoryService</text><rect fill="#FEFECE" filter="url(#f12fofh478tcte)" height="30.4883" style="stroke:#A80036;stroke-width:1.5;" width="97" x="1057" y="1173.7129"/><text fill="#000000" font-family="sans-serif" font-size="14" lengthAdjust="spacing" textLength="83" x="1064" y="1194.248">dto:TaskDto</text><rect fill="#FEFECE" filter="url(#f12fofh478tcte)" height="46.9766" style="stroke:#A80036;stroke-width:1.5;" width="123" x="1168" y="36.5117"/><text fill="#000000" font-family="sans-serif" font-size="14" lengthAdjust="spacing" textLength="71" x="1194" y="57.0469">repoTasks</text><text fill="#000000" font-family="sans-serif" font-size="14" lengthAdjust="spacing" textLength="109" x="1175" y="73.5352">:TaskRepository</text><rect fill="#FEFECE" filter="url(#f12fofh478tcte)" height="46.9766" style="stroke:#A80036;stroke-width:1.5;" width="123" x="1168" y="1173.7129"/><text fill="#000000" font-family="sans-serif" font-size="14" lengthAdjust="spacing" textLength="71" x="1194" y="1194.248">repoTasks</text><text fill="#000000" font-family="sans-serif" font-size="14" lengthAdjust="spacing" textLength="109" x="1175" y="1210.7363">:TaskRepository</text><rect fill="#FEFECE" filter="url(#f12fofh478tcte)" height="46.9766" style="stroke:#A80036;stroke-width:1.5;" width="153" x="1305" y="36.5117"/><text fill="#000000" font-family="sans-serif" font-size="14" lengthAdjust="spacing" textLength="62" x="1350.5" y="57.0469">repoCats</text><text fill="#000000" font-family="sans-serif" font-size="14" lengthAdjust="spacing" textLength="139" x="1312" y="73.5352">:CategoryRepository</text><rect fill="#FEFECE" filter="url(#f12fofh478tcte)" height="46.9766" style="stroke:#A80036;stroke-width:1.5;" width="153" x="1305" y="1173.7129"/><text fill="#000000" font-family="sans-serif" font-size="14" lengthAdjust="spacing" textLength="62" x="1350.5" y="1194.248">repoCats</text><text fill="#000000" font-family="sans-serif" font-size="14" lengthAdjust="spacing" textLength="139" x="1312" y="1210.7363">:CategoryRepository</text><rect fill="#FEFECE" filter="url(#f12fofh478tcte)" height="30.4883" style="stroke:#A80036;stroke-width:1.5;" width="78" x="1472" y="1173.7129"/><text fill="#000000" font-family="sans-serif" font-size="14" lengthAdjust="spacing" textLength="64" x="1479" y="1194.248">task:Task</text><rect fill="#FEFECE" filter="url(#f12fofh478tcte)" height="30.4883" style="stroke:#A80036;stroke-width:1.5;" width="100" x="1564" y="53"/><text fill="#000000" font-family="sans-serif" font-size="14" lengthAdjust="spacing" textLength="86" x="1571" y="73.5352">cat:Category</text><rect fill="#FEFECE" filter="url(#f12fofh478tcte)" height="30.4883" style="stroke:#A80036;stroke-width:1.5;" width="100" x="1564" y="1173.7129"/><text fill="#000000" font-family="sans-serif" font-size="14" lengthAdjust="spacing" textLength="86" x="1571" y="1194.248">cat:Category</text><rect fill="#FEFECE" filter="url(#f12fofh478tcte)" height="46.9766" style="stroke:#A80036;stroke-width:1.5;" width="149" x="1678" y="36.5117"/><text fill="#000000" font-family="sans-serif" font-size="14" lengthAdjust="spacing" textLength="114" x="1695.5" y="57.0469">lstCategoriesDto</text><text fill="#000000" font-family="sans-serif" font-size="14" lengthAdjust="spacing" textLength="135" x="1685" y="73.5352">:List&lt;CategoryDto&gt;</text><rect fill="#FEFECE" filter="url(#f12fofh478tcte)" height="46.9766" style="stroke:#A80036;stroke-width:1.5;" width="149" x="1678" y="1173.7129"/><text fill="#000000" font-family="sans-serif" font-size="14" lengthAdjust="spacing" textLength="114" x="1695.5" y="1194.248">lstCategoriesDto</text><text fill="#000000" font-family="sans-serif" font-size="14" lengthAdjust="spacing" textLength="135" x="1685" y="1210.7363">:List&lt;CategoryDto&gt;</text><rect fill="#FFFFFF" filter="url(#f12fofh478tcte)" height="1067.2246" style="stroke:#A80036;stroke-width:1.0;" width="10" x="26.5" y="98.4883"/><rect fill="#FFFFFF" filter="url(#f12fofh478tcte)" height="294.416" style="stroke:#A80036;stroke-width:1.0;" width="10" x="406.5" y="119.7988"/><rect fill="#FFFFFF" filter="url(#f12fofh478tcte)" height="394.082" style="stroke:#A80036;stroke-width:1.0;" width="10" x="406.5" y="443.5254"/><rect fill="#FFFFFF" filter="url(#f12fofh478tcte)" height="289.7949" style="stroke:#A80036;stroke-width:1.0;" width="10" x="406.5" y="866.918"/><rect fill="#FFFFFF" filter="url(#f12fofh478tcte)" height="205.1738" style="stroke:#A80036;stroke-width:1.0;" width="10" x="571.5" y="149.1094"/><rect fill="#FFFFFF" filter="url(#f12fofh478tcte)" height="289.9727" style="stroke:#A80036;stroke-width:1.0;" width="10" x="571.5" y="518.3242"/><rect fill="#FFFFFF" filter="url(#f12fofh478tcte)" height="231.1738" style="stroke:#A80036;stroke-width:1.0;" width="10" x="571.5" y="896.2285"/><rect fill="#FFFFFF" filter="url(#f12fofh478tcte)" height="29.3105" style="stroke:#A80036;stroke-width:1.0;" width="10" x="752.5" y="178.4199"/><rect fill="#FFFFFF" filter="url(#f12fofh478tcte)" height="29.3105" style="stroke:#A80036;stroke-width:1.0;" width="10" x="752.5" y="237.041"/><rect fill="#FFFFFF" filter="url(#f12fofh478tcte)" height="231.3516" style="stroke:#A80036;stroke-width:1.0;" width="10" x="848" y="547.6348"/><rect fill="#FFFFFF" filter="url(#f12fofh478tcte)" height="172.5527" style="stroke:#A80036;stroke-width:1.0;" width="10" x="848" y="925.5391"/><rect fill="#FFFFFF" filter="url(#f12fofh478tcte)" height="40.3105" style="stroke:#A80036;stroke-width:1.0;" width="10" x="853" y="962.8496"/><rect fill="#FFFFFF" filter="url(#f12fofh478tcte)" height="29.3105" style="stroke:#A80036;stroke-width:1.0;" width="10" x="978" y="295.6621"/><rect fill="#FFFFFF" filter="url(#f12fofh478tcte)" height="29.3105" style="stroke:#A80036;stroke-width:1.0;" width="10" x="1102.5" y="576.9453"/><rect fill="#FFFFFF" filter="url(#f12fofh478tcte)" height="29.3105" style="stroke:#A80036;stroke-width:1.0;" width="10" x="1226.5" y="1039.4707"/><rect fill="#FFFFFF" filter="url(#f12fofh478tcte)" height="29.3105" style="stroke:#A80036;stroke-width:1.0;" width="10" x="1378.5" y="635.5664"/><polygon fill="#A80036" points="394.5,115.7988,404.5,119.7988,394.5,123.7988,398.5,119.7988" style="stroke:#A80036;stroke-width:1.0;"/><line style="stroke:#A80036;stroke-width:1.0;" x1="36.5" x2="400.5" y1="119.7988" y2="119.7988"/><text fill="#000000" font-family="sans-serif" font-size="13" font-weight="bold" lengthAdjust="spacing" textLength="9" x="43.5" y="115.0566">1</text><text fill="#000000" font-family="sans-serif" font-size="13" lengthAdjust="spacing" textLength="159" x="56.5" y="115.0566">asks to create a new task</text><polygon fill="#A80036" points="559.5,145.1094,569.5,149.1094,559.5,153.1094,563.5,149.1094" style="stroke:#A80036;stroke-width:1.0;"/><line style="stroke:#A80036;stroke-width:1.0;" x1="416.5" x2="565.5" y1="149.1094" y2="149.1094"/><text fill="#000000" font-family="sans-serif" font-size="13" font-weight="bold" lengthAdjust="spacing" textLength="9" x="423.5" y="144.3672">2</text><text fill="#000000" font-family="sans-serif" font-size="13" lengthAdjust="spacing" textLength="37" x="436.5" y="144.3672">start()</text><polygon fill="#A80036" points="740.5,174.4199,750.5,178.4199,740.5,182.4199,744.5,178.4199" style="stroke:#A80036;stroke-width:1.0;"/><line style="stroke:#A80036;stroke-width:1.0;" x1="581.5" x2="746.5" y1="178.4199" y2="178.4199"/><text fill="#000000" font-family="sans-serif" font-size="13" font-weight="bold" lengthAdjust="spacing" textLength="9" x="588.5" y="173.6777">3</text><text fill="#000000" font-family="sans-serif" font-size="13" lengthAdjust="spacing" textLength="102" x="601.5" y="173.6777">getTaskService()</text><polygon fill="#A80036" points="592.5,203.7305,582.5,207.7305,592.5,211.7305,588.5,207.7305" style="stroke:#A80036;stroke-width:1.0;"/><line style="stroke:#A80036;stroke-width:1.0;stroke-dasharray:2.0,2.0;" x1="586.5" x2="756.5" y1="207.7305" y2="207.7305"/><text fill="#000000" font-family="sans-serif" font-size="13" font-weight="bold" lengthAdjust="spacing" textLength="9" x="598.5" y="202.9883">4</text><text fill="#000000" font-family="sans-serif" font-size="13" lengthAdjust="spacing" textLength="44" x="611.5" y="202.9883">service</text><polygon fill="#A80036" points="740.5,233.041,750.5,237.041,740.5,241.041,744.5,237.041" style="stroke:#A80036;stroke-width:1.0;"/><line style="stroke:#A80036;stroke-width:1.0;" x1="581.5" x2="746.5" y1="237.041" y2="237.041"/><text fill="#000000" font-family="sans-serif" font-size="13" font-weight="bold" lengthAdjust="spacing" textLength="9" x="588.5" y="232.2988">5</text><text fill="#000000" font-family="sans-serif" font-size="13" lengthAdjust="spacing" textLength="139" x="601.5" y="232.2988">getCategoriesService()</text><polygon fill="#A80036" points="592.5,262.3516,582.5,266.3516,592.5,270.3516,588.5,266.3516" style="stroke:#A80036;stroke-width:1.0;"/><line style="stroke:#A80036;stroke-width:1.0;stroke-dasharray:2.0,2.0;" x1="586.5" x2="756.5" y1="266.3516" y2="266.3516"/><text fill="#000000" font-family="sans-serif" font-size="13" font-weight="bold" lengthAdjust="spacing" textLength="9" x="598.5" y="261.6094">6</text><text fill="#000000" font-family="sans-serif" font-size="13" lengthAdjust="spacing" textLength="47" x="611.5" y="261.6094">srvCats</text><polygon fill="#A80036" points="966,291.6621,976,295.6621,966,299.6621,970,295.6621" style="stroke:#A80036;stroke-width:1.0;"/><line style="stroke:#A80036;stroke-width:1.0;" x1="581.5" x2="972" y1="295.6621" y2="295.6621"/><text fill="#000000" font-family="sans-serif" font-size="13" font-weight="bold" lengthAdjust="spacing" textLength="9" x="588.5" y="290.9199">7</text><text fill="#000000" font-family="sans-serif" font-size="13" lengthAdjust="spacing" textLength="95" x="601.5" y="290.9199">getCategories()</text><polygon fill="#A80036" points="592.5,320.9727,582.5,324.9727,592.5,328.9727,588.5,324.9727" style="stroke:#A80036;stroke-width:1.0;"/><line style="stroke:#A80036;stroke-width:1.0;stroke-dasharray:2.0,2.0;" x1="586.5" x2="982" y1="324.9727" y2="324.9727"/><text fill="#000000" font-family="sans-serif" font-size="13" font-weight="bold" lengthAdjust="spacing" textLength="9" x="598.5" y="320.2305">8</text><text fill="#000000" font-family="sans-serif" font-size="13" lengthAdjust="spacing" textLength="106" x="611.5" y="320.2305">lstCategoriesDto</text><polygon fill="#A80036" points="427.5,350.2832,417.5,354.2832,427.5,358.2832,423.5,354.2832" style="stroke:#A80036;stroke-width:1.0;"/><line style="stroke:#A80036;stroke-width:1.0;stroke-dasharray:2.0,2.0;" x1="421.5" x2="575.5" y1="354.2832" y2="354.2832"/><text fill="#000000" font-family="sans-serif" font-size="13" font-weight="bold" lengthAdjust="spacing" textLength="9" x="433.5" y="349.541">9</text><text fill="#000000" font-family="sans-serif" font-size="13" lengthAdjust="spacing" textLength="106" x="446.5" y="349.541">lstCategoriesDto</text><polygon fill="#A80036" points="47.5,410.2148,37.5,414.2148,47.5,418.2148,43.5,414.2148" style="stroke:#A80036;stroke-width:1.0;"/><line style="stroke:#A80036;stroke-width:1.0;stroke-dasharray:2.0,2.0;" x1="41.5" x2="410.5" y1="414.2148" y2="414.2148"/><text fill="#000000" font-family="sans-serif" font-size="13" font-weight="bold" lengthAdjust="spacing" textLength="18" x="53.5" y="394.1621">10</text><text fill="#000000" font-family="sans-serif" font-size="13" lengthAdjust="spacing" textLength="324" x="75.5" y="378.8516">requests data (reference, title, informal description,</text><text fill="#000000" font-family="sans-serif" font-size="13" lengthAdjust="spacing" textLength="311" x="75.5" y="394.1621">technical description, effort estimation, deadline)</text><text fill="#000000" font-family="sans-serif" font-size="13" lengthAdjust="spacing" textLength="250" x="79.5" y="409.4727">and asks to select the category it fits in</text><polygon fill="#A80036" points="394.5,439.5254,404.5,443.5254,394.5,447.5254,398.5,443.5254" style="stroke:#A80036;stroke-width:1.0;"/><line style="stroke:#A80036;stroke-width:1.0;" x1="36.5" x2="400.5" y1="443.5254" y2="443.5254"/><text fill="#000000" font-family="sans-serif" font-size="13" font-weight="bold" lengthAdjust="spacing" textLength="18" x="43.5" y="438.7832">11</text><text fill="#000000" font-family="sans-serif" font-size="13" lengthAdjust="spacing" textLength="323" x="65.5" y="438.7832">types requested data and selects intended category</text><polygon fill="#A80036" points="1045,468.8359,1055,472.8359,1045,476.8359,1049,472.8359" style="stroke:#A80036;stroke-width:1.0;"/><line style="stroke:#A80036;stroke-width:1.0;stroke-dasharray:2.0,2.0;" x1="416.5" x2="1051" y1="472.8359" y2="472.8359"/><text fill="#000000" font-family="sans-serif" font-size="13" font-weight="bold" lengthAdjust="spacing" textLength="18" x="423.5" y="468.0938">12</text><text fill="#000000" font-family="sans-serif" font-size="13" lengthAdjust="spacing" textLength="353" x="445.5" y="468.0938">create(ref, title, infDesc, tecDesc, effort, deadline, catId)</text><rect fill="#FEFECE" filter="url(#f12fofh478tcte)" height="30.4883" style="stroke:#A80036;stroke-width:1.5;" width="97" x="1057" y="451.5254"/><text fill="#000000" font-family="sans-serif" font-size="14" lengthAdjust="spacing" textLength="83" x="1064" y="472.0605">dto:TaskDto</text><polygon fill="#A80036" points="559.5,514.3242,569.5,518.3242,559.5,522.3242,563.5,518.3242" style="stroke:#A80036;stroke-width:1.0;"/><line style="stroke:#A80036;stroke-width:1.0;" x1="416.5" x2="565.5" y1="518.3242" y2="518.3242"/><text fill="#000000" font-family="sans-serif" font-size="13" font-weight="bold" lengthAdjust="spacing" textLength="18" x="423.5" y="513.582">13</text><text fill="#000000" font-family="sans-serif" font-size="13" lengthAdjust="spacing" textLength="97" x="445.5" y="513.582">createTask(dto)</text><polygon fill="#A80036" points="836,543.6348,846,547.6348,836,551.6348,840,547.6348" style="stroke:#A80036;stroke-width:1.0;"/><line style="stroke:#A80036;stroke-width:1.0;" x1="581.5" x2="842" y1="547.6348" y2="547.6348"/><text fill="#000000" font-family="sans-serif" font-size="13" font-weight="bold" lengthAdjust="spacing" textLength="18" x="588.5" y="542.8926">14</text><text fill="#000000" font-family="sans-serif" font-size="13" lengthAdjust="spacing" textLength="67" x="610.5" y="542.8926">create(dto)</text><polygon fill="#A80036" points="1090.5,572.9453,1100.5,576.9453,1090.5,580.9453,1094.5,576.9453" style="stroke:#A80036;stroke-width:1.0;"/><line style="stroke:#A80036;stroke-width:1.0;" x1="858" x2="1096.5" y1="576.9453" y2="576.9453"/><text fill="#000000" font-family="sans-serif" font-size="13" font-weight="bold" lengthAdjust="spacing" textLength="18" x="865" y="572.2031">15</text><text fill="#000000" font-family="sans-serif" font-size="13" lengthAdjust="spacing" textLength="96" x="887" y="572.2031">getCategoryId()</text><polygon fill="#A80036" points="869,602.2559,859,606.2559,869,610.2559,865,606.2559" style="stroke:#A80036;stroke-width:1.0;"/><line style="stroke:#A80036;stroke-width:1.0;stroke-dasharray:2.0,2.0;" x1="863" x2="1106.5" y1="606.2559" y2="606.2559"/><text fill="#000000" font-family="sans-serif" font-size="13" font-weight="bold" lengthAdjust="spacing" textLength="18" x="875" y="601.5137">16</text><text fill="#000000" font-family="sans-serif" font-size="13" lengthAdjust="spacing" textLength="31" x="897" y="601.5137">catId</text><polygon fill="#A80036" points="1366.5,631.5664,1376.5,635.5664,1366.5,639.5664,1370.5,635.5664" style="stroke:#A80036;stroke-width:1.0;"/><line style="stroke:#A80036;stroke-width:1.0;" x1="858" x2="1372.5" y1="635.5664" y2="635.5664"/><text fill="#000000" font-family="sans-serif" font-size="13" font-weight="bold" lengthAdjust="spacing" textLength="18" x="865" y="630.8242">17</text><text fill="#000000" font-family="sans-serif" font-size="13" lengthAdjust="spacing" textLength="85" x="887" y="630.8242">getById(catId)</text><polygon fill="#A80036" points="869,660.877,859,664.877,869,668.877,865,664.877" style="stroke:#A80036;stroke-width:1.0;"/><line style="stroke:#A80036;stroke-width:1.0;stroke-dasharray:2.0,2.0;" x1="863" x2="1382.5" y1="664.877" y2="664.877"/><text fill="#000000" font-family="sans-serif" font-size="13" font-weight="bold" lengthAdjust="spacing" textLength="18" x="875" y="660.1348">18</text><text fill="#000000" font-family="sans-serif" font-size="13" lengthAdjust="spacing" textLength="19" x="897" y="660.1348">cat</text><path d="M804,677.877 L804,702.877 L1155,702.877 L1155,687.877 L1145,677.877 L804,677.877 " fill="#FBFB77" filter="url(#f12fofh478tcte)" style="stroke:#A80036;stroke-width:1.0;"/><path d="M1145,677.877 L1145,687.877 L1155,687.877 L1145,677.877 " fill="#FBFB77" style="stroke:#A80036;stroke-width:1.0;"/><text fill="#000000" font-family="sans-serif" font-size="13" lengthAdjust="spacing" textLength="214" x="866" y="695.4453">extracting more data from the dto</text><polygon fill="#A80036" points="1460,729.498,1470,733.498,1460,737.498,1464,733.498" style="stroke:#A80036;stroke-width:1.0;"/><line style="stroke:#A80036;stroke-width:1.0;stroke-dasharray:2.0,2.0;" x1="858" x2="1466" y1="733.498" y2="733.498"/><text fill="#000000" font-family="sans-serif" font-size="13" font-weight="bold" lengthAdjust="spacing" textLength="18" x="865" y="728.7559">19</text><text fill="#000000" font-family="sans-serif" font-size="13" lengthAdjust="spacing" textLength="314" x="887" y="728.7559">create(ref, title, infDesc, tecDesc, effort, deadline,</text><text fill="#000000" font-family="sans-serif" font-size="13" font-weight="bold" lengthAdjust="spacing" textLength="20" x="1205" y="728.7559">cat</text><text fill="#000000" font-family="sans-serif" font-size="13" lengthAdjust="spacing" textLength="4" x="1225" y="728.7559">)</text><rect fill="#FEFECE" filter="url(#f12fofh478tcte)" height="30.4883" style="stroke:#A80036;stroke-width:1.5;" width="78" x="1472" y="712.1875"/><text fill="#000000" font-family="sans-serif" font-size="14" lengthAdjust="spacing" textLength="64" x="1479" y="732.7227">task:Task</text><polygon fill="#A80036" points="592.5,774.9863,582.5,778.9863,592.5,782.9863,588.5,778.9863" style="stroke:#A80036;stroke-width:1.0;"/><line style="stroke:#A80036;stroke-width:1.0;stroke-dasharray:2.0,2.0;" x1="586.5" x2="852" y1="778.9863" y2="778.9863"/><text fill="#000000" font-family="sans-serif" font-size="13" font-weight="bold" lengthAdjust="spacing" textLength="18" x="598.5" y="774.2441">20</text><text fill="#000000" font-family="sans-serif" font-size="13" lengthAdjust="spacing" textLength="27" x="620.5" y="774.2441">task</text><polygon fill="#A80036" points="427.5,804.2969,417.5,808.2969,427.5,812.2969,423.5,808.2969" style="stroke:#A80036;stroke-width:1.0;"/><line style="stroke:#A80036;stroke-width:1.0;stroke-dasharray:2.0,2.0;" x1="421.5" x2="575.5" y1="808.2969" y2="808.2969"/><text fill="#000000" font-family="sans-serif" font-size="13" font-weight="bold" lengthAdjust="spacing" textLength="18" x="433.5" y="803.5547">21</text><text fill="#000000" font-family="sans-serif" font-size="13" lengthAdjust="spacing" textLength="16" x="455.5" y="803.5547">ok</text><polygon fill="#A80036" points="47.5,833.6074,37.5,837.6074,47.5,841.6074,43.5,837.6074" style="stroke:#A80036;stroke-width:1.0;"/><line style="stroke:#A80036;stroke-width:1.0;stroke-dasharray:2.0,2.0;" x1="41.5" x2="410.5" y1="837.6074" y2="837.6074"/><text fill="#000000" font-family="sans-serif" font-size="13" font-weight="bold" lengthAdjust="spacing" textLength="18" x="53.5" y="832.8652">22</text><text fill="#000000" font-family="sans-serif" font-size="13" lengthAdjust="spacing" textLength="260" x="75.5" y="832.8652">shows all data and requests confirmation</text><polygon fill="#A80036" points="394.5,862.918,404.5,866.918,394.5,870.918,398.5,866.918" style="stroke:#A80036;stroke-width:1.0;"/><line style="stroke:#A80036;stroke-width:1.0;" x1="36.5" x2="400.5" y1="866.918" y2="866.918"/><text fill="#000000" font-family="sans-serif" font-size="13" font-weight="bold" lengthAdjust="spacing" textLength="18" x="43.5" y="862.1758">23</text><text fill="#000000" font-family="sans-serif" font-size="13" lengthAdjust="spacing" textLength="111" x="65.5" y="862.1758">confirms the data</text><polygon fill="#A80036" points="559.5,892.2285,569.5,896.2285,559.5,900.2285,563.5,896.2285" style="stroke:#A80036;stroke-width:1.0;"/><line style="stroke:#A80036;stroke-width:1.0;" x1="416.5" x2="565.5" y1="896.2285" y2="896.2285"/><text fill="#000000" font-family="sans-serif" font-size="13" font-weight="bold" lengthAdjust="spacing" textLength="18" x="423.5" y="891.4863">24</text><text fill="#000000" font-family="sans-serif" font-size="13" lengthAdjust="spacing" textLength="114" x="445.5" y="891.4863">saveCreatedTask()</text><polygon fill="#A80036" points="836,921.5391,846,925.5391,836,929.5391,840,925.5391" style="stroke:#A80036;stroke-width:1.0;"/><line style="stroke:#A80036;stroke-width:1.0;" x1="581.5" x2="842" y1="925.5391" y2="925.5391"/><text fill="#000000" font-family="sans-serif" font-size="13" font-weight="bold" lengthAdjust="spacing" textLength="18" x="588.5" y="920.7969">25</text><text fill="#000000" font-family="sans-serif" font-size="13" lengthAdjust="spacing" textLength="63" x="610.5" y="920.7969">save(task)</text><line style="stroke:#A80036;stroke-width:1.0;" x1="858" x2="905" y1="949.8496" y2="949.8496"/><line style="stroke:#A80036;stroke-width:1.0;" x1="905" x2="905" y1="949.8496" y2="962.8496"/><line style="stroke:#A80036;stroke-width:1.0;" x1="864" x2="905" y1="962.8496" y2="962.8496"/><polygon fill="#A80036" points="874,958.8496,864,962.8496,874,966.8496,870,962.8496" style="stroke:#A80036;stroke-width:1.0;"/><text fill="#000000" font-family="sans-serif" font-size="13" font-weight="bold" lengthAdjust="spacing" textLength="18" x="870" y="945.1074">26</text><text fill="#000000" font-family="sans-serif" font-size="13" lengthAdjust="spacing" textLength="84" x="892" y="945.1074">validate(task)</text><line style="stroke:#A80036;stroke-width:1.0;stroke-dasharray:2.0,2.0;" x1="863" x2="905" y1="1002.1602" y2="1002.1602"/><line style="stroke:#A80036;stroke-width:1.0;stroke-dasharray:2.0,2.0;" x1="905" x2="905" y1="1002.1602" y2="1015.1602"/><line style="stroke:#A80036;stroke-width:1.0;stroke-dasharray:2.0,2.0;" x1="858" x2="905" y1="1015.1602" y2="1015.1602"/><polygon fill="#A80036" points="868,1011.1602,858,1015.1602,868,1019.1602,864,1015.1602" style="stroke:#A80036;stroke-width:1.0;"/><text fill="#000000" font-family="sans-serif" font-size="13" font-weight="bold" lengthAdjust="spacing" textLength="18" x="870" y="997.418">27</text><text fill="#000000" font-family="sans-serif" font-size="13" lengthAdjust="spacing" textLength="16" x="892" y="997.418">ok</text><polygon fill="#A80036" points="1214.5,1035.4707,1224.5,1039.4707,1214.5,1043.4707,1218.5,1039.4707" style="stroke:#A80036;stroke-width:1.0;"/><line style="stroke:#A80036;stroke-width:1.0;" x1="858" x2="1220.5" y1="1039.4707" y2="1039.4707"/><text fill="#000000" font-family="sans-serif" font-size="13" font-weight="bold" lengthAdjust="spacing" textLength="18" x="865" y="1034.7285">28</text><text fill="#000000" font-family="sans-serif" font-size="13" lengthAdjust="spacing" textLength="63" x="887" y="1034.7285">save(task)</text><polygon fill="#A80036" points="869,1064.7813,859,1068.7813,869,1072.7813,865,1068.7813" style="stroke:#A80036;stroke-width:1.0;"/><line style="stroke:#A80036;stroke-width:1.0;stroke-dasharray:2.0,2.0;" x1="863" x2="1230.5" y1="1068.7813" y2="1068.7813"/><text fill="#000000" font-family="sans-serif" font-size="13" font-weight="bold" lengthAdjust="spacing" textLength="18" x="875" y="1064.0391">29</text><text fill="#000000" font-family="sans-serif" font-size="13" lengthAdjust="spacing" textLength="16" x="897" y="1064.0391">ok</text><polygon fill="#A80036" points="592.5,1094.0918,582.5,1098.0918,592.5,1102.0918,588.5,1098.0918" style="stroke:#A80036;stroke-width:1.0;"/><line style="stroke:#A80036;stroke-width:1.0;stroke-dasharray:2.0,2.0;" x1="586.5" x2="852" y1="1098.0918" y2="1098.0918"/><text fill="#000000" font-family="sans-serif" font-size="13" font-weight="bold" lengthAdjust="spacing" textLength="18" x="598.5" y="1093.3496">30</text><text fill="#000000" font-family="sans-serif" font-size="13" lengthAdjust="spacing" textLength="16" x="620.5" y="1093.3496">ok</text><polygon fill="#A80036" points="427.5,1123.4023,417.5,1127.4023,427.5,1131.4023,423.5,1127.4023" style="stroke:#A80036;stroke-width:1.0;"/><line style="stroke:#A80036;stroke-width:1.0;stroke-dasharray:2.0,2.0;" x1="421.5" x2="575.5" y1="1127.4023" y2="1127.4023"/><text fill="#000000" font-family="sans-serif" font-size="13" font-weight="bold" lengthAdjust="spacing" textLength="18" x="433.5" y="1122.6602">31</text><text fill="#000000" font-family="sans-serif" font-size="13" lengthAdjust="spacing" textLength="16" x="455.5" y="1122.6602">ok</text><polygon fill="#A80036" points="47.5,1152.7129,37.5,1156.7129,47.5,1160.7129,43.5,1156.7129" style="stroke:#A80036;stroke-width:1.0;"/><line style="stroke:#A80036;stroke-width:1.0;stroke-dasharray:2.0,2.0;" x1="41.5" x2="410.5" y1="1156.7129" y2="1156.7129"/><text fill="#000000" font-family="sans-serif" font-size="13" font-weight="bold" lengthAdjust="spacing" textLength="18" x="53.5" y="1151.9707">32</text><text fill="#000000" font-family="sans-serif" font-size="13" lengthAdjust="spacing" textLength="167" x="75.5" y="1151.9707">informs operation success</text><!--MD5=[c45743204a963842f53c78ce5c469e5a]
@startuml
'https://plantuml.com/sequence-diagram
autoactivate on
autonumber

actor "Person" as User
participant ":CreateTaskView" as System
participant ":CreateTaskController" as Ctrl
participant ":Person" as Person
participant "service\n:TaskService" as Service
participant "srvCats:\nCategoryService" as SrvCategories
participant "dto:TaskDto" as TaskDto
participant "repoTasks\n:TaskRepository" as RepoTask
participant "repoCats\n:CategoryRepository" as RepoCats
participant "task:Task" as Task
participant "cat:Category" as Category
participant "lstCategoriesDto\n:List<CategoryDto>" as LstCategoriesDto

activate User

User -> System: asks to create a new task
System -> Ctrl: start()
Ctrl -> Person: getTaskService()
Person - -> Ctrl: service
Ctrl -> Person: getCategoriesService()
Person - -> Ctrl: srvCats
Ctrl -> SrvCategories: getCategories()
SrvCategories - -> Ctrl: lstCategoriesDto
Ctrl- -> System: lstCategoriesDto
System - -> User: requests data (reference, title, informal description,\ntechnical description, effort estimation, deadline) \n and asks to select the category it fits in
User -> System: types requested data and selects intended category

System - -> TaskDto**: create(ref, title, infDesc, tecDesc, effort, deadline, catId)
System -> Ctrl: createTask(dto)

Ctrl -> Service: create(dto)
Service -> TaskDto: getCategoryId()
TaskDto - -> Service: catId
Service -> RepoCats: getById(catId)
RepoCats - -> Service : cat
note over Service, TaskDto: extracting more data from the dto
Service - -> Task**: create(ref, title, infDesc, tecDesc, effort, deadline, **cat**)
Service - -> Ctrl: task
Ctrl - -> System: ok
System - -> User: shows all data and requests confirmation

User -> System: confirms the data
System -> Ctrl: saveCreatedTask()
Ctrl -> Service: save(task)
Service -> Service : validate(task)
Service - -> Service : ok
Service -> RepoTask: save(task)
RepoTask - -> Service : ok
Service - -> Ctrl: ok
Ctrl - -> System: ok
System - -> User: informs operation success
@enduml

@startuml
autoactivate on
autonumber

actor "Person" as User
participant ":CreateTaskView" as System
participant ":CreateTaskController" as Ctrl
participant ":Person" as Person
participant "service\n:TaskService" as Service
participant "srvCats:\nCategoryService" as SrvCategories
participant "dto:TaskDto" as TaskDto
participant "repoTasks\n:TaskRepository" as RepoTask
participant "repoCats\n:CategoryRepository" as RepoCats
participant "task:Task" as Task
participant "cat:Category" as Category
participant "lstCategoriesDto\n:List<CategoryDto>" as LstCategoriesDto

activate User

User -> System: asks to create a new task
System -> Ctrl: start()
Ctrl -> Person: getTaskService()
Person - -> Ctrl: service
Ctrl -> Person: getCategoriesService()
Person - -> Ctrl: srvCats
Ctrl -> SrvCategories: getCategories()
SrvCategories - -> Ctrl: lstCategoriesDto
Ctrl- -> System: lstCategoriesDto
System - -> User: requests data (reference, title, informal description,\ntechnical description, effort estimation, deadline) \n and asks to select the category it fits in
User -> System: types requested data and selects intended category

System - -> TaskDto**: create(ref, title, infDesc, tecDesc, effort, deadline, catId)
System -> Ctrl: createTask(dto)

Ctrl -> Service: create(dto)
Service -> TaskDto: getCategoryId()
TaskDto - -> Service: catId
Service -> RepoCats: getById(catId)
RepoCats - -> Service : cat
note over Service, TaskDto: extracting more data from the dto
Service - -> Task**: create(ref, title, infDesc, tecDesc, effort, deadline, **cat**)
Service - -> Ctrl: task
Ctrl - -> System: ok
System - -> User: shows all data and requests confirmation

User -> System: confirms the data
System -> Ctrl: saveCreatedTask()
Ctrl -> Service: save(task)
Service -> Service : validate(task)
Service - -> Service : ok
Service -> RepoTask: save(task)
RepoTask - -> Service : ok
Service - -> Ctrl: ok
Ctrl - -> System: ok
System - -> User: informs operation success
@enduml

PlantUML version 1.2021.7(Sun May 23 13:40:07 WEST 2021)
(GPL source distribution)
Java Runtime: OpenJDK Runtime Environment
JVM: OpenJDK 64-Bit Server VM
Default Encoding: UTF-8
Language: en
Country: PT
--></g></svg>