<?xml version="1.0" encoding="UTF-8" standalone="no"?><svg xmlns="http://www.w3.org/2000/svg" xmlns:xlink="http://www.w3.org/1999/xlink" contentScriptType="application/ecmascript" contentStyleType="text/css" height="164px" preserveAspectRatio="none" style="width:716px;height:164px;background:#FFFFFF;" version="1.1" viewBox="0 0 716 164" width="716px" zoomAndPan="magnify"><defs><filter height="300%" id="fq63l2erwmsep" width="300%" x="-1" y="-1"><feGaussianBlur result="blurOut" stdDeviation="2.0"/><feColorMatrix in="blurOut" result="blurOut2" type="matrix" values="0 0 0 0 0 0 0 0 0 0 0 0 0 0 0 0 0 0 .4 0"/><feOffset dx="4.0" dy="4.0" in="blurOut2" result="blurOut3"/><feBlend in="SourceGraphic" in2="blurOut3" mode="normal"/></filter></defs><g><!--MD5=[3ee15c8315d28b1cee168b0da5921b58]
class CategoryController--><rect codeLine="7" fill="#FEFECE" filter="url(#fq63l2erwmsep)" height="53.0879" id="CategoryController" style="stroke:#A80036;stroke-width:1.5;" width="327" x="7" y="52.5"/><text fill="#000000" font-family="sans-serif" font-size="12" lengthAdjust="spacing" textLength="107" x="117" y="69.1016">CategoryController</text><line style="stroke:#A80036;stroke-width:1.5;" x1="8" x2="333" y1="76.6328" y2="76.6328"/><line style="stroke:#A80036;stroke-width:1.5;" x1="8" x2="333" y1="84.6328" y2="84.6328"/><text fill="#000000" font-family="sans-serif" font-size="11" lengthAdjust="spacing" textLength="315" x="13" y="99.2676">+postCategory(string code, string description): HttpResult</text><!--MD5=[dbe5f81d45cf3e1ac1d2aadd8dc86821]
class HttpResult--><rect codeLine="11" fill="#FEFECE" filter="url(#fq63l2erwmsep)" height="143.7734" id="HttpResult" style="stroke:#A80036;stroke-width:1.5;" width="308" x="394" y="7"/><text fill="#000000" font-family="sans-serif" font-size="12" lengthAdjust="spacing" textLength="60" x="518" y="23.6016">HttpResult</text><line style="stroke:#A80036;stroke-width:1.5;" x1="395" x2="701" y1="31.1328" y2="31.1328"/><text fill="#000000" font-family="sans-serif" font-size="11" lengthAdjust="spacing" textLength="101" x="400" y="45.7676">-status: HttpStatus</text><text fill="#000000" font-family="sans-serif" font-size="11" lengthAdjust="spacing" textLength="66" x="400" y="58.7227">-result: json</text><line style="stroke:#A80036;stroke-width:1.5;" x1="395" x2="701" y1="65.043" y2="65.043"/><text fill="#000000" font-family="sans-serif" font-size="11" lengthAdjust="spacing" textLength="67" x="400" y="79.6777">HttpResult();</text><text fill="#000000" font-family="sans-serif" font-size="11" lengthAdjust="spacing" textLength="159" x="400" y="92.6328">HttpResult(HttpStatus status);</text><text fill="#000000" font-family="sans-serif" font-size="11" lengthAdjust="spacing" textLength="296" x="400" y="105.5879">HttpResult(HttpStatus status, const wstring &amp;message);</text><text fill="#000000" font-family="sans-serif" font-size="11" lengthAdjust="spacing" textLength="288" x="400" y="118.543">HttpResult(HttpStatus status, const string &amp;message);</text><text fill="#000000" font-family="sans-serif" font-size="11" lengthAdjust="spacing" textLength="277" x="400" y="131.498">HttpResult(HttpStatus status, const char *message);</text><text fill="#000000" font-family="sans-serif" font-size="11" lengthAdjust="spacing" textLength="263" x="400" y="144.4531">HttpResult(HttpStatus status, const json &amp;result);</text><!--MD5=[47c424eecdbdb23d15475f72049695ab]
link CategoryController to HttpResult--><path codeLine="22" d="M334.02,79 C352.13,79 370.57,79 388.63,79 " fill="none" id="CategoryController-to-HttpResult" style="stroke:#A80036;stroke-width:1.0;stroke-dasharray:7.0,7.0;"/><polygon fill="#A80036" points="393.72,79,384.72,75,388.72,79,384.72,83,393.72,79" style="stroke:#A80036;stroke-width:1.0;"/><!--MD5=[af4536753cc8b01e8bcbb5f2888f0c7e]
@startuml
'https://plantuml.com/class-diagram
left to right direction

hide circle
skinparam classAttributeIconSize 0

class CategoryController {
    +postCategory(string code, string description): HttpResult
}

class HttpResult {
    -status: HttpStatus
    -result: json
    HttpResult();
    HttpResult(HttpStatus status);
    HttpResult(HttpStatus status, const wstring &message);
    HttpResult(HttpStatus status, const string &message);
    HttpResult(HttpStatus status, const char *message);
    HttpResult(HttpStatus status, const json &result);
}

CategoryController ..> HttpResult

@enduml

@startuml
left to right direction

hide circle
skinparam classAttributeIconSize 0

class CategoryController {
    +postCategory(string code, string description): HttpResult
}

class HttpResult {
    -status: HttpStatus
    -result: json
    HttpResult();
    HttpResult(HttpStatus status);
    HttpResult(HttpStatus status, const wstring &message);
    HttpResult(HttpStatus status, const string &message);
    HttpResult(HttpStatus status, const char *message);
    HttpResult(HttpStatus status, const json &result);
}

CategoryController ..> HttpResult

@enduml

PlantUML version 1.2021.7(Sun May 23 13:40:07 WEST 2021)
(GPL source distribution)
Java Runtime: OpenJDK Runtime Environment
JVM: OpenJDK 64-Bit Server VM
Default Encoding: UTF-8
Language: en
Country: PT
--></g></svg>