<?xml version="1.0" encoding="UTF-8" standalone="no"?><svg xmlns="http://www.w3.org/2000/svg" xmlns:xlink="http://www.w3.org/1999/xlink" contentScriptType="application/ecmascript" contentStyleType="text/css" height="859px" preserveAspectRatio="none" style="width:1621px;height:859px;background:#FFFFFF;" version="1.1" viewBox="0 0 1621 859" width="1621px" zoomAndPan="magnify"><defs><filter height="300%" id="f1w954p9mvu463" width="300%" x="-1" y="-1"><feGaussianBlur result="blurOut" stdDeviation="2.0"/><feColorMatrix in="blurOut" result="blurOut2" type="matrix" values="0 0 0 0 0 0 0 0 0 0 0 0 0 0 0 0 0 0 .4 0"/><feOffset dx="4.0" dy="4.0" in="blurOut2" result="blurOut3"/><feBlend in="SourceGraphic" in2="blurOut3" mode="normal"/></filter></defs><g><rect fill="#FFFFFF" filter="url(#f1w954p9mvu463)" height="756.3652" style="stroke:#A80036;stroke-width:1.0;" width="10" x="49" y="50.4883"/><rect fill="#FFFFFF" filter="url(#f1w954p9mvu463)" height="726.0547" style="stroke:#A80036;stroke-width:1.0;" width="10" x="230" y="71.7988"/><rect fill="#FFFFFF" filter="url(#f1w954p9mvu463)" height="40.3105" style="stroke:#A80036;stroke-width:1.0;" width="10" x="235" y="721.2324"/><rect fill="#FFFFFF" filter="url(#f1w954p9mvu463)" height="543.502" style="stroke:#A80036;stroke-width:1.0;" width="10" x="473" y="140.4199"/><rect fill="#FFFFFF" filter="url(#f1w954p9mvu463)" height="133.4199" style="stroke:#A80036;stroke-width:1.0;" width="10" x="654" y="169.7305"/><rect fill="#FFFFFF" filter="url(#f1w954p9mvu463)" height="74.7988" style="stroke:#A80036;stroke-width:1.0;" width="10" x="859.5" y="332.4609"/><rect fill="#FFFFFF" filter="url(#f1w954p9mvu463)" height="172.5527" style="stroke:#A80036;stroke-width:1.0;" width="10" x="859.5" y="436.5703"/><rect fill="#FFFFFF" filter="url(#f1w954p9mvu463)" height="40.3105" style="stroke:#A80036;stroke-width:1.0;" width="10" x="864.5" y="473.8809"/><rect fill="#FFFFFF" filter="url(#f1w954p9mvu463)" height="29.3105" style="stroke:#A80036;stroke-width:1.0;" width="10" x="1055" y="199.041"/><rect fill="#FFFFFF" filter="url(#f1w954p9mvu463)" height="29.3105" style="stroke:#A80036;stroke-width:1.0;" width="10" x="1255.5" y="550.502"/><line style="stroke:#A80036;stroke-width:1.0;stroke-dasharray:5.0,5.0;" x1="54" x2="54" y1="40.4883" y2="815.8535"/><line style="stroke:#A80036;stroke-width:1.0;stroke-dasharray:5.0,5.0;" x1="234.5" x2="234.5" y1="40.4883" y2="815.8535"/><line style="stroke:#A80036;stroke-width:1.0;stroke-dasharray:5.0,5.0;" x1="478" x2="478" y1="40.4883" y2="815.8535"/><line style="stroke:#A80036;stroke-width:1.0;stroke-dasharray:5.0,5.0;" x1="658.5" x2="658.5" y1="40.4883" y2="815.8535"/><line style="stroke:#A80036;stroke-width:1.0;stroke-dasharray:5.0,5.0;" x1="864" x2="864" y1="269.0957" y2="815.8535"/><line style="stroke:#A80036;stroke-width:1.0;stroke-dasharray:5.0,5.0;" x1="1060" x2="1060" y1="40.4883" y2="815.8535"/><line style="stroke:#A80036;stroke-width:1.0;stroke-dasharray:5.0,5.0;" x1="1260" x2="1260" y1="40.4883" y2="815.8535"/><line style="stroke:#A80036;stroke-width:1.0;stroke-dasharray:5.0,5.0;" x1="1417" x2="1417" y1="373.2051" y2="815.8535"/><line style="stroke:#A80036;stroke-width:1.0;stroke-dasharray:5.0,5.0;" x1="1545" x2="1545" y1="649.8672" y2="815.8535"/><rect fill="#FEFECE" filter="url(#f1w954p9mvu463)" height="30.4883" style="stroke:#A80036;stroke-width:1.5;" width="94" x="5" y="5"/><text fill="#000000" font-family="sans-serif" font-size="14" lengthAdjust="spacing" textLength="80" x="12" y="25.5352">:HTTPClient</text><rect fill="#FEFECE" filter="url(#f1w954p9mvu463)" height="30.4883" style="stroke:#A80036;stroke-width:1.5;" width="94" x="5" y="814.8535"/><text fill="#000000" font-family="sans-serif" font-size="14" lengthAdjust="spacing" textLength="80" x="12" y="835.3887">:HTTPClient</text><rect fill="#FEFECE" filter="url(#f1w954p9mvu463)" height="30.4883" style="stroke:#A80036;stroke-width:1.5;" width="165" x="150.5" y="5"/><text fill="#000000" font-family="sans-serif" font-size="14" lengthAdjust="spacing" textLength="151" x="157.5" y="25.5352">handler:RouteHandler</text><rect fill="#FEFECE" filter="url(#f1w954p9mvu463)" height="30.4883" style="stroke:#A80036;stroke-width:1.5;" width="165" x="150.5" y="814.8535"/><text fill="#000000" font-family="sans-serif" font-size="14" lengthAdjust="spacing" textLength="151" x="157.5" y="835.3887">handler:RouteHandler</text><rect fill="#FEFECE" filter="url(#f1w954p9mvu463)" height="30.4883" style="stroke:#A80036;stroke-width:1.5;" width="150" x="401" y="5"/><text fill="#000000" font-family="sans-serif" font-size="14" lengthAdjust="spacing" textLength="136" x="408" y="25.5352">:CategoryController</text><rect fill="#FEFECE" filter="url(#f1w954p9mvu463)" height="30.4883" style="stroke:#A80036;stroke-width:1.5;" width="150" x="401" y="814.8535"/><text fill="#000000" font-family="sans-serif" font-size="14" lengthAdjust="spacing" textLength="136" x="408" y="835.3887">:CategoryController</text><rect fill="#FEFECE" filter="url(#f1w954p9mvu463)" height="30.4883" style="stroke:#A80036;stroke-width:1.5;" width="65" x="624.5" y="5"/><text fill="#000000" font-family="sans-serif" font-size="14" lengthAdjust="spacing" textLength="51" x="631.5" y="25.5352">:Person</text><rect fill="#FEFECE" filter="url(#f1w954p9mvu463)" height="30.4883" style="stroke:#A80036;stroke-width:1.5;" width="65" x="624.5" y="814.8535"/><text fill="#000000" font-family="sans-serif" font-size="14" lengthAdjust="spacing" textLength="51" x="631.5" y="835.3887">:Person</text><rect fill="#FEFECE" filter="url(#f1w954p9mvu463)" height="30.4883" style="stroke:#A80036;stroke-width:1.5;" width="175" x="775" y="814.8535"/><text fill="#000000" font-family="sans-serif" font-size="14" lengthAdjust="spacing" textLength="161" x="782" y="835.3887">service:CategoryService</text><rect fill="#FEFECE" filter="url(#f1w954p9mvu463)" height="30.4883" style="stroke:#A80036;stroke-width:1.5;" width="188" x="964" y="5"/><text fill="#000000" font-family="sans-serif" font-size="14" lengthAdjust="spacing" textLength="174" x="971" y="25.5352">factory:RepositoryFactory</text><rect fill="#FEFECE" filter="url(#f1w954p9mvu463)" height="30.4883" style="stroke:#A80036;stroke-width:1.5;" width="188" x="964" y="814.8535"/><text fill="#000000" font-family="sans-serif" font-size="14" lengthAdjust="spacing" textLength="174" x="971" y="835.3887">factory:RepositoryFactory</text><rect fill="#FEFECE" filter="url(#f1w954p9mvu463)" height="30.4883" style="stroke:#A80036;stroke-width:1.5;" width="185" x="1166" y="5"/><text fill="#000000" font-family="sans-serif" font-size="14" lengthAdjust="spacing" textLength="171" x="1173" y="25.5352">repo:CategoryRepository</text><rect fill="#FEFECE" filter="url(#f1w954p9mvu463)" height="30.4883" style="stroke:#A80036;stroke-width:1.5;" width="185" x="1166" y="814.8535"/><text fill="#000000" font-family="sans-serif" font-size="14" lengthAdjust="spacing" textLength="171" x="1173" y="835.3887">repo:CategoryRepository</text><rect fill="#FEFECE" filter="url(#f1w954p9mvu463)" height="30.4883" style="stroke:#A80036;stroke-width:1.5;" width="100" x="1365" y="814.8535"/><text fill="#000000" font-family="sans-serif" font-size="14" lengthAdjust="spacing" textLength="86" x="1372" y="835.3887">cat:Category</text><rect fill="#FEFECE" filter="url(#f1w954p9mvu463)" height="30.4883" style="stroke:#A80036;stroke-width:1.5;" width="128" x="1479" y="814.8535"/><text fill="#000000" font-family="sans-serif" font-size="14" lengthAdjust="spacing" textLength="114" x="1486" y="835.3887">result:HttpResult</text><rect fill="#FFFFFF" filter="url(#f1w954p9mvu463)" height="756.3652" style="stroke:#A80036;stroke-width:1.0;" width="10" x="49" y="50.4883"/><rect fill="#FFFFFF" filter="url(#f1w954p9mvu463)" height="726.0547" style="stroke:#A80036;stroke-width:1.0;" width="10" x="230" y="71.7988"/><rect fill="#FFFFFF" filter="url(#f1w954p9mvu463)" height="40.3105" style="stroke:#A80036;stroke-width:1.0;" width="10" x="235" y="721.2324"/><rect fill="#FFFFFF" filter="url(#f1w954p9mvu463)" height="543.502" style="stroke:#A80036;stroke-width:1.0;" width="10" x="473" y="140.4199"/><rect fill="#FFFFFF" filter="url(#f1w954p9mvu463)" height="133.4199" style="stroke:#A80036;stroke-width:1.0;" width="10" x="654" y="169.7305"/><rect fill="#FFFFFF" filter="url(#f1w954p9mvu463)" height="74.7988" style="stroke:#A80036;stroke-width:1.0;" width="10" x="859.5" y="332.4609"/><rect fill="#FFFFFF" filter="url(#f1w954p9mvu463)" height="172.5527" style="stroke:#A80036;stroke-width:1.0;" width="10" x="859.5" y="436.5703"/><rect fill="#FFFFFF" filter="url(#f1w954p9mvu463)" height="40.3105" style="stroke:#A80036;stroke-width:1.0;" width="10" x="864.5" y="473.8809"/><rect fill="#FFFFFF" filter="url(#f1w954p9mvu463)" height="29.3105" style="stroke:#A80036;stroke-width:1.0;" width="10" x="1055" y="199.041"/><rect fill="#FFFFFF" filter="url(#f1w954p9mvu463)" height="29.3105" style="stroke:#A80036;stroke-width:1.0;" width="10" x="1255.5" y="550.502"/><polygon fill="#A80036" points="218,67.7988,228,71.7988,218,75.7988,222,71.7988" style="stroke:#A80036;stroke-width:1.0;"/><line style="stroke:#A80036;stroke-width:1.0;" x1="59" x2="224" y1="71.7988" y2="71.7988"/><text fill="#000000" font-family="sans-serif" font-size="13" font-weight="bold" lengthAdjust="spacing" textLength="9" x="66" y="67.0566">1</text><text fill="#000000" font-family="sans-serif" font-size="13" lengthAdjust="spacing" textLength="139" x="79" y="67.0566">POST/categories(data)</text><path d="M152,84.7988 L152,109.7988 L314,109.7988 L314,94.7988 L304,84.7988 L152,84.7988 " fill="#FBFB77" filter="url(#f1w954p9mvu463)" style="stroke:#A80036;stroke-width:1.0;"/><path d="M304,84.7988 L304,94.7988 L314,94.7988 L304,84.7988 " fill="#FBFB77" style="stroke:#A80036;stroke-width:1.0;"/><text fill="#000000" font-family="sans-serif" font-size="13" lengthAdjust="spacing" textLength="141" x="158" y="102.3672">after doing some stuff</text><polygon fill="#A80036" points="461,136.4199,471,140.4199,461,144.4199,465,140.4199" style="stroke:#A80036;stroke-width:1.0;"/><line style="stroke:#A80036;stroke-width:1.0;" x1="240" x2="467" y1="140.4199" y2="140.4199"/><text fill="#000000" font-family="sans-serif" font-size="13" font-weight="bold" lengthAdjust="spacing" textLength="9" x="247" y="135.6777">2</text><text fill="#000000" font-family="sans-serif" font-size="13" lengthAdjust="spacing" textLength="201" x="260" y="135.6777">postCategory(code, description)</text><polygon fill="#A80036" points="642,165.7305,652,169.7305,642,173.7305,646,169.7305" style="stroke:#A80036;stroke-width:1.0;"/><line style="stroke:#A80036;stroke-width:1.0;" x1="483" x2="648" y1="169.7305" y2="169.7305"/><text fill="#000000" font-family="sans-serif" font-size="13" font-weight="bold" lengthAdjust="spacing" textLength="9" x="490" y="164.9883">3</text><text fill="#000000" font-family="sans-serif" font-size="13" lengthAdjust="spacing" textLength="139" x="503" y="164.9883">getCategoriesService()</text><polygon fill="#A80036" points="1043,195.041,1053,199.041,1043,203.041,1047,199.041" style="stroke:#A80036;stroke-width:1.0;"/><line style="stroke:#A80036;stroke-width:1.0;" x1="664" x2="1049" y1="199.041" y2="199.041"/><text fill="#000000" font-family="sans-serif" font-size="13" font-weight="bold" lengthAdjust="spacing" textLength="9" x="671" y="194.2988">4</text><text fill="#000000" font-family="sans-serif" font-size="13" lengthAdjust="spacing" textLength="162" x="684" y="194.2988">getCategoriesRepository()</text><polygon fill="#A80036" points="675,224.3516,665,228.3516,675,232.3516,671,228.3516" style="stroke:#A80036;stroke-width:1.0;"/><line style="stroke:#A80036;stroke-width:1.0;stroke-dasharray:2.0,2.0;" x1="669" x2="1059" y1="228.3516" y2="228.3516"/><text fill="#000000" font-family="sans-serif" font-size="13" font-weight="bold" lengthAdjust="spacing" textLength="9" x="681" y="223.6094">5</text><text fill="#000000" font-family="sans-serif" font-size="13" lengthAdjust="spacing" textLength="28" x="694" y="223.6094">repo</text><polygon fill="#A80036" points="763,253.6621,773,257.6621,763,261.6621,767,257.6621" style="stroke:#A80036;stroke-width:1.0;"/><line style="stroke:#A80036;stroke-width:1.0;stroke-dasharray:2.0,2.0;" x1="664" x2="769" y1="257.6621" y2="257.6621"/><text fill="#000000" font-family="sans-serif" font-size="13" font-weight="bold" lengthAdjust="spacing" textLength="9" x="671" y="252.9199">6</text><text fill="#000000" font-family="sans-serif" font-size="13" lengthAdjust="spacing" textLength="74" x="684" y="252.9199">create(repo)</text><rect fill="#FEFECE" filter="url(#f1w954p9mvu463)" height="30.4883" style="stroke:#A80036;stroke-width:1.5;" width="175" x="775" y="236.3516"/><text fill="#000000" font-family="sans-serif" font-size="14" lengthAdjust="spacing" textLength="161" x="782" y="256.8867">service:CategoryService</text><polygon fill="#A80036" points="494,299.1504,484,303.1504,494,307.1504,490,303.1504" style="stroke:#A80036;stroke-width:1.0;"/><line style="stroke:#A80036;stroke-width:1.0;stroke-dasharray:2.0,2.0;" x1="488" x2="658" y1="303.1504" y2="303.1504"/><text fill="#000000" font-family="sans-serif" font-size="13" font-weight="bold" lengthAdjust="spacing" textLength="9" x="500" y="298.4082">7</text><text fill="#000000" font-family="sans-serif" font-size="13" lengthAdjust="spacing" textLength="44" x="513" y="298.4082">service</text><polygon fill="#A80036" points="847.5,328.4609,857.5,332.4609,847.5,336.4609,851.5,332.4609" style="stroke:#A80036;stroke-width:1.0;"/><line style="stroke:#A80036;stroke-width:1.0;" x1="483" x2="853.5" y1="332.4609" y2="332.4609"/><text fill="#000000" font-family="sans-serif" font-size="13" font-weight="bold" lengthAdjust="spacing" textLength="9" x="490" y="327.7188">8</text><text fill="#000000" font-family="sans-serif" font-size="13" lengthAdjust="spacing" textLength="155" x="503" y="327.7188">create(code, description)</text><polygon fill="#A80036" points="1353,357.7715,1363,361.7715,1353,365.7715,1357,361.7715" style="stroke:#A80036;stroke-width:1.0;"/><line style="stroke:#A80036;stroke-width:1.0;stroke-dasharray:2.0,2.0;" x1="869.5" x2="1359" y1="361.7715" y2="361.7715"/><text fill="#000000" font-family="sans-serif" font-size="13" font-weight="bold" lengthAdjust="spacing" textLength="9" x="876.5" y="357.0293">9</text><text fill="#000000" font-family="sans-serif" font-size="13" lengthAdjust="spacing" textLength="155" x="889.5" y="357.0293">create(code, description)</text><rect fill="#FEFECE" filter="url(#f1w954p9mvu463)" height="30.4883" style="stroke:#A80036;stroke-width:1.5;" width="100" x="1365" y="340.4609"/><text fill="#000000" font-family="sans-serif" font-size="14" lengthAdjust="spacing" textLength="86" x="1372" y="360.9961">cat:Category</text><polygon fill="#A80036" points="494,403.2598,484,407.2598,494,411.2598,490,407.2598" style="stroke:#A80036;stroke-width:1.0;"/><line style="stroke:#A80036;stroke-width:1.0;stroke-dasharray:2.0,2.0;" x1="488" x2="863.5" y1="407.2598" y2="407.2598"/><text fill="#000000" font-family="sans-serif" font-size="13" font-weight="bold" lengthAdjust="spacing" textLength="18" x="500" y="402.5176">10</text><text fill="#000000" font-family="sans-serif" font-size="13" lengthAdjust="spacing" textLength="19" x="522" y="402.5176">cat</text><polygon fill="#A80036" points="847.5,432.5703,857.5,436.5703,847.5,440.5703,851.5,436.5703" style="stroke:#A80036;stroke-width:1.0;"/><line style="stroke:#A80036;stroke-width:1.0;" x1="483" x2="853.5" y1="436.5703" y2="436.5703"/><text fill="#000000" font-family="sans-serif" font-size="13" font-weight="bold" lengthAdjust="spacing" textLength="18" x="490" y="431.8281">11</text><text fill="#000000" font-family="sans-serif" font-size="13" lengthAdjust="spacing" textLength="109" x="512" y="431.8281">addOrUpdate(cat)</text><line style="stroke:#A80036;stroke-width:1.0;" x1="869.5" x2="916.5" y1="460.8809" y2="460.8809"/><line style="stroke:#A80036;stroke-width:1.0;" x1="916.5" x2="916.5" y1="460.8809" y2="473.8809"/><line style="stroke:#A80036;stroke-width:1.0;" x1="875.5" x2="916.5" y1="473.8809" y2="473.8809"/><polygon fill="#A80036" points="885.5,469.8809,875.5,473.8809,885.5,477.8809,881.5,473.8809" style="stroke:#A80036;stroke-width:1.0;"/><text fill="#000000" font-family="sans-serif" font-size="13" font-weight="bold" lengthAdjust="spacing" textLength="18" x="881.5" y="456.1387">12</text><text fill="#000000" font-family="sans-serif" font-size="13" lengthAdjust="spacing" textLength="76" x="903.5" y="456.1387">validate(cat)</text><line style="stroke:#A80036;stroke-width:1.0;stroke-dasharray:2.0,2.0;" x1="874.5" x2="916.5" y1="513.1914" y2="513.1914"/><line style="stroke:#A80036;stroke-width:1.0;stroke-dasharray:2.0,2.0;" x1="916.5" x2="916.5" y1="513.1914" y2="526.1914"/><line style="stroke:#A80036;stroke-width:1.0;stroke-dasharray:2.0,2.0;" x1="869.5" x2="916.5" y1="526.1914" y2="526.1914"/><polygon fill="#A80036" points="879.5,522.1914,869.5,526.1914,879.5,530.1914,875.5,526.1914" style="stroke:#A80036;stroke-width:1.0;"/><text fill="#000000" font-family="sans-serif" font-size="13" font-weight="bold" lengthAdjust="spacing" textLength="18" x="881.5" y="508.4492">13</text><text fill="#000000" font-family="sans-serif" font-size="13" lengthAdjust="spacing" textLength="16" x="903.5" y="508.4492">ok</text><polygon fill="#A80036" points="1243.5,546.502,1253.5,550.502,1243.5,554.502,1247.5,550.502" style="stroke:#A80036;stroke-width:1.0;"/><line style="stroke:#A80036;stroke-width:1.0;" x1="869.5" x2="1249.5" y1="550.502" y2="550.502"/><text fill="#000000" font-family="sans-serif" font-size="13" font-weight="bold" lengthAdjust="spacing" textLength="18" x="876.5" y="545.7598">14</text><text fill="#000000" font-family="sans-serif" font-size="13" lengthAdjust="spacing" textLength="55" x="898.5" y="545.7598">save(cat)</text><polygon fill="#A80036" points="880.5,575.8125,870.5,579.8125,880.5,583.8125,876.5,579.8125" style="stroke:#A80036;stroke-width:1.0;"/><line style="stroke:#A80036;stroke-width:1.0;stroke-dasharray:2.0,2.0;" x1="874.5" x2="1259.5" y1="579.8125" y2="579.8125"/><text fill="#000000" font-family="sans-serif" font-size="13" font-weight="bold" lengthAdjust="spacing" textLength="18" x="886.5" y="575.0703">15</text><text fill="#000000" font-family="sans-serif" font-size="13" lengthAdjust="spacing" textLength="16" x="908.5" y="575.0703">ok</text><polygon fill="#A80036" points="494,605.123,484,609.123,494,613.123,490,609.123" style="stroke:#A80036;stroke-width:1.0;"/><line style="stroke:#A80036;stroke-width:1.0;stroke-dasharray:2.0,2.0;" x1="488" x2="863.5" y1="609.123" y2="609.123"/><text fill="#000000" font-family="sans-serif" font-size="13" font-weight="bold" lengthAdjust="spacing" textLength="18" x="500" y="604.3809">16</text><text fill="#000000" font-family="sans-serif" font-size="13" lengthAdjust="spacing" textLength="16" x="522" y="604.3809">ok</text><polygon fill="#A80036" points="1467,634.4336,1477,638.4336,1467,642.4336,1471,638.4336" style="stroke:#A80036;stroke-width:1.0;"/><line style="stroke:#A80036;stroke-width:1.0;stroke-dasharray:2.0,2.0;" x1="483" x2="1473" y1="638.4336" y2="638.4336"/><text fill="#000000" font-family="sans-serif" font-size="13" font-weight="bold" lengthAdjust="spacing" textLength="18" x="490" y="633.6914">17</text><text fill="#000000" font-family="sans-serif" font-size="13" lengthAdjust="spacing" textLength="70" x="512" y="633.6914">create(201)</text><rect fill="#FEFECE" filter="url(#f1w954p9mvu463)" height="30.4883" style="stroke:#A80036;stroke-width:1.5;" width="128" x="1479" y="617.123"/><text fill="#000000" font-family="sans-serif" font-size="14" lengthAdjust="spacing" textLength="114" x="1486" y="637.6582">result:HttpResult</text><polygon fill="#A80036" points="251,679.9219,241,683.9219,251,687.9219,247,683.9219" style="stroke:#A80036;stroke-width:1.0;"/><line style="stroke:#A80036;stroke-width:1.0;stroke-dasharray:2.0,2.0;" x1="245" x2="477" y1="683.9219" y2="683.9219"/><text fill="#000000" font-family="sans-serif" font-size="13" font-weight="bold" lengthAdjust="spacing" textLength="18" x="257" y="679.1797">18</text><text fill="#000000" font-family="sans-serif" font-size="13" lengthAdjust="spacing" textLength="36" x="279" y="679.1797">result</text><line style="stroke:#A80036;stroke-width:1.0;" x1="240" x2="287" y1="708.2324" y2="708.2324"/><line style="stroke:#A80036;stroke-width:1.0;" x1="287" x2="287" y1="708.2324" y2="721.2324"/><line style="stroke:#A80036;stroke-width:1.0;" x1="246" x2="287" y1="721.2324" y2="721.2324"/><polygon fill="#A80036" points="256,717.2324,246,721.2324,256,725.2324,252,721.2324" style="stroke:#A80036;stroke-width:1.0;"/><text fill="#000000" font-family="sans-serif" font-size="13" font-weight="bold" lengthAdjust="spacing" textLength="18" x="252" y="703.4902">19</text><text fill="#000000" font-family="sans-serif" font-size="13" lengthAdjust="spacing" textLength="165" x="274" y="703.4902">setHttpResult(resp, result)</text><line style="stroke:#A80036;stroke-width:1.0;stroke-dasharray:2.0,2.0;" x1="245" x2="287" y1="760.543" y2="760.543"/><line style="stroke:#A80036;stroke-width:1.0;stroke-dasharray:2.0,2.0;" x1="287" x2="287" y1="760.543" y2="773.543"/><line style="stroke:#A80036;stroke-width:1.0;stroke-dasharray:2.0,2.0;" x1="240" x2="287" y1="773.543" y2="773.543"/><polygon fill="#A80036" points="250,769.543,240,773.543,250,777.543,246,773.543" style="stroke:#A80036;stroke-width:1.0;"/><text fill="#000000" font-family="sans-serif" font-size="13" font-weight="bold" lengthAdjust="spacing" textLength="18" x="252" y="755.8008">20</text><text fill="#000000" font-family="sans-serif" font-size="13" lengthAdjust="spacing" textLength="0" x="278" y="755.8008"/><polygon fill="#A80036" points="70,793.8535,60,797.8535,70,801.8535,66,797.8535" style="stroke:#A80036;stroke-width:1.0;"/><line style="stroke:#A80036;stroke-width:1.0;stroke-dasharray:2.0,2.0;" x1="64" x2="234" y1="797.8535" y2="797.8535"/><text fill="#000000" font-family="sans-serif" font-size="13" font-weight="bold" lengthAdjust="spacing" textLength="18" x="76" y="793.1113">21</text><text fill="#000000" font-family="sans-serif" font-size="13" lengthAdjust="spacing" textLength="27" x="98" y="793.1113">resp</text><!--MD5=[5c7d111c9051cc5c4b1e235c4356c06f]
@startuml
'https://plantuml.com/sequence-diagram
autoactivate on
autonumber

participant ":HTTPClient" as HTTPClient

participant "handler:RouteHandler" as System
participant ":CategoryController" as Ctrl
participant ":Person" as Person
participant "service:CategoryService" as Service
participant "factory:RepositoryFactory" as Factory
participant "repo:CategoryRepository" as Repo
participant "cat:Category" as Category
participant "result:HttpResult" as Result

activate HTTPClient

HTTPClient -> System: POST/categories(data)

note over System: after doing some stuff

System -> Ctrl: postCategory(code, description)
Ctrl -> Person: getCategoriesService()
Person -> Factory : getCategoriesRepository()
Factory - -> Person: repo
Person - ->Service**: create(repo)
Person - -> Ctrl: service
Ctrl -> Service: create(code, description)
Service - -> Category**: create(code, description)
Service - -> Ctrl: cat
Ctrl -> Service: addOrUpdate(cat)
Service -> Service : validate(cat)
Service - -> Service : ok
Service -> Repo: save(cat)
Repo - -> Service : ok
Service - -> Ctrl: ok
Ctrl - -> Result**: create(201)
Ctrl - -> System: result
System -> System: setHttpResult(resp, result)
System - -> System:
System - -> HTTPClient: resp
@enduml

@startuml
autoactivate on
autonumber

participant ":HTTPClient" as HTTPClient

participant "handler:RouteHandler" as System
participant ":CategoryController" as Ctrl
participant ":Person" as Person
participant "service:CategoryService" as Service
participant "factory:RepositoryFactory" as Factory
participant "repo:CategoryRepository" as Repo
participant "cat:Category" as Category
participant "result:HttpResult" as Result

activate HTTPClient

HTTPClient -> System: POST/categories(data)

note over System: after doing some stuff

System -> Ctrl: postCategory(code, description)
Ctrl -> Person: getCategoriesService()
Person -> Factory : getCategoriesRepository()
Factory - -> Person: repo
Person - ->Service**: create(repo)
Person - -> Ctrl: service
Ctrl -> Service: create(code, description)
Service - -> Category**: create(code, description)
Service - -> Ctrl: cat
Ctrl -> Service: addOrUpdate(cat)
Service -> Service : validate(cat)
Service - -> Service : ok
Service -> Repo: save(cat)
Repo - -> Service : ok
Service - -> Ctrl: ok
Ctrl - -> Result**: create(201)
Ctrl - -> System: result
System -> System: setHttpResult(resp, result)
System - -> System:
System - -> HTTPClient: resp
@enduml

PlantUML version 1.2021.7(Sun May 23 13:40:07 WEST 2021)
(GPL source distribution)
Java Runtime: OpenJDK Runtime Environment
JVM: OpenJDK 64-Bit Server VM
Default Encoding: UTF-8
Language: en
Country: PT
--></g></svg>