<?xml version="1.0" encoding="UTF-8" standalone="no"?><svg xmlns="http://www.w3.org/2000/svg" xmlns:xlink="http://www.w3.org/1999/xlink" contentScriptType="application/ecmascript" contentStyleType="text/css" height="483px" preserveAspectRatio="none" style="width:807px;height:483px;background:#FFFFFF;" version="1.1" viewBox="0 0 807 483" width="807px" zoomAndPan="magnify"><defs><filter height="300%" id="f1czoloscib9wr" width="300%" x="-1" y="-1"><feGaussianBlur result="blurOut" stdDeviation="2.0"/><feColorMatrix in="blurOut" result="blurOut2" type="matrix" values="0 0 0 0 0 0 0 0 0 0 0 0 0 0 0 0 0 0 .4 0"/><feOffset dx="4.0" dy="4.0" in="blurOut2" result="blurOut3"/><feBlend in="SourceGraphic" in2="blurOut3" mode="normal"/></filter></defs><g><!--MD5=[2405bfca23c29642486e3a36ffcb6bfd]
class CreateCategoryView--><rect codeLine="6" fill="#FEFECE" filter="url(#f1czoloscib9wr)" height="40.1328" id="CreateCategoryView" style="stroke:#A80036;stroke-width:1.5;" width="122" x="422.5" y="7"/><text fill="#000000" font-family="sans-serif" font-size="12" lengthAdjust="spacing" textLength="116" x="425.5" y="23.6016">CreateCategoryView</text><line style="stroke:#A80036;stroke-width:1.5;" x1="423.5" x2="543.5" y1="31.1328" y2="31.1328"/><line style="stroke:#A80036;stroke-width:1.5;" x1="423.5" x2="543.5" y1="39.1328" y2="39.1328"/><!--MD5=[6dd18ba95f5ac9213240d60977dc4d14]
class CreateCategoryController--><rect codeLine="9" fill="#FEFECE" filter="url(#f1czoloscib9wr)" height="66.043" id="CreateCategoryController" style="stroke:#A80036;stroke-width:1.5;" width="303" x="332" y="108"/><text fill="#000000" font-family="sans-serif" font-size="12" lengthAdjust="spacing" textLength="145" x="411" y="124.6016">CreateCategoryController</text><line style="stroke:#A80036;stroke-width:1.5;" x1="333" x2="634" y1="132.1328" y2="132.1328"/><line style="stroke:#A80036;stroke-width:1.5;" x1="333" x2="634" y1="140.1328" y2="140.1328"/><text fill="#000000" font-family="sans-serif" font-size="11" lengthAdjust="spacing" textLength="291" x="338" y="154.7676">+createCategory(string code, string description): void</text><text fill="#000000" font-family="sans-serif" font-size="11" lengthAdjust="spacing" textLength="171" x="338" y="167.7227">+saveCreatedCategory(): Result</text><!--MD5=[09ce52be0ee7de43c61b6e2d59bf108b]
class Person--><rect codeLine="14" fill="#FEFECE" filter="url(#f1czoloscib9wr)" height="66.043" id="Person" style="stroke:#A80036;stroke-width:1.5;" width="235" x="29" y="241.5"/><text fill="#000000" font-family="sans-serif" font-size="12" lengthAdjust="spacing" textLength="39" x="127" y="258.1016">Person</text><line style="stroke:#A80036;stroke-width:1.5;" x1="30" x2="263" y1="265.6328" y2="265.6328"/><text fill="#000000" font-family="sans-serif" font-size="11" lengthAdjust="spacing" textLength="35" x="35" y="280.2676">-name</text><line style="stroke:#A80036;stroke-width:1.5;" x1="30" x2="263" y1="286.5879" y2="286.5879"/><text fill="#000000" font-family="sans-serif" font-size="11" lengthAdjust="spacing" textLength="223" x="35" y="301.2227">+getCategoriesService(): CategoryService</text><!--MD5=[18e00b38c5644b2e127bdcf6e6ccd320]
class CategoryService--><rect codeLine="19" fill="#FEFECE" filter="url(#f1czoloscib9wr)" height="78.998" id="CategoryService" style="stroke:#A80036;stroke-width:1.5;" width="280" x="343.5" y="235"/><text fill="#000000" font-family="sans-serif" font-size="12" lengthAdjust="spacing" textLength="91" x="438" y="251.6016">CategoryService</text><line style="stroke:#A80036;stroke-width:1.5;" x1="344.5" x2="622.5" y1="259.1328" y2="259.1328"/><line style="stroke:#A80036;stroke-width:1.5;" x1="344.5" x2="622.5" y1="267.1328" y2="267.1328"/><text fill="#000000" font-family="sans-serif" font-size="11" lengthAdjust="spacing" textLength="263" x="349.5" y="281.7676">+CategoryService(CategoryRepository catsRepo)</text><text fill="#000000" font-family="sans-serif" font-size="11" lengthAdjust="spacing" textLength="268" x="349.5" y="294.7227">+create(string code, string description): Category</text><text fill="#000000" font-family="sans-serif" font-size="11" lengthAdjust="spacing" textLength="197" x="349.5" y="307.6777">+addOrUpdate(Category obj): Result</text><!--MD5=[b3c2230271250b561f28a9e8cd979a92]
class CategoryRepository--><rect codeLine="25" fill="#FEFECE" filter="url(#f1czoloscib9wr)" height="67.2207" id="CategoryRepository" style="stroke:#A80036;stroke-width:1.5;" width="161" x="317" y="397"/><text fill="#000000" font-family="sans-serif" font-size="12" font-style="italic" lengthAdjust="spacing" textLength="62" x="366.5" y="413.6016">«interface»</text><text fill="#000000" font-family="sans-serif" font-size="12" font-style="italic" lengthAdjust="spacing" textLength="112" x="341.5" y="427.7344">CategoryRepository</text><line style="stroke:#A80036;stroke-width:1.5;" x1="318" x2="477" y1="435.2656" y2="435.2656"/><line style="stroke:#A80036;stroke-width:1.5;" x1="318" x2="477" y1="443.2656" y2="443.2656"/><text fill="#000000" font-family="sans-serif" font-size="11" lengthAdjust="spacing" textLength="149" x="323" y="457.9004">+save(Category obj): Result</text><!--MD5=[48590afff58a68e2fcba47824d6f8a11]
class RepositoryFactory--><rect codeLine="29" fill="#FEFECE" filter="url(#f1czoloscib9wr)" height="67.2207" id="RepositoryFactory" style="stroke:#A80036;stroke-width:1.5;" width="275" x="7" y="397"/><text fill="#000000" font-family="sans-serif" font-size="12" font-style="italic" lengthAdjust="spacing" textLength="62" x="113.5" y="413.6016">«interface»</text><text fill="#000000" font-family="sans-serif" font-size="12" font-style="italic" lengthAdjust="spacing" textLength="102" x="93.5" y="427.7344">RepositoryFactory</text><line style="stroke:#A80036;stroke-width:1.5;" x1="8" x2="281" y1="435.2656" y2="435.2656"/><line style="stroke:#A80036;stroke-width:1.5;" x1="8" x2="281" y1="443.2656" y2="443.2656"/><text fill="#000000" font-family="sans-serif" font-size="11" lengthAdjust="spacing" textLength="263" x="13" y="457.9004">+getCategoriesRepository(): CategoryRepository</text><!--MD5=[a96594a83e2ecdc78cbf17c2ddf01934]
class Category--><rect codeLine="33" fill="#FEFECE" filter="url(#f1czoloscib9wr)" height="78.998" id="Category" style="stroke:#A80036;stroke-width:1.5;" width="232" x="561.5" y="391"/><text fill="#000000" font-family="sans-serif" font-size="12" lengthAdjust="spacing" textLength="51" x="652" y="407.6016">Category</text><line style="stroke:#A80036;stroke-width:1.5;" x1="562.5" x2="792.5" y1="415.1328" y2="415.1328"/><text fill="#000000" font-family="sans-serif" font-size="11" lengthAdjust="spacing" textLength="32" x="567.5" y="429.7676">-code</text><text fill="#000000" font-family="sans-serif" font-size="11" lengthAdjust="spacing" textLength="67" x="567.5" y="442.7227">-description</text><line style="stroke:#A80036;stroke-width:1.5;" x1="562.5" x2="792.5" y1="449.043" y2="449.043"/><text fill="#000000" font-family="sans-serif" font-size="11" lengthAdjust="spacing" textLength="220" x="567.5" y="463.6777">Category(string code, string description)</text><!--MD5=[319e1356540cc122fc612065e939d96a]
link Person to RepositoryFactory--><path codeLine="39" d="M146.08,307.78 C145.76,332.34 145.32,366.19 144.99,391.95 " fill="none" id="Person-to-RepositoryFactory" style="stroke:#A80036;stroke-width:1.0;"/><polygon fill="#A80036" points="144.92,396.99,149.0482,388.0481,144.9914,391.9905,141.049,387.9338,144.92,396.99" style="stroke:#A80036;stroke-width:1.0;"/><text fill="#000000" font-family="sans-serif" font-size="13" lengthAdjust="spacing" textLength="29" x="147.5" y="357.5684">uses</text><text fill="#000000" font-family="sans-serif" font-size="13" lengthAdjust="spacing" textLength="8" x="137.2374" y="328.1476">1</text><text fill="#000000" font-family="sans-serif" font-size="13" lengthAdjust="spacing" textLength="8" x="136.1816" y="386.1093">1</text><!--MD5=[fb0b92275b6fb9ced4ecc1678c39a4eb]
link CategoryRepository to Category--><path codeLine="40" d="M478.11,430.5 C502.42,430.5 529.66,430.5 556.01,430.5 " fill="none" id="CategoryRepository-to-Category" style="stroke:#A80036;stroke-width:1.0;"/><polygon fill="#A80036" points="561.27,430.5,552.27,426.5,556.27,430.5,552.27,434.5,561.27,430.5" style="stroke:#A80036;stroke-width:1.0;"/><text fill="#000000" font-family="sans-serif" font-size="13" lengthAdjust="spacing" textLength="47" x="496.25" y="424.0684">records</text><text fill="#000000" font-family="sans-serif" font-size="13" lengthAdjust="spacing" textLength="8" x="485.91" y="427.3811">1</text><text fill="#000000" font-family="sans-serif" font-size="13" lengthAdjust="spacing" textLength="22" x="531.5169" y="443.5349">0..*</text><!--MD5=[26db41320b9081cfb92677269ae1a4d7]
link CreateCategoryView to CreateCategoryController--><path codeLine="42" d="M483.5,47.25 C483.5,62.46 483.5,84.14 483.5,102.72 " fill="none" id="CreateCategoryView-to-CreateCategoryController" style="stroke:#A80036;stroke-width:1.0;stroke-dasharray:7.0,7.0;"/><polygon fill="#A80036" points="483.5,107.86,487.5,98.86,483.5,102.86,479.5,98.86,483.5,107.86" style="stroke:#A80036;stroke-width:1.0;"/><!--MD5=[8b57127e7a5f244fc1cb409a7563e6d9]
link CreateCategoryController to Person--><path codeLine="43" d="M401.49,174 C350.63,193.85 285.33,219.33 233.55,239.53 " fill="none" id="CreateCategoryController-to-Person" style="stroke:#A80036;stroke-width:1.0;stroke-dasharray:7.0,7.0;"/><polygon fill="#A80036" points="228.58,241.47,238.4181,241.9302,233.2389,239.655,235.5141,234.4759,228.58,241.47" style="stroke:#A80036;stroke-width:1.0;"/><!--MD5=[6603fca6c2ee66b36d7a95342d1556e3]
link CreateCategoryController to CategoryService--><path codeLine="44" d="M483.5,174.17 C483.5,190.85 483.5,211.47 483.5,229.59 " fill="none" id="CreateCategoryController-to-CategoryService" style="stroke:#A80036;stroke-width:1.0;stroke-dasharray:7.0,7.0;"/><polygon fill="#A80036" points="483.5,234.63,487.5,225.63,483.5,229.63,479.5,225.63,483.5,234.63" style="stroke:#A80036;stroke-width:1.0;"/><!--MD5=[5fe5f66f58242069288beef9fde9411a]
link CategoryService to CategoryRepository--><path codeLine="45" d="M461.8,314.36 C448.46,338.25 431.46,368.7 418.29,392.28 " fill="none" id="CategoryService-to-CategoryRepository" style="stroke:#A80036;stroke-width:1.0;stroke-dasharray:7.0,7.0;"/><polygon fill="#A80036" points="415.71,396.9,423.6004,391.0058,418.1552,392.5387,416.6223,387.0935,415.71,396.9" style="stroke:#A80036;stroke-width:1.0;"/><!--MD5=[e6fb1c2b23d52d948972821967a538d4]
link CategoryService to Category--><path codeLine="46" d="M532.45,314.36 C560.59,336.7 595.95,364.76 624.7,387.59 " fill="none" id="CategoryService-to-Category" style="stroke:#A80036;stroke-width:1.0;stroke-dasharray:7.0,7.0;"/><polygon fill="#A80036" points="628.9,390.92,624.3476,382.1864,624.9873,387.807,619.3667,388.4467,628.9,390.92" style="stroke:#A80036;stroke-width:1.0;"/><!--MD5=[f244801ecdca53c61119c4846d2e8fff]
link CreateCategoryController to Category--><path codeLine="47" d="M566.85,174.03 C594.58,188.64 623.06,208.67 641.5,235 C672.73,279.6 679.09,343.56 679.4,385.8 " fill="none" id="CreateCategoryController-to-Category" style="stroke:#A80036;stroke-width:1.0;stroke-dasharray:7.0,7.0;"/><polygon fill="#A80036" points="679.41,390.84,683.3843,381.8286,679.3957,385.84,675.3843,381.8515,679.41,390.84" style="stroke:#A80036;stroke-width:1.0;"/><!--MD5=[b83f5f0c83d3a7a15dd7763b4e938c63]
link Person to CategoryService--><path codeLine="49" d="M264.37,274.5 C288.2,274.5 313.52,274.5 338.17,274.5 " fill="none" id="Person-to-CategoryService" style="stroke:#A80036;stroke-width:1.0;"/><polygon fill="#A80036" points="343.42,274.5,334.42,270.5,338.42,274.5,334.42,278.5,343.42,274.5" style="stroke:#A80036;stroke-width:1.0;"/><text fill="#000000" font-family="sans-serif" font-size="13" lengthAdjust="spacing" textLength="43" x="282.25" y="268.0684">adopts</text><!--MD5=[982d16d4d7400e6c46bfc612526ecb29]
link RepositoryFactory to CategoryRepository--><path codeLine="50" d="M282.37,430.5 C292.2,430.5 302.03,430.5 311.86,430.5 " fill="none" id="RepositoryFactory-to-CategoryRepository" style="stroke:#A80036;stroke-width:1.0;stroke-dasharray:7.0,7.0;"/><polygon fill="#A80036" points="317,430.5,308,426.5,312,430.5,308,434.5,317,430.5" style="stroke:#A80036;stroke-width:1.0;"/><!--MD5=[c9898493bfc8d22192eb109dc355ac33]
@startuml
'https://plantuml.com/class-diagram

hide circle
skinparam classAttributeIconSize 0

class CreateCategoryView {
}

class CreateCategoryController {
    +createCategory(string code, string description): void
    +saveCreatedCategory(): Result
}

class Person {
    - name
    +getCategoriesService(): CategoryService
}

class CategoryService {
+ CategoryService(CategoryRepository catsRepo)
+ create(string code, string description): Category
+ addOrUpdate(Category obj): Result
}

interface CategoryRepository <<interface>> {
+ save(Category obj): Result
}

interface RepositoryFactory <<interface>> {
+ getCategoriesRepository(): CategoryRepository
}

class Category {
    - code
    - description
    Category(string code, string description)
}

Person "1" -down-> "1" RepositoryFactory:  uses
CategoryRepository "1" -right-> "0..*" Category:  records

CreateCategoryView ..> CreateCategoryController
CreateCategoryController ..> Person
CreateCategoryController ..> CategoryService
CategoryService ..> CategoryRepository
CategoryService ..> Category
CreateCategoryController ..> Category

Person -> CategoryService: adopts
RepositoryFactory .right.> CategoryRepository

@enduml

@startuml

hide circle
skinparam classAttributeIconSize 0

class CreateCategoryView {
}

class CreateCategoryController {
    +createCategory(string code, string description): void
    +saveCreatedCategory(): Result
}

class Person {
    - name
    +getCategoriesService(): CategoryService
}

class CategoryService {
+ CategoryService(CategoryRepository catsRepo)
+ create(string code, string description): Category
+ addOrUpdate(Category obj): Result
}

interface CategoryRepository <<interface>> {
+ save(Category obj): Result
}

interface RepositoryFactory <<interface>> {
+ getCategoriesRepository(): CategoryRepository
}

class Category {
    - code
    - description
    Category(string code, string description)
}

Person "1" -down-> "1" RepositoryFactory:  uses
CategoryRepository "1" -right-> "0..*" Category:  records

CreateCategoryView ..> CreateCategoryController
CreateCategoryController ..> Person
CreateCategoryController ..> CategoryService
CategoryService ..> CategoryRepository
CategoryService ..> Category
CreateCategoryController ..> Category

Person -> CategoryService: adopts
RepositoryFactory .right.> CategoryRepository

@enduml

PlantUML version 1.2021.7(Sun May 23 13:40:07 WEST 2021)
(GPL source distribution)
Java Runtime: OpenJDK Runtime Environment
JVM: OpenJDK 64-Bit Server VM
Default Encoding: UTF-8
Language: en
Country: PT
--></g></svg>