<?xml version="1.0" encoding="UTF-8" standalone="no"?><svg xmlns="http://www.w3.org/2000/svg" xmlns:xlink="http://www.w3.org/1999/xlink" contentScriptType="application/ecmascript" contentStyleType="text/css" height="953px" preserveAspectRatio="none" style="width:1338px;height:953px;background:#FFFFFF;" version="1.1" viewBox="0 0 1338 953" width="1338px" zoomAndPan="magnify"><defs><filter height="300%" id="f1ragsdstvbxuj" width="300%" x="-1" y="-1"><feGaussianBlur result="blurOut" stdDeviation="2.0"/><feColorMatrix in="blurOut" result="blurOut2" type="matrix" values="0 0 0 0 0 0 0 0 0 0 0 0 0 0 0 0 0 0 .4 0"/><feOffset dx="4.0" dy="4.0" in="blurOut2" result="blurOut3"/><feBlend in="SourceGraphic" in2="blurOut3" mode="normal"/></filter></defs><g><rect fill="#FFFFFF" filter="url(#f1ragsdstvbxuj)" height="761.0742" style="stroke:#A80036;stroke-width:1.0;" width="10" x="26.5" y="98.4883"/><rect fill="#FFFFFF" filter="url(#f1ragsdstvbxuj)" height="220.4844" style="stroke:#A80036;stroke-width:1.0;" width="10" x="402.5" y="119.7988"/><rect fill="#FFFFFF" filter="url(#f1ragsdstvbxuj)" height="246.4844" style="stroke:#A80036;stroke-width:1.0;" width="10" x="402.5" y="369.5938"/><rect fill="#FFFFFF" filter="url(#f1ragsdstvbxuj)" height="40.3105" style="stroke:#A80036;stroke-width:1.0;" width="10" x="407.5" y="406.9043"/><rect fill="#FFFFFF" filter="url(#f1ragsdstvbxuj)" height="205.1738" style="stroke:#A80036;stroke-width:1.0;" width="10" x="402.5" y="645.3887"/><rect fill="#FFFFFF" filter="url(#f1ragsdstvbxuj)" height="146.5527" style="stroke:#A80036;stroke-width:1.0;" width="10" x="590.5" y="149.1094"/><rect fill="#FFFFFF" filter="url(#f1ragsdstvbxuj)" height="146.5527" style="stroke:#A80036;stroke-width:1.0;" width="10" x="590.5" y="674.6992"/><rect fill="#FFFFFF" filter="url(#f1ragsdstvbxuj)" height="29.3105" style="stroke:#A80036;stroke-width:1.0;" width="10" x="788.5" y="178.4199"/><rect fill="#FFFFFF" filter="url(#f1ragsdstvbxuj)" height="29.3105" style="stroke:#A80036;stroke-width:1.0;" width="10" x="941.5" y="237.041"/><rect fill="#FFFFFF" filter="url(#f1ragsdstvbxuj)" height="29.3105" style="stroke:#A80036;stroke-width:1.0;" width="10" x="941.5" y="704.0098"/><rect fill="#FFFFFF" filter="url(#f1ragsdstvbxuj)" height="29.3105" style="stroke:#A80036;stroke-width:1.0;" width="10" x="941.5" y="762.6309"/><rect fill="#FFFFFF" filter="url(#f1ragsdstvbxuj)" height="29.3105" style="stroke:#A80036;stroke-width:1.0;" width="10" x="1271" y="483.5254"/><rect fill="#FFFFFF" filter="url(#f1ragsdstvbxuj)" height="29.3105" style="stroke:#A80036;stroke-width:1.0;" width="10" x="1271" y="542.1465"/><line style="stroke:#A80036;stroke-width:1.0;stroke-dasharray:5.0,5.0;" x1="31" x2="31" y1="88.4883" y2="868.5625"/><line style="stroke:#A80036;stroke-width:1.0;stroke-dasharray:5.0,5.0;" x1="407" x2="407" y1="88.4883" y2="868.5625"/><line style="stroke:#A80036;stroke-width:1.0;stroke-dasharray:5.0,5.0;" x1="595" x2="595" y1="88.4883" y2="868.5625"/><line style="stroke:#A80036;stroke-width:1.0;stroke-dasharray:5.0,5.0;" x1="793" x2="793" y1="88.4883" y2="868.5625"/><line style="stroke:#A80036;stroke-width:1.0;stroke-dasharray:5.0,5.0;" x1="946" x2="946" y1="88.4883" y2="868.5625"/><line style="stroke:#A80036;stroke-width:1.0;stroke-dasharray:5.0,5.0;" x1="1139" x2="1139" y1="88.4883" y2="868.5625"/><line style="stroke:#A80036;stroke-width:1.0;stroke-dasharray:5.0,5.0;" x1="1276" x2="1276" y1="88.4883" y2="868.5625"/><text fill="#000000" font-family="sans-serif" font-size="14" lengthAdjust="spacing" textLength="47" x="5" y="85.5352">Person</text><ellipse cx="31.5" cy="15" fill="#FEFECE" filter="url(#f1ragsdstvbxuj)" rx="8" ry="8" style="stroke:#A80036;stroke-width:2.0;"/><path d="M31.5,23 L31.5,50 M18.5,31 L44.5,31 M31.5,50 L18.5,65 M31.5,50 L44.5,65 " fill="none" filter="url(#f1ragsdstvbxuj)" style="stroke:#A80036;stroke-width:2.0;"/><text fill="#000000" font-family="sans-serif" font-size="14" lengthAdjust="spacing" textLength="47" x="5" y="881.0977">Person</text><ellipse cx="31.5" cy="894.0508" fill="#FEFECE" filter="url(#f1ragsdstvbxuj)" rx="8" ry="8" style="stroke:#A80036;stroke-width:2.0;"/><path d="M31.5,902.0508 L31.5,929.0508 M18.5,910.0508 L44.5,910.0508 M31.5,929.0508 L18.5,944.0508 M31.5,929.0508 L44.5,944.0508 " fill="none" filter="url(#f1ragsdstvbxuj)" style="stroke:#A80036;stroke-width:2.0;"/><rect fill="#FEFECE" filter="url(#f1ragsdstvbxuj)" height="30.4883" style="stroke:#A80036;stroke-width:1.5;" width="155" x="328" y="53"/><text fill="#000000" font-family="sans-serif" font-size="14" lengthAdjust="spacing" textLength="141" x="335" y="73.5352">:DeleteCategoryView</text><rect fill="#FEFECE" filter="url(#f1ragsdstvbxuj)" height="30.4883" style="stroke:#A80036;stroke-width:1.5;" width="155" x="328" y="867.5625"/><text fill="#000000" font-family="sans-serif" font-size="14" lengthAdjust="spacing" textLength="141" x="335" y="888.0977">:DeleteCategoryView</text><rect fill="#FEFECE" filter="url(#f1ragsdstvbxuj)" height="30.4883" style="stroke:#A80036;stroke-width:1.5;" width="193" x="497" y="53"/><text fill="#000000" font-family="sans-serif" font-size="14" lengthAdjust="spacing" textLength="179" x="504" y="73.5352">:DeleteCategoryController</text><rect fill="#FEFECE" filter="url(#f1ragsdstvbxuj)" height="30.4883" style="stroke:#A80036;stroke-width:1.5;" width="193" x="497" y="867.5625"/><text fill="#000000" font-family="sans-serif" font-size="14" lengthAdjust="spacing" textLength="179" x="504" y="888.0977">:DeleteCategoryController</text><rect fill="#FEFECE" filter="url(#f1ragsdstvbxuj)" height="30.4883" style="stroke:#A80036;stroke-width:1.5;" width="65" x="759" y="53"/><text fill="#000000" font-family="sans-serif" font-size="14" lengthAdjust="spacing" textLength="51" x="766" y="73.5352">:Person</text><rect fill="#FEFECE" filter="url(#f1ragsdstvbxuj)" height="30.4883" style="stroke:#A80036;stroke-width:1.5;" width="65" x="759" y="867.5625"/><text fill="#000000" font-family="sans-serif" font-size="14" lengthAdjust="spacing" textLength="51" x="766" y="888.0977">:Person</text><rect fill="#FEFECE" filter="url(#f1ragsdstvbxuj)" height="30.4883" style="stroke:#A80036;stroke-width:1.5;" width="213" x="838" y="53"/><text fill="#000000" font-family="sans-serif" font-size="14" lengthAdjust="spacing" textLength="199" x="845" y="73.5352">container:CategoryContainer</text><rect fill="#FEFECE" filter="url(#f1ragsdstvbxuj)" height="30.4883" style="stroke:#A80036;stroke-width:1.5;" width="213" x="838" y="867.5625"/><text fill="#000000" font-family="sans-serif" font-size="14" lengthAdjust="spacing" textLength="199" x="845" y="888.0977">container:CategoryContainer</text><rect fill="#FEFECE" filter="url(#f1ragsdstvbxuj)" height="30.4883" style="stroke:#A80036;stroke-width:1.5;" width="145" x="1065" y="53"/><text fill="#000000" font-family="sans-serif" font-size="14" lengthAdjust="spacing" textLength="131" x="1072" y="73.5352">list:List&lt;Category&gt;</text><rect fill="#FEFECE" filter="url(#f1ragsdstvbxuj)" height="30.4883" style="stroke:#A80036;stroke-width:1.5;" width="145" x="1065" y="867.5625"/><text fill="#000000" font-family="sans-serif" font-size="14" lengthAdjust="spacing" textLength="131" x="1072" y="888.0977">list:List&lt;Category&gt;</text><rect fill="#FEFECE" filter="url(#f1ragsdstvbxuj)" height="30.4883" style="stroke:#A80036;stroke-width:1.5;" width="100" x="1224" y="53"/><text fill="#000000" font-family="sans-serif" font-size="14" lengthAdjust="spacing" textLength="86" x="1231" y="73.5352">cat:Category</text><rect fill="#FEFECE" filter="url(#f1ragsdstvbxuj)" height="30.4883" style="stroke:#A80036;stroke-width:1.5;" width="100" x="1224" y="867.5625"/><text fill="#000000" font-family="sans-serif" font-size="14" lengthAdjust="spacing" textLength="86" x="1231" y="888.0977">cat:Category</text><rect fill="#FFFFFF" filter="url(#f1ragsdstvbxuj)" height="761.0742" style="stroke:#A80036;stroke-width:1.0;" width="10" x="26.5" y="98.4883"/><rect fill="#FFFFFF" filter="url(#f1ragsdstvbxuj)" height="220.4844" style="stroke:#A80036;stroke-width:1.0;" width="10" x="402.5" y="119.7988"/><rect fill="#FFFFFF" filter="url(#f1ragsdstvbxuj)" height="246.4844" style="stroke:#A80036;stroke-width:1.0;" width="10" x="402.5" y="369.5938"/><rect fill="#FFFFFF" filter="url(#f1ragsdstvbxuj)" height="40.3105" style="stroke:#A80036;stroke-width:1.0;" width="10" x="407.5" y="406.9043"/><rect fill="#FFFFFF" filter="url(#f1ragsdstvbxuj)" height="205.1738" style="stroke:#A80036;stroke-width:1.0;" width="10" x="402.5" y="645.3887"/><rect fill="#FFFFFF" filter="url(#f1ragsdstvbxuj)" height="146.5527" style="stroke:#A80036;stroke-width:1.0;" width="10" x="590.5" y="149.1094"/><rect fill="#FFFFFF" filter="url(#f1ragsdstvbxuj)" height="146.5527" style="stroke:#A80036;stroke-width:1.0;" width="10" x="590.5" y="674.6992"/><rect fill="#FFFFFF" filter="url(#f1ragsdstvbxuj)" height="29.3105" style="stroke:#A80036;stroke-width:1.0;" width="10" x="788.5" y="178.4199"/><rect fill="#FFFFFF" filter="url(#f1ragsdstvbxuj)" height="29.3105" style="stroke:#A80036;stroke-width:1.0;" width="10" x="941.5" y="237.041"/><rect fill="#FFFFFF" filter="url(#f1ragsdstvbxuj)" height="29.3105" style="stroke:#A80036;stroke-width:1.0;" width="10" x="941.5" y="704.0098"/><rect fill="#FFFFFF" filter="url(#f1ragsdstvbxuj)" height="29.3105" style="stroke:#A80036;stroke-width:1.0;" width="10" x="941.5" y="762.6309"/><rect fill="#FFFFFF" filter="url(#f1ragsdstvbxuj)" height="29.3105" style="stroke:#A80036;stroke-width:1.0;" width="10" x="1271" y="483.5254"/><rect fill="#FFFFFF" filter="url(#f1ragsdstvbxuj)" height="29.3105" style="stroke:#A80036;stroke-width:1.0;" width="10" x="1271" y="542.1465"/><polygon fill="#A80036" points="390.5,115.7988,400.5,119.7988,390.5,123.7988,394.5,119.7988" style="stroke:#A80036;stroke-width:1.0;"/><line style="stroke:#A80036;stroke-width:1.0;" x1="36.5" x2="396.5" y1="119.7988" y2="119.7988"/><text fill="#000000" font-family="sans-serif" font-size="13" font-weight="bold" lengthAdjust="spacing" textLength="9" x="43.5" y="115.0566">1</text><text fill="#000000" font-family="sans-serif" font-size="13" lengthAdjust="spacing" textLength="157" x="56.5" y="115.0566">asks to delete a category</text><polygon fill="#A80036" points="578.5,145.1094,588.5,149.1094,578.5,153.1094,582.5,149.1094" style="stroke:#A80036;stroke-width:1.0;"/><line style="stroke:#A80036;stroke-width:1.0;" x1="412.5" x2="584.5" y1="149.1094" y2="149.1094"/><text fill="#000000" font-family="sans-serif" font-size="13" font-weight="bold" lengthAdjust="spacing" textLength="9" x="419.5" y="144.3672">2</text><text fill="#000000" font-family="sans-serif" font-size="13" lengthAdjust="spacing" textLength="45" x="432.5" y="144.3672">getAll()</text><polygon fill="#A80036" points="776.5,174.4199,786.5,178.4199,776.5,182.4199,780.5,178.4199" style="stroke:#A80036;stroke-width:1.0;"/><line style="stroke:#A80036;stroke-width:1.0;" x1="600.5" x2="782.5" y1="178.4199" y2="178.4199"/><text fill="#000000" font-family="sans-serif" font-size="13" font-weight="bold" lengthAdjust="spacing" textLength="9" x="607.5" y="173.6777">3</text><text fill="#000000" font-family="sans-serif" font-size="13" lengthAdjust="spacing" textLength="156" x="620.5" y="173.6777">getCategoriesService()</text><polygon fill="#A80036" points="611.5,203.7305,601.5,207.7305,611.5,211.7305,607.5,207.7305" style="stroke:#A80036;stroke-width:1.0;"/><line style="stroke:#A80036;stroke-width:1.0;stroke-dasharray:2.0,2.0;" x1="605.5" x2="792.5" y1="207.7305" y2="207.7305"/><text fill="#000000" font-family="sans-serif" font-size="13" font-weight="bold" lengthAdjust="spacing" textLength="9" x="617.5" y="202.9883">4</text><text fill="#000000" font-family="sans-serif" font-size="13" lengthAdjust="spacing" textLength="59" x="630.5" y="202.9883">container</text><polygon fill="#A80036" points="929.5,233.041,939.5,237.041,929.5,241.041,933.5,237.041" style="stroke:#A80036;stroke-width:1.0;"/><line style="stroke:#A80036;stroke-width:1.0;" x1="600.5" x2="935.5" y1="237.041" y2="237.041"/><text fill="#000000" font-family="sans-serif" font-size="13" font-weight="bold" lengthAdjust="spacing" textLength="9" x="607.5" y="232.2988">5</text><text fill="#000000" font-family="sans-serif" font-size="13" lengthAdjust="spacing" textLength="45" x="620.5" y="232.2988">getAll()</text><polygon fill="#A80036" points="611.5,262.3516,601.5,266.3516,611.5,270.3516,607.5,266.3516" style="stroke:#A80036;stroke-width:1.0;"/><line style="stroke:#A80036;stroke-width:1.0;stroke-dasharray:2.0,2.0;" x1="605.5" x2="945.5" y1="266.3516" y2="266.3516"/><text fill="#000000" font-family="sans-serif" font-size="13" font-weight="bold" lengthAdjust="spacing" textLength="9" x="617.5" y="261.6094">6</text><text fill="#000000" font-family="sans-serif" font-size="13" lengthAdjust="spacing" textLength="20" x="630.5" y="261.6094">list</text><polygon fill="#A80036" points="423.5,291.6621,413.5,295.6621,423.5,299.6621,419.5,295.6621" style="stroke:#A80036;stroke-width:1.0;"/><line style="stroke:#A80036;stroke-width:1.0;stroke-dasharray:2.0,2.0;" x1="417.5" x2="594.5" y1="295.6621" y2="295.6621"/><text fill="#000000" font-family="sans-serif" font-size="13" font-weight="bold" lengthAdjust="spacing" textLength="9" x="429.5" y="290.9199">7</text><text fill="#000000" font-family="sans-serif" font-size="13" lengthAdjust="spacing" textLength="20" x="442.5" y="290.9199">list</text><polygon fill="#A80036" points="47.5,336.2832,37.5,340.2832,47.5,344.2832,43.5,340.2832" style="stroke:#A80036;stroke-width:1.0;"/><line style="stroke:#A80036;stroke-width:1.0;stroke-dasharray:2.0,2.0;" x1="41.5" x2="406.5" y1="340.2832" y2="340.2832"/><text fill="#000000" font-family="sans-serif" font-size="13" font-weight="bold" lengthAdjust="spacing" textLength="9" x="53.5" y="327.8857">8</text><text fill="#000000" font-family="sans-serif" font-size="13" lengthAdjust="spacing" textLength="210" x="66.5" y="320.2305">shows all existing categories and</text><text fill="#000000" font-family="sans-serif" font-size="13" lengthAdjust="spacing" textLength="224" x="70.5" y="335.541">asks to select the one to be deleted</text><polygon fill="#A80036" points="390.5,365.5938,400.5,369.5938,390.5,373.5938,394.5,369.5938" style="stroke:#A80036;stroke-width:1.0;"/><line style="stroke:#A80036;stroke-width:1.0;" x1="36.5" x2="396.5" y1="369.5938" y2="369.5938"/><text fill="#000000" font-family="sans-serif" font-size="13" font-weight="bold" lengthAdjust="spacing" textLength="9" x="43.5" y="364.8516">9</text><text fill="#000000" font-family="sans-serif" font-size="13" lengthAdjust="spacing" textLength="185" x="56.5" y="364.8516">selects the intended category</text><line style="stroke:#A80036;stroke-width:1.0;" x1="412.5" x2="459.5" y1="393.9043" y2="393.9043"/><line style="stroke:#A80036;stroke-width:1.0;" x1="459.5" x2="459.5" y1="393.9043" y2="406.9043"/><line style="stroke:#A80036;stroke-width:1.0;" x1="418.5" x2="459.5" y1="406.9043" y2="406.9043"/><polygon fill="#A80036" points="428.5,402.9043,418.5,406.9043,428.5,410.9043,424.5,406.9043" style="stroke:#A80036;stroke-width:1.0;"/><text fill="#000000" font-family="sans-serif" font-size="13" font-weight="bold" lengthAdjust="spacing" textLength="18" x="424.5" y="389.1621">10</text><text fill="#000000" font-family="sans-serif" font-size="13" lengthAdjust="spacing" textLength="141" x="446.5" y="389.1621">findSelectedCategory()</text><line style="stroke:#A80036;stroke-width:1.0;stroke-dasharray:2.0,2.0;" x1="417.5" x2="459.5" y1="446.2148" y2="446.2148"/><line style="stroke:#A80036;stroke-width:1.0;stroke-dasharray:2.0,2.0;" x1="459.5" x2="459.5" y1="446.2148" y2="459.2148"/><line style="stroke:#A80036;stroke-width:1.0;stroke-dasharray:2.0,2.0;" x1="412.5" x2="459.5" y1="459.2148" y2="459.2148"/><polygon fill="#A80036" points="422.5,455.2148,412.5,459.2148,422.5,463.2148,418.5,459.2148" style="stroke:#A80036;stroke-width:1.0;"/><text fill="#000000" font-family="sans-serif" font-size="13" font-weight="bold" lengthAdjust="spacing" textLength="18" x="424.5" y="441.4727">11</text><text fill="#000000" font-family="sans-serif" font-size="13" lengthAdjust="spacing" textLength="19" x="446.5" y="441.4727">cat</text><polygon fill="#A80036" points="1259,479.5254,1269,483.5254,1259,487.5254,1263,483.5254" style="stroke:#A80036;stroke-width:1.0;"/><line style="stroke:#A80036;stroke-width:1.0;" x1="412.5" x2="1265" y1="483.5254" y2="483.5254"/><text fill="#000000" font-family="sans-serif" font-size="13" font-weight="bold" lengthAdjust="spacing" textLength="18" x="419.5" y="478.7832">12</text><text fill="#000000" font-family="sans-serif" font-size="13" lengthAdjust="spacing" textLength="60" x="441.5" y="478.7832">getCode()</text><polygon fill="#A80036" points="423.5,508.8359,413.5,512.8359,423.5,516.8359,419.5,512.8359" style="stroke:#A80036;stroke-width:1.0;"/><line style="stroke:#A80036;stroke-width:1.0;stroke-dasharray:2.0,2.0;" x1="417.5" x2="1275" y1="512.8359" y2="512.8359"/><text fill="#000000" font-family="sans-serif" font-size="13" font-weight="bold" lengthAdjust="spacing" textLength="18" x="429.5" y="508.0938">13</text><text fill="#000000" font-family="sans-serif" font-size="13" lengthAdjust="spacing" textLength="30" x="451.5" y="508.0938">code</text><polygon fill="#A80036" points="1259,538.1465,1269,542.1465,1259,546.1465,1263,542.1465" style="stroke:#A80036;stroke-width:1.0;"/><line style="stroke:#A80036;stroke-width:1.0;" x1="412.5" x2="1265" y1="542.1465" y2="542.1465"/><text fill="#000000" font-family="sans-serif" font-size="13" font-weight="bold" lengthAdjust="spacing" textLength="18" x="419.5" y="537.4043">14</text><text fill="#000000" font-family="sans-serif" font-size="13" lengthAdjust="spacing" textLength="101" x="441.5" y="537.4043">getDescription()</text><polygon fill="#A80036" points="423.5,567.457,413.5,571.457,423.5,575.457,419.5,571.457" style="stroke:#A80036;stroke-width:1.0;"/><line style="stroke:#A80036;stroke-width:1.0;stroke-dasharray:2.0,2.0;" x1="417.5" x2="1275" y1="571.457" y2="571.457"/><text fill="#000000" font-family="sans-serif" font-size="13" font-weight="bold" lengthAdjust="spacing" textLength="18" x="429.5" y="566.7148">15</text><text fill="#000000" font-family="sans-serif" font-size="13" lengthAdjust="spacing" textLength="71" x="451.5" y="566.7148">description</text><polygon fill="#A80036" points="47.5,612.0781,37.5,616.0781,47.5,620.0781,43.5,616.0781" style="stroke:#A80036;stroke-width:1.0;"/><line style="stroke:#A80036;stroke-width:1.0;stroke-dasharray:2.0,2.0;" x1="41.5" x2="406.5" y1="616.0781" y2="616.0781"/><text fill="#000000" font-family="sans-serif" font-size="13" font-weight="bold" lengthAdjust="spacing" textLength="18" x="53.5" y="603.6807">16</text><text fill="#000000" font-family="sans-serif" font-size="13" lengthAdjust="spacing" textLength="316" x="75.5" y="596.0254">shows code and description of the select category</text><text fill="#000000" font-family="sans-serif" font-size="13" lengthAdjust="spacing" textLength="232" x="79.5" y="611.3359">and requests a deleting confirmation</text><polygon fill="#A80036" points="390.5,641.3887,400.5,645.3887,390.5,649.3887,394.5,645.3887" style="stroke:#A80036;stroke-width:1.0;"/><line style="stroke:#A80036;stroke-width:1.0;" x1="36.5" x2="396.5" y1="645.3887" y2="645.3887"/><text fill="#000000" font-family="sans-serif" font-size="13" font-weight="bold" lengthAdjust="spacing" textLength="18" x="43.5" y="640.6465">17</text><text fill="#000000" font-family="sans-serif" font-size="13" lengthAdjust="spacing" textLength="56" x="65.5" y="640.6465">confirms</text><polygon fill="#A80036" points="578.5,670.6992,588.5,674.6992,578.5,678.6992,582.5,674.6992" style="stroke:#A80036;stroke-width:1.0;"/><line style="stroke:#A80036;stroke-width:1.0;" x1="412.5" x2="584.5" y1="674.6992" y2="674.6992"/><text fill="#000000" font-family="sans-serif" font-size="13" font-weight="bold" lengthAdjust="spacing" textLength="18" x="419.5" y="669.957">18</text><text fill="#000000" font-family="sans-serif" font-size="13" lengthAdjust="spacing" textLength="132" x="441.5" y="669.957">deleteCategory(code)</text><polygon fill="#A80036" points="929.5,700.0098,939.5,704.0098,929.5,708.0098,933.5,704.0098" style="stroke:#A80036;stroke-width:1.0;"/><line style="stroke:#A80036;stroke-width:1.0;" x1="600.5" x2="935.5" y1="704.0098" y2="704.0098"/><text fill="#000000" font-family="sans-serif" font-size="13" font-weight="bold" lengthAdjust="spacing" textLength="18" x="607.5" y="699.2676">19</text><text fill="#000000" font-family="sans-serif" font-size="13" lengthAdjust="spacing" textLength="89" x="629.5" y="699.2676">findById(code)</text><polygon fill="#A80036" points="611.5,729.3203,601.5,733.3203,611.5,737.3203,607.5,733.3203" style="stroke:#A80036;stroke-width:1.0;"/><line style="stroke:#A80036;stroke-width:1.0;stroke-dasharray:2.0,2.0;" x1="605.5" x2="945.5" y1="733.3203" y2="733.3203"/><text fill="#000000" font-family="sans-serif" font-size="13" font-weight="bold" lengthAdjust="spacing" textLength="18" x="617.5" y="728.5781">20</text><text fill="#000000" font-family="sans-serif" font-size="13" lengthAdjust="spacing" textLength="19" x="639.5" y="728.5781">cat</text><polygon fill="#A80036" points="929.5,758.6309,939.5,762.6309,929.5,766.6309,933.5,762.6309" style="stroke:#A80036;stroke-width:1.0;"/><line style="stroke:#A80036;stroke-width:1.0;" x1="600.5" x2="935.5" y1="762.6309" y2="762.6309"/><text fill="#000000" font-family="sans-serif" font-size="13" font-weight="bold" lengthAdjust="spacing" textLength="18" x="607.5" y="757.8887">21</text><text fill="#000000" font-family="sans-serif" font-size="13" lengthAdjust="spacing" textLength="73" x="629.5" y="757.8887">remove(cat)</text><polygon fill="#A80036" points="611.5,787.9414,601.5,791.9414,611.5,795.9414,607.5,791.9414" style="stroke:#A80036;stroke-width:1.0;"/><line style="stroke:#A80036;stroke-width:1.0;stroke-dasharray:2.0,2.0;" x1="605.5" x2="945.5" y1="791.9414" y2="791.9414"/><text fill="#000000" font-family="sans-serif" font-size="13" font-weight="bold" lengthAdjust="spacing" textLength="18" x="617.5" y="787.1992">22</text><text fill="#000000" font-family="sans-serif" font-size="13" lengthAdjust="spacing" textLength="16" x="639.5" y="787.1992">ok</text><polygon fill="#A80036" points="423.5,817.252,413.5,821.252,423.5,825.252,419.5,821.252" style="stroke:#A80036;stroke-width:1.0;"/><line style="stroke:#A80036;stroke-width:1.0;stroke-dasharray:2.0,2.0;" x1="417.5" x2="594.5" y1="821.252" y2="821.252"/><text fill="#000000" font-family="sans-serif" font-size="13" font-weight="bold" lengthAdjust="spacing" textLength="18" x="429.5" y="816.5098">23</text><text fill="#000000" font-family="sans-serif" font-size="13" lengthAdjust="spacing" textLength="16" x="451.5" y="816.5098">ok</text><polygon fill="#A80036" points="47.5,846.5625,37.5,850.5625,47.5,854.5625,43.5,850.5625" style="stroke:#A80036;stroke-width:1.0;"/><line style="stroke:#A80036;stroke-width:1.0;stroke-dasharray:2.0,2.0;" x1="41.5" x2="406.5" y1="850.5625" y2="850.5625"/><text fill="#000000" font-family="sans-serif" font-size="13" font-weight="bold" lengthAdjust="spacing" textLength="18" x="53.5" y="845.8203">24</text><text fill="#000000" font-family="sans-serif" font-size="13" lengthAdjust="spacing" textLength="167" x="75.5" y="845.8203">informs operation success</text><!--MD5=[23f94c36eb2030374be75fd410a6e48f]
@startuml
'https://plantuml.com/sequence-diagram

autoactivate on
autonumber

actor "Person" as User
participant ":DeleteCategoryView" as System
participant ":DeleteCategoryController" as Ctrl
participant ":Person" as Person
participant "container:CategoryListRepository" as Container
participant "list:List<Category>" as List
participant "cat:Category" as Category

activate User

User -> System: asks to delete a category
System -> Ctrl: getAll()
Ctrl -> Person: getCategoriesContainer()
Person - -> Ctrl: container
Ctrl -> Container: getAll()
Container - -> Ctrl: list
Ctrl - -> System: list
System - -> User: shows all existing categories and \n asks to select the one to be deleted


User -> System: selects the intended category
System -> System: findSelectedCategory()
System - -> System: cat
System -> Category: getCode()
Category - -> System: code
System -> Category: getDescription()
Category - -> System: description
System - -> User: shows code and description of the select category \n and requests a deleting confirmation

User -> System: confirms
System -> Ctrl:deleteCategory(code)
Ctrl -> Container: findById(code)
Container - -> Ctrl: cat
Ctrl -> Container: remove(cat)
Container - -> Ctrl: ok
Ctrl - -> System: ok
System - -> User: informs operation success

@enduml

@startuml

autoactivate on
autonumber

actor "Person" as User
participant ":DeleteCategoryView" as System
participant ":DeleteCategoryController" as Ctrl
participant ":Person" as Person
participant "container:CategoryListRepository" as Container
participant "list:List<Category>" as List
participant "cat:Category" as Category

activate User

User -> System: asks to delete a category
System -> Ctrl: getAll()
Ctrl -> Person: getCategoriesService()
Person - -> Ctrl: container
Ctrl -> Container: getAll()
Container - -> Ctrl: list
Ctrl - -> System: list
System - -> User: shows all existing categories and \n asks to select the one to be deleted


User -> System: selects the intended category
System -> System: findSelectedCategory()
System - -> System: cat
System -> Category: getCode()
Category - -> System: code
System -> Category: getDescription()
Category - -> System: description
System - -> User: shows code and description of the select category \n and requests a deleting confirmation

User -> System: confirms
System -> Ctrl:deleteCategory(code)
Ctrl -> Container: findById(code)
Container - -> Ctrl: cat
Ctrl -> Container: remove(cat)
Container - -> Ctrl: ok
Ctrl - -> System: ok
System - -> User: informs operation success

@enduml

PlantUML version 1.2021.7(Sun May 23 13:40:07 WEST 2021)
(GPL source distribution)
Java Runtime: OpenJDK Runtime Environment
JVM: OpenJDK 64-Bit Server VM
Default Encoding: UTF-8
Language: en
Country: PT
--></g></svg>