<?xml version="1.0" encoding="UTF-8" standalone="no"?><svg xmlns="http://www.w3.org/2000/svg" xmlns:xlink="http://www.w3.org/1999/xlink" contentScriptType="application/ecmascript" contentStyleType="text/css" height="399px" preserveAspectRatio="none" style="width:396px;height:399px;background:#FFFFFF;" version="1.1" viewBox="0 0 396 399" width="396px" zoomAndPan="magnify"><defs><filter height="300%" id="fr0b0fpft9tjf" width="300%" x="-1" y="-1"><feGaussianBlur result="blurOut" stdDeviation="2.0"/><feColorMatrix in="blurOut" result="blurOut2" type="matrix" values="0 0 0 0 0 0 0 0 0 0 0 0 0 0 0 0 0 0 .4 0"/><feOffset dx="4.0" dy="4.0" in="blurOut2" result="blurOut3"/><feBlend in="SourceGraphic" in2="blurOut3" mode="normal"/></filter></defs><g><rect fill="#FFFFFF" filter="url(#fr0b0fpft9tjf)" height="207.4844" style="stroke:#A80036;stroke-width:1.0;" width="10" x="26.5" y="98.4883"/><rect fill="#FFFFFF" filter="url(#fr0b0fpft9tjf)" height="44.6211" style="stroke:#A80036;stroke-width:1.0;" width="10" x="346.5" y="119.7988"/><rect fill="#FFFFFF" filter="url(#fr0b0fpft9tjf)" height="44.6211" style="stroke:#A80036;stroke-width:1.0;" width="10" x="346.5" y="193.7305"/><rect fill="#FFFFFF" filter="url(#fr0b0fpft9tjf)" height="29.3105" style="stroke:#A80036;stroke-width:1.0;" width="10" x="346.5" y="267.6621"/><line style="stroke:#A80036;stroke-width:1.0;stroke-dasharray:5.0,5.0;" x1="31" x2="31" y1="88.4883" y2="314.9727"/><line style="stroke:#A80036;stroke-width:1.0;stroke-dasharray:5.0,5.0;" x1="351.5" x2="351.5" y1="88.4883" y2="314.9727"/><text fill="#000000" font-family="sans-serif" font-size="14" lengthAdjust="spacing" textLength="47" x="5" y="85.5352">Person</text><ellipse cx="31.5" cy="15" fill="#FEFECE" filter="url(#fr0b0fpft9tjf)" rx="8" ry="8" style="stroke:#A80036;stroke-width:2.0;"/><path d="M31.5,23 L31.5,50 M18.5,31 L44.5,31 M31.5,50 L18.5,65 M31.5,50 L44.5,65 " fill="none" filter="url(#fr0b0fpft9tjf)" style="stroke:#A80036;stroke-width:2.0;"/><text fill="#000000" font-family="sans-serif" font-size="14" lengthAdjust="spacing" textLength="47" x="5" y="327.5078">Person</text><ellipse cx="31.5" cy="340.4609" fill="#FEFECE" filter="url(#fr0b0fpft9tjf)" rx="8" ry="8" style="stroke:#A80036;stroke-width:2.0;"/><path d="M31.5,348.4609 L31.5,375.4609 M18.5,356.4609 L44.5,356.4609 M31.5,375.4609 L18.5,390.4609 M31.5,375.4609 L44.5,390.4609 " fill="none" filter="url(#fr0b0fpft9tjf)" style="stroke:#A80036;stroke-width:2.0;"/><rect fill="#FEFECE" filter="url(#fr0b0fpft9tjf)" height="30.4883" style="stroke:#A80036;stroke-width:1.5;" width="66" x="316.5" y="53"/><text fill="#000000" font-family="sans-serif" font-size="14" lengthAdjust="spacing" textLength="52" x="323.5" y="73.5352">:System</text><rect fill="#FEFECE" filter="url(#fr0b0fpft9tjf)" height="30.4883" style="stroke:#A80036;stroke-width:1.5;" width="66" x="316.5" y="313.9727"/><text fill="#000000" font-family="sans-serif" font-size="14" lengthAdjust="spacing" textLength="52" x="323.5" y="334.5078">:System</text><rect fill="#FFFFFF" filter="url(#fr0b0fpft9tjf)" height="207.4844" style="stroke:#A80036;stroke-width:1.0;" width="10" x="26.5" y="98.4883"/><rect fill="#FFFFFF" filter="url(#fr0b0fpft9tjf)" height="44.6211" style="stroke:#A80036;stroke-width:1.0;" width="10" x="346.5" y="119.7988"/><rect fill="#FFFFFF" filter="url(#fr0b0fpft9tjf)" height="44.6211" style="stroke:#A80036;stroke-width:1.0;" width="10" x="346.5" y="193.7305"/><rect fill="#FFFFFF" filter="url(#fr0b0fpft9tjf)" height="29.3105" style="stroke:#A80036;stroke-width:1.0;" width="10" x="346.5" y="267.6621"/><polygon fill="#A80036" points="334.5,115.7988,344.5,119.7988,334.5,123.7988,338.5,119.7988" style="stroke:#A80036;stroke-width:1.0;"/><line style="stroke:#A80036;stroke-width:1.0;" x1="36.5" x2="340.5" y1="119.7988" y2="119.7988"/><text fill="#000000" font-family="sans-serif" font-size="13" font-weight="bold" lengthAdjust="spacing" textLength="9" x="43.5" y="115.0566">1</text><text fill="#000000" font-family="sans-serif" font-size="13" lengthAdjust="spacing" textLength="157" x="56.5" y="115.0566">asks to delete a category</text><polygon fill="#A80036" points="47.5,160.4199,37.5,164.4199,47.5,168.4199,43.5,164.4199" style="stroke:#A80036;stroke-width:1.0;"/><line style="stroke:#A80036;stroke-width:1.0;stroke-dasharray:2.0,2.0;" x1="41.5" x2="350.5" y1="164.4199" y2="164.4199"/><text fill="#000000" font-family="sans-serif" font-size="13" font-weight="bold" lengthAdjust="spacing" textLength="9" x="53.5" y="152.0225">2</text><text fill="#000000" font-family="sans-serif" font-size="13" lengthAdjust="spacing" textLength="210" x="66.5" y="144.3672">shows all existing categories and</text><text fill="#000000" font-family="sans-serif" font-size="13" lengthAdjust="spacing" textLength="224" x="70.5" y="159.6777">asks to select the one to be deleted</text><polygon fill="#A80036" points="334.5,189.7305,344.5,193.7305,334.5,197.7305,338.5,193.7305" style="stroke:#A80036;stroke-width:1.0;"/><line style="stroke:#A80036;stroke-width:1.0;" x1="36.5" x2="340.5" y1="193.7305" y2="193.7305"/><text fill="#000000" font-family="sans-serif" font-size="13" font-weight="bold" lengthAdjust="spacing" textLength="9" x="43.5" y="188.9883">3</text><text fill="#000000" font-family="sans-serif" font-size="13" lengthAdjust="spacing" textLength="185" x="56.5" y="188.9883">selects the intended category</text><polygon fill="#A80036" points="47.5,234.3516,37.5,238.3516,47.5,242.3516,43.5,238.3516" style="stroke:#A80036;stroke-width:1.0;"/><line style="stroke:#A80036;stroke-width:1.0;stroke-dasharray:2.0,2.0;" x1="41.5" x2="350.5" y1="238.3516" y2="238.3516"/><text fill="#000000" font-family="sans-serif" font-size="13" font-weight="bold" lengthAdjust="spacing" textLength="9" x="53.5" y="225.9541">4</text><text fill="#000000" font-family="sans-serif" font-size="13" lengthAdjust="spacing" textLength="269" x="66.5" y="218.2988">shows category data of the select category</text><text fill="#000000" font-family="sans-serif" font-size="13" lengthAdjust="spacing" textLength="232" x="70.5" y="233.6094">and requests a deleting confirmation</text><polygon fill="#A80036" points="334.5,263.6621,344.5,267.6621,334.5,271.6621,338.5,267.6621" style="stroke:#A80036;stroke-width:1.0;"/><line style="stroke:#A80036;stroke-width:1.0;" x1="36.5" x2="340.5" y1="267.6621" y2="267.6621"/><text fill="#000000" font-family="sans-serif" font-size="13" font-weight="bold" lengthAdjust="spacing" textLength="9" x="43.5" y="262.9199">5</text><text fill="#000000" font-family="sans-serif" font-size="13" lengthAdjust="spacing" textLength="225" x="56.5" y="262.9199">confirms deleting selected category</text><polygon fill="#A80036" points="47.5,292.9727,37.5,296.9727,47.5,300.9727,43.5,296.9727" style="stroke:#A80036;stroke-width:1.0;"/><line style="stroke:#A80036;stroke-width:1.0;stroke-dasharray:2.0,2.0;" x1="41.5" x2="350.5" y1="296.9727" y2="296.9727"/><text fill="#000000" font-family="sans-serif" font-size="13" font-weight="bold" lengthAdjust="spacing" textLength="9" x="53.5" y="292.2305">6</text><text fill="#000000" font-family="sans-serif" font-size="13" lengthAdjust="spacing" textLength="167" x="66.5" y="292.2305">informs operation success</text><!--MD5=[c9d757cf4d2ab683d64d282303da657c]
@startuml
'https://plantuml.com/sequence-diagram

autoactivate on
autonumber

actor "Person" as Person
participant ":System" as System

activate Person

Person -> System: asks to delete a category
System - -> Person: shows all existing categories and \n asks to select the one to be deleted

Person -> System: selects the intended category
System - -> Person: shows category data of the select category \n and requests a deleting confirmation

Person -> System: confirms deleting selected category
System - -> Person: informs operation success



@enduml

@startuml

autoactivate on
autonumber

actor "Person" as Person
participant ":System" as System

activate Person

Person -> System: asks to delete a category
System - -> Person: shows all existing categories and \n asks to select the one to be deleted

Person -> System: selects the intended category
System - -> Person: shows category data of the select category \n and requests a deleting confirmation

Person -> System: confirms deleting selected category
System - -> Person: informs operation success



@enduml

PlantUML version 1.2021.7(Sun May 23 13:40:07 WEST 2021)
(GPL source distribution)
Java Runtime: OpenJDK Runtime Environment
JVM: OpenJDK 64-Bit Server VM
Default Encoding: UTF-8
Language: en
Country: PT
--></g></svg>