@startuml
'https://plantuml.com/sequence-diagram

autoactivate on
autonumber

actor "Person" as Person
participant ":System" as System

activate Person

Person -> System: asks to delete a category
System --> Person: shows all existing categories and \n asks to select the one to be deleted

Person -> System: selects the intended category
System --> Person: shows category data of the select category \n and requests a deleting confirmation

Person -> System: confirms deleting selected category
System --> Person: informs operation success



@enduml