<?xml version="1.0" encoding="UTF-8" standalone="no"?><svg xmlns="http://www.w3.org/2000/svg" xmlns:xlink="http://www.w3.org/1999/xlink" contentScriptType="application/ecmascript" contentStyleType="text/css" height="353px" preserveAspectRatio="none" style="width:888px;height:353px;background:#FFFFFF;" version="1.1" viewBox="0 0 888 353" width="888px" zoomAndPan="magnify"><defs><filter height="300%" id="f11kel9w7vkmu4" width="300%" x="-1" y="-1"><feGaussianBlur result="blurOut" stdDeviation="2.0"/><feColorMatrix in="blurOut" result="blurOut2" type="matrix" values="0 0 0 0 0 0 0 0 0 0 0 0 0 0 0 0 0 0 .4 0"/><feOffset dx="4.0" dy="4.0" in="blurOut2" result="blurOut3"/><feBlend in="SourceGraphic" in2="blurOut3" mode="normal"/></filter></defs><g><!--MD5=[0e256d4548866499778bd2694db05e91]
class DeleteCategoryView--><rect codeLine="6" fill="#FEFECE" filter="url(#f11kel9w7vkmu4)" height="40.1328" id="DeleteCategoryView" style="stroke:#A80036;stroke-width:1.5;" width="121" x="602" y="7"/><text fill="#000000" font-family="sans-serif" font-size="12" lengthAdjust="spacing" textLength="115" x="605" y="23.6016">DeleteCategoryView</text><line style="stroke:#A80036;stroke-width:1.5;" x1="603" x2="722" y1="31.1328" y2="31.1328"/><line style="stroke:#A80036;stroke-width:1.5;" x1="603" x2="722" y1="39.1328" y2="39.1328"/><!--MD5=[34bebfba76d42d66e916729eb2a90f2b]
class DeleteCategoryController--><rect codeLine="9" fill="#FEFECE" filter="url(#f11kel9w7vkmu4)" height="66.043" id="DeleteCategoryController" style="stroke:#A80036;stroke-width:1.5;" width="210" x="444.5" y="108"/><text fill="#000000" font-family="sans-serif" font-size="12" lengthAdjust="spacing" textLength="144" x="477.5" y="124.6016">DeleteCategoryController</text><line style="stroke:#A80036;stroke-width:1.5;" x1="445.5" x2="653.5" y1="132.1328" y2="132.1328"/><line style="stroke:#A80036;stroke-width:1.5;" x1="445.5" x2="653.5" y1="140.1328" y2="140.1328"/><text fill="#000000" font-family="sans-serif" font-size="11" lengthAdjust="spacing" textLength="140" x="450.5" y="154.7676">+getAll(): List&lt;Category&gt;</text><text fill="#000000" font-family="sans-serif" font-size="11" lengthAdjust="spacing" textLength="198" x="450.5" y="167.7227">+deleteCategory(string code): Result</text><!--MD5=[09ce52be0ee7de43c61b6e2d59bf108b]
class Person--><rect codeLine="14" fill="#FEFECE" filter="url(#f11kel9w7vkmu4)" height="66.043" id="Person" style="stroke:#A80036;stroke-width:1.5;" width="265" x="7" y="254.5"/><text fill="#000000" font-family="sans-serif" font-size="12" lengthAdjust="spacing" textLength="39" x="120" y="271.1016">Person</text><line style="stroke:#A80036;stroke-width:1.5;" x1="8" x2="271" y1="278.6328" y2="278.6328"/><text fill="#000000" font-family="sans-serif" font-size="11" lengthAdjust="spacing" textLength="35" x="13" y="293.2676">-name</text><line style="stroke:#A80036;stroke-width:1.5;" x1="8" x2="271" y1="299.5879" y2="299.5879"/><text fill="#000000" font-family="sans-serif" font-size="11" lengthAdjust="spacing" textLength="253" x="13" y="314.2227">+getCategoriesService(): CategoryContainer</text><!--MD5=[f5b151c31b11bd3e4ed70274aa943786]
class CategoryListRepository--><rect codeLine="19" fill="#FEFECE" filter="url(#f11kel9w7vkmu4)" height="78.998" id="CategoryContainer" style="stroke:#A80036;stroke-width:1.5;" width="188" x="370.5" y="248"/><text fill="#000000" font-family="sans-serif" font-size="12" lengthAdjust="spacing" textLength="106" x="411.5" y="264.6016">CategoryContainer</text><line style="stroke:#A80036;stroke-width:1.5;" x1="371.5" x2="557.5" y1="272.1328" y2="272.1328"/><line style="stroke:#A80036;stroke-width:1.5;" x1="371.5" x2="557.5" y1="280.1328" y2="280.1328"/><text fill="#000000" font-family="sans-serif" font-size="11" lengthAdjust="spacing" textLength="140" x="376.5" y="294.7676">+getAll(): List&lt;Category&gt;</text><text fill="#000000" font-family="sans-serif" font-size="11" lengthAdjust="spacing" textLength="165" x="376.5" y="307.7227">+remove(Category obj): Result</text><text fill="#000000" font-family="sans-serif" font-size="11" lengthAdjust="spacing" textLength="176" x="376.5" y="320.6777">+findById(string code): Category</text><!--MD5=[a96594a83e2ecdc78cbf17c2ddf01934]
class Category--><rect codeLine="25" fill="#FEFECE" filter="url(#f11kel9w7vkmu4)" height="104.9082" id="Category" style="stroke:#A80036;stroke-width:1.5;" width="232" x="642.5" y="235"/><text fill="#000000" font-family="sans-serif" font-size="12" lengthAdjust="spacing" textLength="51" x="733" y="251.6016">Category</text><line style="stroke:#A80036;stroke-width:1.5;" x1="643.5" x2="873.5" y1="259.1328" y2="259.1328"/><text fill="#000000" font-family="sans-serif" font-size="11" lengthAdjust="spacing" textLength="32" x="648.5" y="273.7676">-code</text><text fill="#000000" font-family="sans-serif" font-size="11" lengthAdjust="spacing" textLength="67" x="648.5" y="286.7227">-description</text><line style="stroke:#A80036;stroke-width:1.5;" x1="643.5" x2="873.5" y1="293.043" y2="293.043"/><text fill="#000000" font-family="sans-serif" font-size="11" lengthAdjust="spacing" textLength="220" x="648.5" y="307.6777">Category(string code, string description)</text><text fill="#000000" font-family="sans-serif" font-size="11" lengthAdjust="spacing" textLength="100" x="648.5" y="320.6328">+getCode(): string</text><text fill="#000000" font-family="sans-serif" font-size="11" lengthAdjust="spacing" textLength="134" x="648.5" y="333.5879">+getDescription(): string</text><!--MD5=[6251f0ee7009ec8a0f6b1dc69a8079f4]
link Person to CategoryListRepository--><path codeLine="33" d="M272.16,287.5 C303.19,287.5 335.72,287.5 365.01,287.5 " fill="none" id="Person-to-CategoryContainer" style="stroke:#A80036;stroke-width:1.0;"/><polygon fill="#A80036" points="370.06,287.5,361.06,283.5,365.06,287.5,361.06,291.5,370.06,287.5" style="stroke:#A80036;stroke-width:1.0;"/><text fill="#000000" font-family="sans-serif" font-size="13" lengthAdjust="spacing" textLength="62" x="290.25" y="281.0684">maintains</text><text fill="#000000" font-family="sans-serif" font-size="13" lengthAdjust="spacing" textLength="8" x="280.0607" y="284.6425">1</text><text fill="#000000" font-family="sans-serif" font-size="13" lengthAdjust="spacing" textLength="8" x="354.5232" y="284.5061">1</text><!--MD5=[73983d0cb4f063243986bcdbad934025]
link CategoryListRepository to Category--><path codeLine="34" d="M558.74,287.5 C583.69,287.5 610.99,287.5 637.17,287.5 " fill="none" id="CategoryContainer-to-Category" style="stroke:#A80036;stroke-width:1.0;"/><polygon fill="#A80036" points="642.39,287.5,633.39,283.5,637.39,287.5,633.39,291.5,642.39,287.5" style="stroke:#A80036;stroke-width:1.0;"/><text fill="#000000" font-family="sans-serif" font-size="13" lengthAdjust="spacing" textLength="47" x="577" y="281.0684">records</text><text fill="#000000" font-family="sans-serif" font-size="13" lengthAdjust="spacing" textLength="8" x="566.5685" y="284.4832">1</text><text fill="#000000" font-family="sans-serif" font-size="13" lengthAdjust="spacing" textLength="22" x="612.6442" y="300.5376">0..*</text><!--MD5=[46008128a6eb0a34daed5c857c5e2916]
link DeleteCategoryView to DeleteCategoryController--><path codeLine="36" d="M643.07,47.25 C627.34,62.85 604.73,85.26 585.68,104.14 " fill="none" id="DeleteCategoryView-to-DeleteCategoryController" style="stroke:#A80036;stroke-width:1.0;stroke-dasharray:7.0,7.0;"/><polygon fill="#A80036" points="581.92,107.86,591.1266,104.3616,585.4698,104.3388,585.4926,98.6819,581.92,107.86" style="stroke:#A80036;stroke-width:1.0;"/><!--MD5=[0f973d5ab27f4046d8cccfbb3fb0e6bc]
link DeleteCategoryView to Category--><path codeLine="37" d="M669.56,47.01 C683.71,85.11 716.03,172.15 737.56,230.13 " fill="none" id="DeleteCategoryView-to-Category" style="stroke:#A80036;stroke-width:1.0;stroke-dasharray:7.0,7.0;"/><polygon fill="#A80036" points="739.35,234.95,739.9615,225.1201,737.6069,230.2637,732.4634,227.9091,739.35,234.95" style="stroke:#A80036;stroke-width:1.0;"/><!--MD5=[ac4ad307b1b234a4af2a14a994da9404]
link DeleteCategoryController to Person--><path codeLine="38" d="M458.51,174.07 C392.27,197.41 302.75,228.96 235.4,252.7 " fill="none" id="DeleteCategoryController-to-Person" style="stroke:#A80036;stroke-width:1.0;stroke-dasharray:7.0,7.0;"/><polygon fill="#A80036" points="230.59,254.4,240.4072,255.189,235.3071,252.7419,237.7542,247.6417,230.59,254.4" style="stroke:#A80036;stroke-width:1.0;"/><!--MD5=[24b8b61c1ad9817d39d1d6938abf93c9]
link DeleteCategoryController to CategoryListRepository--><path codeLine="39" d="M530.64,174.07 C518.62,194.49 502.91,221.2 489.82,243.45 " fill="none" id="DeleteCategoryController-to-CategoryContainer" style="stroke:#A80036;stroke-width:1.0;stroke-dasharray:7.0,7.0;"/><polygon fill="#A80036" points="487.24,247.84,495.2642,242.1293,489.7851,243.5362,488.3781,238.0571,487.24,247.84" style="stroke:#A80036;stroke-width:1.0;"/><!--MD5=[ce85bb96b9c9a8c616f6571d27e27440]
link DeleteCategoryController to Category--><path codeLine="40" d="M595.88,174.07 C620.53,191.11 651.49,212.52 679.77,232.07 " fill="none" id="DeleteCategoryController-to-Category" style="stroke:#A80036;stroke-width:1.0;stroke-dasharray:7.0,7.0;"/><polygon fill="#A80036" points="683.93,234.94,678.7995,226.533,679.8165,232.0977,674.2518,233.1146,683.93,234.94" style="stroke:#A80036;stroke-width:1.0;"/><!--MD5=[d3e7609be6a5d3ed6d28b9b4889af69d]
@startuml
'https://plantuml.com/class-diagram

hide circle
skinparam classAttributeIconSize 0

class DeleteCategoryView {
}

class DeleteCategoryController {
    +getAll(): List<Category>
    +deleteCategory(string code): Result
}

class Person {
    - name
    +getCategoriesContainer(): CategoryListRepository
}

class CategoryListRepository {
    +getAll(): List<Category>
    +remove(Category obj): Result
    +findById(string code): Category
}

class Category {
    - code
    - description
    Category(string code, string description)
    +getCode(): string
    +getDescription(): string
}

Person "1" -right-> "1" CategoryListRepository:  maintains
CategoryListRepository "1" -right-> "0..*" Category:  records

DeleteCategoryView ..> DeleteCategoryController
DeleteCategoryView ..> Category
DeleteCategoryController ..> Person
DeleteCategoryController ..> CategoryListRepository
DeleteCategoryController ..> Category

@enduml

@startuml

hide circle
skinparam classAttributeIconSize 0

class DeleteCategoryView {
}

class DeleteCategoryController {
    +getAll(): List<Category>
    +deleteCategory(string code): Result
}

class Person {
    - name
    +getCategoriesService(): CategoryListRepository
}

class CategoryListRepository {
    +getAll(): List<Category>
    +remove(Category obj): Result
    +findById(string code): Category
}

class Category {
    - code
    - description
    Category(string code, string description)
    +getCode(): string
    +getDescription(): string
}

Person "1" -right-> "1" CategoryListRepository:  maintains
CategoryListRepository "1" -right-> "0..*" Category:  records

DeleteCategoryView ..> DeleteCategoryController
DeleteCategoryView ..> Category
DeleteCategoryController ..> Person
DeleteCategoryController ..> CategoryListRepository
DeleteCategoryController ..> Category

@enduml

PlantUML version 1.2021.7(Sun May 23 13:40:07 WEST 2021)
(GPL source distribution)
Java Runtime: OpenJDK Runtime Environment
JVM: OpenJDK 64-Bit Server VM
Default Encoding: UTF-8
Language: en
Country: PT
--></g></svg>