<?xml version="1.0" encoding="UTF-8" standalone="no"?><svg xmlns="http://www.w3.org/2000/svg" xmlns:xlink="http://www.w3.org/1999/xlink" contentScriptType="application/ecmascript" contentStyleType="text/css" height="1036px" preserveAspectRatio="none" style="width:779px;height:1036px;background:#FFFFFF;" version="1.1" viewBox="0 0 779 1036" width="779px" zoomAndPan="magnify"><defs><filter height="300%" id="f1imt3s8iowzz9" width="300%" x="-1" y="-1"><feGaussianBlur result="blurOut" stdDeviation="2.0"/><feColorMatrix in="blurOut" result="blurOut2" type="matrix" values="0 0 0 0 0 0 0 0 0 0 0 0 0 0 0 0 0 0 .4 0"/><feOffset dx="4.0" dy="4.0" in="blurOut2" result="blurOut3"/><feBlend in="SourceGraphic" in2="blurOut3" mode="normal"/></filter></defs><g><text fill="#000000" font-family="sans-serif" font-size="18" lengthAdjust="spacing" textLength="356" x="204" y="17.4023">Use Case Diagram - Updated for Sprint 1</text><!--MD5=[abea0b42432aea0f9ce66e53feda8644]
entity System--><ellipse cx="74" cy="220.6992" fill="#FEFECE" filter="url(#f1imt3s8iowzz9)" rx="8" ry="8" style="stroke:#A80036;stroke-width:1.5;"/><path d="M74,228.6992 L74,255.6992 M61,236.6992 L87,236.6992 M74,255.6992 L61,270.6992 M74,255.6992 L87,270.6992 " fill="none" filter="url(#f1imt3s8iowzz9)" style="stroke:#A80036;stroke-width:1.5;"/><text fill="#000000" font-family="sans-serif" font-size="14" lengthAdjust="spacing" textLength="34" x="57" y="289.7344">Time</text><!--MD5=[aa9590aded7922f1f97871b066948052]
entity Person--><ellipse cx="74" cy="664.6992" fill="#FEFECE" filter="url(#f1imt3s8iowzz9)" rx="8" ry="8" style="stroke:#A80036;stroke-width:1.5;"/><path d="M74,672.6992 L74,699.6992 M61,680.6992 L87,680.6992 M74,699.6992 L61,714.6992 M74,699.6992 L87,714.6992 " fill="none" filter="url(#f1imt3s8iowzz9)" style="stroke:#A80036;stroke-width:1.5;"/><text fill="#000000" font-family="sans-serif" font-size="14" lengthAdjust="spacing" textLength="47" x="50.5" y="733.7344">Person</text><path d="M6,771.6992 L6,827.6309 A0,0 0 0 0 6,827.6309 L142,827.6309 A0,0 0 0 0 142,827.6309 L142,781.6992 L132,771.6992 L78,771.6992 L74,736.3592 L70,771.6992 L6,771.6992 A0,0 0 0 0 6,771.6992 " fill="#FBFB77" filter="url(#f1imt3s8iowzz9)" style="stroke:#A80036;stroke-width:1.0;"/><path d="M132,771.6992 L132,781.6992 L142,781.6992 L132,771.6992 " fill="#FBFB77" style="stroke:#A80036;stroke-width:1.0;"/><text fill="#000000" font-family="sans-serif" font-size="13" lengthAdjust="spacing" textLength="111" x="12" y="789.2676">Please notice that</text><text fill="#000000" font-family="sans-serif" font-size="13" lengthAdjust="spacing" textLength="97" x="16" y="804.5781">the actor' name</text><text fill="#000000" font-family="sans-serif" font-size="13" lengthAdjust="spacing" textLength="111" x="16" y="819.8887">has been clarified</text><!--MD5=[a58634d8713cc3fbf85876159aaa7682]
entity NotAuthUser--><ellipse cx="74" cy="104.6992" fill="#FEFECE" filter="url(#f1imt3s8iowzz9)" rx="8" ry="8" style="stroke:#A80036;stroke-width:1.5;"/><path d="M74,112.6992 L74,139.6992 M61,120.6992 L87,120.6992 M74,139.6992 L61,154.6992 M74,139.6992 L87,154.6992 " fill="none" filter="url(#f1imt3s8iowzz9)" style="stroke:#A80036;stroke-width:1.5;"/><text fill="#000000" font-family="sans-serif" font-size="14" lengthAdjust="spacing" textLength="124" x="12" y="173.7344">Unregistered User</text><ellipse cx="382.8952" cy="349.7783" fill="#FEFECE" filter="url(#f1imt3s8iowzz9)" rx="108.3952" ry="24.079" style="stroke:#A80036;stroke-width:1.5;"/><text fill="#000000" font-family="sans-serif" font-size="14" lengthAdjust="spacing" textLength="182" x="291.8952" y="353.0693">US01 - To create Category</text><ellipse cx="382.8124" cy="431.8617" fill="#FEFECE" filter="url(#f1imt3s8iowzz9)" rx="103.8124" ry="23.1625" style="stroke:#A80036;stroke-width:1.5;"/><text fill="#000000" font-family="sans-serif" font-size="14" lengthAdjust="spacing" textLength="172" x="296.8124" y="435.1527">US02 - To list Categories</text><ellipse cx="382.9018" cy="522.5796" fill="#FEFECE" filter="url(#f1imt3s8iowzz9)" rx="149.9018" ry="32.3804" style="stroke:#A80036;stroke-width:1.5;"/><text fill="#000000" font-family="sans-serif" font-size="14" lengthAdjust="spacing" textLength="270" x="247.9018" y="525.8706">US03 - To update Category Description</text><ellipse cx="382.8952" cy="614.7783" fill="#FEFECE" filter="url(#f1imt3s8iowzz9)" rx="108.3952" ry="24.079" style="stroke:#A80036;stroke-width:1.5;"/><text fill="#000000" font-family="sans-serif" font-size="14" lengthAdjust="spacing" textLength="182" x="291.8952" y="618.0693">US04 - To delete Category</text><ellipse cx="382.7777" cy="695.5548" fill="#FEFECE" filter="url(#f1imt3s8iowzz9)" rx="94.7777" ry="21.3555" style="stroke:#A80036;stroke-width:1.5;"/><text fill="#000000" font-family="sans-serif" font-size="14" lengthAdjust="spacing" textLength="152" x="306.7777" y="698.8458">US05 - To create Task</text><ellipse cx="383.0312" cy="771.7055" fill="#FEFECE" filter="url(#f1imt3s8iowzz9)" rx="85.5312" ry="19.5062" style="stroke:#A80036;stroke-width:1.5;"/><text fill="#000000" font-family="sans-serif" font-size="14" lengthAdjust="spacing" textLength="131" x="317.5312" y="774.9965">US?? - To list Tasks</text><ellipse cx="382.7777" cy="847.5548" fill="#FEFECE" filter="url(#f1imt3s8iowzz9)" rx="94.7777" ry="21.3555" style="stroke:#A80036;stroke-width:1.5;"/><text fill="#000000" font-family="sans-serif" font-size="14" lengthAdjust="spacing" textLength="152" x="306.7777" y="850.8458">US?? - To update Task</text><ellipse cx="383.1075" cy="925.5207" fill="#FEFECE" filter="url(#f1imt3s8iowzz9)" rx="92.1075" ry="20.8215" style="stroke:#A80036;stroke-width:1.5;"/><text fill="#000000" font-family="sans-serif" font-size="14" lengthAdjust="spacing" textLength="146" x="310.1075" y="928.8117">US?? - To delete Task</text><ellipse cx="382.7777" cy="1003.5548" fill="#FEFECE" filter="url(#f1imt3s8iowzz9)" rx="94.7777" ry="21.3555" style="stroke:#A80036;stroke-width:1.5;"/><text fill="#000000" font-family="sans-serif" font-size="14" lengthAdjust="spacing" textLength="152" x="306.7777" y="1006.8458">US?? - To get a Report</text><ellipse cx="382.843" cy="251.7678" fill="#FEFECE" filter="url(#f1imt3s8iowzz9)" rx="180.843" ry="38.5686" style="stroke:#A80036;stroke-width:1.5;"/><text fill="#000000" font-family="sans-serif" font-size="14" lengthAdjust="spacing" textLength="334" x="215.843" y="255.0588">US?? - To alert for approaching tasks completion</text><ellipse cx="382.9067" cy="53.8806" fill="#FEFECE" filter="url(#f1imt3s8iowzz9)" rx="121.4067" ry="26.6813" style="stroke:#A80036;stroke-width:1.5;"/><text fill="#000000" font-family="sans-serif" font-size="14" lengthAdjust="spacing" textLength="210" x="277.9067" y="57.1716">US?? - To consult system goals</text><ellipse cx="383.1352" cy="142.7263" fill="#FEFECE" filter="url(#f1imt3s8iowzz9)" rx="125.6352" ry="27.527" style="stroke:#A80036;stroke-width:1.5;"/><text fill="#000000" font-family="sans-serif" font-size="14" lengthAdjust="spacing" textLength="219" x="273.6352" y="146.0173">US?? - To consult system credits</text><path d="M624,502.1992 L624,518.6992 L533.15,522.6992 L624,526.6992 L624,542.8203 A0,0 0 0 0 624,542.8203 L770,542.8203 A0,0 0 0 0 770,542.8203 L770,512.1992 L760,502.1992 L624,502.1992 A0,0 0 0 0 624,502.1992 " fill="#FBFB77" filter="url(#f1imt3s8iowzz9)" style="stroke:#A80036;stroke-width:1.0;"/><path d="M760,502.1992 L760,512.1992 L770,512.1992 L760,502.1992 " fill="#FBFB77" style="stroke:#A80036;stroke-width:1.0;"/><text fill="#000000" font-family="sans-serif" font-size="13" lengthAdjust="spacing" textLength="106" x="630" y="519.7676">Please notice the</text><text fill="#000000" font-family="sans-serif" font-size="13" lengthAdjust="spacing" textLength="121" x="634" y="535.0781">changes made here</text><!--MD5=[302cce70b87bb89268ca49d0981d10ac]
link NotAuthUser to SystemGoals--><path d="M136.19,116.6992 C157.01,110.4192 180.46,103.5492 202,97.6992 C231.93,89.5692 264.85,81.3192 294.27,74.1992 " fill="none" id="NotAuthUser-to-SystemGoals" style="stroke:#A80036;stroke-width:1.0;"/><polygon fill="#A80036" points="299.33,72.9692,289.643,71.1908,294.4694,74.1415,291.5187,78.9678,299.33,72.9692" style="stroke:#A80036;stroke-width:1.0;"/><!--MD5=[850d32cb2de679455b7fa2f7be92f563]
link NotAuthUser to SystemCredits--><path d="M136.02,137.0892 C169.41,137.8492 212.1,138.8292 252.51,139.7492 " fill="none" id="NotAuthUser-to-SystemCredits" style="stroke:#A80036;stroke-width:1.0;"/><polygon fill="#A80036" points="257.94,139.8692,249.0338,135.6646,252.9413,139.755,248.8509,143.6625,257.94,139.8692" style="stroke:#A80036;stroke-width:1.0;"/><!--MD5=[80ae8bd2decfdc03eaceae912094d590]
link Person to CategoryCreate--><path d="M80.12,655.0892 C90.62,589.4092 120.89,460.3192 202,391.6992 C222.21,374.5992 248.09,364.1592 273.88,357.8592 " fill="none" id="Person-to-CategoryCreate" style="stroke:#A80036;stroke-width:1.0;"/><polygon fill="#A80036" points="279.04,356.6592,269.3643,354.8206,274.1722,357.8012,271.1915,362.6091,279.04,356.6592" style="stroke:#A80036;stroke-width:1.0;"/><!--MD5=[4910a1fd8213e36d98254e75cd714fa0]
link Person to CategoryList--><path d="M86.88,655.0592 C103.87,604.3292 140.11,518.6392 202,472.6992 C224.29,456.1592 252.1,446.1092 279.14,440.0692 " fill="none" id="Person-to-CategoryList" style="stroke:#A80036;stroke-width:1.0;"/><polygon fill="#A80036" points="284.18,438.9792,274.5433,436.9461,279.2902,440.023,276.2133,444.7698,284.18,438.9792" style="stroke:#A80036;stroke-width:1.0;"/><!--MD5=[2769bea7f5679324ab4e44939c6dcb38]
link Person to CategoryDescriptionUpdate--><path d="M97.5,667.0992 C120.81,639.3492 159.7,597.9592 202,573.6992 C221.99,562.2292 244.73,553.2092 267.15,546.1492 " fill="none" id="Person-to-CategoryDescriptionUpdate" style="stroke:#A80036;stroke-width:1.0;"/><polygon fill="#A80036" points="271.93,544.6692,262.1519,543.4908,267.1508,546.1386,264.503,551.1375,271.93,544.6692" style="stroke:#A80036;stroke-width:1.0;"/><!--MD5=[bee2a82c2cf9f2858dce3c91668fbfd0]
link Person to CategoryDelete--><path d="M97.81,688.1792 C123.12,679.9492 165.26,666.6192 202,656.6992 C233.91,648.0892 269.27,639.6092 300.15,632.5492 " fill="none" id="Person-to-CategoryDelete" style="stroke:#A80036;stroke-width:1.0;"/><polygon fill="#A80036" points="305.07,631.4292,295.41,629.5098,300.1928,632.5305,297.1721,637.3133,305.07,631.4292" style="stroke:#A80036;stroke-width:1.0;"/><!--MD5=[ff71a927db757ec5b3ae594f6aea4cf6]
link Person to TaskCreate--><path d="M97.57,695.6992 C136.17,695.6992 217.04,695.6992 282.72,695.6992 " fill="none" id="Person-to-TaskCreate" style="stroke:#A80036;stroke-width:1.0;"/><polygon fill="#A80036" points="287.82,695.6992,278.82,691.6992,282.82,695.6992,278.82,699.6992,287.82,695.6992" style="stroke:#A80036;stroke-width:1.0;"/><!--MD5=[ae5ea1c445338497bf54fa4bc1c36b9e]
link Person to TaskList--><path d="M97.76,703.4092 C123.03,711.7992 165.13,725.2692 202,734.6992 C237.35,743.7392 277.05,752.0892 310.15,758.5592 " fill="none" id="Person-to-TaskList" style="stroke:#A80036;stroke-width:1.0;"/><polygon fill="#A80036" points="315.4,759.5792,307.3338,753.928,310.4927,758.6207,305.8001,761.7796,315.4,759.5792" style="stroke:#A80036;stroke-width:1.0;"/><!--MD5=[388121b5b42bc3893abe4af860d0f2c2]
link Person to TaskUpdate--><path d="M97.69,715.5792 C110.69,726.9892 127.3,741.6092 142,754.6992 C168.8,778.5592 170.06,792.3492 202,808.6992 C229.58,822.8192 262.07,831.8292 291.8,837.5892 " fill="none" id="Person-to-TaskUpdate" style="stroke:#A80036;stroke-width:1.0;"/><polygon fill="#A80036" points="296.93,838.5592,288.8292,832.9578,292.0169,837.6309,287.3438,840.8187,296.93,838.5592" style="stroke:#A80036;stroke-width:1.0;"/><!--MD5=[8c089375d6ce8e65f22727ef781223c3]
link Person to TaskDelete--><path d="M97.72,711.7592 C111.86,722.6292 129.64,738.0092 142,754.6992 C180.37,806.4792 151.84,846.2392 202,886.6992 C225.88,905.9592 257.14,916.2592 286.9,921.6192 " fill="none" id="Person-to-TaskDelete" style="stroke:#A80036;stroke-width:1.0;"/><polygon fill="#A80036" points="292.05,922.4992,283.8531,917.0394,287.1215,921.6564,282.5045,924.9249,292.05,922.4992" style="stroke:#A80036;stroke-width:1.0;"/><!--MD5=[9a3f696a1c16e05fe92e67128cf0c101]
link Person to GetReport--><path d="M97.62,710.4592 C112.27,721.1092 130.66,736.7492 142,754.6992 C193.85,836.7592 131.17,898.3292 202,964.6992 C223.84,985.1592 253.76,995.8692 282.94,1001.2292 " fill="none" id="Person-to-GetReport" style="stroke:#A80036;stroke-width:1.0;"/><polygon fill="#A80036" points="288,1002.1092,279.8185,996.6263,283.0739,1001.2525,278.4477,1004.508,288,1002.1092" style="stroke:#A80036;stroke-width:1.0;"/><!--MD5=[f9fbaeb996faa275f09e4d741dd94b1a]
link System to TaskAlert--><path d="M91.07,251.6992 C112.46,251.6992 152.7,251.6992 196.59,251.6992 " fill="none" id="System-to-TaskAlert" style="stroke:#A80036;stroke-width:1.0;"/><polygon fill="#A80036" points="201.68,251.6992,192.68,247.6992,196.68,251.6992,192.68,255.6992,201.68,251.6992" style="stroke:#A80036;stroke-width:1.0;"/><!--MD5=[be224c2c115740bbce7cd7c50ad63056]
@startuml
'https://plantuml.com/use-case-diagram

title Use Case Diagram - Updated for Sprint 1

left to right direction

actor :Time: as System
actor :Person: as Person
note bottom: Please notice that \n the actor' name \n has been clarified
actor :Unregistered User: as NotAuthUser


(US01 - To create Category) as (CategoryCreate)
(US02 - To list Categories) as (CategoryList)
(US03 - To update Category Description) as (CategoryDescriptionUpdate)
(US04 - To delete Category) as (CategoryDelete)

(US05 - To create Task) as (TaskCreate)
(US?? - To list Tasks) as (TaskList)
(US?? - To update Task) as (TaskUpdate)
(US?? - To delete Task) as (TaskDelete)

(US?? - To get a Report) as (GetReport)

(US?? - To alert for approaching tasks completion) as (TaskAlert)

(US?? - To consult system goals) as (SystemGoals)
(US?? - To consult system credits) as (SystemCredits)


NotAuthUser - -> SystemGoals
NotAuthUser - -> SystemCredits

Person - -> CategoryCreate
Person - -> CategoryList
Person - -> CategoryDescriptionUpdate
note right: Please notice the \n changes made here
Person - -> CategoryDelete
Person - -> TaskCreate
Person - -> TaskList
Person - -> TaskUpdate
Person - -> TaskDelete
Person - -> GetReport

System - -> TaskAlert

@enduml

@startuml

title Use Case Diagram - Updated for Sprint 1

left to right direction

actor :Time: as System
actor :Person: as Person
note bottom: Please notice that \n the actor' name \n has been clarified
actor :Unregistered User: as NotAuthUser


(US01 - To create Category) as (CategoryCreate)
(US02 - To list Categories) as (CategoryList)
(US03 - To update Category Description) as (CategoryDescriptionUpdate)
(US04 - To delete Category) as (CategoryDelete)

(US05 - To create Task) as (TaskCreate)
(US?? - To list Tasks) as (TaskList)
(US?? - To update Task) as (TaskUpdate)
(US?? - To delete Task) as (TaskDelete)

(US?? - To get a Report) as (GetReport)

(US?? - To alert for approaching tasks completion) as (TaskAlert)

(US?? - To consult system goals) as (SystemGoals)
(US?? - To consult system credits) as (SystemCredits)


NotAuthUser - -> SystemGoals
NotAuthUser - -> SystemCredits

Person - -> CategoryCreate
Person - -> CategoryList
Person - -> CategoryDescriptionUpdate
note right: Please notice the \n changes made here
Person - -> CategoryDelete
Person - -> TaskCreate
Person - -> TaskList
Person - -> TaskUpdate
Person - -> TaskDelete
Person - -> GetReport

System - -> TaskAlert

@enduml

PlantUML version 1.2021.7(Sun May 23 13:40:07 WEST 2021)
(GPL source distribution)
Java Runtime: OpenJDK Runtime Environment
JVM: OpenJDK 64-Bit Server VM
Default Encoding: UTF-8
Language: en
Country: PT
--></g></svg>