@startuml
'https://plantuml.com/sequence-diagram

autoactivate on
autonumber

actor "Person" as User
participant ":DeleteCategoryView" as System
participant ":DeleteCategoryController" as Ctrl
participant ":Person" as Person
participant "container:CategoryContainer" as Container
participant "list:List<Category>" as List
participant "cat:Category" as Category

activate User

User -> System: asks to delete a category
System -> Ctrl: getAll()
Ctrl -> Person: getCategoriesContainer()
Person --> Ctrl: container
Ctrl -> Container: getAll()
Container --> Ctrl: list
Ctrl --> System: list
System --> User: shows all existing categories and \n asks to select the one to be deleted


User -> System: selects the intended category
System -> System: findSelectedCategory()
System --> System: cat
System -> Category: getCode()
Category --> System: code
System -> Category: getDescription()
Category --> System: description
System --> User: shows code and description of the select category \n and requests a deleting confirmation

User -> System: confirms
System -> Ctrl:deleteCategory(code)
Ctrl -> Container: findById(code)
Container --> Ctrl: cat
Ctrl -> Container: remove(cat)
Container --> Ctrl: ok
Ctrl --> System: ok
System --> User: informs operation success

@enduml