<?xml version="1.0" encoding="UTF-8" standalone="no"?><svg xmlns="http://www.w3.org/2000/svg" xmlns:xlink="http://www.w3.org/1999/xlink" contentScriptType="application/ecmascript" contentStyleType="text/css" height="368px" preserveAspectRatio="none" style="width:383px;height:368px;background:#FFFFFF;" version="1.1" viewBox="0 0 383 368" width="383px" zoomAndPan="magnify"><defs><filter height="300%" id="f3e8yeaipjil3" width="300%" x="-1" y="-1"><feGaussianBlur result="blurOut" stdDeviation="2.0"/><feColorMatrix in="blurOut" result="blurOut2" type="matrix" values="0 0 0 0 0 0 0 0 0 0 0 0 0 0 0 0 0 0 .4 0"/><feOffset dx="4.0" dy="4.0" in="blurOut2" result="blurOut3"/><feBlend in="SourceGraphic" in2="blurOut3" mode="normal"/></filter></defs><g><rect fill="#FFFFFF" filter="url(#f3e8yeaipjil3)" height="176.8633" style="stroke:#A80036;stroke-width:1.0;" width="10" x="26.5" y="98.4883"/><rect fill="#FFFFFF" filter="url(#f3e8yeaipjil3)" height="29.3105" style="stroke:#A80036;stroke-width:1.0;" width="10" x="333.5" y="119.7988"/><rect fill="#FFFFFF" filter="url(#f3e8yeaipjil3)" height="29.3105" style="stroke:#A80036;stroke-width:1.0;" width="10" x="333.5" y="178.4199"/><rect fill="#FFFFFF" filter="url(#f3e8yeaipjil3)" height="29.3105" style="stroke:#A80036;stroke-width:1.0;" width="10" x="333.5" y="237.041"/><line style="stroke:#A80036;stroke-width:1.0;stroke-dasharray:5.0,5.0;" x1="31" x2="31" y1="88.4883" y2="284.3516"/><line style="stroke:#A80036;stroke-width:1.0;stroke-dasharray:5.0,5.0;" x1="338.5" x2="338.5" y1="88.4883" y2="284.3516"/><text fill="#000000" font-family="sans-serif" font-size="14" lengthAdjust="spacing" textLength="47" x="5" y="85.5352">Person</text><ellipse cx="31.5" cy="15" fill="#FEFECE" filter="url(#f3e8yeaipjil3)" rx="8" ry="8" style="stroke:#A80036;stroke-width:2.0;"/><path d="M31.5,23 L31.5,50 M18.5,31 L44.5,31 M31.5,50 L18.5,65 M31.5,50 L44.5,65 " fill="none" filter="url(#f3e8yeaipjil3)" style="stroke:#A80036;stroke-width:2.0;"/><text fill="#000000" font-family="sans-serif" font-size="14" lengthAdjust="spacing" textLength="47" x="5" y="296.8867">Person</text><ellipse cx="31.5" cy="309.8398" fill="#FEFECE" filter="url(#f3e8yeaipjil3)" rx="8" ry="8" style="stroke:#A80036;stroke-width:2.0;"/><path d="M31.5,317.8398 L31.5,344.8398 M18.5,325.8398 L44.5,325.8398 M31.5,344.8398 L18.5,359.8398 M31.5,344.8398 L44.5,359.8398 " fill="none" filter="url(#f3e8yeaipjil3)" style="stroke:#A80036;stroke-width:2.0;"/><rect fill="#FEFECE" filter="url(#f3e8yeaipjil3)" height="30.4883" style="stroke:#A80036;stroke-width:1.5;" width="66" x="303.5" y="53"/><text fill="#000000" font-family="sans-serif" font-size="14" lengthAdjust="spacing" textLength="52" x="310.5" y="73.5352">:System</text><rect fill="#FEFECE" filter="url(#f3e8yeaipjil3)" height="30.4883" style="stroke:#A80036;stroke-width:1.5;" width="66" x="303.5" y="283.3516"/><text fill="#000000" font-family="sans-serif" font-size="14" lengthAdjust="spacing" textLength="52" x="310.5" y="303.8867">:System</text><rect fill="#FFFFFF" filter="url(#f3e8yeaipjil3)" height="176.8633" style="stroke:#A80036;stroke-width:1.0;" width="10" x="26.5" y="98.4883"/><rect fill="#FFFFFF" filter="url(#f3e8yeaipjil3)" height="29.3105" style="stroke:#A80036;stroke-width:1.0;" width="10" x="333.5" y="119.7988"/><rect fill="#FFFFFF" filter="url(#f3e8yeaipjil3)" height="29.3105" style="stroke:#A80036;stroke-width:1.0;" width="10" x="333.5" y="178.4199"/><rect fill="#FFFFFF" filter="url(#f3e8yeaipjil3)" height="29.3105" style="stroke:#A80036;stroke-width:1.0;" width="10" x="333.5" y="237.041"/><polygon fill="#A80036" points="321.5,115.7988,331.5,119.7988,321.5,123.7988,325.5,119.7988" style="stroke:#A80036;stroke-width:1.0;"/><line style="stroke:#A80036;stroke-width:1.0;" x1="36.5" x2="327.5" y1="119.7988" y2="119.7988"/><text fill="#000000" font-family="sans-serif" font-size="13" font-weight="bold" lengthAdjust="spacing" textLength="9" x="43.5" y="115.0566">1</text><text fill="#000000" font-family="sans-serif" font-size="13" lengthAdjust="spacing" textLength="186" x="56.5" y="115.0566">asks to create a new category</text><polygon fill="#A80036" points="47.5,145.1094,37.5,149.1094,47.5,153.1094,43.5,149.1094" style="stroke:#A80036;stroke-width:1.0;"/><line style="stroke:#A80036;stroke-width:1.0;stroke-dasharray:2.0,2.0;" x1="41.5" x2="337.5" y1="149.1094" y2="149.1094"/><text fill="#000000" font-family="sans-serif" font-size="13" font-weight="bold" lengthAdjust="spacing" textLength="9" x="53.5" y="144.3672">2</text><text fill="#000000" font-family="sans-serif" font-size="13" lengthAdjust="spacing" textLength="206" x="66.5" y="144.3672">requests data (code, description)</text><polygon fill="#A80036" points="321.5,174.4199,331.5,178.4199,321.5,182.4199,325.5,178.4199" style="stroke:#A80036;stroke-width:1.0;"/><line style="stroke:#A80036;stroke-width:1.0;" x1="36.5" x2="327.5" y1="178.4199" y2="178.4199"/><text fill="#000000" font-family="sans-serif" font-size="13" font-weight="bold" lengthAdjust="spacing" textLength="9" x="43.5" y="173.6777">3</text><text fill="#000000" font-family="sans-serif" font-size="13" lengthAdjust="spacing" textLength="131" x="56.5" y="173.6777">types requested data</text><polygon fill="#A80036" points="47.5,203.7305,37.5,207.7305,47.5,211.7305,43.5,207.7305" style="stroke:#A80036;stroke-width:1.0;"/><line style="stroke:#A80036;stroke-width:1.0;stroke-dasharray:2.0,2.0;" x1="41.5" x2="337.5" y1="207.7305" y2="207.7305"/><text fill="#000000" font-family="sans-serif" font-size="13" font-weight="bold" lengthAdjust="spacing" textLength="9" x="53.5" y="202.9883">4</text><text fill="#000000" font-family="sans-serif" font-size="13" lengthAdjust="spacing" textLength="260" x="66.5" y="202.9883">shows all data and requests confirmation</text><polygon fill="#A80036" points="321.5,233.041,331.5,237.041,321.5,241.041,325.5,237.041" style="stroke:#A80036;stroke-width:1.0;"/><line style="stroke:#A80036;stroke-width:1.0;" x1="36.5" x2="327.5" y1="237.041" y2="237.041"/><text fill="#000000" font-family="sans-serif" font-size="13" font-weight="bold" lengthAdjust="spacing" textLength="9" x="43.5" y="232.2988">5</text><text fill="#000000" font-family="sans-serif" font-size="13" lengthAdjust="spacing" textLength="111" x="56.5" y="232.2988">confirms the data</text><polygon fill="#A80036" points="47.5,262.3516,37.5,266.3516,47.5,270.3516,43.5,266.3516" style="stroke:#A80036;stroke-width:1.0;"/><line style="stroke:#A80036;stroke-width:1.0;stroke-dasharray:2.0,2.0;" x1="41.5" x2="337.5" y1="266.3516" y2="266.3516"/><text fill="#000000" font-family="sans-serif" font-size="13" font-weight="bold" lengthAdjust="spacing" textLength="9" x="53.5" y="261.6094">6</text><text fill="#000000" font-family="sans-serif" font-size="13" lengthAdjust="spacing" textLength="167" x="66.5" y="261.6094">informs operation success</text><!--MD5=[086da61fa16d115c5767b68064b30598]
@startuml
'https://plantuml.com/sequence-diagram

autoactivate on
autonumber

actor "Person" as Person
participant ":System" as System

activate Person

Person -> System: asks to create a new category
System - -> Person: requests data (code, description)

Person -> System: types requested data
System - -> Person: shows all data and requests confirmation

Person -> System: confirms the data
System - -> Person: informs operation success
@enduml

@startuml

autoactivate on
autonumber

actor "Person" as Person
participant ":System" as System

activate Person

Person -> System: asks to create a new category
System - -> Person: requests data (code, description)

Person -> System: types requested data
System - -> Person: shows all data and requests confirmation

Person -> System: confirms the data
System - -> Person: informs operation success
@enduml

PlantUML version 1.2021.7(Sun May 23 13:40:07 WEST 2021)
(GPL source distribution)
Java Runtime: OpenJDK Runtime Environment
JVM: OpenJDK 64-Bit Server VM
Default Encoding: UTF-8
Language: en
Country: PT
--></g></svg>