@startuml
'https://plantuml.com/class-diagram

hide circle
skinparam classAttributeIconSize 0

class CreateCategoryView {
}

class CreateCategoryController {
    +createCategory(string code, string description): void
    +saveCreatedCategory(): Result
}

class Person {
    - name
    +getCategoriesService(): CategoryService
}

class CategoryService {
+ CategoryService(CategoryRepository catsRepo)
+ create(string code, string description): Category
+ addOrUpdate(Category obj): Result
}

interface CategoryRepository <<interface>> {
+ save(Category obj): Result
}

interface RepositoryFactory <<interface>> {
+ getCategoriesRepository(): CategoryRepository
}

class Category {
    - code
    - description
    Category(string code, string description)
}

Person "1" -down-> "1" RepositoryFactory:  uses
CategoryRepository "1" -right-> "0..*" Category:  records

CreateCategoryView ..> CreateCategoryController
CreateCategoryController ..> Person
CreateCategoryController ..> CategoryService
CategoryService ..> CategoryRepository
CategoryService ..> Category
CreateCategoryController ..> Category

Person -> CategoryService: adopts
RepositoryFactory .right.> CategoryRepository

@enduml