@startuml
'https://plantuml.com/sequence-diagram
autoactivate on
autonumber

actor "Person" as User
participant ":CreateCategoryView" as System
participant ":CreateCategoryController" as Ctrl
participant ":Person" as Person
participant "service:CategoryService" as Service
participant "factory:RepositoryFactory" as Factory
participant "repo:CategoryRepository" as Repo
participant "cat:Category" as Category

activate User

User -> System: asks to create a new category
System --> User: requests data (code, description)

User -> System: types requested data
System -> Ctrl: createCategory(code, description)
Ctrl -> Person: getCategoriesService()
Person -> Factory : getCategoriesRepository()
Factory --> Person: repo
Person -->Service**: create(repo)
Person --> Ctrl: service
Ctrl -> Service: create(code, description)
Service --> Category**: create(code, description)
Service --> Ctrl: cat
Ctrl --> System: ok
System --> User: shows all data and requests confirmation

User -> System: confirms the data
System -> Ctrl: saveCreatedCategory()
Ctrl -> Service: addOrUpdate(cat)
Service -> Service : validate(cat)
Service --> Service : ok
Service -> Repo: save(cat)
Repo --> Service : ok
Service --> Ctrl: ok
Ctrl --> System: ok
System --> User: informs operation success
@enduml