<?xml version="1.0" encoding="UTF-8" standalone="no"?><svg xmlns="http://www.w3.org/2000/svg" xmlns:xlink="http://www.w3.org/1999/xlink" contentScriptType="application/ecmascript" contentStyleType="text/css" height="1254px" preserveAspectRatio="none" style="width:1153px;height:1254px;background:#FFFFFF;" version="1.1" viewBox="0 0 1153 1254" width="1153px" zoomAndPan="magnify"><defs><filter height="300%" id="f1cczh42gds8cv" width="300%" x="-1" y="-1"><feGaussianBlur result="blurOut" stdDeviation="2.0"/><feColorMatrix in="blurOut" result="blurOut2" type="matrix" values="0 0 0 0 0 0 0 0 0 0 0 0 0 0 0 0 0 0 .4 0"/><feOffset dx="4.0" dy="4.0" in="blurOut2" result="blurOut3"/><feBlend in="SourceGraphic" in2="blurOut3" mode="normal"/></filter></defs><g><rect fill="#FFFFFF" filter="url(#f1cczh42gds8cv)" height="1062.4258" style="stroke:#A80036;stroke-width:1.0;" width="10" x="26.5" y="98.4883"/><rect fill="#FFFFFF" filter="url(#f1cczh42gds8cv)" height="250.6621" style="stroke:#A80036;stroke-width:1.0;" width="10" x="342.5" y="119.7988"/><rect fill="#FFFFFF" filter="url(#f1cczh42gds8cv)" height="407.0371" style="stroke:#A80036;stroke-width:1.0;" width="10" x="342.5" y="399.7715"/><rect fill="#FFFFFF" filter="url(#f1cczh42gds8cv)" height="315.7949" style="stroke:#A80036;stroke-width:1.0;" width="10" x="342.5" y="836.1191"/><rect fill="#FFFFFF" filter="url(#f1cczh42gds8cv)" height="192.041" style="stroke:#A80036;stroke-width:1.0;" width="10" x="558.5" y="149.1094"/><rect fill="#FFFFFF" filter="url(#f1cczh42gds8cv)" height="348.416" style="stroke:#A80036;stroke-width:1.0;" width="10" x="558.5" y="429.082"/><rect fill="#FFFFFF" filter="url(#f1cczh42gds8cv)" height="257.1738" style="stroke:#A80036;stroke-width:1.0;" width="10" x="558.5" y="865.4297"/><rect fill="#FFFFFF" filter="url(#f1cczh42gds8cv)" height="29.3105" style="stroke:#A80036;stroke-width:1.0;" width="10" x="756.5" y="178.4199"/><rect fill="#FFFFFF" filter="url(#f1cczh42gds8cv)" height="74.7988" style="stroke:#A80036;stroke-width:1.0;" width="10" x="909.5" y="237.041"/><rect fill="#FFFFFF" filter="url(#f1cczh42gds8cv)" height="172.5527" style="stroke:#A80036;stroke-width:1.0;" width="10" x="909.5" y="575.6348"/><rect fill="#FFFFFF" filter="url(#f1cczh42gds8cv)" height="40.3105" style="stroke:#A80036;stroke-width:1.0;" width="10" x="914.5" y="671.5664"/><rect fill="#FFFFFF" filter="url(#f1cczh42gds8cv)" height="198.5527" style="stroke:#A80036;stroke-width:1.0;" width="10" x="909.5" y="894.7402"/><rect fill="#FFFFFF" filter="url(#f1cczh42gds8cv)" height="40.3105" style="stroke:#A80036;stroke-width:1.0;" width="10" x="914.5" y="932.0508"/><rect fill="#FFFFFF" filter="url(#f1cczh42gds8cv)" height="40.3105" style="stroke:#A80036;stroke-width:1.0;" width="10" x="914.5" y="1016.6719"/><rect fill="#FFFFFF" filter="url(#f1cczh42gds8cv)" height="29.3105" style="stroke:#A80036;stroke-width:1.0;" width="10" x="1086.5" y="458.3926"/><rect fill="#FFFFFF" filter="url(#f1cczh42gds8cv)" height="29.3105" style="stroke:#A80036;stroke-width:1.0;" width="10" x="1086.5" y="517.0137"/><rect fill="#FFFFFF" filter="url(#f1cczh42gds8cv)" height="29.3105" style="stroke:#A80036;stroke-width:1.0;" width="10" x="1086.5" y="604.9453"/><line style="stroke:#A80036;stroke-width:1.0;stroke-dasharray:5.0,5.0;" x1="31" x2="31" y1="88.4883" y2="1169.9141"/><line style="stroke:#A80036;stroke-width:1.0;stroke-dasharray:5.0,5.0;" x1="347" x2="347" y1="88.4883" y2="1169.9141"/><line style="stroke:#A80036;stroke-width:1.0;stroke-dasharray:5.0,5.0;" x1="563" x2="563" y1="88.4883" y2="1169.9141"/><line style="stroke:#A80036;stroke-width:1.0;stroke-dasharray:5.0,5.0;" x1="761" x2="761" y1="88.4883" y2="1169.9141"/><line style="stroke:#A80036;stroke-width:1.0;stroke-dasharray:5.0,5.0;" x1="914" x2="914" y1="88.4883" y2="1169.9141"/><line style="stroke:#A80036;stroke-width:1.0;stroke-dasharray:5.0,5.0;" x1="1091.5" x2="1091.5" y1="277.7852" y2="1169.9141"/><text fill="#000000" font-family="sans-serif" font-size="14" lengthAdjust="spacing" textLength="47" x="5" y="85.5352">Person</text><ellipse cx="31.5" cy="15" fill="#FEFECE" filter="url(#f1cczh42gds8cv)" rx="8" ry="8" style="stroke:#A80036;stroke-width:2.0;"/><path d="M31.5,23 L31.5,50 M18.5,31 L44.5,31 M31.5,50 L18.5,65 M31.5,50 L44.5,65 " fill="none" filter="url(#f1cczh42gds8cv)" style="stroke:#A80036;stroke-width:2.0;"/><text fill="#000000" font-family="sans-serif" font-size="14" lengthAdjust="spacing" textLength="47" x="5" y="1182.4492">Person</text><ellipse cx="31.5" cy="1195.4023" fill="#FEFECE" filter="url(#f1cczh42gds8cv)" rx="8" ry="8" style="stroke:#A80036;stroke-width:2.0;"/><path d="M31.5,1203.4023 L31.5,1230.4023 M18.5,1211.4023 L44.5,1211.4023 M31.5,1230.4023 L18.5,1245.4023 M31.5,1230.4023 L44.5,1245.4023 " fill="none" filter="url(#f1cczh42gds8cv)" style="stroke:#A80036;stroke-width:2.0;"/><rect fill="#FEFECE" filter="url(#f1cczh42gds8cv)" height="30.4883" style="stroke:#A80036;stroke-width:1.5;" width="157" x="267" y="53"/><text fill="#000000" font-family="sans-serif" font-size="14" lengthAdjust="spacing" textLength="143" x="274" y="73.5352">:CreateCategoryView</text><rect fill="#FEFECE" filter="url(#f1cczh42gds8cv)" height="30.4883" style="stroke:#A80036;stroke-width:1.5;" width="157" x="267" y="1168.9141"/><text fill="#000000" font-family="sans-serif" font-size="14" lengthAdjust="spacing" textLength="143" x="274" y="1189.4492">:CreateCategoryView</text><rect fill="#FEFECE" filter="url(#f1cczh42gds8cv)" height="30.4883" style="stroke:#A80036;stroke-width:1.5;" width="195" x="464" y="53"/><text fill="#000000" font-family="sans-serif" font-size="14" lengthAdjust="spacing" textLength="181" x="471" y="73.5352">:CreateCategoryController</text><rect fill="#FEFECE" filter="url(#f1cczh42gds8cv)" height="30.4883" style="stroke:#A80036;stroke-width:1.5;" width="195" x="464" y="1168.9141"/><text fill="#000000" font-family="sans-serif" font-size="14" lengthAdjust="spacing" textLength="181" x="471" y="1189.4492">:CreateCategoryController</text><rect fill="#FEFECE" filter="url(#f1cczh42gds8cv)" height="30.4883" style="stroke:#A80036;stroke-width:1.5;" width="65" x="727" y="53"/><text fill="#000000" font-family="sans-serif" font-size="14" lengthAdjust="spacing" textLength="51" x="734" y="73.5352">:Person</text><rect fill="#FEFECE" filter="url(#f1cczh42gds8cv)" height="30.4883" style="stroke:#A80036;stroke-width:1.5;" width="65" x="727" y="1168.9141"/><text fill="#000000" font-family="sans-serif" font-size="14" lengthAdjust="spacing" textLength="51" x="734" y="1189.4492">:Person</text><rect fill="#FEFECE" filter="url(#f1cczh42gds8cv)" height="30.4883" style="stroke:#A80036;stroke-width:1.5;" width="213" x="806" y="53"/><text fill="#000000" font-family="sans-serif" font-size="14" lengthAdjust="spacing" textLength="199" x="813" y="73.5352">container:CategoryContainer</text><rect fill="#FEFECE" filter="url(#f1cczh42gds8cv)" height="30.4883" style="stroke:#A80036;stroke-width:1.5;" width="213" x="806" y="1168.9141"/><text fill="#000000" font-family="sans-serif" font-size="14" lengthAdjust="spacing" textLength="199" x="813" y="1189.4492">container:CategoryContainer</text><rect fill="#FEFECE" filter="url(#f1cczh42gds8cv)" height="30.4883" style="stroke:#A80036;stroke-width:1.5;" width="100" x="1039.5" y="1168.9141"/><text fill="#000000" font-family="sans-serif" font-size="14" lengthAdjust="spacing" textLength="86" x="1046.5" y="1189.4492">cat:Category</text><rect fill="#FFFFFF" filter="url(#f1cczh42gds8cv)" height="1062.4258" style="stroke:#A80036;stroke-width:1.0;" width="10" x="26.5" y="98.4883"/><rect fill="#FFFFFF" filter="url(#f1cczh42gds8cv)" height="250.6621" style="stroke:#A80036;stroke-width:1.0;" width="10" x="342.5" y="119.7988"/><rect fill="#FFFFFF" filter="url(#f1cczh42gds8cv)" height="407.0371" style="stroke:#A80036;stroke-width:1.0;" width="10" x="342.5" y="399.7715"/><rect fill="#FFFFFF" filter="url(#f1cczh42gds8cv)" height="315.7949" style="stroke:#A80036;stroke-width:1.0;" width="10" x="342.5" y="836.1191"/><rect fill="#FFFFFF" filter="url(#f1cczh42gds8cv)" height="192.041" style="stroke:#A80036;stroke-width:1.0;" width="10" x="558.5" y="149.1094"/><rect fill="#FFFFFF" filter="url(#f1cczh42gds8cv)" height="348.416" style="stroke:#A80036;stroke-width:1.0;" width="10" x="558.5" y="429.082"/><rect fill="#FFFFFF" filter="url(#f1cczh42gds8cv)" height="257.1738" style="stroke:#A80036;stroke-width:1.0;" width="10" x="558.5" y="865.4297"/><rect fill="#FFFFFF" filter="url(#f1cczh42gds8cv)" height="29.3105" style="stroke:#A80036;stroke-width:1.0;" width="10" x="756.5" y="178.4199"/><rect fill="#FFFFFF" filter="url(#f1cczh42gds8cv)" height="74.7988" style="stroke:#A80036;stroke-width:1.0;" width="10" x="909.5" y="237.041"/><rect fill="#FFFFFF" filter="url(#f1cczh42gds8cv)" height="172.5527" style="stroke:#A80036;stroke-width:1.0;" width="10" x="909.5" y="575.6348"/><rect fill="#FFFFFF" filter="url(#f1cczh42gds8cv)" height="40.3105" style="stroke:#A80036;stroke-width:1.0;" width="10" x="914.5" y="671.5664"/><rect fill="#FFFFFF" filter="url(#f1cczh42gds8cv)" height="198.5527" style="stroke:#A80036;stroke-width:1.0;" width="10" x="909.5" y="894.7402"/><rect fill="#FFFFFF" filter="url(#f1cczh42gds8cv)" height="40.3105" style="stroke:#A80036;stroke-width:1.0;" width="10" x="914.5" y="932.0508"/><rect fill="#FFFFFF" filter="url(#f1cczh42gds8cv)" height="40.3105" style="stroke:#A80036;stroke-width:1.0;" width="10" x="914.5" y="1016.6719"/><rect fill="#FFFFFF" filter="url(#f1cczh42gds8cv)" height="29.3105" style="stroke:#A80036;stroke-width:1.0;" width="10" x="1086.5" y="458.3926"/><rect fill="#FFFFFF" filter="url(#f1cczh42gds8cv)" height="29.3105" style="stroke:#A80036;stroke-width:1.0;" width="10" x="1086.5" y="517.0137"/><rect fill="#FFFFFF" filter="url(#f1cczh42gds8cv)" height="29.3105" style="stroke:#A80036;stroke-width:1.0;" width="10" x="1086.5" y="604.9453"/><polygon fill="#A80036" points="330.5,115.7988,340.5,119.7988,330.5,123.7988,334.5,119.7988" style="stroke:#A80036;stroke-width:1.0;"/><line style="stroke:#A80036;stroke-width:1.0;" x1="36.5" x2="336.5" y1="119.7988" y2="119.7988"/><text fill="#000000" font-family="sans-serif" font-size="13" font-weight="bold" lengthAdjust="spacing" textLength="9" x="43.5" y="115.0566">1</text><text fill="#000000" font-family="sans-serif" font-size="13" lengthAdjust="spacing" textLength="186" x="56.5" y="115.0566">asks to create a new category</text><polygon fill="#A80036" points="546.5,145.1094,556.5,149.1094,546.5,153.1094,550.5,149.1094" style="stroke:#A80036;stroke-width:1.0;"/><line style="stroke:#A80036;stroke-width:1.0;" x1="352.5" x2="552.5" y1="149.1094" y2="149.1094"/><text fill="#000000" font-family="sans-serif" font-size="13" font-weight="bold" lengthAdjust="spacing" textLength="9" x="359.5" y="144.3672">2</text><text fill="#000000" font-family="sans-serif" font-size="13" lengthAdjust="spacing" textLength="102" x="372.5" y="144.3672">createCategory()</text><polygon fill="#A80036" points="744.5,174.4199,754.5,178.4199,744.5,182.4199,748.5,178.4199" style="stroke:#A80036;stroke-width:1.0;"/><line style="stroke:#A80036;stroke-width:1.0;" x1="568.5" x2="750.5" y1="178.4199" y2="178.4199"/><text fill="#000000" font-family="sans-serif" font-size="13" font-weight="bold" lengthAdjust="spacing" textLength="9" x="575.5" y="173.6777">3</text><text fill="#000000" font-family="sans-serif" font-size="13" lengthAdjust="spacing" textLength="156" x="588.5" y="173.6777">getCategoriesService()</text><polygon fill="#A80036" points="579.5,203.7305,569.5,207.7305,579.5,211.7305,575.5,207.7305" style="stroke:#A80036;stroke-width:1.0;"/><line style="stroke:#A80036;stroke-width:1.0;stroke-dasharray:2.0,2.0;" x1="573.5" x2="760.5" y1="207.7305" y2="207.7305"/><text fill="#000000" font-family="sans-serif" font-size="13" font-weight="bold" lengthAdjust="spacing" textLength="9" x="585.5" y="202.9883">4</text><text fill="#000000" font-family="sans-serif" font-size="13" lengthAdjust="spacing" textLength="59" x="598.5" y="202.9883">container</text><polygon fill="#A80036" points="897.5,233.041,907.5,237.041,897.5,241.041,901.5,237.041" style="stroke:#A80036;stroke-width:1.0;"/><line style="stroke:#A80036;stroke-width:1.0;" x1="568.5" x2="903.5" y1="237.041" y2="237.041"/><text fill="#000000" font-family="sans-serif" font-size="13" font-weight="bold" lengthAdjust="spacing" textLength="9" x="575.5" y="232.2988">5</text><text fill="#000000" font-family="sans-serif" font-size="13" lengthAdjust="spacing" textLength="46" x="588.5" y="232.2988">create()</text><polygon fill="#A80036" points="1027.5,262.3516,1037.5,266.3516,1027.5,270.3516,1031.5,266.3516" style="stroke:#A80036;stroke-width:1.0;"/><line style="stroke:#A80036;stroke-width:1.0;stroke-dasharray:2.0,2.0;" x1="919.5" x2="1033.5" y1="266.3516" y2="266.3516"/><text fill="#000000" font-family="sans-serif" font-size="13" font-weight="bold" lengthAdjust="spacing" textLength="9" x="926.5" y="261.6094">6</text><text fill="#000000" font-family="sans-serif" font-size="13" lengthAdjust="spacing" textLength="46" x="939.5" y="261.6094">create()</text><rect fill="#FEFECE" filter="url(#f1cczh42gds8cv)" height="30.4883" style="stroke:#A80036;stroke-width:1.5;" width="100" x="1039.5" y="245.041"/><text fill="#000000" font-family="sans-serif" font-size="14" lengthAdjust="spacing" textLength="86" x="1046.5" y="265.5762">cat:Category</text><polygon fill="#A80036" points="579.5,307.8398,569.5,311.8398,579.5,315.8398,575.5,311.8398" style="stroke:#A80036;stroke-width:1.0;"/><line style="stroke:#A80036;stroke-width:1.0;stroke-dasharray:2.0,2.0;" x1="573.5" x2="913.5" y1="311.8398" y2="311.8398"/><text fill="#000000" font-family="sans-serif" font-size="13" font-weight="bold" lengthAdjust="spacing" textLength="9" x="585.5" y="307.0977">7</text><text fill="#000000" font-family="sans-serif" font-size="13" lengthAdjust="spacing" textLength="19" x="598.5" y="307.0977">cat</text><polygon fill="#A80036" points="363.5,337.1504,353.5,341.1504,363.5,345.1504,359.5,341.1504" style="stroke:#A80036;stroke-width:1.0;"/><line style="stroke:#A80036;stroke-width:1.0;stroke-dasharray:2.0,2.0;" x1="357.5" x2="562.5" y1="341.1504" y2="341.1504"/><text fill="#000000" font-family="sans-serif" font-size="13" font-weight="bold" lengthAdjust="spacing" textLength="9" x="369.5" y="336.4082">8</text><text fill="#000000" font-family="sans-serif" font-size="13" lengthAdjust="spacing" textLength="16" x="382.5" y="336.4082">ok</text><polygon fill="#A80036" points="47.5,366.4609,37.5,370.4609,47.5,374.4609,43.5,370.4609" style="stroke:#A80036;stroke-width:1.0;"/><line style="stroke:#A80036;stroke-width:1.0;stroke-dasharray:2.0,2.0;" x1="41.5" x2="346.5" y1="370.4609" y2="370.4609"/><text fill="#000000" font-family="sans-serif" font-size="13" font-weight="bold" lengthAdjust="spacing" textLength="9" x="53.5" y="365.7188">9</text><text fill="#000000" font-family="sans-serif" font-size="13" lengthAdjust="spacing" textLength="206" x="66.5" y="365.7188">requests data (code, description)</text><polygon fill="#A80036" points="330.5,395.7715,340.5,399.7715,330.5,403.7715,334.5,399.7715" style="stroke:#A80036;stroke-width:1.0;"/><line style="stroke:#A80036;stroke-width:1.0;" x1="36.5" x2="336.5" y1="399.7715" y2="399.7715"/><text fill="#000000" font-family="sans-serif" font-size="13" font-weight="bold" lengthAdjust="spacing" textLength="18" x="43.5" y="395.0293">10</text><text fill="#000000" font-family="sans-serif" font-size="13" lengthAdjust="spacing" textLength="131" x="65.5" y="395.0293">types requested data</text><polygon fill="#A80036" points="546.5,425.082,556.5,429.082,546.5,433.082,550.5,429.082" style="stroke:#A80036;stroke-width:1.0;"/><line style="stroke:#A80036;stroke-width:1.0;" x1="352.5" x2="552.5" y1="429.082" y2="429.082"/><text fill="#000000" font-family="sans-serif" font-size="13" font-weight="bold" lengthAdjust="spacing" textLength="18" x="359.5" y="424.3398">11</text><text fill="#000000" font-family="sans-serif" font-size="13" lengthAdjust="spacing" textLength="165" x="381.5" y="424.3398">setData(code, description)</text><polygon fill="#A80036" points="1074.5,454.3926,1084.5,458.3926,1074.5,462.3926,1078.5,458.3926" style="stroke:#A80036;stroke-width:1.0;"/><line style="stroke:#A80036;stroke-width:1.0;" x1="568.5" x2="1080.5" y1="458.3926" y2="458.3926"/><text fill="#000000" font-family="sans-serif" font-size="13" font-weight="bold" lengthAdjust="spacing" textLength="18" x="575.5" y="453.6504">12</text><text fill="#000000" font-family="sans-serif" font-size="13" lengthAdjust="spacing" textLength="89" x="597.5" y="453.6504">setCode(code)</text><polygon fill="#A80036" points="579.5,483.7031,569.5,487.7031,579.5,491.7031,575.5,487.7031" style="stroke:#A80036;stroke-width:1.0;"/><line style="stroke:#A80036;stroke-width:1.0;stroke-dasharray:2.0,2.0;" x1="573.5" x2="1090.5" y1="487.7031" y2="487.7031"/><text fill="#000000" font-family="sans-serif" font-size="13" font-weight="bold" lengthAdjust="spacing" textLength="18" x="585.5" y="482.9609">13</text><text fill="#000000" font-family="sans-serif" font-size="13" lengthAdjust="spacing" textLength="16" x="607.5" y="482.9609">ok</text><polygon fill="#A80036" points="1074.5,513.0137,1084.5,517.0137,1074.5,521.0137,1078.5,517.0137" style="stroke:#A80036;stroke-width:1.0;"/><line style="stroke:#A80036;stroke-width:1.0;" x1="568.5" x2="1080.5" y1="517.0137" y2="517.0137"/><text fill="#000000" font-family="sans-serif" font-size="13" font-weight="bold" lengthAdjust="spacing" textLength="18" x="575.5" y="512.2715">14</text><text fill="#000000" font-family="sans-serif" font-size="13" lengthAdjust="spacing" textLength="171" x="597.5" y="512.2715">setDescription(description)</text><polygon fill="#A80036" points="579.5,542.3242,569.5,546.3242,579.5,550.3242,575.5,546.3242" style="stroke:#A80036;stroke-width:1.0;"/><line style="stroke:#A80036;stroke-width:1.0;stroke-dasharray:2.0,2.0;" x1="573.5" x2="1090.5" y1="546.3242" y2="546.3242"/><text fill="#000000" font-family="sans-serif" font-size="13" font-weight="bold" lengthAdjust="spacing" textLength="18" x="585.5" y="541.582">15</text><text fill="#000000" font-family="sans-serif" font-size="13" lengthAdjust="spacing" textLength="16" x="607.5" y="541.582">ok</text><polygon fill="#A80036" points="897.5,571.6348,907.5,575.6348,897.5,579.6348,901.5,575.6348" style="stroke:#A80036;stroke-width:1.0;"/><line style="stroke:#A80036;stroke-width:1.0;" x1="568.5" x2="903.5" y1="575.6348" y2="575.6348"/><text fill="#000000" font-family="sans-serif" font-size="13" font-weight="bold" lengthAdjust="spacing" textLength="18" x="575.5" y="570.8926">16</text><text fill="#000000" font-family="sans-serif" font-size="13" lengthAdjust="spacing" textLength="76" x="597.5" y="570.8926">validate(cat)</text><polygon fill="#A80036" points="1074.5,600.9453,1084.5,604.9453,1074.5,608.9453,1078.5,604.9453" style="stroke:#A80036;stroke-width:1.0;"/><line style="stroke:#A80036;stroke-width:1.0;" x1="919.5" x2="1080.5" y1="604.9453" y2="604.9453"/><text fill="#000000" font-family="sans-serif" font-size="13" font-weight="bold" lengthAdjust="spacing" textLength="18" x="926.5" y="600.2031">17</text><text fill="#000000" font-family="sans-serif" font-size="13" lengthAdjust="spacing" textLength="50" x="948.5" y="600.2031">isValid()</text><polygon fill="#A80036" points="930.5,630.2559,920.5,634.2559,930.5,638.2559,926.5,634.2559" style="stroke:#A80036;stroke-width:1.0;"/><line style="stroke:#A80036;stroke-width:1.0;stroke-dasharray:2.0,2.0;" x1="924.5" x2="1090.5" y1="634.2559" y2="634.2559"/><text fill="#000000" font-family="sans-serif" font-size="13" font-weight="bold" lengthAdjust="spacing" textLength="18" x="936.5" y="629.5137">18</text><text fill="#000000" font-family="sans-serif" font-size="13" lengthAdjust="spacing" textLength="16" x="958.5" y="629.5137">ok</text><line style="stroke:#A80036;stroke-width:1.0;" x1="919.5" x2="966.5" y1="658.5664" y2="658.5664"/><line style="stroke:#A80036;stroke-width:1.0;" x1="966.5" x2="966.5" y1="658.5664" y2="671.5664"/><line style="stroke:#A80036;stroke-width:1.0;" x1="925.5" x2="966.5" y1="671.5664" y2="671.5664"/><polygon fill="#A80036" points="935.5,667.5664,925.5,671.5664,935.5,675.5664,931.5,671.5664" style="stroke:#A80036;stroke-width:1.0;"/><text fill="#000000" font-family="sans-serif" font-size="13" font-weight="bold" lengthAdjust="spacing" textLength="18" x="931.5" y="653.8242">19</text><text fill="#000000" font-family="sans-serif" font-size="13" lengthAdjust="spacing" textLength="131" x="953.5" y="653.8242">checkDuplicates(cat)</text><line style="stroke:#A80036;stroke-width:1.0;stroke-dasharray:2.0,2.0;" x1="924.5" x2="966.5" y1="710.877" y2="710.877"/><line style="stroke:#A80036;stroke-width:1.0;stroke-dasharray:2.0,2.0;" x1="966.5" x2="966.5" y1="710.877" y2="723.877"/><line style="stroke:#A80036;stroke-width:1.0;stroke-dasharray:2.0,2.0;" x1="919.5" x2="966.5" y1="723.877" y2="723.877"/><polygon fill="#A80036" points="929.5,719.877,919.5,723.877,929.5,727.877,925.5,723.877" style="stroke:#A80036;stroke-width:1.0;"/><text fill="#000000" font-family="sans-serif" font-size="13" font-weight="bold" lengthAdjust="spacing" textLength="18" x="931.5" y="706.1348">20</text><text fill="#000000" font-family="sans-serif" font-size="13" lengthAdjust="spacing" textLength="16" x="953.5" y="706.1348">ok</text><polygon fill="#A80036" points="579.5,744.1875,569.5,748.1875,579.5,752.1875,575.5,748.1875" style="stroke:#A80036;stroke-width:1.0;"/><line style="stroke:#A80036;stroke-width:1.0;stroke-dasharray:2.0,2.0;" x1="573.5" x2="913.5" y1="748.1875" y2="748.1875"/><text fill="#000000" font-family="sans-serif" font-size="13" font-weight="bold" lengthAdjust="spacing" textLength="18" x="585.5" y="743.4453">21</text><text fill="#000000" font-family="sans-serif" font-size="13" lengthAdjust="spacing" textLength="16" x="607.5" y="743.4453">ok</text><polygon fill="#A80036" points="363.5,773.498,353.5,777.498,363.5,781.498,359.5,777.498" style="stroke:#A80036;stroke-width:1.0;"/><line style="stroke:#A80036;stroke-width:1.0;stroke-dasharray:2.0,2.0;" x1="357.5" x2="562.5" y1="777.498" y2="777.498"/><text fill="#000000" font-family="sans-serif" font-size="13" font-weight="bold" lengthAdjust="spacing" textLength="18" x="369.5" y="772.7559">22</text><text fill="#000000" font-family="sans-serif" font-size="13" lengthAdjust="spacing" textLength="16" x="391.5" y="772.7559">ok</text><polygon fill="#A80036" points="47.5,802.8086,37.5,806.8086,47.5,810.8086,43.5,806.8086" style="stroke:#A80036;stroke-width:1.0;"/><line style="stroke:#A80036;stroke-width:1.0;stroke-dasharray:2.0,2.0;" x1="41.5" x2="346.5" y1="806.8086" y2="806.8086"/><text fill="#000000" font-family="sans-serif" font-size="13" font-weight="bold" lengthAdjust="spacing" textLength="18" x="53.5" y="802.0664">23</text><text fill="#000000" font-family="sans-serif" font-size="13" lengthAdjust="spacing" textLength="260" x="75.5" y="802.0664">shows all data and requests confirmation</text><polygon fill="#A80036" points="330.5,832.1191,340.5,836.1191,330.5,840.1191,334.5,836.1191" style="stroke:#A80036;stroke-width:1.0;"/><line style="stroke:#A80036;stroke-width:1.0;" x1="36.5" x2="336.5" y1="836.1191" y2="836.1191"/><text fill="#000000" font-family="sans-serif" font-size="13" font-weight="bold" lengthAdjust="spacing" textLength="18" x="43.5" y="831.377">24</text><text fill="#000000" font-family="sans-serif" font-size="13" lengthAdjust="spacing" textLength="111" x="65.5" y="831.377">confirms the data</text><polygon fill="#A80036" points="546.5,861.4297,556.5,865.4297,546.5,869.4297,550.5,865.4297" style="stroke:#A80036;stroke-width:1.0;"/><line style="stroke:#A80036;stroke-width:1.0;" x1="352.5" x2="552.5" y1="865.4297" y2="865.4297"/><text fill="#000000" font-family="sans-serif" font-size="13" font-weight="bold" lengthAdjust="spacing" textLength="18" x="359.5" y="860.6875">25</text><text fill="#000000" font-family="sans-serif" font-size="13" lengthAdjust="spacing" textLength="140" x="381.5" y="860.6875">saveCreatedCategory()</text><polygon fill="#A80036" points="897.5,890.7402,907.5,894.7402,897.5,898.7402,901.5,894.7402" style="stroke:#A80036;stroke-width:1.0;"/><line style="stroke:#A80036;stroke-width:1.0;" x1="568.5" x2="903.5" y1="894.7402" y2="894.7402"/><text fill="#000000" font-family="sans-serif" font-size="13" font-weight="bold" lengthAdjust="spacing" textLength="18" x="575.5" y="889.998">26</text><text fill="#000000" font-family="sans-serif" font-size="13" lengthAdjust="spacing" textLength="55" x="597.5" y="889.998">save(cat)</text><line style="stroke:#A80036;stroke-width:1.0;" x1="919.5" x2="966.5" y1="919.0508" y2="919.0508"/><line style="stroke:#A80036;stroke-width:1.0;" x1="966.5" x2="966.5" y1="919.0508" y2="932.0508"/><line style="stroke:#A80036;stroke-width:1.0;" x1="925.5" x2="966.5" y1="932.0508" y2="932.0508"/><polygon fill="#A80036" points="935.5,928.0508,925.5,932.0508,935.5,936.0508,931.5,932.0508" style="stroke:#A80036;stroke-width:1.0;"/><text fill="#000000" font-family="sans-serif" font-size="13" font-weight="bold" lengthAdjust="spacing" textLength="18" x="931.5" y="914.3086">27</text><text fill="#000000" font-family="sans-serif" font-size="13" lengthAdjust="spacing" textLength="76" x="953.5" y="914.3086">validate(cat)</text><line style="stroke:#A80036;stroke-width:1.0;stroke-dasharray:2.0,2.0;" x1="924.5" x2="966.5" y1="971.3613" y2="971.3613"/><line style="stroke:#A80036;stroke-width:1.0;stroke-dasharray:2.0,2.0;" x1="966.5" x2="966.5" y1="971.3613" y2="984.3613"/><line style="stroke:#A80036;stroke-width:1.0;stroke-dasharray:2.0,2.0;" x1="919.5" x2="966.5" y1="984.3613" y2="984.3613"/><polygon fill="#A80036" points="929.5,980.3613,919.5,984.3613,929.5,988.3613,925.5,984.3613" style="stroke:#A80036;stroke-width:1.0;"/><text fill="#000000" font-family="sans-serif" font-size="13" font-weight="bold" lengthAdjust="spacing" textLength="18" x="931.5" y="966.6191">28</text><text fill="#000000" font-family="sans-serif" font-size="13" lengthAdjust="spacing" textLength="16" x="953.5" y="966.6191">ok</text><line style="stroke:#A80036;stroke-width:1.0;" x1="919.5" x2="966.5" y1="1003.6719" y2="1003.6719"/><line style="stroke:#A80036;stroke-width:1.0;" x1="966.5" x2="966.5" y1="1003.6719" y2="1016.6719"/><line style="stroke:#A80036;stroke-width:1.0;" x1="925.5" x2="966.5" y1="1016.6719" y2="1016.6719"/><polygon fill="#A80036" points="935.5,1012.6719,925.5,1016.6719,935.5,1020.6719,931.5,1016.6719" style="stroke:#A80036;stroke-width:1.0;"/><text fill="#000000" font-family="sans-serif" font-size="13" font-weight="bold" lengthAdjust="spacing" textLength="18" x="931.5" y="998.9297">29</text><text fill="#000000" font-family="sans-serif" font-size="13" lengthAdjust="spacing" textLength="50" x="953.5" y="998.9297">add(cat)</text><line style="stroke:#A80036;stroke-width:1.0;stroke-dasharray:2.0,2.0;" x1="924.5" x2="966.5" y1="1055.9824" y2="1055.9824"/><line style="stroke:#A80036;stroke-width:1.0;stroke-dasharray:2.0,2.0;" x1="966.5" x2="966.5" y1="1055.9824" y2="1068.9824"/><line style="stroke:#A80036;stroke-width:1.0;stroke-dasharray:2.0,2.0;" x1="919.5" x2="966.5" y1="1068.9824" y2="1068.9824"/><polygon fill="#A80036" points="929.5,1064.9824,919.5,1068.9824,929.5,1072.9824,925.5,1068.9824" style="stroke:#A80036;stroke-width:1.0;"/><text fill="#000000" font-family="sans-serif" font-size="13" font-weight="bold" lengthAdjust="spacing" textLength="18" x="931.5" y="1051.2402">30</text><text fill="#000000" font-family="sans-serif" font-size="13" lengthAdjust="spacing" textLength="16" x="953.5" y="1051.2402">ok</text><polygon fill="#A80036" points="579.5,1089.293,569.5,1093.293,579.5,1097.293,575.5,1093.293" style="stroke:#A80036;stroke-width:1.0;"/><line style="stroke:#A80036;stroke-width:1.0;stroke-dasharray:2.0,2.0;" x1="573.5" x2="913.5" y1="1093.293" y2="1093.293"/><text fill="#000000" font-family="sans-serif" font-size="13" font-weight="bold" lengthAdjust="spacing" textLength="18" x="585.5" y="1088.5508">31</text><text fill="#000000" font-family="sans-serif" font-size="13" lengthAdjust="spacing" textLength="16" x="607.5" y="1088.5508">ok</text><polygon fill="#A80036" points="363.5,1118.6035,353.5,1122.6035,363.5,1126.6035,359.5,1122.6035" style="stroke:#A80036;stroke-width:1.0;"/><line style="stroke:#A80036;stroke-width:1.0;stroke-dasharray:2.0,2.0;" x1="357.5" x2="562.5" y1="1122.6035" y2="1122.6035"/><text fill="#000000" font-family="sans-serif" font-size="13" font-weight="bold" lengthAdjust="spacing" textLength="18" x="369.5" y="1117.8613">32</text><text fill="#000000" font-family="sans-serif" font-size="13" lengthAdjust="spacing" textLength="16" x="391.5" y="1117.8613">ok</text><polygon fill="#A80036" points="47.5,1147.9141,37.5,1151.9141,47.5,1155.9141,43.5,1151.9141" style="stroke:#A80036;stroke-width:1.0;"/><line style="stroke:#A80036;stroke-width:1.0;stroke-dasharray:2.0,2.0;" x1="41.5" x2="346.5" y1="1151.9141" y2="1151.9141"/><text fill="#000000" font-family="sans-serif" font-size="13" font-weight="bold" lengthAdjust="spacing" textLength="18" x="53.5" y="1147.1719">33</text><text fill="#000000" font-family="sans-serif" font-size="13" lengthAdjust="spacing" textLength="167" x="75.5" y="1147.1719">informs operation success</text><!--MD5=[239ffb4b84fce755fc0ca385a74a27e4]
@startuml
'https://plantuml.com/sequence-diagram

autoactivate on
autonumber

actor "Person" as User
participant ":CreateCategoryView" as System
participant ":CreateCategoryController" as Ctrl
participant ":Person" as Person
participant "container:CategoryListRepository" as Container
participant "cat:Category" as Category

activate User

User -> System: asks to create a new category
System -> Ctrl: createCategory()
Ctrl -> Person: getCategoriesContainer()
Person - -> Ctrl: container
Ctrl -> Container: create()
Container - -> Category**: create()
Container - -> Ctrl: cat
Ctrl - -> System: ok
System - -> User: requests data (code, description)

User -> System: types requested data
System -> Ctrl: setData(code, description)
Ctrl -> Category: setCode(code)
Category - ->Ctrl: ok
Ctrl -> Category: setDescription(description)
Category - -> Ctrl: ok
Ctrl -> Container: validate(cat)
Container -> Category: isValid()
Category - -> Container: ok
Container -> Container: checkDuplicates(cat)
Container - -> Container : ok
Container - -> Ctrl: ok
Ctrl - -> System: ok
System - -> User: shows all data and requests confirmation

User -> System: confirms the data
System -> Ctrl: saveCreatedCategory()
Ctrl -> Container: save(cat)
Container -> Container : validate(cat)
Container - -> Container : ok
Container -> Container: add(cat)
Container - -> Container : ok
Container - -> Ctrl: ok
Ctrl - -> System: ok
System - -> User: informs operation success

@enduml

@startuml

autoactivate on
autonumber

actor "Person" as User
participant ":CreateCategoryView" as System
participant ":CreateCategoryController" as Ctrl
participant ":Person" as Person
participant "container:CategoryListRepository" as Container
participant "cat:Category" as Category

activate User

User -> System: asks to create a new category
System -> Ctrl: createCategory()
Ctrl -> Person: getCategoriesService()
Person - -> Ctrl: container
Ctrl -> Container: create()
Container - -> Category**: create()
Container - -> Ctrl: cat
Ctrl - -> System: ok
System - -> User: requests data (code, description)

User -> System: types requested data
System -> Ctrl: setData(code, description)
Ctrl -> Category: setCode(code)
Category - ->Ctrl: ok
Ctrl -> Category: setDescription(description)
Category - -> Ctrl: ok
Ctrl -> Container: validate(cat)
Container -> Category: isValid()
Category - -> Container: ok
Container -> Container: checkDuplicates(cat)
Container - -> Container : ok
Container - -> Ctrl: ok
Ctrl - -> System: ok
System - -> User: shows all data and requests confirmation

User -> System: confirms the data
System -> Ctrl: saveCreatedCategory()
Ctrl -> Container: save(cat)
Container -> Container : validate(cat)
Container - -> Container : ok
Container -> Container: add(cat)
Container - -> Container : ok
Container - -> Ctrl: ok
Ctrl - -> System: ok
System - -> User: informs operation success

@enduml

PlantUML version 1.2021.7(Sun May 23 13:40:07 WEST 2021)
(GPL source distribution)
Java Runtime: OpenJDK Runtime Environment
JVM: OpenJDK 64-Bit Server VM
Default Encoding: UTF-8
Language: en
Country: PT
--></g></svg>