@startuml
'https://plantuml.com/class-diagram

hide circle
skinparam classAttributeIconSize 0

class DeleteCategoryView {
}

class DeleteCategoryController {
    +getAll(): List<Category>
    +deleteCategory(string code): Result
}

class Person {
    - name
    + getCategoriesService(): CategoryService
}


class CategoryService {
+ CategoryService(CategoryRepository catsRepo)
+ getAll(): List<Category>
+ remove(string code): Result
}

interface CategoryRepository <<interface>> {
+ getAll(): List<Category>
+ getById(string code): Category
+ remove(Category obj): Result
}

interface RepositoryFactory <<interface>> {
+ getCategoriesRepository(): CategoryRepository
}

class Category {
    - code
    - description
    Category(string code, string description)
    +getCode(): string
    +getDescription(): string
}

Person "1" -down-> "1" RepositoryFactory:  uses
CategoryRepository "1" -right-> "0..*" Category:  records

DeleteCategoryView ..> DeleteCategoryController
DeleteCategoryView ..> Category
DeleteCategoryController ..> Person
DeleteCategoryController ..> CategoryService

CategoryService ..> CategoryRepository

Person -> CategoryService: adopts
RepositoryFactory .right.> CategoryRepository

@enduml