<?xml version="1.0" encoding="UTF-8" standalone="no"?><svg xmlns="http://www.w3.org/2000/svg" xmlns:xlink="http://www.w3.org/1999/xlink" contentScriptType="application/ecmascript" contentStyleType="text/css" height="729px" preserveAspectRatio="none" style="width:1541px;height:729px;background:#FFFFFF;" version="1.1" viewBox="0 0 1541 729" width="1541px" zoomAndPan="magnify"><defs><filter height="300%" id="f2wl6kiarct38" width="300%" x="-1" y="-1"><feGaussianBlur result="blurOut" stdDeviation="2.0"/><feColorMatrix in="blurOut" result="blurOut2" type="matrix" values="0 0 0 0 0 0 0 0 0 0 0 0 0 0 0 0 0 0 .4 0"/><feOffset dx="4.0" dy="4.0" in="blurOut2" result="blurOut3"/><feBlend in="SourceGraphic" in2="blurOut3" mode="normal"/></filter></defs><g><rect fill="#FFFFFF" filter="url(#f2wl6kiarct38)" height="626.2559" style="stroke:#A80036;stroke-width:1.0;" width="10" x="49" y="50.4883"/><rect fill="#FFFFFF" filter="url(#f2wl6kiarct38)" height="595.9453" style="stroke:#A80036;stroke-width:1.0;" width="10" x="254" y="71.7988"/><rect fill="#FFFFFF" filter="url(#f2wl6kiarct38)" height="40.3105" style="stroke:#A80036;stroke-width:1.0;" width="10" x="259" y="591.123"/><rect fill="#FFFFFF" filter="url(#f2wl6kiarct38)" height="413.3926" style="stroke:#A80036;stroke-width:1.0;" width="10" x="465" y="140.4199"/><rect fill="#FFFFFF" filter="url(#f2wl6kiarct38)" height="133.4199" style="stroke:#A80036;stroke-width:1.0;" width="10" x="646" y="169.7305"/><rect fill="#FFFFFF" filter="url(#f2wl6kiarct38)" height="146.5527" style="stroke:#A80036;stroke-width:1.0;" width="10" x="851.5" y="332.4609"/><rect fill="#FFFFFF" filter="url(#f2wl6kiarct38)" height="29.3105" style="stroke:#A80036;stroke-width:1.0;" width="10" x="1047" y="199.041"/><rect fill="#FFFFFF" filter="url(#f2wl6kiarct38)" height="29.3105" style="stroke:#A80036;stroke-width:1.0;" width="10" x="1247.5" y="361.7715"/><rect fill="#FFFFFF" filter="url(#f2wl6kiarct38)" height="29.3105" style="stroke:#A80036;stroke-width:1.0;" width="10" x="1247.5" y="420.3926"/><line style="stroke:#A80036;stroke-width:1.0;stroke-dasharray:5.0,5.0;" x1="54" x2="54" y1="40.4883" y2="685.7441"/><line style="stroke:#A80036;stroke-width:1.0;stroke-dasharray:5.0,5.0;" x1="258.5" x2="258.5" y1="40.4883" y2="685.7441"/><line style="stroke:#A80036;stroke-width:1.0;stroke-dasharray:5.0,5.0;" x1="470" x2="470" y1="40.4883" y2="685.7441"/><line style="stroke:#A80036;stroke-width:1.0;stroke-dasharray:5.0,5.0;" x1="650.5" x2="650.5" y1="40.4883" y2="685.7441"/><line style="stroke:#A80036;stroke-width:1.0;stroke-dasharray:5.0,5.0;" x1="856" x2="856" y1="269.0957" y2="685.7441"/><line style="stroke:#A80036;stroke-width:1.0;stroke-dasharray:5.0,5.0;" x1="1052" x2="1052" y1="40.4883" y2="685.7441"/><line style="stroke:#A80036;stroke-width:1.0;stroke-dasharray:5.0,5.0;" x1="1252" x2="1252" y1="40.4883" y2="685.7441"/><line style="stroke:#A80036;stroke-width:1.0;stroke-dasharray:5.0,5.0;" x1="1409" x2="1409" y1="40.4883" y2="685.7441"/><line style="stroke:#A80036;stroke-width:1.0;stroke-dasharray:5.0,5.0;" x1="1501" x2="1501" y1="519.7578" y2="685.7441"/><rect fill="#FEFECE" filter="url(#f2wl6kiarct38)" height="30.4883" style="stroke:#A80036;stroke-width:1.5;" width="94" x="5" y="5"/><text fill="#000000" font-family="sans-serif" font-size="14" lengthAdjust="spacing" textLength="80" x="12" y="25.5352">:HTTPClient</text><rect fill="#FEFECE" filter="url(#f2wl6kiarct38)" height="30.4883" style="stroke:#A80036;stroke-width:1.5;" width="94" x="5" y="684.7441"/><text fill="#000000" font-family="sans-serif" font-size="14" lengthAdjust="spacing" textLength="80" x="12" y="705.2793">:HTTPClient</text><rect fill="#FEFECE" filter="url(#f2wl6kiarct38)" height="30.4883" style="stroke:#A80036;stroke-width:1.5;" width="165" x="174.5" y="5"/><text fill="#000000" font-family="sans-serif" font-size="14" lengthAdjust="spacing" textLength="151" x="181.5" y="25.5352">handler:RouteHandler</text><rect fill="#FEFECE" filter="url(#f2wl6kiarct38)" height="30.4883" style="stroke:#A80036;stroke-width:1.5;" width="165" x="174.5" y="684.7441"/><text fill="#000000" font-family="sans-serif" font-size="14" lengthAdjust="spacing" textLength="151" x="181.5" y="705.2793">handler:RouteHandler</text><rect fill="#FEFECE" filter="url(#f2wl6kiarct38)" height="30.4883" style="stroke:#A80036;stroke-width:1.5;" width="150" x="393" y="5"/><text fill="#000000" font-family="sans-serif" font-size="14" lengthAdjust="spacing" textLength="136" x="400" y="25.5352">:CategoryController</text><rect fill="#FEFECE" filter="url(#f2wl6kiarct38)" height="30.4883" style="stroke:#A80036;stroke-width:1.5;" width="150" x="393" y="684.7441"/><text fill="#000000" font-family="sans-serif" font-size="14" lengthAdjust="spacing" textLength="136" x="400" y="705.2793">:CategoryController</text><rect fill="#FEFECE" filter="url(#f2wl6kiarct38)" height="30.4883" style="stroke:#A80036;stroke-width:1.5;" width="65" x="616.5" y="5"/><text fill="#000000" font-family="sans-serif" font-size="14" lengthAdjust="spacing" textLength="51" x="623.5" y="25.5352">:Person</text><rect fill="#FEFECE" filter="url(#f2wl6kiarct38)" height="30.4883" style="stroke:#A80036;stroke-width:1.5;" width="65" x="616.5" y="684.7441"/><text fill="#000000" font-family="sans-serif" font-size="14" lengthAdjust="spacing" textLength="51" x="623.5" y="705.2793">:Person</text><rect fill="#FEFECE" filter="url(#f2wl6kiarct38)" height="30.4883" style="stroke:#A80036;stroke-width:1.5;" width="175" x="767" y="684.7441"/><text fill="#000000" font-family="sans-serif" font-size="14" lengthAdjust="spacing" textLength="161" x="774" y="705.2793">service:CategoryService</text><rect fill="#FEFECE" filter="url(#f2wl6kiarct38)" height="30.4883" style="stroke:#A80036;stroke-width:1.5;" width="188" x="956" y="5"/><text fill="#000000" font-family="sans-serif" font-size="14" lengthAdjust="spacing" textLength="174" x="963" y="25.5352">factory:RepositoryFactory</text><rect fill="#FEFECE" filter="url(#f2wl6kiarct38)" height="30.4883" style="stroke:#A80036;stroke-width:1.5;" width="188" x="956" y="684.7441"/><text fill="#000000" font-family="sans-serif" font-size="14" lengthAdjust="spacing" textLength="174" x="963" y="705.2793">factory:RepositoryFactory</text><rect fill="#FEFECE" filter="url(#f2wl6kiarct38)" height="30.4883" style="stroke:#A80036;stroke-width:1.5;" width="185" x="1158" y="5"/><text fill="#000000" font-family="sans-serif" font-size="14" lengthAdjust="spacing" textLength="171" x="1165" y="25.5352">repo:CategoryRepository</text><rect fill="#FEFECE" filter="url(#f2wl6kiarct38)" height="30.4883" style="stroke:#A80036;stroke-width:1.5;" width="185" x="1158" y="684.7441"/><text fill="#000000" font-family="sans-serif" font-size="14" lengthAdjust="spacing" textLength="171" x="1165" y="705.2793">repo:CategoryRepository</text><rect fill="#FEFECE" filter="url(#f2wl6kiarct38)" height="30.4883" style="stroke:#A80036;stroke-width:1.5;" width="100" x="1357" y="5"/><text fill="#000000" font-family="sans-serif" font-size="14" lengthAdjust="spacing" textLength="86" x="1364" y="25.5352">cat:Category</text><rect fill="#FEFECE" filter="url(#f2wl6kiarct38)" height="30.4883" style="stroke:#A80036;stroke-width:1.5;" width="100" x="1357" y="684.7441"/><text fill="#000000" font-family="sans-serif" font-size="14" lengthAdjust="spacing" textLength="86" x="1364" y="705.2793">cat:Category</text><rect fill="#FEFECE" filter="url(#f2wl6kiarct38)" height="30.4883" style="stroke:#A80036;stroke-width:1.5;" width="56" x="1471" y="684.7441"/><text fill="#000000" font-family="sans-serif" font-size="14" lengthAdjust="spacing" textLength="42" x="1478" y="705.2793">Result</text><rect fill="#FFFFFF" filter="url(#f2wl6kiarct38)" height="626.2559" style="stroke:#A80036;stroke-width:1.0;" width="10" x="49" y="50.4883"/><rect fill="#FFFFFF" filter="url(#f2wl6kiarct38)" height="595.9453" style="stroke:#A80036;stroke-width:1.0;" width="10" x="254" y="71.7988"/><rect fill="#FFFFFF" filter="url(#f2wl6kiarct38)" height="40.3105" style="stroke:#A80036;stroke-width:1.0;" width="10" x="259" y="591.123"/><rect fill="#FFFFFF" filter="url(#f2wl6kiarct38)" height="413.3926" style="stroke:#A80036;stroke-width:1.0;" width="10" x="465" y="140.4199"/><rect fill="#FFFFFF" filter="url(#f2wl6kiarct38)" height="133.4199" style="stroke:#A80036;stroke-width:1.0;" width="10" x="646" y="169.7305"/><rect fill="#FFFFFF" filter="url(#f2wl6kiarct38)" height="146.5527" style="stroke:#A80036;stroke-width:1.0;" width="10" x="851.5" y="332.4609"/><rect fill="#FFFFFF" filter="url(#f2wl6kiarct38)" height="29.3105" style="stroke:#A80036;stroke-width:1.0;" width="10" x="1047" y="199.041"/><rect fill="#FFFFFF" filter="url(#f2wl6kiarct38)" height="29.3105" style="stroke:#A80036;stroke-width:1.0;" width="10" x="1247.5" y="361.7715"/><rect fill="#FFFFFF" filter="url(#f2wl6kiarct38)" height="29.3105" style="stroke:#A80036;stroke-width:1.0;" width="10" x="1247.5" y="420.3926"/><polygon fill="#A80036" points="242,67.7988,252,71.7988,242,75.7988,246,71.7988" style="stroke:#A80036;stroke-width:1.0;"/><line style="stroke:#A80036;stroke-width:1.0;" x1="59" x2="248" y1="71.7988" y2="71.7988"/><text fill="#000000" font-family="sans-serif" font-size="13" font-weight="bold" lengthAdjust="spacing" textLength="9" x="66" y="67.0566">1</text><text fill="#000000" font-family="sans-serif" font-size="13" lengthAdjust="spacing" textLength="163" x="79" y="67.0566">DELETE/categories/{code}</text><path d="M176,84.7988 L176,109.7988 L338,109.7988 L338,94.7988 L328,84.7988 L176,84.7988 " fill="#FBFB77" filter="url(#f2wl6kiarct38)" style="stroke:#A80036;stroke-width:1.0;"/><path d="M328,84.7988 L328,94.7988 L338,94.7988 L328,84.7988 " fill="#FBFB77" style="stroke:#A80036;stroke-width:1.0;"/><text fill="#000000" font-family="sans-serif" font-size="13" lengthAdjust="spacing" textLength="141" x="182" y="102.3672">after doing some stuff</text><polygon fill="#A80036" points="453,136.4199,463,140.4199,453,144.4199,457,140.4199" style="stroke:#A80036;stroke-width:1.0;"/><line style="stroke:#A80036;stroke-width:1.0;" x1="264" x2="459" y1="140.4199" y2="140.4199"/><text fill="#000000" font-family="sans-serif" font-size="13" font-weight="bold" lengthAdjust="spacing" textLength="9" x="271" y="135.6777">2</text><text fill="#000000" font-family="sans-serif" font-size="13" lengthAdjust="spacing" textLength="132" x="284" y="135.6777">deleteCategory(code)</text><polygon fill="#A80036" points="634,165.7305,644,169.7305,634,173.7305,638,169.7305" style="stroke:#A80036;stroke-width:1.0;"/><line style="stroke:#A80036;stroke-width:1.0;" x1="475" x2="640" y1="169.7305" y2="169.7305"/><text fill="#000000" font-family="sans-serif" font-size="13" font-weight="bold" lengthAdjust="spacing" textLength="9" x="482" y="164.9883">3</text><text fill="#000000" font-family="sans-serif" font-size="13" lengthAdjust="spacing" textLength="139" x="495" y="164.9883">getCategoriesService()</text><polygon fill="#A80036" points="1035,195.041,1045,199.041,1035,203.041,1039,199.041" style="stroke:#A80036;stroke-width:1.0;"/><line style="stroke:#A80036;stroke-width:1.0;" x1="656" x2="1041" y1="199.041" y2="199.041"/><text fill="#000000" font-family="sans-serif" font-size="13" font-weight="bold" lengthAdjust="spacing" textLength="9" x="663" y="194.2988">4</text><text fill="#000000" font-family="sans-serif" font-size="13" lengthAdjust="spacing" textLength="162" x="676" y="194.2988">getCategoriesRepository()</text><polygon fill="#A80036" points="667,224.3516,657,228.3516,667,232.3516,663,228.3516" style="stroke:#A80036;stroke-width:1.0;"/><line style="stroke:#A80036;stroke-width:1.0;stroke-dasharray:2.0,2.0;" x1="661" x2="1051" y1="228.3516" y2="228.3516"/><text fill="#000000" font-family="sans-serif" font-size="13" font-weight="bold" lengthAdjust="spacing" textLength="9" x="673" y="223.6094">5</text><text fill="#000000" font-family="sans-serif" font-size="13" lengthAdjust="spacing" textLength="28" x="686" y="223.6094">repo</text><polygon fill="#A80036" points="755,253.6621,765,257.6621,755,261.6621,759,257.6621" style="stroke:#A80036;stroke-width:1.0;"/><line style="stroke:#A80036;stroke-width:1.0;stroke-dasharray:2.0,2.0;" x1="656" x2="761" y1="257.6621" y2="257.6621"/><text fill="#000000" font-family="sans-serif" font-size="13" font-weight="bold" lengthAdjust="spacing" textLength="9" x="663" y="252.9199">6</text><text fill="#000000" font-family="sans-serif" font-size="13" lengthAdjust="spacing" textLength="74" x="676" y="252.9199">create(repo)</text><rect fill="#FEFECE" filter="url(#f2wl6kiarct38)" height="30.4883" style="stroke:#A80036;stroke-width:1.5;" width="175" x="767" y="236.3516"/><text fill="#000000" font-family="sans-serif" font-size="14" lengthAdjust="spacing" textLength="161" x="774" y="256.8867">service:CategoryService</text><polygon fill="#A80036" points="486,299.1504,476,303.1504,486,307.1504,482,303.1504" style="stroke:#A80036;stroke-width:1.0;"/><line style="stroke:#A80036;stroke-width:1.0;stroke-dasharray:2.0,2.0;" x1="480" x2="650" y1="303.1504" y2="303.1504"/><text fill="#000000" font-family="sans-serif" font-size="13" font-weight="bold" lengthAdjust="spacing" textLength="9" x="492" y="298.4082">7</text><text fill="#000000" font-family="sans-serif" font-size="13" lengthAdjust="spacing" textLength="44" x="505" y="298.4082">service</text><polygon fill="#A80036" points="839.5,328.4609,849.5,332.4609,839.5,336.4609,843.5,332.4609" style="stroke:#A80036;stroke-width:1.0;"/><line style="stroke:#A80036;stroke-width:1.0;" x1="475" x2="845.5" y1="332.4609" y2="332.4609"/><text fill="#000000" font-family="sans-serif" font-size="13" font-weight="bold" lengthAdjust="spacing" textLength="9" x="482" y="327.7188">8</text><text fill="#000000" font-family="sans-serif" font-size="13" lengthAdjust="spacing" textLength="84" x="495" y="327.7188">remove(code)</text><polygon fill="#A80036" points="1235.5,357.7715,1245.5,361.7715,1235.5,365.7715,1239.5,361.7715" style="stroke:#A80036;stroke-width:1.0;"/><line style="stroke:#A80036;stroke-width:1.0;" x1="861.5" x2="1241.5" y1="361.7715" y2="361.7715"/><text fill="#000000" font-family="sans-serif" font-size="13" font-weight="bold" lengthAdjust="spacing" textLength="9" x="868.5" y="357.0293">9</text><text fill="#000000" font-family="sans-serif" font-size="13" lengthAdjust="spacing" textLength="84" x="881.5" y="357.0293">getById(code)</text><polygon fill="#A80036" points="872.5,387.082,862.5,391.082,872.5,395.082,868.5,391.082" style="stroke:#A80036;stroke-width:1.0;"/><line style="stroke:#A80036;stroke-width:1.0;stroke-dasharray:2.0,2.0;" x1="866.5" x2="1251.5" y1="391.082" y2="391.082"/><text fill="#000000" font-family="sans-serif" font-size="13" font-weight="bold" lengthAdjust="spacing" textLength="18" x="878.5" y="386.3398">10</text><text fill="#000000" font-family="sans-serif" font-size="13" lengthAdjust="spacing" textLength="19" x="900.5" y="386.3398">cat</text><polygon fill="#A80036" points="1235.5,416.3926,1245.5,420.3926,1235.5,424.3926,1239.5,420.3926" style="stroke:#A80036;stroke-width:1.0;"/><line style="stroke:#A80036;stroke-width:1.0;" x1="861.5" x2="1241.5" y1="420.3926" y2="420.3926"/><text fill="#000000" font-family="sans-serif" font-size="13" font-weight="bold" lengthAdjust="spacing" textLength="18" x="868.5" y="415.6504">11</text><text fill="#000000" font-family="sans-serif" font-size="13" lengthAdjust="spacing" textLength="73" x="890.5" y="415.6504">remove(cat)</text><polygon fill="#A80036" points="872.5,445.7031,862.5,449.7031,872.5,453.7031,868.5,449.7031" style="stroke:#A80036;stroke-width:1.0;"/><line style="stroke:#A80036;stroke-width:1.0;stroke-dasharray:2.0,2.0;" x1="866.5" x2="1251.5" y1="449.7031" y2="449.7031"/><text fill="#000000" font-family="sans-serif" font-size="13" font-weight="bold" lengthAdjust="spacing" textLength="18" x="878.5" y="444.9609">12</text><text fill="#000000" font-family="sans-serif" font-size="13" lengthAdjust="spacing" textLength="16" x="900.5" y="444.9609">ok</text><polygon fill="#A80036" points="486,475.0137,476,479.0137,486,483.0137,482,479.0137" style="stroke:#A80036;stroke-width:1.0;"/><line style="stroke:#A80036;stroke-width:1.0;stroke-dasharray:2.0,2.0;" x1="480" x2="855.5" y1="479.0137" y2="479.0137"/><text fill="#000000" font-family="sans-serif" font-size="13" font-weight="bold" lengthAdjust="spacing" textLength="18" x="492" y="474.2715">13</text><text fill="#000000" font-family="sans-serif" font-size="13" lengthAdjust="spacing" textLength="16" x="514" y="474.2715">ok</text><polygon fill="#A80036" points="1459,504.3242,1469,508.3242,1459,512.3242,1463,508.3242" style="stroke:#A80036;stroke-width:1.0;"/><line style="stroke:#A80036;stroke-width:1.0;stroke-dasharray:2.0,2.0;" x1="475" x2="1465" y1="508.3242" y2="508.3242"/><text fill="#000000" font-family="sans-serif" font-size="13" font-weight="bold" lengthAdjust="spacing" textLength="18" x="482" y="503.582">14</text><text fill="#000000" font-family="sans-serif" font-size="13" lengthAdjust="spacing" textLength="70" x="504" y="503.582">create(200)</text><rect fill="#FEFECE" filter="url(#f2wl6kiarct38)" height="30.4883" style="stroke:#A80036;stroke-width:1.5;" width="56" x="1471" y="487.0137"/><text fill="#000000" font-family="sans-serif" font-size="14" lengthAdjust="spacing" textLength="42" x="1478" y="507.5488">Result</text><polygon fill="#A80036" points="275,549.8125,265,553.8125,275,557.8125,271,553.8125" style="stroke:#A80036;stroke-width:1.0;"/><line style="stroke:#A80036;stroke-width:1.0;stroke-dasharray:2.0,2.0;" x1="269" x2="469" y1="553.8125" y2="553.8125"/><text fill="#000000" font-family="sans-serif" font-size="13" font-weight="bold" lengthAdjust="spacing" textLength="18" x="281" y="549.0703">15</text><text fill="#000000" font-family="sans-serif" font-size="13" lengthAdjust="spacing" textLength="36" x="303" y="549.0703">result</text><line style="stroke:#A80036;stroke-width:1.0;" x1="264" x2="311" y1="578.123" y2="578.123"/><line style="stroke:#A80036;stroke-width:1.0;" x1="311" x2="311" y1="578.123" y2="591.123"/><line style="stroke:#A80036;stroke-width:1.0;" x1="270" x2="311" y1="591.123" y2="591.123"/><polygon fill="#A80036" points="280,587.123,270,591.123,280,595.123,276,591.123" style="stroke:#A80036;stroke-width:1.0;"/><text fill="#000000" font-family="sans-serif" font-size="13" font-weight="bold" lengthAdjust="spacing" textLength="18" x="276" y="573.3809">16</text><text fill="#000000" font-family="sans-serif" font-size="13" lengthAdjust="spacing" textLength="165" x="298" y="573.3809">setHttpResult(resp, result)</text><line style="stroke:#A80036;stroke-width:1.0;stroke-dasharray:2.0,2.0;" x1="269" x2="311" y1="630.4336" y2="630.4336"/><line style="stroke:#A80036;stroke-width:1.0;stroke-dasharray:2.0,2.0;" x1="311" x2="311" y1="630.4336" y2="643.4336"/><line style="stroke:#A80036;stroke-width:1.0;stroke-dasharray:2.0,2.0;" x1="264" x2="311" y1="643.4336" y2="643.4336"/><polygon fill="#A80036" points="274,639.4336,264,643.4336,274,647.4336,270,643.4336" style="stroke:#A80036;stroke-width:1.0;"/><text fill="#000000" font-family="sans-serif" font-size="13" font-weight="bold" lengthAdjust="spacing" textLength="18" x="276" y="625.6914">17</text><text fill="#000000" font-family="sans-serif" font-size="13" lengthAdjust="spacing" textLength="0" x="302" y="625.6914"/><polygon fill="#A80036" points="70,663.7441,60,667.7441,70,671.7441,66,667.7441" style="stroke:#A80036;stroke-width:1.0;"/><line style="stroke:#A80036;stroke-width:1.0;stroke-dasharray:2.0,2.0;" x1="64" x2="258" y1="667.7441" y2="667.7441"/><text fill="#000000" font-family="sans-serif" font-size="13" font-weight="bold" lengthAdjust="spacing" textLength="18" x="76" y="663.002">18</text><text fill="#000000" font-family="sans-serif" font-size="13" lengthAdjust="spacing" textLength="27" x="98" y="663.002">resp</text><!--MD5=[0c91e17fee78e5e2d5d85adbbce6a7d0]
@startuml
'https://plantuml.com/sequence-diagram

autoactivate on
autonumber

participant ":HTTPClient" as HTTPClient
participant "handler:RouteHandler" as System
participant ":CategoryController" as Ctrl
participant ":Person" as Person
participant "service:CategoryService" as Service
participant "factory:RepositoryFactory" as Factory
participant "repo:CategoryRepository" as Repo
participant "cat:Category" as Category

activate HTTPClient

HTTPClient -> System: DELETE/categories/{code}
note over System: after doing some stuff
System -> Ctrl:deleteCategory(code)
Ctrl -> Person: getCategoriesService()
Person -> Factory : getCategoriesRepository()
Factory - -> Person: repo
Person - ->Service**: create(repo)
Person - -> Ctrl: service
Ctrl -> Service: remove(code)
Service -> Repo: getById(code)
Repo - -> Service: cat
Service -> Repo: remove(cat)
Repo - -> Service: ok
Service - -> Ctrl: ok
Ctrl - -> Result**: create(200)
Ctrl - -> System: result
System -> System: setHttpResult(resp, result)
System - -> System:
System - -> HTTPClient: resp

@enduml

@startuml

autoactivate on
autonumber

participant ":HTTPClient" as HTTPClient
participant "handler:RouteHandler" as System
participant ":CategoryController" as Ctrl
participant ":Person" as Person
participant "service:CategoryService" as Service
participant "factory:RepositoryFactory" as Factory
participant "repo:CategoryRepository" as Repo
participant "cat:Category" as Category

activate HTTPClient

HTTPClient -> System: DELETE/categories/{code}
note over System: after doing some stuff
System -> Ctrl:deleteCategory(code)
Ctrl -> Person: getCategoriesService()
Person -> Factory : getCategoriesRepository()
Factory - -> Person: repo
Person - ->Service**: create(repo)
Person - -> Ctrl: service
Ctrl -> Service: remove(code)
Service -> Repo: getById(code)
Repo - -> Service: cat
Service -> Repo: remove(cat)
Repo - -> Service: ok
Service - -> Ctrl: ok
Ctrl - -> Result**: create(200)
Ctrl - -> System: result
System -> System: setHttpResult(resp, result)
System - -> System:
System - -> HTTPClient: resp

@enduml

PlantUML version 1.2021.7(Sun May 23 13:40:07 WEST 2021)
(GPL source distribution)
Java Runtime: OpenJDK Runtime Environment
JVM: OpenJDK 64-Bit Server VM
Default Encoding: UTF-8
Language: en
Country: PT
--></g></svg>