<?xml version="1.0" encoding="UTF-8" standalone="no"?><svg xmlns="http://www.w3.org/2000/svg" xmlns:xlink="http://www.w3.org/1999/xlink" contentScriptType="application/ecmascript" contentStyleType="text/css" height="1233px" preserveAspectRatio="none" style="width:1800px;height:1233px;background:#FFFFFF;" version="1.1" viewBox="0 0 1800 1233" width="1800px" zoomAndPan="magnify"><defs><filter height="300%" id="fh4sypn64ou6" width="300%" x="-1" y="-1"><feGaussianBlur result="blurOut" stdDeviation="2.0"/><feColorMatrix in="blurOut" result="blurOut2" type="matrix" values="0 0 0 0 0 0 0 0 0 0 0 0 0 0 0 0 0 0 .4 0"/><feOffset dx="4.0" dy="4.0" in="blurOut2" result="blurOut3"/><feBlend in="SourceGraphic" in2="blurOut3" mode="normal"/></filter></defs><g><rect fill="#FFFFFF" filter="url(#fh4sypn64ou6)" height="1041.0469" style="stroke:#A80036;stroke-width:1.0;" width="10" x="26.5" y="98.4883"/><rect fill="#FFFFFF" filter="url(#fh4sypn64ou6)" height="383.2148" style="stroke:#A80036;stroke-width:1.0;" width="10" x="341.5" y="119.7988"/><rect fill="#FFFFFF" filter="url(#fh4sypn64ou6)" height="187.8633" style="stroke:#A80036;stroke-width:1.0;" width="10" x="341.5" y="532.3242"/><rect fill="#FFFFFF" filter="url(#fh4sypn64ou6)" height="40.3105" style="stroke:#A80036;stroke-width:1.0;" width="10" x="346.5" y="569.6348"/><rect fill="#FFFFFF" filter="url(#fh4sypn64ou6)" height="381.0371" style="stroke:#A80036;stroke-width:1.0;" width="10" x="341.5" y="749.498"/><rect fill="#FFFFFF" filter="url(#fh4sypn64ou6)" height="309.2832" style="stroke:#A80036;stroke-width:1.0;" width="10" x="635.5" y="149.1094"/><rect fill="#FFFFFF" filter="url(#fh4sypn64ou6)" height="263.7949" style="stroke:#A80036;stroke-width:1.0;" width="10" x="635.5" y="837.4297"/><rect fill="#FFFFFF" filter="url(#fh4sypn64ou6)" height="133.4199" style="stroke:#A80036;stroke-width:1.0;" width="10" x="816.5" y="178.4199"/><rect fill="#FFFFFF" filter="url(#fh4sypn64ou6)" height="87.9316" style="stroke:#A80036;stroke-width:1.0;" width="10" x="1022" y="341.1504"/><rect fill="#FFFFFF" filter="url(#fh4sypn64ou6)" height="205.1738" style="stroke:#A80036;stroke-width:1.0;" width="10" x="1022" y="866.7402"/><rect fill="#FFFFFF" filter="url(#fh4sypn64ou6)" height="29.3105" style="stroke:#A80036;stroke-width:1.0;" width="10" x="1217.5" y="207.7305"/><rect fill="#FFFFFF" filter="url(#fh4sypn64ou6)" height="29.3105" style="stroke:#A80036;stroke-width:1.0;" width="10" x="1418" y="370.4609"/><rect fill="#FFFFFF" filter="url(#fh4sypn64ou6)" height="29.3105" style="stroke:#A80036;stroke-width:1.0;" width="10" x="1418" y="896.0508"/><rect fill="#FFFFFF" filter="url(#fh4sypn64ou6)" height="29.3105" style="stroke:#A80036;stroke-width:1.0;" width="10" x="1418" y="1013.293"/><rect fill="#FFFFFF" filter="url(#fh4sypn64ou6)" height="29.3105" style="stroke:#A80036;stroke-width:1.0;" width="10" x="1733.5" y="646.2559"/><rect fill="#FFFFFF" filter="url(#fh4sypn64ou6)" height="29.3105" style="stroke:#A80036;stroke-width:1.0;" width="10" x="1733.5" y="778.8086"/><rect fill="#FFFFFF" filter="url(#fh4sypn64ou6)" height="29.3105" style="stroke:#A80036;stroke-width:1.0;" width="10" x="1733.5" y="954.6719"/><line style="stroke:#A80036;stroke-width:1.0;stroke-dasharray:5.0,5.0;" x1="31" x2="31" y1="88.4883" y2="1148.5352"/><line style="stroke:#A80036;stroke-width:1.0;stroke-dasharray:5.0,5.0;" x1="346" x2="346" y1="88.4883" y2="1148.5352"/><line style="stroke:#A80036;stroke-width:1.0;stroke-dasharray:5.0,5.0;" x1="640" x2="640" y1="88.4883" y2="1148.5352"/><line style="stroke:#A80036;stroke-width:1.0;stroke-dasharray:5.0,5.0;" x1="821" x2="821" y1="88.4883" y2="1148.5352"/><line style="stroke:#A80036;stroke-width:1.0;stroke-dasharray:5.0,5.0;" x1="1026.5" x2="1026.5" y1="277.7852" y2="1148.5352"/><line style="stroke:#A80036;stroke-width:1.0;stroke-dasharray:5.0,5.0;" x1="1222.5" x2="1222.5" y1="88.4883" y2="1148.5352"/><line style="stroke:#A80036;stroke-width:1.0;stroke-dasharray:5.0,5.0;" x1="1422.5" x2="1422.5" y1="88.4883" y2="1148.5352"/><line style="stroke:#A80036;stroke-width:1.0;stroke-dasharray:5.0,5.0;" x1="1601.5" x2="1601.5" y1="88.4883" y2="1148.5352"/><line style="stroke:#A80036;stroke-width:1.0;stroke-dasharray:5.0,5.0;" x1="1738.5" x2="1738.5" y1="88.4883" y2="1148.5352"/><text fill="#000000" font-family="sans-serif" font-size="14" lengthAdjust="spacing" textLength="47" x="5" y="85.5352">Person</text><ellipse cx="31.5" cy="15" fill="#FEFECE" filter="url(#fh4sypn64ou6)" rx="8" ry="8" style="stroke:#A80036;stroke-width:2.0;"/><path d="M31.5,23 L31.5,50 M18.5,31 L44.5,31 M31.5,50 L18.5,65 M31.5,50 L44.5,65 " fill="none" filter="url(#fh4sypn64ou6)" style="stroke:#A80036;stroke-width:2.0;"/><text fill="#000000" font-family="sans-serif" font-size="14" lengthAdjust="spacing" textLength="47" x="5" y="1161.0703">Person</text><ellipse cx="31.5" cy="1174.0234" fill="#FEFECE" filter="url(#fh4sypn64ou6)" rx="8" ry="8" style="stroke:#A80036;stroke-width:2.0;"/><path d="M31.5,1182.0234 L31.5,1209.0234 M18.5,1190.0234 L44.5,1190.0234 M31.5,1209.0234 L18.5,1224.0234 M31.5,1209.0234 L44.5,1224.0234 " fill="none" filter="url(#fh4sypn64ou6)" style="stroke:#A80036;stroke-width:2.0;"/><rect fill="#FEFECE" filter="url(#fh4sypn64ou6)" height="30.4883" style="stroke:#A80036;stroke-width:1.5;" width="161" x="264" y="53"/><text fill="#000000" font-family="sans-serif" font-size="14" lengthAdjust="spacing" textLength="147" x="271" y="73.5352">:UpdateCategoryView</text><rect fill="#FEFECE" filter="url(#fh4sypn64ou6)" height="30.4883" style="stroke:#A80036;stroke-width:1.5;" width="161" x="264" y="1147.5352"/><text fill="#000000" font-family="sans-serif" font-size="14" lengthAdjust="spacing" textLength="147" x="271" y="1168.0703">:UpdateCategoryView</text><rect fill="#FEFECE" filter="url(#fh4sypn64ou6)" height="30.4883" style="stroke:#A80036;stroke-width:1.5;" width="199" x="539" y="53"/><text fill="#000000" font-family="sans-serif" font-size="14" lengthAdjust="spacing" textLength="185" x="546" y="73.5352">:UpdateCategoryController</text><rect fill="#FEFECE" filter="url(#fh4sypn64ou6)" height="30.4883" style="stroke:#A80036;stroke-width:1.5;" width="199" x="539" y="1147.5352"/><text fill="#000000" font-family="sans-serif" font-size="14" lengthAdjust="spacing" textLength="185" x="546" y="1168.0703">:UpdateCategoryController</text><rect fill="#FEFECE" filter="url(#fh4sypn64ou6)" height="30.4883" style="stroke:#A80036;stroke-width:1.5;" width="65" x="787" y="53"/><text fill="#000000" font-family="sans-serif" font-size="14" lengthAdjust="spacing" textLength="51" x="794" y="73.5352">:Person</text><rect fill="#FEFECE" filter="url(#fh4sypn64ou6)" height="30.4883" style="stroke:#A80036;stroke-width:1.5;" width="65" x="787" y="1147.5352"/><text fill="#000000" font-family="sans-serif" font-size="14" lengthAdjust="spacing" textLength="51" x="794" y="1168.0703">:Person</text><rect fill="#FEFECE" filter="url(#fh4sypn64ou6)" height="30.4883" style="stroke:#A80036;stroke-width:1.5;" width="175" x="937.5" y="1147.5352"/><text fill="#000000" font-family="sans-serif" font-size="14" lengthAdjust="spacing" textLength="161" x="944.5" y="1168.0703">service:CategoryService</text><rect fill="#FEFECE" filter="url(#fh4sypn64ou6)" height="30.4883" style="stroke:#A80036;stroke-width:1.5;" width="188" x="1126.5" y="53"/><text fill="#000000" font-family="sans-serif" font-size="14" lengthAdjust="spacing" textLength="174" x="1133.5" y="73.5352">factory:RepositoryFactory</text><rect fill="#FEFECE" filter="url(#fh4sypn64ou6)" height="30.4883" style="stroke:#A80036;stroke-width:1.5;" width="188" x="1126.5" y="1147.5352"/><text fill="#000000" font-family="sans-serif" font-size="14" lengthAdjust="spacing" textLength="174" x="1133.5" y="1168.0703">factory:RepositoryFactory</text><rect fill="#FEFECE" filter="url(#fh4sypn64ou6)" height="30.4883" style="stroke:#A80036;stroke-width:1.5;" width="185" x="1328.5" y="53"/><text fill="#000000" font-family="sans-serif" font-size="14" lengthAdjust="spacing" textLength="171" x="1335.5" y="73.5352">repo:CategoryRepository</text><rect fill="#FEFECE" filter="url(#fh4sypn64ou6)" height="30.4883" style="stroke:#A80036;stroke-width:1.5;" width="185" x="1328.5" y="1147.5352"/><text fill="#000000" font-family="sans-serif" font-size="14" lengthAdjust="spacing" textLength="171" x="1335.5" y="1168.0703">repo:CategoryRepository</text><rect fill="#FEFECE" filter="url(#fh4sypn64ou6)" height="30.4883" style="stroke:#A80036;stroke-width:1.5;" width="145" x="1527.5" y="53"/><text fill="#000000" font-family="sans-serif" font-size="14" lengthAdjust="spacing" textLength="131" x="1534.5" y="73.5352">list:List&lt;Category&gt;</text><rect fill="#FEFECE" filter="url(#fh4sypn64ou6)" height="30.4883" style="stroke:#A80036;stroke-width:1.5;" width="145" x="1527.5" y="1147.5352"/><text fill="#000000" font-family="sans-serif" font-size="14" lengthAdjust="spacing" textLength="131" x="1534.5" y="1168.0703">list:List&lt;Category&gt;</text><rect fill="#FEFECE" filter="url(#fh4sypn64ou6)" height="30.4883" style="stroke:#A80036;stroke-width:1.5;" width="100" x="1686.5" y="53"/><text fill="#000000" font-family="sans-serif" font-size="14" lengthAdjust="spacing" textLength="86" x="1693.5" y="73.5352">cat:Category</text><rect fill="#FEFECE" filter="url(#fh4sypn64ou6)" height="30.4883" style="stroke:#A80036;stroke-width:1.5;" width="100" x="1686.5" y="1147.5352"/><text fill="#000000" font-family="sans-serif" font-size="14" lengthAdjust="spacing" textLength="86" x="1693.5" y="1168.0703">cat:Category</text><rect fill="#FFFFFF" filter="url(#fh4sypn64ou6)" height="1041.0469" style="stroke:#A80036;stroke-width:1.0;" width="10" x="26.5" y="98.4883"/><rect fill="#FFFFFF" filter="url(#fh4sypn64ou6)" height="383.2148" style="stroke:#A80036;stroke-width:1.0;" width="10" x="341.5" y="119.7988"/><rect fill="#FFFFFF" filter="url(#fh4sypn64ou6)" height="187.8633" style="stroke:#A80036;stroke-width:1.0;" width="10" x="341.5" y="532.3242"/><rect fill="#FFFFFF" filter="url(#fh4sypn64ou6)" height="40.3105" style="stroke:#A80036;stroke-width:1.0;" width="10" x="346.5" y="569.6348"/><rect fill="#FFFFFF" filter="url(#fh4sypn64ou6)" height="381.0371" style="stroke:#A80036;stroke-width:1.0;" width="10" x="341.5" y="749.498"/><rect fill="#FFFFFF" filter="url(#fh4sypn64ou6)" height="309.2832" style="stroke:#A80036;stroke-width:1.0;" width="10" x="635.5" y="149.1094"/><rect fill="#FFFFFF" filter="url(#fh4sypn64ou6)" height="263.7949" style="stroke:#A80036;stroke-width:1.0;" width="10" x="635.5" y="837.4297"/><rect fill="#FFFFFF" filter="url(#fh4sypn64ou6)" height="133.4199" style="stroke:#A80036;stroke-width:1.0;" width="10" x="816.5" y="178.4199"/><rect fill="#FFFFFF" filter="url(#fh4sypn64ou6)" height="87.9316" style="stroke:#A80036;stroke-width:1.0;" width="10" x="1022" y="341.1504"/><rect fill="#FFFFFF" filter="url(#fh4sypn64ou6)" height="205.1738" style="stroke:#A80036;stroke-width:1.0;" width="10" x="1022" y="866.7402"/><rect fill="#FFFFFF" filter="url(#fh4sypn64ou6)" height="29.3105" style="stroke:#A80036;stroke-width:1.0;" width="10" x="1217.5" y="207.7305"/><rect fill="#FFFFFF" filter="url(#fh4sypn64ou6)" height="29.3105" style="stroke:#A80036;stroke-width:1.0;" width="10" x="1418" y="370.4609"/><rect fill="#FFFFFF" filter="url(#fh4sypn64ou6)" height="29.3105" style="stroke:#A80036;stroke-width:1.0;" width="10" x="1418" y="896.0508"/><rect fill="#FFFFFF" filter="url(#fh4sypn64ou6)" height="29.3105" style="stroke:#A80036;stroke-width:1.0;" width="10" x="1418" y="1013.293"/><rect fill="#FFFFFF" filter="url(#fh4sypn64ou6)" height="29.3105" style="stroke:#A80036;stroke-width:1.0;" width="10" x="1733.5" y="646.2559"/><rect fill="#FFFFFF" filter="url(#fh4sypn64ou6)" height="29.3105" style="stroke:#A80036;stroke-width:1.0;" width="10" x="1733.5" y="778.8086"/><rect fill="#FFFFFF" filter="url(#fh4sypn64ou6)" height="29.3105" style="stroke:#A80036;stroke-width:1.0;" width="10" x="1733.5" y="954.6719"/><polygon fill="#A80036" points="329.5,115.7988,339.5,119.7988,329.5,123.7988,333.5,119.7988" style="stroke:#A80036;stroke-width:1.0;"/><line style="stroke:#A80036;stroke-width:1.0;" x1="36.5" x2="335.5" y1="119.7988" y2="119.7988"/><text fill="#000000" font-family="sans-serif" font-size="13" font-weight="bold" lengthAdjust="spacing" textLength="9" x="43.5" y="115.0566">1</text><text fill="#000000" font-family="sans-serif" font-size="13" lengthAdjust="spacing" textLength="254" x="56.5" y="115.0566">asks to update description of a category</text><polygon fill="#A80036" points="623.5,145.1094,633.5,149.1094,623.5,153.1094,627.5,149.1094" style="stroke:#A80036;stroke-width:1.0;"/><line style="stroke:#A80036;stroke-width:1.0;" x1="351.5" x2="629.5" y1="149.1094" y2="149.1094"/><text fill="#000000" font-family="sans-serif" font-size="13" font-weight="bold" lengthAdjust="spacing" textLength="9" x="358.5" y="144.3672">2</text><text fill="#000000" font-family="sans-serif" font-size="13" lengthAdjust="spacing" textLength="45" x="371.5" y="144.3672">getAll()</text><polygon fill="#A80036" points="804.5,174.4199,814.5,178.4199,804.5,182.4199,808.5,178.4199" style="stroke:#A80036;stroke-width:1.0;"/><line style="stroke:#A80036;stroke-width:1.0;" x1="645.5" x2="810.5" y1="178.4199" y2="178.4199"/><text fill="#000000" font-family="sans-serif" font-size="13" font-weight="bold" lengthAdjust="spacing" textLength="9" x="652.5" y="173.6777">3</text><text fill="#000000" font-family="sans-serif" font-size="13" lengthAdjust="spacing" textLength="139" x="665.5" y="173.6777">getCategoriesService()</text><polygon fill="#A80036" points="1205.5,203.7305,1215.5,207.7305,1205.5,211.7305,1209.5,207.7305" style="stroke:#A80036;stroke-width:1.0;"/><line style="stroke:#A80036;stroke-width:1.0;" x1="826.5" x2="1211.5" y1="207.7305" y2="207.7305"/><text fill="#000000" font-family="sans-serif" font-size="13" font-weight="bold" lengthAdjust="spacing" textLength="9" x="833.5" y="202.9883">4</text><text fill="#000000" font-family="sans-serif" font-size="13" lengthAdjust="spacing" textLength="162" x="846.5" y="202.9883">getCategoriesRepository()</text><polygon fill="#A80036" points="837.5,233.041,827.5,237.041,837.5,241.041,833.5,237.041" style="stroke:#A80036;stroke-width:1.0;"/><line style="stroke:#A80036;stroke-width:1.0;stroke-dasharray:2.0,2.0;" x1="831.5" x2="1221.5" y1="237.041" y2="237.041"/><text fill="#000000" font-family="sans-serif" font-size="13" font-weight="bold" lengthAdjust="spacing" textLength="9" x="843.5" y="232.2988">5</text><text fill="#000000" font-family="sans-serif" font-size="13" lengthAdjust="spacing" textLength="28" x="856.5" y="232.2988">repo</text><polygon fill="#A80036" points="925.5,262.3516,935.5,266.3516,925.5,270.3516,929.5,266.3516" style="stroke:#A80036;stroke-width:1.0;"/><line style="stroke:#A80036;stroke-width:1.0;stroke-dasharray:2.0,2.0;" x1="826.5" x2="931.5" y1="266.3516" y2="266.3516"/><text fill="#000000" font-family="sans-serif" font-size="13" font-weight="bold" lengthAdjust="spacing" textLength="9" x="833.5" y="261.6094">6</text><text fill="#000000" font-family="sans-serif" font-size="13" lengthAdjust="spacing" textLength="74" x="846.5" y="261.6094">create(repo)</text><rect fill="#FEFECE" filter="url(#fh4sypn64ou6)" height="30.4883" style="stroke:#A80036;stroke-width:1.5;" width="175" x="937.5" y="245.041"/><text fill="#000000" font-family="sans-serif" font-size="14" lengthAdjust="spacing" textLength="161" x="944.5" y="265.5762">service:CategoryService</text><polygon fill="#A80036" points="656.5,307.8398,646.5,311.8398,656.5,315.8398,652.5,311.8398" style="stroke:#A80036;stroke-width:1.0;"/><line style="stroke:#A80036;stroke-width:1.0;stroke-dasharray:2.0,2.0;" x1="650.5" x2="820.5" y1="311.8398" y2="311.8398"/><text fill="#000000" font-family="sans-serif" font-size="13" font-weight="bold" lengthAdjust="spacing" textLength="9" x="662.5" y="307.0977">7</text><text fill="#000000" font-family="sans-serif" font-size="13" lengthAdjust="spacing" textLength="44" x="675.5" y="307.0977">service</text><polygon fill="#A80036" points="1010,337.1504,1020,341.1504,1010,345.1504,1014,341.1504" style="stroke:#A80036;stroke-width:1.0;"/><line style="stroke:#A80036;stroke-width:1.0;" x1="645.5" x2="1016" y1="341.1504" y2="341.1504"/><text fill="#000000" font-family="sans-serif" font-size="13" font-weight="bold" lengthAdjust="spacing" textLength="9" x="652.5" y="336.4082">8</text><text fill="#000000" font-family="sans-serif" font-size="13" lengthAdjust="spacing" textLength="45" x="665.5" y="336.4082">getAll()</text><polygon fill="#A80036" points="1406,366.4609,1416,370.4609,1406,374.4609,1410,370.4609" style="stroke:#A80036;stroke-width:1.0;"/><line style="stroke:#A80036;stroke-width:1.0;" x1="1032" x2="1412" y1="370.4609" y2="370.4609"/><text fill="#000000" font-family="sans-serif" font-size="13" font-weight="bold" lengthAdjust="spacing" textLength="9" x="1039" y="365.7188">9</text><text fill="#000000" font-family="sans-serif" font-size="13" lengthAdjust="spacing" textLength="45" x="1052" y="365.7188">getAll()</text><polygon fill="#A80036" points="1043,395.7715,1033,399.7715,1043,403.7715,1039,399.7715" style="stroke:#A80036;stroke-width:1.0;"/><line style="stroke:#A80036;stroke-width:1.0;stroke-dasharray:2.0,2.0;" x1="1037" x2="1422" y1="399.7715" y2="399.7715"/><text fill="#000000" font-family="sans-serif" font-size="13" font-weight="bold" lengthAdjust="spacing" textLength="18" x="1049" y="395.0293">10</text><text fill="#000000" font-family="sans-serif" font-size="13" lengthAdjust="spacing" textLength="20" x="1071" y="395.0293">list</text><polygon fill="#A80036" points="656.5,425.082,646.5,429.082,656.5,433.082,652.5,429.082" style="stroke:#A80036;stroke-width:1.0;"/><line style="stroke:#A80036;stroke-width:1.0;stroke-dasharray:2.0,2.0;" x1="650.5" x2="1026" y1="429.082" y2="429.082"/><text fill="#000000" font-family="sans-serif" font-size="13" font-weight="bold" lengthAdjust="spacing" textLength="18" x="662.5" y="424.3398">11</text><text fill="#000000" font-family="sans-serif" font-size="13" lengthAdjust="spacing" textLength="20" x="684.5" y="424.3398">list</text><polygon fill="#A80036" points="362.5,454.3926,352.5,458.3926,362.5,462.3926,358.5,458.3926" style="stroke:#A80036;stroke-width:1.0;"/><line style="stroke:#A80036;stroke-width:1.0;stroke-dasharray:2.0,2.0;" x1="356.5" x2="639.5" y1="458.3926" y2="458.3926"/><text fill="#000000" font-family="sans-serif" font-size="13" font-weight="bold" lengthAdjust="spacing" textLength="18" x="368.5" y="453.6504">12</text><text fill="#000000" font-family="sans-serif" font-size="13" lengthAdjust="spacing" textLength="20" x="390.5" y="453.6504">list</text><polygon fill="#A80036" points="47.5,499.0137,37.5,503.0137,47.5,507.0137,43.5,503.0137" style="stroke:#A80036;stroke-width:1.0;"/><line style="stroke:#A80036;stroke-width:1.0;stroke-dasharray:2.0,2.0;" x1="41.5" x2="345.5" y1="503.0137" y2="503.0137"/><text fill="#000000" font-family="sans-serif" font-size="13" font-weight="bold" lengthAdjust="spacing" textLength="18" x="53.5" y="490.6162">13</text><text fill="#000000" font-family="sans-serif" font-size="13" lengthAdjust="spacing" textLength="210" x="75.5" y="482.9609">shows all existing categories and</text><text fill="#000000" font-family="sans-serif" font-size="13" lengthAdjust="spacing" textLength="229" x="79.5" y="498.2715">asks to select the one to be updated</text><polygon fill="#A80036" points="329.5,528.3242,339.5,532.3242,329.5,536.3242,333.5,532.3242" style="stroke:#A80036;stroke-width:1.0;"/><line style="stroke:#A80036;stroke-width:1.0;" x1="36.5" x2="335.5" y1="532.3242" y2="532.3242"/><text fill="#000000" font-family="sans-serif" font-size="13" font-weight="bold" lengthAdjust="spacing" textLength="18" x="43.5" y="527.582">14</text><text fill="#000000" font-family="sans-serif" font-size="13" lengthAdjust="spacing" textLength="185" x="65.5" y="527.582">selects the intended category</text><line style="stroke:#A80036;stroke-width:1.0;" x1="351.5" x2="398.5" y1="556.6348" y2="556.6348"/><line style="stroke:#A80036;stroke-width:1.0;" x1="398.5" x2="398.5" y1="556.6348" y2="569.6348"/><line style="stroke:#A80036;stroke-width:1.0;" x1="357.5" x2="398.5" y1="569.6348" y2="569.6348"/><polygon fill="#A80036" points="367.5,565.6348,357.5,569.6348,367.5,573.6348,363.5,569.6348" style="stroke:#A80036;stroke-width:1.0;"/><text fill="#000000" font-family="sans-serif" font-size="13" font-weight="bold" lengthAdjust="spacing" textLength="18" x="363.5" y="551.8926">15</text><text fill="#000000" font-family="sans-serif" font-size="13" lengthAdjust="spacing" textLength="141" x="385.5" y="551.8926">findSelectedCategory()</text><line style="stroke:#A80036;stroke-width:1.0;stroke-dasharray:2.0,2.0;" x1="356.5" x2="398.5" y1="608.9453" y2="608.9453"/><line style="stroke:#A80036;stroke-width:1.0;stroke-dasharray:2.0,2.0;" x1="398.5" x2="398.5" y1="608.9453" y2="621.9453"/><line style="stroke:#A80036;stroke-width:1.0;stroke-dasharray:2.0,2.0;" x1="351.5" x2="398.5" y1="621.9453" y2="621.9453"/><polygon fill="#A80036" points="361.5,617.9453,351.5,621.9453,361.5,625.9453,357.5,621.9453" style="stroke:#A80036;stroke-width:1.0;"/><text fill="#000000" font-family="sans-serif" font-size="13" font-weight="bold" lengthAdjust="spacing" textLength="18" x="363.5" y="604.2031">16</text><text fill="#000000" font-family="sans-serif" font-size="13" lengthAdjust="spacing" textLength="19" x="385.5" y="604.2031">cat</text><polygon fill="#A80036" points="1721.5,642.2559,1731.5,646.2559,1721.5,650.2559,1725.5,646.2559" style="stroke:#A80036;stroke-width:1.0;"/><line style="stroke:#A80036;stroke-width:1.0;" x1="351.5" x2="1727.5" y1="646.2559" y2="646.2559"/><text fill="#000000" font-family="sans-serif" font-size="13" font-weight="bold" lengthAdjust="spacing" textLength="18" x="358.5" y="641.5137">17</text><text fill="#000000" font-family="sans-serif" font-size="13" lengthAdjust="spacing" textLength="101" x="380.5" y="641.5137">getDescription()</text><polygon fill="#A80036" points="362.5,671.5664,352.5,675.5664,362.5,679.5664,358.5,675.5664" style="stroke:#A80036;stroke-width:1.0;"/><line style="stroke:#A80036;stroke-width:1.0;stroke-dasharray:2.0,2.0;" x1="356.5" x2="1737.5" y1="675.5664" y2="675.5664"/><text fill="#000000" font-family="sans-serif" font-size="13" font-weight="bold" lengthAdjust="spacing" textLength="18" x="368.5" y="670.8242">18</text><text fill="#000000" font-family="sans-serif" font-size="13" lengthAdjust="spacing" textLength="71" x="390.5" y="670.8242">description</text><polygon fill="#A80036" points="47.5,716.1875,37.5,720.1875,47.5,724.1875,43.5,720.1875" style="stroke:#A80036;stroke-width:1.0;"/><line style="stroke:#A80036;stroke-width:1.0;stroke-dasharray:2.0,2.0;" x1="41.5" x2="345.5" y1="720.1875" y2="720.1875"/><text fill="#000000" font-family="sans-serif" font-size="13" font-weight="bold" lengthAdjust="spacing" textLength="18" x="53.5" y="707.79">19</text><text fill="#000000" font-family="sans-serif" font-size="13" lengthAdjust="spacing" textLength="255" x="75.5" y="700.1348">shows description of the select category</text><text fill="#000000" font-family="sans-serif" font-size="13" lengthAdjust="spacing" textLength="209" x="79.5" y="715.4453">and requests the new description</text><polygon fill="#A80036" points="329.5,745.498,339.5,749.498,329.5,753.498,333.5,749.498" style="stroke:#A80036;stroke-width:1.0;"/><line style="stroke:#A80036;stroke-width:1.0;" x1="36.5" x2="335.5" y1="749.498" y2="749.498"/><text fill="#000000" font-family="sans-serif" font-size="13" font-weight="bold" lengthAdjust="spacing" textLength="18" x="43.5" y="744.7559">20</text><text fill="#000000" font-family="sans-serif" font-size="13" lengthAdjust="spacing" textLength="162" x="65.5" y="744.7559">types the new description</text><polygon fill="#A80036" points="1721.5,774.8086,1731.5,778.8086,1721.5,782.8086,1725.5,778.8086" style="stroke:#A80036;stroke-width:1.0;"/><line style="stroke:#A80036;stroke-width:1.0;" x1="351.5" x2="1727.5" y1="778.8086" y2="778.8086"/><text fill="#000000" font-family="sans-serif" font-size="13" font-weight="bold" lengthAdjust="spacing" textLength="18" x="358.5" y="774.0664">21</text><text fill="#000000" font-family="sans-serif" font-size="13" lengthAdjust="spacing" textLength="60" x="380.5" y="774.0664">getCode()</text><polygon fill="#A80036" points="362.5,804.1191,352.5,808.1191,362.5,812.1191,358.5,808.1191" style="stroke:#A80036;stroke-width:1.0;"/><line style="stroke:#A80036;stroke-width:1.0;stroke-dasharray:2.0,2.0;" x1="356.5" x2="1737.5" y1="808.1191" y2="808.1191"/><text fill="#000000" font-family="sans-serif" font-size="13" font-weight="bold" lengthAdjust="spacing" textLength="18" x="368.5" y="803.377">22</text><text fill="#000000" font-family="sans-serif" font-size="13" lengthAdjust="spacing" textLength="30" x="390.5" y="803.377">code</text><polygon fill="#A80036" points="623.5,833.4297,633.5,837.4297,623.5,841.4297,627.5,837.4297" style="stroke:#A80036;stroke-width:1.0;"/><line style="stroke:#A80036;stroke-width:1.0;" x1="351.5" x2="629.5" y1="837.4297" y2="837.4297"/><text fill="#000000" font-family="sans-serif" font-size="13" font-weight="bold" lengthAdjust="spacing" textLength="18" x="358.5" y="832.6875">23</text><text fill="#000000" font-family="sans-serif" font-size="13" lengthAdjust="spacing" textLength="243" x="380.5" y="832.6875">updateCategory(code, newDescription)</text><polygon fill="#A80036" points="1010,862.7402,1020,866.7402,1010,870.7402,1014,866.7402" style="stroke:#A80036;stroke-width:1.0;"/><line style="stroke:#A80036;stroke-width:1.0;" x1="645.5" x2="1016" y1="866.7402" y2="866.7402"/><text fill="#000000" font-family="sans-serif" font-size="13" font-weight="bold" lengthAdjust="spacing" textLength="18" x="652.5" y="861.998">24</text><text fill="#000000" font-family="sans-serif" font-size="13" lengthAdjust="spacing" textLength="262" x="674.5" y="861.998">changeDescription(code, newDescription)</text><polygon fill="#A80036" points="1406,892.0508,1416,896.0508,1406,900.0508,1410,896.0508" style="stroke:#A80036;stroke-width:1.0;"/><line style="stroke:#A80036;stroke-width:1.0;" x1="1032" x2="1412" y1="896.0508" y2="896.0508"/><text fill="#000000" font-family="sans-serif" font-size="13" font-weight="bold" lengthAdjust="spacing" textLength="18" x="1039" y="891.3086">25</text><text fill="#000000" font-family="sans-serif" font-size="13" lengthAdjust="spacing" textLength="84" x="1061" y="891.3086">getById(code)</text><polygon fill="#A80036" points="1043,921.3613,1033,925.3613,1043,929.3613,1039,925.3613" style="stroke:#A80036;stroke-width:1.0;"/><line style="stroke:#A80036;stroke-width:1.0;stroke-dasharray:2.0,2.0;" x1="1037" x2="1422" y1="925.3613" y2="925.3613"/><text fill="#000000" font-family="sans-serif" font-size="13" font-weight="bold" lengthAdjust="spacing" textLength="18" x="1049" y="920.6191">26</text><text fill="#000000" font-family="sans-serif" font-size="13" lengthAdjust="spacing" textLength="19" x="1071" y="920.6191">cat</text><polygon fill="#A80036" points="1721.5,950.6719,1731.5,954.6719,1721.5,958.6719,1725.5,954.6719" style="stroke:#A80036;stroke-width:1.0;"/><line style="stroke:#A80036;stroke-width:1.0;" x1="1032" x2="1727.5" y1="954.6719" y2="954.6719"/><text fill="#000000" font-family="sans-serif" font-size="13" font-weight="bold" lengthAdjust="spacing" textLength="18" x="1039" y="949.9297">27</text><text fill="#000000" font-family="sans-serif" font-size="13" lengthAdjust="spacing" textLength="224" x="1061" y="949.9297">changeDescription(newDescription)</text><polygon fill="#A80036" points="1043,979.9824,1033,983.9824,1043,987.9824,1039,983.9824" style="stroke:#A80036;stroke-width:1.0;"/><line style="stroke:#A80036;stroke-width:1.0;stroke-dasharray:2.0,2.0;" x1="1037" x2="1737.5" y1="983.9824" y2="983.9824"/><text fill="#000000" font-family="sans-serif" font-size="13" font-weight="bold" lengthAdjust="spacing" textLength="18" x="1049" y="979.2402">28</text><text fill="#000000" font-family="sans-serif" font-size="13" lengthAdjust="spacing" textLength="16" x="1071" y="979.2402">ok</text><polygon fill="#A80036" points="1406,1009.293,1416,1013.293,1406,1017.293,1410,1013.293" style="stroke:#A80036;stroke-width:1.0;"/><line style="stroke:#A80036;stroke-width:1.0;" x1="1032" x2="1412" y1="1013.293" y2="1013.293"/><text fill="#000000" font-family="sans-serif" font-size="13" font-weight="bold" lengthAdjust="spacing" textLength="18" x="1039" y="1008.5508">29</text><text fill="#000000" font-family="sans-serif" font-size="13" lengthAdjust="spacing" textLength="55" x="1061" y="1008.5508">save(cat)</text><polygon fill="#A80036" points="1043,1038.6035,1033,1042.6035,1043,1046.6035,1039,1042.6035" style="stroke:#A80036;stroke-width:1.0;"/><line style="stroke:#A80036;stroke-width:1.0;stroke-dasharray:2.0,2.0;" x1="1037" x2="1422" y1="1042.6035" y2="1042.6035"/><text fill="#000000" font-family="sans-serif" font-size="13" font-weight="bold" lengthAdjust="spacing" textLength="18" x="1049" y="1037.8613">30</text><text fill="#000000" font-family="sans-serif" font-size="13" lengthAdjust="spacing" textLength="16" x="1071" y="1037.8613">ok</text><polygon fill="#A80036" points="656.5,1067.9141,646.5,1071.9141,656.5,1075.9141,652.5,1071.9141" style="stroke:#A80036;stroke-width:1.0;"/><line style="stroke:#A80036;stroke-width:1.0;stroke-dasharray:2.0,2.0;" x1="650.5" x2="1026" y1="1071.9141" y2="1071.9141"/><text fill="#000000" font-family="sans-serif" font-size="13" font-weight="bold" lengthAdjust="spacing" textLength="18" x="662.5" y="1067.1719">31</text><text fill="#000000" font-family="sans-serif" font-size="13" lengthAdjust="spacing" textLength="16" x="684.5" y="1067.1719">ok</text><polygon fill="#A80036" points="362.5,1097.2246,352.5,1101.2246,362.5,1105.2246,358.5,1101.2246" style="stroke:#A80036;stroke-width:1.0;"/><line style="stroke:#A80036;stroke-width:1.0;stroke-dasharray:2.0,2.0;" x1="356.5" x2="639.5" y1="1101.2246" y2="1101.2246"/><text fill="#000000" font-family="sans-serif" font-size="13" font-weight="bold" lengthAdjust="spacing" textLength="18" x="368.5" y="1096.4824">32</text><text fill="#000000" font-family="sans-serif" font-size="13" lengthAdjust="spacing" textLength="16" x="390.5" y="1096.4824">ok</text><polygon fill="#A80036" points="47.5,1126.5352,37.5,1130.5352,47.5,1134.5352,43.5,1130.5352" style="stroke:#A80036;stroke-width:1.0;"/><line style="stroke:#A80036;stroke-width:1.0;stroke-dasharray:2.0,2.0;" x1="41.5" x2="345.5" y1="1130.5352" y2="1130.5352"/><text fill="#000000" font-family="sans-serif" font-size="13" font-weight="bold" lengthAdjust="spacing" textLength="18" x="53.5" y="1125.793">33</text><text fill="#000000" font-family="sans-serif" font-size="13" lengthAdjust="spacing" textLength="167" x="75.5" y="1125.793">informs operation success</text><!--MD5=[b7f539b02a7a3dee894d95eb1bc94866]
@startuml
'https://plantuml.com/sequence-diagram

autoactivate on
autonumber

actor "Person" as User
participant ":UpdateCategoryView" as System
participant ":UpdateCategoryController" as Ctrl
participant ":Person" as Person
participant "service:CategoryService" as Service
participant "factory:RepositoryFactory" as Factory
participant "repo:CategoryRepository" as Repo
participant "list:List<Category>" as List
participant "cat:Category" as Category

activate User

User -> System: asks to update description of a category
System -> Ctrl: getAll()
Ctrl -> Person: getCategoriesService()
Person -> Factory : getCategoriesRepository()
Factory - -> Person: repo
Person - ->Service**: create(repo)
Person - -> Ctrl: service
Ctrl -> Service: getAll()
Service -> Repo: getAll()
Repo - -> Service: list
Service - -> Ctrl: list
Ctrl - -> System: list
System - -> User: shows all existing categories and \n asks to select the one to be updated


User -> System: selects the intended category
System -> System: findSelectedCategory()
System - -> System: cat
System -> Category: getDescription()
Category - -> System: description
System - -> User: shows description of the select category \n and requests the new description

User -> System: types the new description
System -> Category: getCode()
Category - -> System: code
System -> Ctrl:updateCategory(code, newDescription)
Ctrl -> Service: changeDescription(code, newDescription)
Service -> Repo: getById(code)
Repo - -> Service: cat
Service -> Category: changeDescription(newDescription)
Category - -> Service : ok
Service -> Repo: save(cat)
Repo - -> Service: ok
Service - -> Ctrl: ok
Ctrl - -> System: ok
System - -> User: informs operation success

@enduml

@startuml

autoactivate on
autonumber

actor "Person" as User
participant ":UpdateCategoryView" as System
participant ":UpdateCategoryController" as Ctrl
participant ":Person" as Person
participant "service:CategoryService" as Service
participant "factory:RepositoryFactory" as Factory
participant "repo:CategoryRepository" as Repo
participant "list:List<Category>" as List
participant "cat:Category" as Category

activate User

User -> System: asks to update description of a category
System -> Ctrl: getAll()
Ctrl -> Person: getCategoriesService()
Person -> Factory : getCategoriesRepository()
Factory - -> Person: repo
Person - ->Service**: create(repo)
Person - -> Ctrl: service
Ctrl -> Service: getAll()
Service -> Repo: getAll()
Repo - -> Service: list
Service - -> Ctrl: list
Ctrl - -> System: list
System - -> User: shows all existing categories and \n asks to select the one to be updated


User -> System: selects the intended category
System -> System: findSelectedCategory()
System - -> System: cat
System -> Category: getDescription()
Category - -> System: description
System - -> User: shows description of the select category \n and requests the new description

User -> System: types the new description
System -> Category: getCode()
Category - -> System: code
System -> Ctrl:updateCategory(code, newDescription)
Ctrl -> Service: changeDescription(code, newDescription)
Service -> Repo: getById(code)
Repo - -> Service: cat
Service -> Category: changeDescription(newDescription)
Category - -> Service : ok
Service -> Repo: save(cat)
Repo - -> Service: ok
Service - -> Ctrl: ok
Ctrl - -> System: ok
System - -> User: informs operation success

@enduml

PlantUML version 1.2021.7(Sun May 23 13:40:07 WEST 2021)
(GPL source distribution)
Java Runtime: OpenJDK Runtime Environment
JVM: OpenJDK 64-Bit Server VM
Default Encoding: UTF-8
Language: en
Country: PT
--></g></svg>