<?xml version="1.0" encoding="UTF-8" standalone="no"?><svg xmlns="http://www.w3.org/2000/svg" xmlns:xlink="http://www.w3.org/1999/xlink" contentScriptType="application/ecmascript" contentStyleType="text/css" height="79px" preserveAspectRatio="none" style="width:259px;height:79px;background:#FFFFFF;" version="1.1" viewBox="0 0 259 79" width="259px" zoomAndPan="magnify"><defs><filter height="300%" id="f1o64xjrojk4er" width="300%" x="-1" y="-1"><feGaussianBlur result="blurOut" stdDeviation="2.0"/><feColorMatrix in="blurOut" result="blurOut2" type="matrix" values="0 0 0 0 0 0 0 0 0 0 0 0 0 0 0 0 0 0 .4 0"/><feOffset dx="4.0" dy="4.0" in="blurOut2" result="blurOut3"/><feBlend in="SourceGraphic" in2="blurOut3" mode="normal"/></filter></defs><g><!--MD5=[09ce52be0ee7de43c61b6e2d59bf108b]
class Person--><rect codeLine="6" fill="#FEFECE" filter="url(#f1o64xjrojk4er)" height="45.0879" id="Person" style="stroke:#A80036;stroke-width:1.5;" width="47" x="7" y="13.5"/><text fill="#000000" font-family="sans-serif" font-size="12" lengthAdjust="spacing" textLength="39" x="11" y="30.1016">Person</text><line style="stroke:#A80036;stroke-width:1.5;" x1="8" x2="53" y1="37.6328" y2="37.6328"/><text fill="#000000" font-family="sans-serif" font-size="11" lengthAdjust="spacing" textLength="35" x="13" y="52.2676">-name</text><!--MD5=[a96594a83e2ecdc78cbf17c2ddf01934]
class Category--><rect codeLine="10" fill="#FEFECE" filter="url(#f1o64xjrojk4er)" height="58.043" id="Category" style="stroke:#A80036;stroke-width:1.5;" width="79" x="166" y="7"/><text fill="#000000" font-family="sans-serif" font-size="12" lengthAdjust="spacing" textLength="51" x="180" y="23.6016">Category</text><line style="stroke:#A80036;stroke-width:1.5;" x1="167" x2="244" y1="31.1328" y2="31.1328"/><text fill="#000000" font-family="sans-serif" font-size="11" lengthAdjust="spacing" textLength="32" x="172" y="45.7676">-code</text><text fill="#000000" font-family="sans-serif" font-size="11" lengthAdjust="spacing" textLength="67" x="172" y="58.7227">-description</text><!--MD5=[8665a39baf447c773b5d79c4dc09e86a]
link Person to Category--><path codeLine="15" d="M54.1,36 C82.74,36 131.47,36 165.9,36 " fill="none" id="Person-Category" style="stroke:#A80036;stroke-width:1.0;"/><polygon fill="#000000" points="81.5,24.6553,72.4549,21.7163,72.4549,27.5942,81.5,24.6553" style="stroke:#000000;stroke-width:1.0;"/><text fill="#000000" font-family="sans-serif" font-size="13" lengthAdjust="spacing" textLength="62" x="85.5" y="29.5684">maintains</text><text fill="#000000" font-family="sans-serif" font-size="13" lengthAdjust="spacing" textLength="8" x="61.8625" y="31.4903">1</text><text fill="#000000" font-family="sans-serif" font-size="13" lengthAdjust="spacing" textLength="22" x="136.1519" y="49.7373">0..*</text><!--MD5=[6efa829f4216b283c05e65a156f9711f]
@startuml
'https://plantuml.com/class-diagram
skinparam classAttributeIconSize 0
hide circle
hide methods

class Person {
    - name
}

class Category {
    - code
    - description
}

Person "1" -right- - "0..*" Category:  maintains >


@enduml

@startuml
skinparam classAttributeIconSize 0
hide circle
hide methods

class Person {
    - name
}

class Category {
    - code
    - description
}

Person "1" -right- - "0..*" Category:  maintains >


@enduml

PlantUML version 1.2021.7(Sun May 23 13:40:07 WEST 2021)
(GPL source distribution)
Java Runtime: OpenJDK Runtime Environment
JVM: OpenJDK 64-Bit Server VM
Default Encoding: UTF-8
Language: en
Country: PT
--></g></svg>