<?xml version="1.0" encoding="UTF-8" standalone="no"?><svg xmlns="http://www.w3.org/2000/svg" xmlns:xlink="http://www.w3.org/1999/xlink" contentScriptType="application/ecmascript" contentStyleType="text/css" height="340px" preserveAspectRatio="none" style="width:852px;height:340px;background:#FFFFFF;" version="1.1" viewBox="0 0 852 340" width="852px" zoomAndPan="magnify"><defs><filter height="300%" id="f1qlut29xp4drg" width="300%" x="-1" y="-1"><feGaussianBlur result="blurOut" stdDeviation="2.0"/><feColorMatrix in="blurOut" result="blurOut2" type="matrix" values="0 0 0 0 0 0 0 0 0 0 0 0 0 0 0 0 0 0 .4 0"/><feOffset dx="4.0" dy="4.0" in="blurOut2" result="blurOut3"/><feBlend in="SourceGraphic" in2="blurOut3" mode="normal"/></filter></defs><g><!--MD5=[7f9a3db5e52734fe9e26e91538c05d08]
class ListCategoryView--><rect codeLine="6" fill="#FEFECE" filter="url(#f1qlut29xp4drg)" height="40.1328" id="ListCategoryView" style="stroke:#A80036;stroke-width:1.5;" width="103" x="532" y="7"/><text fill="#000000" font-family="sans-serif" font-size="12" lengthAdjust="spacing" textLength="97" x="535" y="23.6016">ListCategoryView</text><line style="stroke:#A80036;stroke-width:1.5;" x1="533" x2="634" y1="31.1328" y2="31.1328"/><line style="stroke:#A80036;stroke-width:1.5;" x1="533" x2="634" y1="39.1328" y2="39.1328"/><!--MD5=[a2247dbdd28990ad571eb4183e329053]
class ListCategoryController--><rect codeLine="9" fill="#FEFECE" filter="url(#f1qlut29xp4drg)" height="53.0879" id="ListCategoryController" style="stroke:#A80036;stroke-width:1.5;" width="152" x="370.5" y="108"/><text fill="#000000" font-family="sans-serif" font-size="12" lengthAdjust="spacing" textLength="126" x="383.5" y="124.6016">ListCategoryController</text><line style="stroke:#A80036;stroke-width:1.5;" x1="371.5" x2="521.5" y1="132.1328" y2="132.1328"/><line style="stroke:#A80036;stroke-width:1.5;" x1="371.5" x2="521.5" y1="140.1328" y2="140.1328"/><text fill="#000000" font-family="sans-serif" font-size="11" lengthAdjust="spacing" textLength="140" x="376.5" y="154.7676">+getAll(): List&lt;Category&gt;</text><!--MD5=[09ce52be0ee7de43c61b6e2d59bf108b]
class Person--><rect codeLine="13" fill="#FEFECE" filter="url(#f1qlut29xp4drg)" height="66.043" id="Person" style="stroke:#A80036;stroke-width:1.5;" width="265" x="7" y="241.5"/><text fill="#000000" font-family="sans-serif" font-size="12" lengthAdjust="spacing" textLength="39" x="120" y="258.1016">Person</text><line style="stroke:#A80036;stroke-width:1.5;" x1="8" x2="271" y1="265.6328" y2="265.6328"/><text fill="#000000" font-family="sans-serif" font-size="11" lengthAdjust="spacing" textLength="35" x="13" y="280.2676">-name</text><line style="stroke:#A80036;stroke-width:1.5;" x1="8" x2="271" y1="286.5879" y2="286.5879"/><text fill="#000000" font-family="sans-serif" font-size="11" lengthAdjust="spacing" textLength="253" x="13" y="301.2227">+getCategoriesService(): CategoryContainer</text><!--MD5=[f5b151c31b11bd3e4ed70274aa943786]
class CategoryListRepository--><rect codeLine="18" fill="#FEFECE" filter="url(#f1qlut29xp4drg)" height="53.0879" id="CategoryContainer" style="stroke:#A80036;stroke-width:1.5;" width="152" x="370.5" y="248"/><text fill="#000000" font-family="sans-serif" font-size="12" lengthAdjust="spacing" textLength="106" x="393.5" y="264.6016">CategoryContainer</text><line style="stroke:#A80036;stroke-width:1.5;" x1="371.5" x2="521.5" y1="272.1328" y2="272.1328"/><line style="stroke:#A80036;stroke-width:1.5;" x1="371.5" x2="521.5" y1="280.1328" y2="280.1328"/><text fill="#000000" font-family="sans-serif" font-size="11" lengthAdjust="spacing" textLength="140" x="376.5" y="294.7676">+getAll(): List&lt;Category&gt;</text><!--MD5=[a96594a83e2ecdc78cbf17c2ddf01934]
class Category--><rect codeLine="22" fill="#FEFECE" filter="url(#f1qlut29xp4drg)" height="104.9082" id="Category" style="stroke:#A80036;stroke-width:1.5;" width="232" x="606.5" y="222"/><text fill="#000000" font-family="sans-serif" font-size="12" lengthAdjust="spacing" textLength="51" x="697" y="238.6016">Category</text><line style="stroke:#A80036;stroke-width:1.5;" x1="607.5" x2="837.5" y1="246.1328" y2="246.1328"/><text fill="#000000" font-family="sans-serif" font-size="11" lengthAdjust="spacing" textLength="32" x="612.5" y="260.7676">-code</text><text fill="#000000" font-family="sans-serif" font-size="11" lengthAdjust="spacing" textLength="67" x="612.5" y="273.7227">-description</text><line style="stroke:#A80036;stroke-width:1.5;" x1="607.5" x2="837.5" y1="280.043" y2="280.043"/><text fill="#000000" font-family="sans-serif" font-size="11" lengthAdjust="spacing" textLength="220" x="612.5" y="294.6777">Category(string code, string description)</text><text fill="#000000" font-family="sans-serif" font-size="11" lengthAdjust="spacing" textLength="100" x="612.5" y="307.6328">+getCode(): string</text><text fill="#000000" font-family="sans-serif" font-size="11" lengthAdjust="spacing" textLength="134" x="612.5" y="320.5879">+getDescription(): string</text><!--MD5=[6251f0ee7009ec8a0f6b1dc69a8079f4]
link Person to CategoryListRepository--><path codeLine="30" d="M272.37,274.5 C303.95,274.5 336.71,274.5 365.19,274.5 " fill="none" id="Person-to-CategoryContainer" style="stroke:#A80036;stroke-width:1.0;"/><polygon fill="#A80036" points="370.45,274.5,361.45,270.5,365.45,274.5,361.45,278.5,370.45,274.5" style="stroke:#A80036;stroke-width:1.0;"/><text fill="#000000" font-family="sans-serif" font-size="13" lengthAdjust="spacing" textLength="62" x="290.25" y="268.0684">maintains</text><text fill="#000000" font-family="sans-serif" font-size="13" lengthAdjust="spacing" textLength="8" x="279.8551" y="271.6655">1</text><text fill="#000000" font-family="sans-serif" font-size="13" lengthAdjust="spacing" textLength="8" x="354.5701" y="271.341">1</text><!--MD5=[73983d0cb4f063243986bcdbad934025]
link CategoryListRepository to Category--><path codeLine="31" d="M522.65,274.5 C546.88,274.5 574.32,274.5 600.94,274.5 " fill="none" id="CategoryContainer-to-Category" style="stroke:#A80036;stroke-width:1.0;"/><polygon fill="#A80036" points="606.25,274.5,597.25,270.5,601.25,274.5,597.25,278.5,606.25,274.5" style="stroke:#A80036;stroke-width:1.0;"/><text fill="#000000" font-family="sans-serif" font-size="13" lengthAdjust="spacing" textLength="47" x="541" y="268.0684">records</text><text fill="#000000" font-family="sans-serif" font-size="13" lengthAdjust="spacing" textLength="8" x="530.5398" y="271.341">1</text><text fill="#000000" font-family="sans-serif" font-size="13" lengthAdjust="spacing" textLength="22" x="576.4957" y="287.5376">0..*</text><!--MD5=[cea2a40c50a212930f8cf7c30c42b734]
link ListCategoryView to ListCategoryController--><path codeLine="33" d="M558.69,47.11 C537.77,63.22 507.52,86.51 483.7,104.85 " fill="none" id="ListCategoryView-to-ListCategoryController" style="stroke:#A80036;stroke-width:1.0;stroke-dasharray:7.0,7.0;"/><polygon fill="#A80036" points="479.63,107.98,489.2029,105.6648,483.5937,104.9321,484.3263,99.3229,479.63,107.98" style="stroke:#A80036;stroke-width:1.0;"/><!--MD5=[c8c83ec5914c5684e569b23c0aa996d6]
link ListCategoryView to Category--><path codeLine="34" d="M594.41,47.26 C614.89,83.44 659.8,162.77 690.61,217.18 " fill="none" id="ListCategoryView-to-Category" style="stroke:#A80036;stroke-width:1.0;stroke-dasharray:7.0,7.0;"/><polygon fill="#A80036" points="693.18,221.71,692.2051,211.9095,690.707,217.3644,685.2521,215.8663,693.18,221.71" style="stroke:#A80036;stroke-width:1.0;"/><!--MD5=[40cc7d273553ed52a87a099e0c278876]
link ListCategoryController to Person--><path codeLine="35" d="M389.48,161.13 C340.49,183.15 269.47,215.08 215.64,239.28 " fill="none" id="ListCategoryController-to-Person" style="stroke:#A80036;stroke-width:1.0;stroke-dasharray:7.0,7.0;"/><polygon fill="#A80036" points="210.81,241.44,220.6587,241.3829,215.3672,239.3828,217.3672,234.0913,210.81,241.44" style="stroke:#A80036;stroke-width:1.0;"/><!--MD5=[411c36c1f9a276c72346ac78bfa44044]
link ListCategoryController to CategoryListRepository--><path codeLine="36" d="M446.5,161.13 C446.5,184.13 446.5,217.93 446.5,242.45 " fill="none" id="ListCategoryController-to-CategoryContainer" style="stroke:#A80036;stroke-width:1.0;stroke-dasharray:7.0,7.0;"/><polygon fill="#A80036" points="446.5,247.54,450.5,238.54,446.5,242.54,442.5,238.54,446.5,247.54" style="stroke:#A80036;stroke-width:1.0;"/><!--MD5=[4938db135827fee6d5afdf0836253813]
@startuml
'https://plantuml.com/class-diagram

hide circle
skinparam classAttributeIconSize 0

class ListCategoryView {
}

class ListCategoryController {
    +getAll(): List<Category>
}

class Person {
    - name
    +getCategoriesContainer(): CategoryListRepository
}

class CategoryListRepository {
    +getAll(): List<Category>
}

class Category {
    - code
    - description
    Category(string code, string description)
    +getCode(): string
    +getDescription(): string
}

Person "1" -right-> "1" CategoryListRepository:  maintains
CategoryListRepository "1" -right-> "0..*" Category:  records

ListCategoryView ..> ListCategoryController
ListCategoryView ..> Category
ListCategoryController ..> Person
ListCategoryController ..> CategoryListRepository


@enduml

@startuml

hide circle
skinparam classAttributeIconSize 0

class ListCategoryView {
}

class ListCategoryController {
    +getAll(): List<Category>
}

class Person {
    - name
    +getCategoriesService(): CategoryListRepository
}

class CategoryListRepository {
    +getAll(): List<Category>
}

class Category {
    - code
    - description
    Category(string code, string description)
    +getCode(): string
    +getDescription(): string
}

Person "1" -right-> "1" CategoryListRepository:  maintains
CategoryListRepository "1" -right-> "0..*" Category:  records

ListCategoryView ..> ListCategoryController
ListCategoryView ..> Category
ListCategoryController ..> Person
ListCategoryController ..> CategoryListRepository


@enduml

PlantUML version 1.2021.7(Sun May 23 13:40:07 WEST 2021)
(GPL source distribution)
Java Runtime: OpenJDK Runtime Environment
JVM: OpenJDK 64-Bit Server VM
Default Encoding: UTF-8
Language: en
Country: PT
--></g></svg>