<?xml version="1.0" encoding="UTF-8" standalone="no"?><svg xmlns="http://www.w3.org/2000/svg" xmlns:xlink="http://www.w3.org/1999/xlink" contentScriptType="application/ecmascript" contentStyleType="text/css" height="1024px" preserveAspectRatio="none" style="width:1762px;height:1024px;background:#FFFFFF;" version="1.1" viewBox="0 0 1762 1024" width="1762px" zoomAndPan="magnify"><defs><filter height="300%" id="f1xf9jassfjn9z" width="300%" x="-1" y="-1"><feGaussianBlur result="blurOut" stdDeviation="2.0"/><feColorMatrix in="blurOut" result="blurOut2" type="matrix" values="0 0 0 0 0 0 0 0 0 0 0 0 0 0 0 0 0 0 .4 0"/><feOffset dx="4.0" dy="4.0" in="blurOut2" result="blurOut3"/><feBlend in="SourceGraphic" in2="blurOut3" mode="normal"/></filter></defs><g><rect fill="#FFFFFF" filter="url(#f1xf9jassfjn9z)" height="832.7402" style="stroke:#A80036;stroke-width:1.0;" width="10" x="26.5" y="98.4883"/><rect fill="#FFFFFF" filter="url(#f1xf9jassfjn9z)" height="177.1738" style="stroke:#A80036;stroke-width:1.0;" width="10" x="397.5" y="119.7988"/><rect fill="#FFFFFF" filter="url(#f1xf9jassfjn9z)" height="74.7988" style="stroke:#A80036;stroke-width:1.0;" width="10" x="397.5" y="326.2832"/><rect fill="#FFFFFF" filter="url(#f1xf9jassfjn9z)" height="491.8359" style="stroke:#A80036;stroke-width:1.0;" width="10" x="397.5" y="430.3926"/><rect fill="#FFFFFF" filter="url(#f1xf9jassfjn9z)" height="87.9316" style="stroke:#A80036;stroke-width:1.0;" width="10" x="598.5" y="149.1094"/><rect fill="#FFFFFF" filter="url(#f1xf9jassfjn9z)" height="433.2148" style="stroke:#A80036;stroke-width:1.0;" width="10" x="598.5" y="459.7031"/><rect fill="#FFFFFF" filter="url(#f1xf9jassfjn9z)" height="374.5938" style="stroke:#A80036;stroke-width:1.0;" width="10" x="769.5" y="489.0137"/><rect fill="#FFFFFF" filter="url(#f1xf9jassfjn9z)" height="40.3105" style="stroke:#A80036;stroke-width:1.0;" width="10" x="774.5" y="728.3652"/><rect fill="#FFFFFF" filter="url(#f1xf9jassfjn9z)" height="29.3105" style="stroke:#A80036;stroke-width:1.0;" width="10" x="899.5" y="178.4199"/><rect fill="#FFFFFF" filter="url(#f1xf9jassfjn9z)" height="29.3105" style="stroke:#A80036;stroke-width:1.0;" width="10" x="1024" y="518.3242"/><rect fill="#FFFFFF" filter="url(#f1xf9jassfjn9z)" height="29.3105" style="stroke:#A80036;stroke-width:1.0;" width="10" x="1148" y="804.9863"/><rect fill="#FFFFFF" filter="url(#f1xf9jassfjn9z)" height="29.3105" style="stroke:#A80036;stroke-width:1.0;" width="10" x="1300" y="576.9453"/><line style="stroke:#A80036;stroke-width:1.0;stroke-dasharray:5.0,5.0;" x1="31" x2="31" y1="88.4883" y2="940.2285"/><line style="stroke:#A80036;stroke-width:1.0;stroke-dasharray:5.0,5.0;" x1="402" x2="402" y1="88.4883" y2="940.2285"/><line style="stroke:#A80036;stroke-width:1.0;stroke-dasharray:5.0,5.0;" x1="603" x2="603" y1="88.4883" y2="940.2285"/><line style="stroke:#A80036;stroke-width:1.0;stroke-dasharray:5.0,5.0;" x1="774.5" x2="774.5" y1="88.4883" y2="940.2285"/><line style="stroke:#A80036;stroke-width:1.0;stroke-dasharray:5.0,5.0;" x1="904.5" x2="904.5" y1="88.4883" y2="940.2285"/><line style="stroke:#A80036;stroke-width:1.0;stroke-dasharray:5.0,5.0;" x1="1028.5" x2="1028.5" y1="367.0273" y2="940.2285"/><line style="stroke:#A80036;stroke-width:1.0;stroke-dasharray:5.0,5.0;" x1="1152.5" x2="1152.5" y1="88.4883" y2="940.2285"/><line style="stroke:#A80036;stroke-width:1.0;stroke-dasharray:5.0,5.0;" x1="1304.5" x2="1304.5" y1="88.4883" y2="940.2285"/><line style="stroke:#A80036;stroke-width:1.0;stroke-dasharray:5.0,5.0;" x1="1434.5" x2="1434.5" y1="686.3105" y2="940.2285"/><line style="stroke:#A80036;stroke-width:1.0;stroke-dasharray:5.0,5.0;" x1="1537.5" x2="1537.5" y1="88.4883" y2="940.2285"/><line style="stroke:#A80036;stroke-width:1.0;stroke-dasharray:5.0,5.0;" x1="1675.5" x2="1675.5" y1="88.4883" y2="940.2285"/><text fill="#000000" font-family="sans-serif" font-size="14" lengthAdjust="spacing" textLength="47" x="5" y="85.5352">Person</text><ellipse cx="31.5" cy="15" fill="#FEFECE" filter="url(#f1xf9jassfjn9z)" rx="8" ry="8" style="stroke:#A80036;stroke-width:2.0;"/><path d="M31.5,23 L31.5,50 M18.5,31 L44.5,31 M31.5,50 L18.5,65 M31.5,50 L44.5,65 " fill="none" filter="url(#f1xf9jassfjn9z)" style="stroke:#A80036;stroke-width:2.0;"/><text fill="#000000" font-family="sans-serif" font-size="14" lengthAdjust="spacing" textLength="47" x="5" y="952.7637">Person</text><ellipse cx="31.5" cy="965.7168" fill="#FEFECE" filter="url(#f1xf9jassfjn9z)" rx="8" ry="8" style="stroke:#A80036;stroke-width:2.0;"/><path d="M31.5,973.7168 L31.5,1000.7168 M18.5,981.7168 L44.5,981.7168 M31.5,1000.7168 L18.5,1015.7168 M31.5,1000.7168 L44.5,1015.7168 " fill="none" filter="url(#f1xf9jassfjn9z)" style="stroke:#A80036;stroke-width:2.0;"/><rect fill="#FEFECE" filter="url(#f1xf9jassfjn9z)" height="30.4883" style="stroke:#A80036;stroke-width:1.5;" width="127" x="337" y="53"/><text fill="#000000" font-family="sans-serif" font-size="14" lengthAdjust="spacing" textLength="113" x="344" y="73.5352">:CreateTaskView</text><rect fill="#FEFECE" filter="url(#f1xf9jassfjn9z)" height="30.4883" style="stroke:#A80036;stroke-width:1.5;" width="127" x="337" y="939.2285"/><text fill="#000000" font-family="sans-serif" font-size="14" lengthAdjust="spacing" textLength="113" x="344" y="959.7637">:CreateTaskView</text><rect fill="#FEFECE" filter="url(#f1xf9jassfjn9z)" height="30.4883" style="stroke:#A80036;stroke-width:1.5;" width="165" x="519" y="53"/><text fill="#000000" font-family="sans-serif" font-size="14" lengthAdjust="spacing" textLength="151" x="526" y="73.5352">:CreateTaskController</text><rect fill="#FEFECE" filter="url(#f1xf9jassfjn9z)" height="30.4883" style="stroke:#A80036;stroke-width:1.5;" width="165" x="519" y="939.2285"/><text fill="#000000" font-family="sans-serif" font-size="14" lengthAdjust="spacing" textLength="151" x="526" y="959.7637">:CreateTaskController</text><rect fill="#FEFECE" filter="url(#f1xf9jassfjn9z)" height="46.9766" style="stroke:#A80036;stroke-width:1.5;" width="98" x="723.5" y="36.5117"/><text fill="#000000" font-family="sans-serif" font-size="14" lengthAdjust="spacing" textLength="47" x="749" y="57.0469">service</text><text fill="#000000" font-family="sans-serif" font-size="14" lengthAdjust="spacing" textLength="84" x="730.5" y="73.5352">:TaskService</text><rect fill="#FEFECE" filter="url(#f1xf9jassfjn9z)" height="46.9766" style="stroke:#A80036;stroke-width:1.5;" width="98" x="723.5" y="939.2285"/><text fill="#000000" font-family="sans-serif" font-size="14" lengthAdjust="spacing" textLength="47" x="749" y="959.7637">service</text><text fill="#000000" font-family="sans-serif" font-size="14" lengthAdjust="spacing" textLength="84" x="730.5" y="976.252">:TaskService</text><rect fill="#FEFECE" filter="url(#f1xf9jassfjn9z)" height="46.9766" style="stroke:#A80036;stroke-width:1.5;" width="124" x="840.5" y="36.5117"/><text fill="#000000" font-family="sans-serif" font-size="14" lengthAdjust="spacing" textLength="54" x="875.5" y="57.0469">srvCats:</text><text fill="#000000" font-family="sans-serif" font-size="14" lengthAdjust="spacing" textLength="110" x="847.5" y="73.5352">CategoryService</text><rect fill="#FEFECE" filter="url(#f1xf9jassfjn9z)" height="46.9766" style="stroke:#A80036;stroke-width:1.5;" width="124" x="840.5" y="939.2285"/><text fill="#000000" font-family="sans-serif" font-size="14" lengthAdjust="spacing" textLength="54" x="875.5" y="959.7637">srvCats:</text><text fill="#000000" font-family="sans-serif" font-size="14" lengthAdjust="spacing" textLength="110" x="847.5" y="976.252">CategoryService</text><rect fill="#FEFECE" filter="url(#f1xf9jassfjn9z)" height="30.4883" style="stroke:#A80036;stroke-width:1.5;" width="97" x="978.5" y="939.2285"/><text fill="#000000" font-family="sans-serif" font-size="14" lengthAdjust="spacing" textLength="83" x="985.5" y="959.7637">dto:TaskDto</text><rect fill="#FEFECE" filter="url(#f1xf9jassfjn9z)" height="46.9766" style="stroke:#A80036;stroke-width:1.5;" width="123" x="1089.5" y="36.5117"/><text fill="#000000" font-family="sans-serif" font-size="14" lengthAdjust="spacing" textLength="71" x="1115.5" y="57.0469">repoTasks</text><text fill="#000000" font-family="sans-serif" font-size="14" lengthAdjust="spacing" textLength="109" x="1096.5" y="73.5352">:TaskRepository</text><rect fill="#FEFECE" filter="url(#f1xf9jassfjn9z)" height="46.9766" style="stroke:#A80036;stroke-width:1.5;" width="123" x="1089.5" y="939.2285"/><text fill="#000000" font-family="sans-serif" font-size="14" lengthAdjust="spacing" textLength="71" x="1115.5" y="959.7637">repoTasks</text><text fill="#000000" font-family="sans-serif" font-size="14" lengthAdjust="spacing" textLength="109" x="1096.5" y="976.252">:TaskRepository</text><rect fill="#FEFECE" filter="url(#f1xf9jassfjn9z)" height="46.9766" style="stroke:#A80036;stroke-width:1.5;" width="153" x="1226.5" y="36.5117"/><text fill="#000000" font-family="sans-serif" font-size="14" lengthAdjust="spacing" textLength="62" x="1272" y="57.0469">repoCats</text><text fill="#000000" font-family="sans-serif" font-size="14" lengthAdjust="spacing" textLength="139" x="1233.5" y="73.5352">:CategoryRepository</text><rect fill="#FEFECE" filter="url(#f1xf9jassfjn9z)" height="46.9766" style="stroke:#A80036;stroke-width:1.5;" width="153" x="1226.5" y="939.2285"/><text fill="#000000" font-family="sans-serif" font-size="14" lengthAdjust="spacing" textLength="62" x="1272" y="959.7637">repoCats</text><text fill="#000000" font-family="sans-serif" font-size="14" lengthAdjust="spacing" textLength="139" x="1233.5" y="976.252">:CategoryRepository</text><rect fill="#FEFECE" filter="url(#f1xf9jassfjn9z)" height="30.4883" style="stroke:#A80036;stroke-width:1.5;" width="78" x="1393.5" y="939.2285"/><text fill="#000000" font-family="sans-serif" font-size="14" lengthAdjust="spacing" textLength="64" x="1400.5" y="959.7637">task:Task</text><rect fill="#FEFECE" filter="url(#f1xf9jassfjn9z)" height="30.4883" style="stroke:#A80036;stroke-width:1.5;" width="100" x="1485.5" y="53"/><text fill="#000000" font-family="sans-serif" font-size="14" lengthAdjust="spacing" textLength="86" x="1492.5" y="73.5352">cat:Category</text><rect fill="#FEFECE" filter="url(#f1xf9jassfjn9z)" height="30.4883" style="stroke:#A80036;stroke-width:1.5;" width="100" x="1485.5" y="939.2285"/><text fill="#000000" font-family="sans-serif" font-size="14" lengthAdjust="spacing" textLength="86" x="1492.5" y="959.7637">cat:Category</text><rect fill="#FEFECE" filter="url(#f1xf9jassfjn9z)" height="46.9766" style="stroke:#A80036;stroke-width:1.5;" width="149" x="1599.5" y="36.5117"/><text fill="#000000" font-family="sans-serif" font-size="14" lengthAdjust="spacing" textLength="114" x="1617" y="57.0469">lstCategoriesDto</text><text fill="#000000" font-family="sans-serif" font-size="14" lengthAdjust="spacing" textLength="135" x="1606.5" y="73.5352">:List&lt;CategoryDto&gt;</text><rect fill="#FEFECE" filter="url(#f1xf9jassfjn9z)" height="46.9766" style="stroke:#A80036;stroke-width:1.5;" width="149" x="1599.5" y="939.2285"/><text fill="#000000" font-family="sans-serif" font-size="14" lengthAdjust="spacing" textLength="114" x="1617" y="959.7637">lstCategoriesDto</text><text fill="#000000" font-family="sans-serif" font-size="14" lengthAdjust="spacing" textLength="135" x="1606.5" y="976.252">:List&lt;CategoryDto&gt;</text><rect fill="#FFFFFF" filter="url(#f1xf9jassfjn9z)" height="832.7402" style="stroke:#A80036;stroke-width:1.0;" width="10" x="26.5" y="98.4883"/><rect fill="#FFFFFF" filter="url(#f1xf9jassfjn9z)" height="177.1738" style="stroke:#A80036;stroke-width:1.0;" width="10" x="397.5" y="119.7988"/><rect fill="#FFFFFF" filter="url(#f1xf9jassfjn9z)" height="74.7988" style="stroke:#A80036;stroke-width:1.0;" width="10" x="397.5" y="326.2832"/><rect fill="#FFFFFF" filter="url(#f1xf9jassfjn9z)" height="491.8359" style="stroke:#A80036;stroke-width:1.0;" width="10" x="397.5" y="430.3926"/><rect fill="#FFFFFF" filter="url(#f1xf9jassfjn9z)" height="87.9316" style="stroke:#A80036;stroke-width:1.0;" width="10" x="598.5" y="149.1094"/><rect fill="#FFFFFF" filter="url(#f1xf9jassfjn9z)" height="433.2148" style="stroke:#A80036;stroke-width:1.0;" width="10" x="598.5" y="459.7031"/><rect fill="#FFFFFF" filter="url(#f1xf9jassfjn9z)" height="374.5938" style="stroke:#A80036;stroke-width:1.0;" width="10" x="769.5" y="489.0137"/><rect fill="#FFFFFF" filter="url(#f1xf9jassfjn9z)" height="40.3105" style="stroke:#A80036;stroke-width:1.0;" width="10" x="774.5" y="728.3652"/><rect fill="#FFFFFF" filter="url(#f1xf9jassfjn9z)" height="29.3105" style="stroke:#A80036;stroke-width:1.0;" width="10" x="899.5" y="178.4199"/><rect fill="#FFFFFF" filter="url(#f1xf9jassfjn9z)" height="29.3105" style="stroke:#A80036;stroke-width:1.0;" width="10" x="1024" y="518.3242"/><rect fill="#FFFFFF" filter="url(#f1xf9jassfjn9z)" height="29.3105" style="stroke:#A80036;stroke-width:1.0;" width="10" x="1148" y="804.9863"/><rect fill="#FFFFFF" filter="url(#f1xf9jassfjn9z)" height="29.3105" style="stroke:#A80036;stroke-width:1.0;" width="10" x="1300" y="576.9453"/><polygon fill="#A80036" points="385.5,115.7988,395.5,119.7988,385.5,123.7988,389.5,119.7988" style="stroke:#A80036;stroke-width:1.0;"/><line style="stroke:#A80036;stroke-width:1.0;" x1="36.5" x2="391.5" y1="119.7988" y2="119.7988"/><text fill="#000000" font-family="sans-serif" font-size="13" font-weight="bold" lengthAdjust="spacing" textLength="9" x="43.5" y="115.0566">1</text><text fill="#000000" font-family="sans-serif" font-size="13" lengthAdjust="spacing" textLength="159" x="56.5" y="115.0566">asks to create a new task</text><polygon fill="#A80036" points="586.5,145.1094,596.5,149.1094,586.5,153.1094,590.5,149.1094" style="stroke:#A80036;stroke-width:1.0;"/><line style="stroke:#A80036;stroke-width:1.0;" x1="407.5" x2="592.5" y1="149.1094" y2="149.1094"/><text fill="#000000" font-family="sans-serif" font-size="13" font-weight="bold" lengthAdjust="spacing" textLength="9" x="414.5" y="144.3672">2</text><text fill="#000000" font-family="sans-serif" font-size="13" lengthAdjust="spacing" textLength="37" x="427.5" y="144.3672">start()</text><polygon fill="#A80036" points="887.5,174.4199,897.5,178.4199,887.5,182.4199,891.5,178.4199" style="stroke:#A80036;stroke-width:1.0;"/><line style="stroke:#A80036;stroke-width:1.0;" x1="608.5" x2="893.5" y1="178.4199" y2="178.4199"/><text fill="#000000" font-family="sans-serif" font-size="13" font-weight="bold" lengthAdjust="spacing" textLength="9" x="615.5" y="173.6777">3</text><text fill="#000000" font-family="sans-serif" font-size="13" lengthAdjust="spacing" textLength="95" x="628.5" y="173.6777">getCategories()</text><polygon fill="#A80036" points="619.5,203.7305,609.5,207.7305,619.5,211.7305,615.5,207.7305" style="stroke:#A80036;stroke-width:1.0;"/><line style="stroke:#A80036;stroke-width:1.0;stroke-dasharray:2.0,2.0;" x1="613.5" x2="903.5" y1="207.7305" y2="207.7305"/><text fill="#000000" font-family="sans-serif" font-size="13" font-weight="bold" lengthAdjust="spacing" textLength="9" x="625.5" y="202.9883">4</text><text fill="#000000" font-family="sans-serif" font-size="13" lengthAdjust="spacing" textLength="106" x="638.5" y="202.9883">lstCategoriesDto</text><polygon fill="#A80036" points="418.5,233.041,408.5,237.041,418.5,241.041,414.5,237.041" style="stroke:#A80036;stroke-width:1.0;"/><line style="stroke:#A80036;stroke-width:1.0;stroke-dasharray:2.0,2.0;" x1="412.5" x2="602.5" y1="237.041" y2="237.041"/><text fill="#000000" font-family="sans-serif" font-size="13" font-weight="bold" lengthAdjust="spacing" textLength="9" x="424.5" y="232.2988">5</text><text fill="#000000" font-family="sans-serif" font-size="13" lengthAdjust="spacing" textLength="106" x="437.5" y="232.2988">lstCategoriesDto</text><polygon fill="#A80036" points="47.5,292.9727,37.5,296.9727,47.5,300.9727,43.5,296.9727" style="stroke:#A80036;stroke-width:1.0;"/><line style="stroke:#A80036;stroke-width:1.0;stroke-dasharray:2.0,2.0;" x1="41.5" x2="401.5" y1="296.9727" y2="296.9727"/><text fill="#000000" font-family="sans-serif" font-size="13" font-weight="bold" lengthAdjust="spacing" textLength="9" x="53.5" y="276.9199">6</text><text fill="#000000" font-family="sans-serif" font-size="13" lengthAdjust="spacing" textLength="324" x="66.5" y="261.6094">requests data (reference, title, informal description,</text><text fill="#000000" font-family="sans-serif" font-size="13" lengthAdjust="spacing" textLength="311" x="66.5" y="276.9199">technical description, effort estimation, deadline)</text><text fill="#000000" font-family="sans-serif" font-size="13" lengthAdjust="spacing" textLength="250" x="70.5" y="292.2305">and asks to select the category it fits in</text><polygon fill="#A80036" points="385.5,322.2832,395.5,326.2832,385.5,330.2832,389.5,326.2832" style="stroke:#A80036;stroke-width:1.0;"/><line style="stroke:#A80036;stroke-width:1.0;" x1="36.5" x2="391.5" y1="326.2832" y2="326.2832"/><text fill="#000000" font-family="sans-serif" font-size="13" font-weight="bold" lengthAdjust="spacing" textLength="9" x="43.5" y="321.541">7</text><text fill="#000000" font-family="sans-serif" font-size="13" lengthAdjust="spacing" textLength="323" x="56.5" y="321.541">types requested data and selects intended category</text><polygon fill="#A80036" points="966.5,351.5938,976.5,355.5938,966.5,359.5938,970.5,355.5938" style="stroke:#A80036;stroke-width:1.0;"/><line style="stroke:#A80036;stroke-width:1.0;stroke-dasharray:2.0,2.0;" x1="407.5" x2="972.5" y1="355.5938" y2="355.5938"/><text fill="#000000" font-family="sans-serif" font-size="13" font-weight="bold" lengthAdjust="spacing" textLength="9" x="414.5" y="350.8516">8</text><text fill="#000000" font-family="sans-serif" font-size="13" lengthAdjust="spacing" textLength="353" x="427.5" y="350.8516">create(ref, title, infDesc, tecDesc, effort, deadline, catId)</text><rect fill="#FEFECE" filter="url(#f1xf9jassfjn9z)" height="30.4883" style="stroke:#A80036;stroke-width:1.5;" width="97" x="978.5" y="334.2832"/><text fill="#000000" font-family="sans-serif" font-size="14" lengthAdjust="spacing" textLength="83" x="985.5" y="354.8184">dto:TaskDto</text><polygon fill="#A80036" points="47.5,397.082,37.5,401.082,47.5,405.082,43.5,401.082" style="stroke:#A80036;stroke-width:1.0;"/><line style="stroke:#A80036;stroke-width:1.0;stroke-dasharray:2.0,2.0;" x1="41.5" x2="401.5" y1="401.082" y2="401.082"/><text fill="#000000" font-family="sans-serif" font-size="13" font-weight="bold" lengthAdjust="spacing" textLength="9" x="53.5" y="396.3398">9</text><text fill="#000000" font-family="sans-serif" font-size="13" lengthAdjust="spacing" textLength="260" x="66.5" y="396.3398">shows all data and requests confirmation</text><polygon fill="#A80036" points="385.5,426.3926,395.5,430.3926,385.5,434.3926,389.5,430.3926" style="stroke:#A80036;stroke-width:1.0;"/><line style="stroke:#A80036;stroke-width:1.0;" x1="36.5" x2="391.5" y1="430.3926" y2="430.3926"/><text fill="#000000" font-family="sans-serif" font-size="13" font-weight="bold" lengthAdjust="spacing" textLength="18" x="43.5" y="425.6504">10</text><text fill="#000000" font-family="sans-serif" font-size="13" lengthAdjust="spacing" textLength="111" x="65.5" y="425.6504">confirms the data</text><polygon fill="#A80036" points="586.5,455.7031,596.5,459.7031,586.5,463.7031,590.5,459.7031" style="stroke:#A80036;stroke-width:1.0;"/><line style="stroke:#A80036;stroke-width:1.0;" x1="407.5" x2="592.5" y1="459.7031" y2="459.7031"/><text fill="#000000" font-family="sans-serif" font-size="13" font-weight="bold" lengthAdjust="spacing" textLength="18" x="414.5" y="454.9609">11</text><text fill="#000000" font-family="sans-serif" font-size="13" lengthAdjust="spacing" textLength="150" x="436.5" y="454.9609">createAndSaveTask(dto)</text><polygon fill="#A80036" points="757.5,485.0137,767.5,489.0137,757.5,493.0137,761.5,489.0137" style="stroke:#A80036;stroke-width:1.0;"/><line style="stroke:#A80036;stroke-width:1.0;" x1="608.5" x2="763.5" y1="489.0137" y2="489.0137"/><text fill="#000000" font-family="sans-serif" font-size="13" font-weight="bold" lengthAdjust="spacing" textLength="18" x="615.5" y="484.2715">12</text><text fill="#000000" font-family="sans-serif" font-size="13" lengthAdjust="spacing" textLength="120" x="637.5" y="484.2715">createAndSave(dto)</text><polygon fill="#A80036" points="1012,514.3242,1022,518.3242,1012,522.3242,1016,518.3242" style="stroke:#A80036;stroke-width:1.0;"/><line style="stroke:#A80036;stroke-width:1.0;" x1="779.5" x2="1018" y1="518.3242" y2="518.3242"/><text fill="#000000" font-family="sans-serif" font-size="13" font-weight="bold" lengthAdjust="spacing" textLength="18" x="786.5" y="513.582">13</text><text fill="#000000" font-family="sans-serif" font-size="13" lengthAdjust="spacing" textLength="96" x="808.5" y="513.582">getCategoryId()</text><polygon fill="#A80036" points="790.5,543.6348,780.5,547.6348,790.5,551.6348,786.5,547.6348" style="stroke:#A80036;stroke-width:1.0;"/><line style="stroke:#A80036;stroke-width:1.0;stroke-dasharray:2.0,2.0;" x1="784.5" x2="1028" y1="547.6348" y2="547.6348"/><text fill="#000000" font-family="sans-serif" font-size="13" font-weight="bold" lengthAdjust="spacing" textLength="18" x="796.5" y="542.8926">14</text><text fill="#000000" font-family="sans-serif" font-size="13" lengthAdjust="spacing" textLength="31" x="818.5" y="542.8926">catId</text><polygon fill="#A80036" points="1288,572.9453,1298,576.9453,1288,580.9453,1292,576.9453" style="stroke:#A80036;stroke-width:1.0;"/><line style="stroke:#A80036;stroke-width:1.0;" x1="779.5" x2="1294" y1="576.9453" y2="576.9453"/><text fill="#000000" font-family="sans-serif" font-size="13" font-weight="bold" lengthAdjust="spacing" textLength="18" x="786.5" y="572.2031">15</text><text fill="#000000" font-family="sans-serif" font-size="13" lengthAdjust="spacing" textLength="85" x="808.5" y="572.2031">getById(catId)</text><polygon fill="#A80036" points="790.5,602.2559,780.5,606.2559,790.5,610.2559,786.5,606.2559" style="stroke:#A80036;stroke-width:1.0;"/><line style="stroke:#A80036;stroke-width:1.0;stroke-dasharray:2.0,2.0;" x1="784.5" x2="1304" y1="606.2559" y2="606.2559"/><text fill="#000000" font-family="sans-serif" font-size="13" font-weight="bold" lengthAdjust="spacing" textLength="18" x="796.5" y="601.5137">16</text><text fill="#000000" font-family="sans-serif" font-size="13" lengthAdjust="spacing" textLength="19" x="818.5" y="601.5137">cat</text><path d="M726,619.2559 L726,644.2559 L1077,644.2559 L1077,629.2559 L1067,619.2559 L726,619.2559 " fill="#FBFB77" filter="url(#f1xf9jassfjn9z)" style="stroke:#A80036;stroke-width:1.0;"/><path d="M1067,619.2559 L1067,629.2559 L1077,629.2559 L1067,619.2559 " fill="#FBFB77" style="stroke:#A80036;stroke-width:1.0;"/><text fill="#000000" font-family="sans-serif" font-size="13" lengthAdjust="spacing" textLength="214" x="788" y="636.8242">extracting more data from the dto</text><polygon fill="#A80036" points="1381.5,670.877,1391.5,674.877,1381.5,678.877,1385.5,674.877" style="stroke:#A80036;stroke-width:1.0;"/><line style="stroke:#A80036;stroke-width:1.0;stroke-dasharray:2.0,2.0;" x1="779.5" x2="1387.5" y1="674.877" y2="674.877"/><text fill="#000000" font-family="sans-serif" font-size="13" font-weight="bold" lengthAdjust="spacing" textLength="18" x="786.5" y="670.1348">17</text><text fill="#000000" font-family="sans-serif" font-size="13" lengthAdjust="spacing" textLength="314" x="808.5" y="670.1348">create(ref, title, infDesc, tecDesc, effort, deadline,</text><text fill="#000000" font-family="sans-serif" font-size="13" font-weight="bold" lengthAdjust="spacing" textLength="20" x="1126.5" y="670.1348">cat</text><text fill="#000000" font-family="sans-serif" font-size="13" lengthAdjust="spacing" textLength="4" x="1146.5" y="670.1348">)</text><rect fill="#FEFECE" filter="url(#f1xf9jassfjn9z)" height="30.4883" style="stroke:#A80036;stroke-width:1.5;" width="78" x="1393.5" y="653.5664"/><text fill="#000000" font-family="sans-serif" font-size="14" lengthAdjust="spacing" textLength="64" x="1400.5" y="674.1016">task:Task</text><line style="stroke:#A80036;stroke-width:1.0;" x1="779.5" x2="826.5" y1="715.3652" y2="715.3652"/><line style="stroke:#A80036;stroke-width:1.0;" x1="826.5" x2="826.5" y1="715.3652" y2="728.3652"/><line style="stroke:#A80036;stroke-width:1.0;" x1="785.5" x2="826.5" y1="728.3652" y2="728.3652"/><polygon fill="#A80036" points="795.5,724.3652,785.5,728.3652,795.5,732.3652,791.5,728.3652" style="stroke:#A80036;stroke-width:1.0;"/><text fill="#000000" font-family="sans-serif" font-size="13" font-weight="bold" lengthAdjust="spacing" textLength="18" x="791.5" y="710.623">18</text><text fill="#000000" font-family="sans-serif" font-size="13" lengthAdjust="spacing" textLength="84" x="813.5" y="710.623">validate(task)</text><line style="stroke:#A80036;stroke-width:1.0;stroke-dasharray:2.0,2.0;" x1="784.5" x2="826.5" y1="767.6758" y2="767.6758"/><line style="stroke:#A80036;stroke-width:1.0;stroke-dasharray:2.0,2.0;" x1="826.5" x2="826.5" y1="767.6758" y2="780.6758"/><line style="stroke:#A80036;stroke-width:1.0;stroke-dasharray:2.0,2.0;" x1="779.5" x2="826.5" y1="780.6758" y2="780.6758"/><polygon fill="#A80036" points="789.5,776.6758,779.5,780.6758,789.5,784.6758,785.5,780.6758" style="stroke:#A80036;stroke-width:1.0;"/><text fill="#000000" font-family="sans-serif" font-size="13" font-weight="bold" lengthAdjust="spacing" textLength="18" x="791.5" y="762.9336">19</text><text fill="#000000" font-family="sans-serif" font-size="13" lengthAdjust="spacing" textLength="16" x="813.5" y="762.9336">ok</text><polygon fill="#A80036" points="1136,800.9863,1146,804.9863,1136,808.9863,1140,804.9863" style="stroke:#A80036;stroke-width:1.0;"/><line style="stroke:#A80036;stroke-width:1.0;" x1="779.5" x2="1142" y1="804.9863" y2="804.9863"/><text fill="#000000" font-family="sans-serif" font-size="13" font-weight="bold" lengthAdjust="spacing" textLength="18" x="786.5" y="800.2441">20</text><text fill="#000000" font-family="sans-serif" font-size="13" lengthAdjust="spacing" textLength="63" x="808.5" y="800.2441">save(task)</text><polygon fill="#A80036" points="790.5,830.2969,780.5,834.2969,790.5,838.2969,786.5,834.2969" style="stroke:#A80036;stroke-width:1.0;"/><line style="stroke:#A80036;stroke-width:1.0;stroke-dasharray:2.0,2.0;" x1="784.5" x2="1152" y1="834.2969" y2="834.2969"/><text fill="#000000" font-family="sans-serif" font-size="13" font-weight="bold" lengthAdjust="spacing" textLength="18" x="796.5" y="829.5547">21</text><text fill="#000000" font-family="sans-serif" font-size="13" lengthAdjust="spacing" textLength="16" x="818.5" y="829.5547">ok</text><polygon fill="#A80036" points="619.5,859.6074,609.5,863.6074,619.5,867.6074,615.5,863.6074" style="stroke:#A80036;stroke-width:1.0;"/><line style="stroke:#A80036;stroke-width:1.0;stroke-dasharray:2.0,2.0;" x1="613.5" x2="773.5" y1="863.6074" y2="863.6074"/><text fill="#000000" font-family="sans-serif" font-size="13" font-weight="bold" lengthAdjust="spacing" textLength="18" x="625.5" y="858.8652">22</text><text fill="#000000" font-family="sans-serif" font-size="13" lengthAdjust="spacing" textLength="16" x="647.5" y="858.8652">ok</text><polygon fill="#A80036" points="418.5,888.918,408.5,892.918,418.5,896.918,414.5,892.918" style="stroke:#A80036;stroke-width:1.0;"/><line style="stroke:#A80036;stroke-width:1.0;stroke-dasharray:2.0,2.0;" x1="412.5" x2="602.5" y1="892.918" y2="892.918"/><text fill="#000000" font-family="sans-serif" font-size="13" font-weight="bold" lengthAdjust="spacing" textLength="18" x="424.5" y="888.1758">23</text><text fill="#000000" font-family="sans-serif" font-size="13" lengthAdjust="spacing" textLength="16" x="446.5" y="888.1758">ok</text><polygon fill="#A80036" points="47.5,918.2285,37.5,922.2285,47.5,926.2285,43.5,922.2285" style="stroke:#A80036;stroke-width:1.0;"/><line style="stroke:#A80036;stroke-width:1.0;stroke-dasharray:2.0,2.0;" x1="41.5" x2="401.5" y1="922.2285" y2="922.2285"/><text fill="#000000" font-family="sans-serif" font-size="13" font-weight="bold" lengthAdjust="spacing" textLength="18" x="53.5" y="917.4863">24</text><text fill="#000000" font-family="sans-serif" font-size="13" lengthAdjust="spacing" textLength="167" x="75.5" y="917.4863">informs operation success</text><!--MD5=[611f5482415d0f85150eccb4da6f74b7]
@startuml
'https://plantuml.com/sequence-diagram
autoactivate on
autonumber

actor "Person" as User
participant ":CreateTaskView" as System
participant ":CreateTaskController" as Ctrl
participant "service\n:TaskService" as Service
participant "srvCats:\nCategoryService" as SrvCategories
participant "dto:TaskDto" as TaskDto
participant "repoTasks\n:TaskRepository" as RepoTask
participant "repoCats\n:CategoryRepository" as RepoCats
participant "task:Task" as Task
participant "cat:Category" as Category
participant "lstCategoriesDto\n:List<CategoryDto>" as LstCategoriesDto

activate User

User -> System: asks to create a new task
System -> Ctrl: start()

Ctrl -> SrvCategories: getCategories()
SrvCategories - -> Ctrl: lstCategoriesDto
Ctrl- -> System: lstCategoriesDto
System - -> User: requests data (reference, title, informal description,\ntechnical description, effort estimation, deadline) \n and asks to select the category it fits in
User -> System: types requested data and selects intended category

System - -> TaskDto**: create(ref, title, infDesc, tecDesc, effort, deadline, catId)
System - -> User: shows all data and requests confirmation
User -> System: confirms the data

System -> Ctrl: createAndSaveTask(dto)
Ctrl -> Service: createAndSave(dto)
Service -> TaskDto: getCategoryId()
TaskDto - -> Service: catId
Service -> RepoCats: getById(catId)
RepoCats - -> Service : cat
note over Service, TaskDto: extracting more data from the dto
Service - -> Task**: create(ref, title, infDesc, tecDesc, effort, deadline, **cat**)
Service -> Service : validate(task)
Service - -> Service : ok
Service -> RepoTask: save(task)
RepoTask - -> Service : ok
Service - -> Ctrl: ok
Ctrl - -> System: ok
System - -> User: informs operation success
@enduml

@startuml
autoactivate on
autonumber

actor "Person" as User
participant ":CreateTaskView" as System
participant ":CreateTaskController" as Ctrl
participant "service\n:TaskService" as Service
participant "srvCats:\nCategoryService" as SrvCategories
participant "dto:TaskDto" as TaskDto
participant "repoTasks\n:TaskRepository" as RepoTask
participant "repoCats\n:CategoryRepository" as RepoCats
participant "task:Task" as Task
participant "cat:Category" as Category
participant "lstCategoriesDto\n:List<CategoryDto>" as LstCategoriesDto

activate User

User -> System: asks to create a new task
System -> Ctrl: start()

Ctrl -> SrvCategories: getCategories()
SrvCategories - -> Ctrl: lstCategoriesDto
Ctrl- -> System: lstCategoriesDto
System - -> User: requests data (reference, title, informal description,\ntechnical description, effort estimation, deadline) \n and asks to select the category it fits in
User -> System: types requested data and selects intended category

System - -> TaskDto**: create(ref, title, infDesc, tecDesc, effort, deadline, catId)
System - -> User: shows all data and requests confirmation
User -> System: confirms the data

System -> Ctrl: createAndSaveTask(dto)
Ctrl -> Service: createAndSave(dto)
Service -> TaskDto: getCategoryId()
TaskDto - -> Service: catId
Service -> RepoCats: getById(catId)
RepoCats - -> Service : cat
note over Service, TaskDto: extracting more data from the dto
Service - -> Task**: create(ref, title, infDesc, tecDesc, effort, deadline, **cat**)
Service -> Service : validate(task)
Service - -> Service : ok
Service -> RepoTask: save(task)
RepoTask - -> Service : ok
Service - -> Ctrl: ok
Ctrl - -> System: ok
System - -> User: informs operation success
@enduml

PlantUML version 1.2021.7(Sun May 23 13:40:07 WEST 2021)
(GPL source distribution)
Java Runtime: OpenJDK Runtime Environment
JVM: OpenJDK 64-Bit Server VM
Default Encoding: UTF-8
Language: en
Country: PT
--></g></svg>