<?xml version="1.0" encoding="UTF-8" standalone="no"?><svg xmlns="http://www.w3.org/2000/svg" xmlns:xlink="http://www.w3.org/1999/xlink" contentScriptType="application/ecmascript" contentStyleType="text/css" height="1141px" preserveAspectRatio="none" style="width:1877px;height:1141px;background:#FFFFFF;" version="1.1" viewBox="0 0 1877 1141" width="1877px" zoomAndPan="magnify"><defs><filter height="300%" id="f1v05yo2pllnuq" width="300%" x="-1" y="-1"><feGaussianBlur result="blurOut" stdDeviation="2.0"/><feColorMatrix in="blurOut" result="blurOut2" type="matrix" values="0 0 0 0 0 0 0 0 0 0 0 0 0 0 0 0 0 0 .4 0"/><feOffset dx="4.0" dy="4.0" in="blurOut2" result="blurOut3"/><feBlend in="SourceGraphic" in2="blurOut3" mode="normal"/></filter></defs><g><rect fill="#FFFFFF" filter="url(#f1v05yo2pllnuq)" height="949.9824" style="stroke:#A80036;stroke-width:1.0;" width="10" x="26.5" y="98.4883"/><rect fill="#FFFFFF" filter="url(#f1v05yo2pllnuq)" height="294.416" style="stroke:#A80036;stroke-width:1.0;" width="10" x="406.5" y="119.7988"/><rect fill="#FFFFFF" filter="url(#f1v05yo2pllnuq)" height="74.7988" style="stroke:#A80036;stroke-width:1.0;" width="10" x="406.5" y="443.5254"/><rect fill="#FFFFFF" filter="url(#f1v05yo2pllnuq)" height="491.8359" style="stroke:#A80036;stroke-width:1.0;" width="10" x="406.5" y="547.6348"/><rect fill="#FFFFFF" filter="url(#f1v05yo2pllnuq)" height="205.1738" style="stroke:#A80036;stroke-width:1.0;" width="10" x="607.5" y="149.1094"/><rect fill="#FFFFFF" filter="url(#f1v05yo2pllnuq)" height="433.2148" style="stroke:#A80036;stroke-width:1.0;" width="10" x="607.5" y="576.9453"/><rect fill="#FFFFFF" filter="url(#f1v05yo2pllnuq)" height="29.3105" style="stroke:#A80036;stroke-width:1.0;" width="10" x="788.5" y="178.4199"/><rect fill="#FFFFFF" filter="url(#f1v05yo2pllnuq)" height="29.3105" style="stroke:#A80036;stroke-width:1.0;" width="10" x="788.5" y="237.041"/><rect fill="#FFFFFF" filter="url(#f1v05yo2pllnuq)" height="374.5938" style="stroke:#A80036;stroke-width:1.0;" width="10" x="884" y="606.2559"/><rect fill="#FFFFFF" filter="url(#f1v05yo2pllnuq)" height="40.3105" style="stroke:#A80036;stroke-width:1.0;" width="10" x="889" y="845.6074"/><rect fill="#FFFFFF" filter="url(#f1v05yo2pllnuq)" height="29.3105" style="stroke:#A80036;stroke-width:1.0;" width="10" x="1014" y="295.6621"/><rect fill="#FFFFFF" filter="url(#f1v05yo2pllnuq)" height="29.3105" style="stroke:#A80036;stroke-width:1.0;" width="10" x="1138.5" y="635.5664"/><rect fill="#FFFFFF" filter="url(#f1v05yo2pllnuq)" height="29.3105" style="stroke:#A80036;stroke-width:1.0;" width="10" x="1262.5" y="922.2285"/><rect fill="#FFFFFF" filter="url(#f1v05yo2pllnuq)" height="29.3105" style="stroke:#A80036;stroke-width:1.0;" width="10" x="1414.5" y="694.1875"/><line style="stroke:#A80036;stroke-width:1.0;stroke-dasharray:5.0,5.0;" x1="31" x2="31" y1="88.4883" y2="1057.4707"/><line style="stroke:#A80036;stroke-width:1.0;stroke-dasharray:5.0,5.0;" x1="411" x2="411" y1="88.4883" y2="1057.4707"/><line style="stroke:#A80036;stroke-width:1.0;stroke-dasharray:5.0,5.0;" x1="612" x2="612" y1="88.4883" y2="1057.4707"/><line style="stroke:#A80036;stroke-width:1.0;stroke-dasharray:5.0,5.0;" x1="793" x2="793" y1="88.4883" y2="1057.4707"/><line style="stroke:#A80036;stroke-width:1.0;stroke-dasharray:5.0,5.0;" x1="889" x2="889" y1="88.4883" y2="1057.4707"/><line style="stroke:#A80036;stroke-width:1.0;stroke-dasharray:5.0,5.0;" x1="1019" x2="1019" y1="88.4883" y2="1057.4707"/><line style="stroke:#A80036;stroke-width:1.0;stroke-dasharray:5.0,5.0;" x1="1143" x2="1143" y1="484.2695" y2="1057.4707"/><line style="stroke:#A80036;stroke-width:1.0;stroke-dasharray:5.0,5.0;" x1="1267" x2="1267" y1="88.4883" y2="1057.4707"/><line style="stroke:#A80036;stroke-width:1.0;stroke-dasharray:5.0,5.0;" x1="1419" x2="1419" y1="88.4883" y2="1057.4707"/><line style="stroke:#A80036;stroke-width:1.0;stroke-dasharray:5.0,5.0;" x1="1549" x2="1549" y1="803.5527" y2="1057.4707"/><line style="stroke:#A80036;stroke-width:1.0;stroke-dasharray:5.0,5.0;" x1="1652" x2="1652" y1="88.4883" y2="1057.4707"/><line style="stroke:#A80036;stroke-width:1.0;stroke-dasharray:5.0,5.0;" x1="1790" x2="1790" y1="88.4883" y2="1057.4707"/><text fill="#000000" font-family="sans-serif" font-size="14" lengthAdjust="spacing" textLength="47" x="5" y="85.5352">Person</text><ellipse cx="31.5" cy="15" fill="#FEFECE" filter="url(#f1v05yo2pllnuq)" rx="8" ry="8" style="stroke:#A80036;stroke-width:2.0;"/><path d="M31.5,23 L31.5,50 M18.5,31 L44.5,31 M31.5,50 L18.5,65 M31.5,50 L44.5,65 " fill="none" filter="url(#f1v05yo2pllnuq)" style="stroke:#A80036;stroke-width:2.0;"/><text fill="#000000" font-family="sans-serif" font-size="14" lengthAdjust="spacing" textLength="47" x="5" y="1070.0059">Person</text><ellipse cx="31.5" cy="1082.959" fill="#FEFECE" filter="url(#f1v05yo2pllnuq)" rx="8" ry="8" style="stroke:#A80036;stroke-width:2.0;"/><path d="M31.5,1090.959 L31.5,1117.959 M18.5,1098.959 L44.5,1098.959 M31.5,1117.959 L18.5,1132.959 M31.5,1117.959 L44.5,1132.959 " fill="none" filter="url(#f1v05yo2pllnuq)" style="stroke:#A80036;stroke-width:2.0;"/><rect fill="#FEFECE" filter="url(#f1v05yo2pllnuq)" height="30.4883" style="stroke:#A80036;stroke-width:1.5;" width="127" x="346" y="53"/><text fill="#000000" font-family="sans-serif" font-size="14" lengthAdjust="spacing" textLength="113" x="353" y="73.5352">:CreateTaskView</text><rect fill="#FEFECE" filter="url(#f1v05yo2pllnuq)" height="30.4883" style="stroke:#A80036;stroke-width:1.5;" width="127" x="346" y="1056.4707"/><text fill="#000000" font-family="sans-serif" font-size="14" lengthAdjust="spacing" textLength="113" x="353" y="1077.0059">:CreateTaskView</text><rect fill="#FEFECE" filter="url(#f1v05yo2pllnuq)" height="30.4883" style="stroke:#A80036;stroke-width:1.5;" width="165" x="528" y="53"/><text fill="#000000" font-family="sans-serif" font-size="14" lengthAdjust="spacing" textLength="151" x="535" y="73.5352">:CreateTaskController</text><rect fill="#FEFECE" filter="url(#f1v05yo2pllnuq)" height="30.4883" style="stroke:#A80036;stroke-width:1.5;" width="165" x="528" y="1056.4707"/><text fill="#000000" font-family="sans-serif" font-size="14" lengthAdjust="spacing" textLength="151" x="535" y="1077.0059">:CreateTaskController</text><rect fill="#FEFECE" filter="url(#f1v05yo2pllnuq)" height="30.4883" style="stroke:#A80036;stroke-width:1.5;" width="65" x="759" y="53"/><text fill="#000000" font-family="sans-serif" font-size="14" lengthAdjust="spacing" textLength="51" x="766" y="73.5352">:Person</text><rect fill="#FEFECE" filter="url(#f1v05yo2pllnuq)" height="30.4883" style="stroke:#A80036;stroke-width:1.5;" width="65" x="759" y="1056.4707"/><text fill="#000000" font-family="sans-serif" font-size="14" lengthAdjust="spacing" textLength="51" x="766" y="1077.0059">:Person</text><rect fill="#FEFECE" filter="url(#f1v05yo2pllnuq)" height="46.9766" style="stroke:#A80036;stroke-width:1.5;" width="98" x="838" y="36.5117"/><text fill="#000000" font-family="sans-serif" font-size="14" lengthAdjust="spacing" textLength="47" x="863.5" y="57.0469">service</text><text fill="#000000" font-family="sans-serif" font-size="14" lengthAdjust="spacing" textLength="84" x="845" y="73.5352">:TaskService</text><rect fill="#FEFECE" filter="url(#f1v05yo2pllnuq)" height="46.9766" style="stroke:#A80036;stroke-width:1.5;" width="98" x="838" y="1056.4707"/><text fill="#000000" font-family="sans-serif" font-size="14" lengthAdjust="spacing" textLength="47" x="863.5" y="1077.0059">service</text><text fill="#000000" font-family="sans-serif" font-size="14" lengthAdjust="spacing" textLength="84" x="845" y="1093.4941">:TaskService</text><rect fill="#FEFECE" filter="url(#f1v05yo2pllnuq)" height="46.9766" style="stroke:#A80036;stroke-width:1.5;" width="124" x="955" y="36.5117"/><text fill="#000000" font-family="sans-serif" font-size="14" lengthAdjust="spacing" textLength="54" x="990" y="57.0469">srvCats:</text><text fill="#000000" font-family="sans-serif" font-size="14" lengthAdjust="spacing" textLength="110" x="962" y="73.5352">CategoryService</text><rect fill="#FEFECE" filter="url(#f1v05yo2pllnuq)" height="46.9766" style="stroke:#A80036;stroke-width:1.5;" width="124" x="955" y="1056.4707"/><text fill="#000000" font-family="sans-serif" font-size="14" lengthAdjust="spacing" textLength="54" x="990" y="1077.0059">srvCats:</text><text fill="#000000" font-family="sans-serif" font-size="14" lengthAdjust="spacing" textLength="110" x="962" y="1093.4941">CategoryService</text><rect fill="#FEFECE" filter="url(#f1v05yo2pllnuq)" height="30.4883" style="stroke:#A80036;stroke-width:1.5;" width="97" x="1093" y="1056.4707"/><text fill="#000000" font-family="sans-serif" font-size="14" lengthAdjust="spacing" textLength="83" x="1100" y="1077.0059">dto:TaskDto</text><rect fill="#FEFECE" filter="url(#f1v05yo2pllnuq)" height="46.9766" style="stroke:#A80036;stroke-width:1.5;" width="123" x="1204" y="36.5117"/><text fill="#000000" font-family="sans-serif" font-size="14" lengthAdjust="spacing" textLength="71" x="1230" y="57.0469">repoTasks</text><text fill="#000000" font-family="sans-serif" font-size="14" lengthAdjust="spacing" textLength="109" x="1211" y="73.5352">:TaskRepository</text><rect fill="#FEFECE" filter="url(#f1v05yo2pllnuq)" height="46.9766" style="stroke:#A80036;stroke-width:1.5;" width="123" x="1204" y="1056.4707"/><text fill="#000000" font-family="sans-serif" font-size="14" lengthAdjust="spacing" textLength="71" x="1230" y="1077.0059">repoTasks</text><text fill="#000000" font-family="sans-serif" font-size="14" lengthAdjust="spacing" textLength="109" x="1211" y="1093.4941">:TaskRepository</text><rect fill="#FEFECE" filter="url(#f1v05yo2pllnuq)" height="46.9766" style="stroke:#A80036;stroke-width:1.5;" width="153" x="1341" y="36.5117"/><text fill="#000000" font-family="sans-serif" font-size="14" lengthAdjust="spacing" textLength="62" x="1386.5" y="57.0469">repoCats</text><text fill="#000000" font-family="sans-serif" font-size="14" lengthAdjust="spacing" textLength="139" x="1348" y="73.5352">:CategoryRepository</text><rect fill="#FEFECE" filter="url(#f1v05yo2pllnuq)" height="46.9766" style="stroke:#A80036;stroke-width:1.5;" width="153" x="1341" y="1056.4707"/><text fill="#000000" font-family="sans-serif" font-size="14" lengthAdjust="spacing" textLength="62" x="1386.5" y="1077.0059">repoCats</text><text fill="#000000" font-family="sans-serif" font-size="14" lengthAdjust="spacing" textLength="139" x="1348" y="1093.4941">:CategoryRepository</text><rect fill="#FEFECE" filter="url(#f1v05yo2pllnuq)" height="30.4883" style="stroke:#A80036;stroke-width:1.5;" width="78" x="1508" y="1056.4707"/><text fill="#000000" font-family="sans-serif" font-size="14" lengthAdjust="spacing" textLength="64" x="1515" y="1077.0059">task:Task</text><rect fill="#FEFECE" filter="url(#f1v05yo2pllnuq)" height="30.4883" style="stroke:#A80036;stroke-width:1.5;" width="100" x="1600" y="53"/><text fill="#000000" font-family="sans-serif" font-size="14" lengthAdjust="spacing" textLength="86" x="1607" y="73.5352">cat:Category</text><rect fill="#FEFECE" filter="url(#f1v05yo2pllnuq)" height="30.4883" style="stroke:#A80036;stroke-width:1.5;" width="100" x="1600" y="1056.4707"/><text fill="#000000" font-family="sans-serif" font-size="14" lengthAdjust="spacing" textLength="86" x="1607" y="1077.0059">cat:Category</text><rect fill="#FEFECE" filter="url(#f1v05yo2pllnuq)" height="46.9766" style="stroke:#A80036;stroke-width:1.5;" width="149" x="1714" y="36.5117"/><text fill="#000000" font-family="sans-serif" font-size="14" lengthAdjust="spacing" textLength="114" x="1731.5" y="57.0469">lstCategoriesDto</text><text fill="#000000" font-family="sans-serif" font-size="14" lengthAdjust="spacing" textLength="135" x="1721" y="73.5352">:List&lt;CategoryDto&gt;</text><rect fill="#FEFECE" filter="url(#f1v05yo2pllnuq)" height="46.9766" style="stroke:#A80036;stroke-width:1.5;" width="149" x="1714" y="1056.4707"/><text fill="#000000" font-family="sans-serif" font-size="14" lengthAdjust="spacing" textLength="114" x="1731.5" y="1077.0059">lstCategoriesDto</text><text fill="#000000" font-family="sans-serif" font-size="14" lengthAdjust="spacing" textLength="135" x="1721" y="1093.4941">:List&lt;CategoryDto&gt;</text><rect fill="#FFFFFF" filter="url(#f1v05yo2pllnuq)" height="949.9824" style="stroke:#A80036;stroke-width:1.0;" width="10" x="26.5" y="98.4883"/><rect fill="#FFFFFF" filter="url(#f1v05yo2pllnuq)" height="294.416" style="stroke:#A80036;stroke-width:1.0;" width="10" x="406.5" y="119.7988"/><rect fill="#FFFFFF" filter="url(#f1v05yo2pllnuq)" height="74.7988" style="stroke:#A80036;stroke-width:1.0;" width="10" x="406.5" y="443.5254"/><rect fill="#FFFFFF" filter="url(#f1v05yo2pllnuq)" height="491.8359" style="stroke:#A80036;stroke-width:1.0;" width="10" x="406.5" y="547.6348"/><rect fill="#FFFFFF" filter="url(#f1v05yo2pllnuq)" height="205.1738" style="stroke:#A80036;stroke-width:1.0;" width="10" x="607.5" y="149.1094"/><rect fill="#FFFFFF" filter="url(#f1v05yo2pllnuq)" height="433.2148" style="stroke:#A80036;stroke-width:1.0;" width="10" x="607.5" y="576.9453"/><rect fill="#FFFFFF" filter="url(#f1v05yo2pllnuq)" height="29.3105" style="stroke:#A80036;stroke-width:1.0;" width="10" x="788.5" y="178.4199"/><rect fill="#FFFFFF" filter="url(#f1v05yo2pllnuq)" height="29.3105" style="stroke:#A80036;stroke-width:1.0;" width="10" x="788.5" y="237.041"/><rect fill="#FFFFFF" filter="url(#f1v05yo2pllnuq)" height="374.5938" style="stroke:#A80036;stroke-width:1.0;" width="10" x="884" y="606.2559"/><rect fill="#FFFFFF" filter="url(#f1v05yo2pllnuq)" height="40.3105" style="stroke:#A80036;stroke-width:1.0;" width="10" x="889" y="845.6074"/><rect fill="#FFFFFF" filter="url(#f1v05yo2pllnuq)" height="29.3105" style="stroke:#A80036;stroke-width:1.0;" width="10" x="1014" y="295.6621"/><rect fill="#FFFFFF" filter="url(#f1v05yo2pllnuq)" height="29.3105" style="stroke:#A80036;stroke-width:1.0;" width="10" x="1138.5" y="635.5664"/><rect fill="#FFFFFF" filter="url(#f1v05yo2pllnuq)" height="29.3105" style="stroke:#A80036;stroke-width:1.0;" width="10" x="1262.5" y="922.2285"/><rect fill="#FFFFFF" filter="url(#f1v05yo2pllnuq)" height="29.3105" style="stroke:#A80036;stroke-width:1.0;" width="10" x="1414.5" y="694.1875"/><polygon fill="#A80036" points="394.5,115.7988,404.5,119.7988,394.5,123.7988,398.5,119.7988" style="stroke:#A80036;stroke-width:1.0;"/><line style="stroke:#A80036;stroke-width:1.0;" x1="36.5" x2="400.5" y1="119.7988" y2="119.7988"/><text fill="#000000" font-family="sans-serif" font-size="13" font-weight="bold" lengthAdjust="spacing" textLength="9" x="43.5" y="115.0566">1</text><text fill="#000000" font-family="sans-serif" font-size="13" lengthAdjust="spacing" textLength="159" x="56.5" y="115.0566">asks to create a new task</text><polygon fill="#A80036" points="595.5,145.1094,605.5,149.1094,595.5,153.1094,599.5,149.1094" style="stroke:#A80036;stroke-width:1.0;"/><line style="stroke:#A80036;stroke-width:1.0;" x1="416.5" x2="601.5" y1="149.1094" y2="149.1094"/><text fill="#000000" font-family="sans-serif" font-size="13" font-weight="bold" lengthAdjust="spacing" textLength="9" x="423.5" y="144.3672">2</text><text fill="#000000" font-family="sans-serif" font-size="13" lengthAdjust="spacing" textLength="37" x="436.5" y="144.3672">start()</text><polygon fill="#A80036" points="776.5,174.4199,786.5,178.4199,776.5,182.4199,780.5,178.4199" style="stroke:#A80036;stroke-width:1.0;"/><line style="stroke:#A80036;stroke-width:1.0;" x1="617.5" x2="782.5" y1="178.4199" y2="178.4199"/><text fill="#000000" font-family="sans-serif" font-size="13" font-weight="bold" lengthAdjust="spacing" textLength="9" x="624.5" y="173.6777">3</text><text fill="#000000" font-family="sans-serif" font-size="13" lengthAdjust="spacing" textLength="102" x="637.5" y="173.6777">getTaskService()</text><polygon fill="#A80036" points="628.5,203.7305,618.5,207.7305,628.5,211.7305,624.5,207.7305" style="stroke:#A80036;stroke-width:1.0;"/><line style="stroke:#A80036;stroke-width:1.0;stroke-dasharray:2.0,2.0;" x1="622.5" x2="792.5" y1="207.7305" y2="207.7305"/><text fill="#000000" font-family="sans-serif" font-size="13" font-weight="bold" lengthAdjust="spacing" textLength="9" x="634.5" y="202.9883">4</text><text fill="#000000" font-family="sans-serif" font-size="13" lengthAdjust="spacing" textLength="44" x="647.5" y="202.9883">service</text><polygon fill="#A80036" points="776.5,233.041,786.5,237.041,776.5,241.041,780.5,237.041" style="stroke:#A80036;stroke-width:1.0;"/><line style="stroke:#A80036;stroke-width:1.0;" x1="617.5" x2="782.5" y1="237.041" y2="237.041"/><text fill="#000000" font-family="sans-serif" font-size="13" font-weight="bold" lengthAdjust="spacing" textLength="9" x="624.5" y="232.2988">5</text><text fill="#000000" font-family="sans-serif" font-size="13" lengthAdjust="spacing" textLength="139" x="637.5" y="232.2988">getCategoriesService()</text><polygon fill="#A80036" points="628.5,262.3516,618.5,266.3516,628.5,270.3516,624.5,266.3516" style="stroke:#A80036;stroke-width:1.0;"/><line style="stroke:#A80036;stroke-width:1.0;stroke-dasharray:2.0,2.0;" x1="622.5" x2="792.5" y1="266.3516" y2="266.3516"/><text fill="#000000" font-family="sans-serif" font-size="13" font-weight="bold" lengthAdjust="spacing" textLength="9" x="634.5" y="261.6094">6</text><text fill="#000000" font-family="sans-serif" font-size="13" lengthAdjust="spacing" textLength="47" x="647.5" y="261.6094">srvCats</text><polygon fill="#A80036" points="1002,291.6621,1012,295.6621,1002,299.6621,1006,295.6621" style="stroke:#A80036;stroke-width:1.0;"/><line style="stroke:#A80036;stroke-width:1.0;" x1="617.5" x2="1008" y1="295.6621" y2="295.6621"/><text fill="#000000" font-family="sans-serif" font-size="13" font-weight="bold" lengthAdjust="spacing" textLength="9" x="624.5" y="290.9199">7</text><text fill="#000000" font-family="sans-serif" font-size="13" lengthAdjust="spacing" textLength="95" x="637.5" y="290.9199">getCategories()</text><polygon fill="#A80036" points="628.5,320.9727,618.5,324.9727,628.5,328.9727,624.5,324.9727" style="stroke:#A80036;stroke-width:1.0;"/><line style="stroke:#A80036;stroke-width:1.0;stroke-dasharray:2.0,2.0;" x1="622.5" x2="1018" y1="324.9727" y2="324.9727"/><text fill="#000000" font-family="sans-serif" font-size="13" font-weight="bold" lengthAdjust="spacing" textLength="9" x="634.5" y="320.2305">8</text><text fill="#000000" font-family="sans-serif" font-size="13" lengthAdjust="spacing" textLength="106" x="647.5" y="320.2305">lstCategoriesDto</text><polygon fill="#A80036" points="427.5,350.2832,417.5,354.2832,427.5,358.2832,423.5,354.2832" style="stroke:#A80036;stroke-width:1.0;"/><line style="stroke:#A80036;stroke-width:1.0;stroke-dasharray:2.0,2.0;" x1="421.5" x2="611.5" y1="354.2832" y2="354.2832"/><text fill="#000000" font-family="sans-serif" font-size="13" font-weight="bold" lengthAdjust="spacing" textLength="9" x="433.5" y="349.541">9</text><text fill="#000000" font-family="sans-serif" font-size="13" lengthAdjust="spacing" textLength="106" x="446.5" y="349.541">lstCategoriesDto</text><polygon fill="#A80036" points="47.5,410.2148,37.5,414.2148,47.5,418.2148,43.5,414.2148" style="stroke:#A80036;stroke-width:1.0;"/><line style="stroke:#A80036;stroke-width:1.0;stroke-dasharray:2.0,2.0;" x1="41.5" x2="410.5" y1="414.2148" y2="414.2148"/><text fill="#000000" font-family="sans-serif" font-size="13" font-weight="bold" lengthAdjust="spacing" textLength="18" x="53.5" y="394.1621">10</text><text fill="#000000" font-family="sans-serif" font-size="13" lengthAdjust="spacing" textLength="324" x="75.5" y="378.8516">requests data (reference, title, informal description,</text><text fill="#000000" font-family="sans-serif" font-size="13" lengthAdjust="spacing" textLength="311" x="75.5" y="394.1621">technical description, effort estimation, deadline)</text><text fill="#000000" font-family="sans-serif" font-size="13" lengthAdjust="spacing" textLength="250" x="79.5" y="409.4727">and asks to select the category it fits in</text><polygon fill="#A80036" points="394.5,439.5254,404.5,443.5254,394.5,447.5254,398.5,443.5254" style="stroke:#A80036;stroke-width:1.0;"/><line style="stroke:#A80036;stroke-width:1.0;" x1="36.5" x2="400.5" y1="443.5254" y2="443.5254"/><text fill="#000000" font-family="sans-serif" font-size="13" font-weight="bold" lengthAdjust="spacing" textLength="18" x="43.5" y="438.7832">11</text><text fill="#000000" font-family="sans-serif" font-size="13" lengthAdjust="spacing" textLength="323" x="65.5" y="438.7832">types requested data and selects intended category</text><polygon fill="#A80036" points="1081,468.8359,1091,472.8359,1081,476.8359,1085,472.8359" style="stroke:#A80036;stroke-width:1.0;"/><line style="stroke:#A80036;stroke-width:1.0;stroke-dasharray:2.0,2.0;" x1="416.5" x2="1087" y1="472.8359" y2="472.8359"/><text fill="#000000" font-family="sans-serif" font-size="13" font-weight="bold" lengthAdjust="spacing" textLength="18" x="423.5" y="468.0938">12</text><text fill="#000000" font-family="sans-serif" font-size="13" lengthAdjust="spacing" textLength="353" x="445.5" y="468.0938">create(ref, title, infDesc, tecDesc, effort, deadline, catId)</text><rect fill="#FEFECE" filter="url(#f1v05yo2pllnuq)" height="30.4883" style="stroke:#A80036;stroke-width:1.5;" width="97" x="1093" y="451.5254"/><text fill="#000000" font-family="sans-serif" font-size="14" lengthAdjust="spacing" textLength="83" x="1100" y="472.0605">dto:TaskDto</text><polygon fill="#A80036" points="47.5,514.3242,37.5,518.3242,47.5,522.3242,43.5,518.3242" style="stroke:#A80036;stroke-width:1.0;"/><line style="stroke:#A80036;stroke-width:1.0;stroke-dasharray:2.0,2.0;" x1="41.5" x2="410.5" y1="518.3242" y2="518.3242"/><text fill="#000000" font-family="sans-serif" font-size="13" font-weight="bold" lengthAdjust="spacing" textLength="18" x="53.5" y="513.582">13</text><text fill="#000000" font-family="sans-serif" font-size="13" lengthAdjust="spacing" textLength="260" x="75.5" y="513.582">shows all data and requests confirmation</text><polygon fill="#A80036" points="394.5,543.6348,404.5,547.6348,394.5,551.6348,398.5,547.6348" style="stroke:#A80036;stroke-width:1.0;"/><line style="stroke:#A80036;stroke-width:1.0;" x1="36.5" x2="400.5" y1="547.6348" y2="547.6348"/><text fill="#000000" font-family="sans-serif" font-size="13" font-weight="bold" lengthAdjust="spacing" textLength="18" x="43.5" y="542.8926">14</text><text fill="#000000" font-family="sans-serif" font-size="13" lengthAdjust="spacing" textLength="111" x="65.5" y="542.8926">confirms the data</text><polygon fill="#A80036" points="595.5,572.9453,605.5,576.9453,595.5,580.9453,599.5,576.9453" style="stroke:#A80036;stroke-width:1.0;"/><line style="stroke:#A80036;stroke-width:1.0;" x1="416.5" x2="601.5" y1="576.9453" y2="576.9453"/><text fill="#000000" font-family="sans-serif" font-size="13" font-weight="bold" lengthAdjust="spacing" textLength="18" x="423.5" y="572.2031">15</text><text fill="#000000" font-family="sans-serif" font-size="13" lengthAdjust="spacing" textLength="150" x="445.5" y="572.2031">createAndSaveTask(dto)</text><polygon fill="#A80036" points="872,602.2559,882,606.2559,872,610.2559,876,606.2559" style="stroke:#A80036;stroke-width:1.0;"/><line style="stroke:#A80036;stroke-width:1.0;" x1="617.5" x2="878" y1="606.2559" y2="606.2559"/><text fill="#000000" font-family="sans-serif" font-size="13" font-weight="bold" lengthAdjust="spacing" textLength="18" x="624.5" y="601.5137">16</text><text fill="#000000" font-family="sans-serif" font-size="13" lengthAdjust="spacing" textLength="120" x="646.5" y="601.5137">createAndSave(dto)</text><polygon fill="#A80036" points="1126.5,631.5664,1136.5,635.5664,1126.5,639.5664,1130.5,635.5664" style="stroke:#A80036;stroke-width:1.0;"/><line style="stroke:#A80036;stroke-width:1.0;" x1="894" x2="1132.5" y1="635.5664" y2="635.5664"/><text fill="#000000" font-family="sans-serif" font-size="13" font-weight="bold" lengthAdjust="spacing" textLength="18" x="901" y="630.8242">17</text><text fill="#000000" font-family="sans-serif" font-size="13" lengthAdjust="spacing" textLength="96" x="923" y="630.8242">getCategoryId()</text><polygon fill="#A80036" points="905,660.877,895,664.877,905,668.877,901,664.877" style="stroke:#A80036;stroke-width:1.0;"/><line style="stroke:#A80036;stroke-width:1.0;stroke-dasharray:2.0,2.0;" x1="899" x2="1142.5" y1="664.877" y2="664.877"/><text fill="#000000" font-family="sans-serif" font-size="13" font-weight="bold" lengthAdjust="spacing" textLength="18" x="911" y="660.1348">18</text><text fill="#000000" font-family="sans-serif" font-size="13" lengthAdjust="spacing" textLength="31" x="933" y="660.1348">catId</text><polygon fill="#A80036" points="1402.5,690.1875,1412.5,694.1875,1402.5,698.1875,1406.5,694.1875" style="stroke:#A80036;stroke-width:1.0;"/><line style="stroke:#A80036;stroke-width:1.0;" x1="894" x2="1408.5" y1="694.1875" y2="694.1875"/><text fill="#000000" font-family="sans-serif" font-size="13" font-weight="bold" lengthAdjust="spacing" textLength="18" x="901" y="689.4453">19</text><text fill="#000000" font-family="sans-serif" font-size="13" lengthAdjust="spacing" textLength="85" x="923" y="689.4453">getById(catId)</text><polygon fill="#A80036" points="905,719.498,895,723.498,905,727.498,901,723.498" style="stroke:#A80036;stroke-width:1.0;"/><line style="stroke:#A80036;stroke-width:1.0;stroke-dasharray:2.0,2.0;" x1="899" x2="1418.5" y1="723.498" y2="723.498"/><text fill="#000000" font-family="sans-serif" font-size="13" font-weight="bold" lengthAdjust="spacing" textLength="18" x="911" y="718.7559">20</text><text fill="#000000" font-family="sans-serif" font-size="13" lengthAdjust="spacing" textLength="19" x="933" y="718.7559">cat</text><path d="M840,736.498 L840,761.498 L1191,761.498 L1191,746.498 L1181,736.498 L840,736.498 " fill="#FBFB77" filter="url(#f1v05yo2pllnuq)" style="stroke:#A80036;stroke-width:1.0;"/><path d="M1181,736.498 L1181,746.498 L1191,746.498 L1181,736.498 " fill="#FBFB77" style="stroke:#A80036;stroke-width:1.0;"/><text fill="#000000" font-family="sans-serif" font-size="13" lengthAdjust="spacing" textLength="214" x="902" y="754.0664">extracting more data from the dto</text><polygon fill="#A80036" points="1496,788.1191,1506,792.1191,1496,796.1191,1500,792.1191" style="stroke:#A80036;stroke-width:1.0;"/><line style="stroke:#A80036;stroke-width:1.0;stroke-dasharray:2.0,2.0;" x1="894" x2="1502" y1="792.1191" y2="792.1191"/><text fill="#000000" font-family="sans-serif" font-size="13" font-weight="bold" lengthAdjust="spacing" textLength="18" x="901" y="787.377">21</text><text fill="#000000" font-family="sans-serif" font-size="13" lengthAdjust="spacing" textLength="314" x="923" y="787.377">create(ref, title, infDesc, tecDesc, effort, deadline,</text><text fill="#000000" font-family="sans-serif" font-size="13" font-weight="bold" lengthAdjust="spacing" textLength="20" x="1241" y="787.377">cat</text><text fill="#000000" font-family="sans-serif" font-size="13" lengthAdjust="spacing" textLength="4" x="1261" y="787.377">)</text><rect fill="#FEFECE" filter="url(#f1v05yo2pllnuq)" height="30.4883" style="stroke:#A80036;stroke-width:1.5;" width="78" x="1508" y="770.8086"/><text fill="#000000" font-family="sans-serif" font-size="14" lengthAdjust="spacing" textLength="64" x="1515" y="791.3438">task:Task</text><line style="stroke:#A80036;stroke-width:1.0;" x1="894" x2="941" y1="832.6074" y2="832.6074"/><line style="stroke:#A80036;stroke-width:1.0;" x1="941" x2="941" y1="832.6074" y2="845.6074"/><line style="stroke:#A80036;stroke-width:1.0;" x1="900" x2="941" y1="845.6074" y2="845.6074"/><polygon fill="#A80036" points="910,841.6074,900,845.6074,910,849.6074,906,845.6074" style="stroke:#A80036;stroke-width:1.0;"/><text fill="#000000" font-family="sans-serif" font-size="13" font-weight="bold" lengthAdjust="spacing" textLength="18" x="906" y="827.8652">22</text><text fill="#000000" font-family="sans-serif" font-size="13" lengthAdjust="spacing" textLength="84" x="928" y="827.8652">validate(task)</text><line style="stroke:#A80036;stroke-width:1.0;stroke-dasharray:2.0,2.0;" x1="899" x2="941" y1="884.918" y2="884.918"/><line style="stroke:#A80036;stroke-width:1.0;stroke-dasharray:2.0,2.0;" x1="941" x2="941" y1="884.918" y2="897.918"/><line style="stroke:#A80036;stroke-width:1.0;stroke-dasharray:2.0,2.0;" x1="894" x2="941" y1="897.918" y2="897.918"/><polygon fill="#A80036" points="904,893.918,894,897.918,904,901.918,900,897.918" style="stroke:#A80036;stroke-width:1.0;"/><text fill="#000000" font-family="sans-serif" font-size="13" font-weight="bold" lengthAdjust="spacing" textLength="18" x="906" y="880.1758">23</text><text fill="#000000" font-family="sans-serif" font-size="13" lengthAdjust="spacing" textLength="16" x="928" y="880.1758">ok</text><polygon fill="#A80036" points="1250.5,918.2285,1260.5,922.2285,1250.5,926.2285,1254.5,922.2285" style="stroke:#A80036;stroke-width:1.0;"/><line style="stroke:#A80036;stroke-width:1.0;" x1="894" x2="1256.5" y1="922.2285" y2="922.2285"/><text fill="#000000" font-family="sans-serif" font-size="13" font-weight="bold" lengthAdjust="spacing" textLength="18" x="901" y="917.4863">24</text><text fill="#000000" font-family="sans-serif" font-size="13" lengthAdjust="spacing" textLength="63" x="923" y="917.4863">save(task)</text><polygon fill="#A80036" points="905,947.5391,895,951.5391,905,955.5391,901,951.5391" style="stroke:#A80036;stroke-width:1.0;"/><line style="stroke:#A80036;stroke-width:1.0;stroke-dasharray:2.0,2.0;" x1="899" x2="1266.5" y1="951.5391" y2="951.5391"/><text fill="#000000" font-family="sans-serif" font-size="13" font-weight="bold" lengthAdjust="spacing" textLength="18" x="911" y="946.7969">25</text><text fill="#000000" font-family="sans-serif" font-size="13" lengthAdjust="spacing" textLength="16" x="933" y="946.7969">ok</text><polygon fill="#A80036" points="628.5,976.8496,618.5,980.8496,628.5,984.8496,624.5,980.8496" style="stroke:#A80036;stroke-width:1.0;"/><line style="stroke:#A80036;stroke-width:1.0;stroke-dasharray:2.0,2.0;" x1="622.5" x2="888" y1="980.8496" y2="980.8496"/><text fill="#000000" font-family="sans-serif" font-size="13" font-weight="bold" lengthAdjust="spacing" textLength="18" x="634.5" y="976.1074">26</text><text fill="#000000" font-family="sans-serif" font-size="13" lengthAdjust="spacing" textLength="16" x="656.5" y="976.1074">ok</text><polygon fill="#A80036" points="427.5,1006.1602,417.5,1010.1602,427.5,1014.1602,423.5,1010.1602" style="stroke:#A80036;stroke-width:1.0;"/><line style="stroke:#A80036;stroke-width:1.0;stroke-dasharray:2.0,2.0;" x1="421.5" x2="611.5" y1="1010.1602" y2="1010.1602"/><text fill="#000000" font-family="sans-serif" font-size="13" font-weight="bold" lengthAdjust="spacing" textLength="18" x="433.5" y="1005.418">27</text><text fill="#000000" font-family="sans-serif" font-size="13" lengthAdjust="spacing" textLength="16" x="455.5" y="1005.418">ok</text><polygon fill="#A80036" points="47.5,1035.4707,37.5,1039.4707,47.5,1043.4707,43.5,1039.4707" style="stroke:#A80036;stroke-width:1.0;"/><line style="stroke:#A80036;stroke-width:1.0;stroke-dasharray:2.0,2.0;" x1="41.5" x2="410.5" y1="1039.4707" y2="1039.4707"/><text fill="#000000" font-family="sans-serif" font-size="13" font-weight="bold" lengthAdjust="spacing" textLength="18" x="53.5" y="1034.7285">28</text><text fill="#000000" font-family="sans-serif" font-size="13" lengthAdjust="spacing" textLength="167" x="75.5" y="1034.7285">informs operation success</text><!--MD5=[8fdffaa38769a26f050642399835bdc5]
@startuml
'https://plantuml.com/sequence-diagram
autoactivate on
autonumber

actor "Person" as User
participant ":CreateTaskView" as System
participant ":CreateTaskController" as Ctrl
participant ":Person" as Person
participant "service\n:TaskService" as Service
participant "srvCats:\nCategoryService" as SrvCategories
participant "dto:TaskDto" as TaskDto
participant "repoTasks\n:TaskRepository" as RepoTask
participant "repoCats\n:CategoryRepository" as RepoCats
participant "task:Task" as Task
participant "cat:Category" as Category
participant "lstCategoriesDto\n:List<CategoryDto>" as LstCategoriesDto

activate User

User -> System: asks to create a new task
System -> Ctrl: start()
Ctrl -> Person: getTaskService()
Person - -> Ctrl: service
Ctrl -> Person: getCategoriesService()
Person - -> Ctrl: srvCats
Ctrl -> SrvCategories: getCategories()
SrvCategories - -> Ctrl: lstCategoriesDto
Ctrl- -> System: lstCategoriesDto
System - -> User: requests data (reference, title, informal description,\ntechnical description, effort estimation, deadline) \n and asks to select the category it fits in
User -> System: types requested data and selects intended category

System - -> TaskDto**: create(ref, title, infDesc, tecDesc, effort, deadline, catId)
System - -> User: shows all data and requests confirmation
User -> System: confirms the data

System -> Ctrl: createAndSaveTask(dto)
Ctrl -> Service: createAndSave(dto)
Service -> TaskDto: getCategoryId()
TaskDto - -> Service: catId
Service -> RepoCats: getById(catId)
RepoCats - -> Service : cat
note over Service, TaskDto: extracting more data from the dto
Service - -> Task**: create(ref, title, infDesc, tecDesc, effort, deadline, **cat**)
Service -> Service : validate(task)
Service - -> Service : ok
Service -> RepoTask: save(task)
RepoTask - -> Service : ok
Service - -> Ctrl: ok
Ctrl - -> System: ok
System - -> User: informs operation success
@enduml

@startuml
autoactivate on
autonumber

actor "Person" as User
participant ":CreateTaskView" as System
participant ":CreateTaskController" as Ctrl
participant ":Person" as Person
participant "service\n:TaskService" as Service
participant "srvCats:\nCategoryService" as SrvCategories
participant "dto:TaskDto" as TaskDto
participant "repoTasks\n:TaskRepository" as RepoTask
participant "repoCats\n:CategoryRepository" as RepoCats
participant "task:Task" as Task
participant "cat:Category" as Category
participant "lstCategoriesDto\n:List<CategoryDto>" as LstCategoriesDto

activate User

User -> System: asks to create a new task
System -> Ctrl: start()
Ctrl -> Person: getTaskService()
Person - -> Ctrl: service
Ctrl -> Person: getCategoriesService()
Person - -> Ctrl: srvCats
Ctrl -> SrvCategories: getCategories()
SrvCategories - -> Ctrl: lstCategoriesDto
Ctrl- -> System: lstCategoriesDto
System - -> User: requests data (reference, title, informal description,\ntechnical description, effort estimation, deadline) \n and asks to select the category it fits in
User -> System: types requested data and selects intended category

System - -> TaskDto**: create(ref, title, infDesc, tecDesc, effort, deadline, catId)
System - -> User: shows all data and requests confirmation
User -> System: confirms the data

System -> Ctrl: createAndSaveTask(dto)
Ctrl -> Service: createAndSave(dto)
Service -> TaskDto: getCategoryId()
TaskDto - -> Service: catId
Service -> RepoCats: getById(catId)
RepoCats - -> Service : cat
note over Service, TaskDto: extracting more data from the dto
Service - -> Task**: create(ref, title, infDesc, tecDesc, effort, deadline, **cat**)
Service -> Service : validate(task)
Service - -> Service : ok
Service -> RepoTask: save(task)
RepoTask - -> Service : ok
Service - -> Ctrl: ok
Ctrl - -> System: ok
System - -> User: informs operation success
@enduml

PlantUML version 1.2021.7(Sun May 23 13:40:07 WEST 2021)
(GPL source distribution)
Java Runtime: OpenJDK Runtime Environment
JVM: OpenJDK 64-Bit Server VM
Default Encoding: UTF-8
Language: en
Country: PT
--></g></svg>