@startuml
'https://plantuml.com/sequence-diagram
autoactivate on
autonumber

actor "Person" as User
participant ":CreateTaskView" as System
participant ":CreateTaskController" as Ctrl
participant "service\n:TaskService" as Service
participant "srvCats:\nCategoryService" as SrvCategories
participant "dto:TaskDto" as TaskDto
participant "repoTasks\n:TaskRepository" as RepoTask
participant "repoCats\n:CategoryRepository" as RepoCats
participant "task:Task" as Task
participant "cat:Category" as Category
participant "lstCategoriesDto\n:List<CategoryDto>" as LstCategoriesDto

activate User

User -> System: asks to create a new task
System -> Ctrl: start()

Ctrl -> SrvCategories: getCategories()
SrvCategories --> Ctrl: lstCategoriesDto
Ctrl--> System: lstCategoriesDto
System --> User: requests data (reference, title, informal description,\ntechnical description, effort estimation, deadline) \n and asks to select the category it fits in
User -> System: types requested data and selects intended category

System --> TaskDto**: create(ref, title, infDesc, tecDesc, effort, deadline, catId)
System --> User: shows all data and requests confirmation
User -> System: confirms the data

System -> Ctrl: createAndSaveTask(dto)
Ctrl -> Service: createAndSave(dto)
Service -> TaskDto: getCategoryId()
TaskDto --> Service: catId
Service -> RepoCats: getById(catId)
RepoCats --> Service : cat
note over Service, TaskDto: extracting more data from the dto
Service --> Task**: create(ref, title, infDesc, tecDesc, effort, deadline, **cat**)
Service -> Service : validate(task)
Service --> Service : ok
Service -> RepoTask: save(task)
RepoTask --> Service : ok
Service --> Ctrl: ok
Ctrl --> System: ok
System --> User: informs operation success
@enduml