<?xml version="1.0" encoding="UTF-8" standalone="no"?><svg xmlns="http://www.w3.org/2000/svg" xmlns:xlink="http://www.w3.org/1999/xlink" contentScriptType="application/ecmascript" contentStyleType="text/css" height="266px" preserveAspectRatio="none" style="width:291px;height:266px;background:#FFFFFF;" version="1.1" viewBox="0 0 291 266" width="291px" zoomAndPan="magnify"><defs><filter height="300%" id="fyo7b0gxq58ss" width="300%" x="-1" y="-1"><feGaussianBlur result="blurOut" stdDeviation="2.0"/><feColorMatrix in="blurOut" result="blurOut2" type="matrix" values="0 0 0 0 0 0 0 0 0 0 0 0 0 0 0 0 0 0 .4 0"/><feOffset dx="4.0" dy="4.0" in="blurOut2" result="blurOut3"/><feBlend in="SourceGraphic" in2="blurOut3" mode="normal"/></filter></defs><g><!--MD5=[09ce52be0ee7de43c61b6e2d59bf108b]
class Person--><rect codeLine="8" fill="#FEFECE" filter="url(#fyo7b0gxq58ss)" height="45.0879" id="Person" style="stroke:#A80036;stroke-width:1.5;" width="47" x="7" y="39.5"/><text fill="#000000" font-family="sans-serif" font-size="12" lengthAdjust="spacing" textLength="39" x="11" y="56.1016">Person</text><line style="stroke:#A80036;stroke-width:1.5;" x1="8" x2="53" y1="63.6328" y2="63.6328"/><text fill="#000000" font-family="sans-serif" font-size="11" lengthAdjust="spacing" textLength="35" x="13" y="78.2676">-name</text><!--MD5=[b34797a66dc35cbf1d65f7e3ca75530e]
class Task--><rect codeLine="12" fill="#FEFECE" filter="url(#fyo7b0gxq58ss)" height="109.8633" id="Task" style="stroke:#A80036;stroke-width:1.5;" width="128" x="149.5" y="7"/><text fill="#000000" font-family="sans-serif" font-size="12" lengthAdjust="spacing" textLength="28" x="199.5" y="23.6016">Task</text><line style="stroke:#A80036;stroke-width:1.5;" x1="150.5" x2="276.5" y1="31.1328" y2="31.1328"/><text fill="#000000" font-family="sans-serif" font-size="11" lengthAdjust="spacing" textLength="57" x="155.5" y="45.7676">-reference</text><text fill="#000000" font-family="sans-serif" font-size="11" lengthAdjust="spacing" textLength="26" x="155.5" y="58.7227">-title</text><text fill="#000000" font-family="sans-serif" font-size="11" lengthAdjust="spacing" textLength="113" x="155.5" y="71.6777">-informalDescription</text><text fill="#000000" font-family="sans-serif" font-size="11" lengthAdjust="spacing" textLength="116" x="155.5" y="84.6328">-technicalDescription</text><text fill="#000000" font-family="sans-serif" font-size="11" lengthAdjust="spacing" textLength="92" x="155.5" y="97.5879">-effortEstimation</text><text fill="#000000" font-family="sans-serif" font-size="11" lengthAdjust="spacing" textLength="51" x="155.5" y="110.543">-deadline</text><!--MD5=[a96594a83e2ecdc78cbf17c2ddf01934]
class Category--><rect codeLine="21" fill="#FEFECE" filter="url(#fyo7b0gxq58ss)" height="58.043" id="Category" style="stroke:#A80036;stroke-width:1.5;" width="79" x="82" y="194"/><text fill="#000000" font-family="sans-serif" font-size="12" lengthAdjust="spacing" textLength="51" x="96" y="210.6016">Category</text><line style="stroke:#A80036;stroke-width:1.5;" x1="83" x2="160" y1="218.1328" y2="218.1328"/><text fill="#000000" font-family="sans-serif" font-size="11" lengthAdjust="spacing" textLength="32" x="88" y="232.7676">-code</text><text fill="#000000" font-family="sans-serif" font-size="11" lengthAdjust="spacing" textLength="67" x="88" y="245.7227">-description</text><!--MD5=[8665a39baf447c773b5d79c4dc09e86a]
link Person to Category--><path codeLine="26" d="M38.64,84.62 C46.92,105.58 60.75,137.95 76.5,164 C82.63,174.14 90.25,184.57 97.46,193.74 " fill="none" id="Person-Category" style="stroke:#A80036;stroke-width:1.0;"/><polygon fill="#000000" points="83.8725,160.0566,82.1676,150.7,76.9936,153.4891,83.8725,160.0566" style="stroke:#000000;stroke-width:1.0;"/><text fill="#000000" font-family="sans-serif" font-size="13" lengthAdjust="spacing" textLength="62" x="90.5" y="160.5684">maintains</text><text fill="#000000" font-family="sans-serif" font-size="13" lengthAdjust="spacing" textLength="8" x="31.7526" y="105.313">1</text><text fill="#000000" font-family="sans-serif" font-size="13" lengthAdjust="spacing" textLength="22" x="67.795" y="183.2964">0..*</text><!--MD5=[b54da3a895b8dec754ede7c5ab9e2c21]
link Person to Task--><path codeLine="27" d="M54.05,62 C77.99,62 116.15,62 149.13,62 " fill="none" id="Person-Task" style="stroke:#A80036;stroke-width:1.0;"/><polygon fill="#000000" points="81.25,50.6553,72.2049,47.7163,72.2049,53.5942,81.25,50.6553" style="stroke:#000000;stroke-width:1.0;"/><text fill="#000000" font-family="sans-serif" font-size="13" lengthAdjust="spacing" textLength="46" x="85.25" y="55.5684">defines</text><text fill="#000000" font-family="sans-serif" font-size="13" lengthAdjust="spacing" textLength="8" x="62.1428" y="57.3979">1</text><text fill="#000000" font-family="sans-serif" font-size="13" lengthAdjust="spacing" textLength="22" x="119.3575" y="75.3649">0..*</text><!--MD5=[85b93ec21fe3232efb6e895d06aa0361]
link Task to Category--><path codeLine="28" d="M184.2,117.01 C175.73,132.28 166.38,148.87 157.5,164 C151.74,173.81 145.24,184.42 139.36,193.85 " fill="none" id="Task-Category" style="stroke:#A80036;stroke-width:1.0;"/><polygon fill="#000000" points="168.9799,159.9738,176.0771,153.6428,171.0004,150.6803,168.9799,159.9738" style="stroke:#000000;stroke-width:1.0;"/><text fill="#000000" font-family="sans-serif" font-size="13" lengthAdjust="spacing" textLength="89" x="180.5" y="160.5684">categorized in</text><text fill="#000000" font-family="sans-serif" font-size="13" lengthAdjust="spacing" textLength="6" x="174.0616" y="137.6161">*</text><text fill="#000000" font-family="sans-serif" font-size="13" lengthAdjust="spacing" textLength="8" x="134.3919" y="183.4304">1</text><!--MD5=[8018513eface7c4d750cebecf17204cd]
@startuml
'https://plantuml.com/class-diagram
skinparam classAttributeIconSize 0
hide circle
hide methods



class Person {
    - name
}

class Task {
    - reference
    - title
    - informalDescription
    - technicalDescription
    - effortEstimation
    - deadline
}

class Category {
    - code
    - description
}

Person "1" -right- - "0..*" Category:  maintains >
Person "1" -right- - "0..*" Task:  defines >
Task "*" - - "1" Category:  categorized in >


@enduml

@startuml
skinparam classAttributeIconSize 0
hide circle
hide methods



class Person {
    - name
}

class Task {
    - reference
    - title
    - informalDescription
    - technicalDescription
    - effortEstimation
    - deadline
}

class Category {
    - code
    - description
}

Person "1" -right- - "0..*" Category:  maintains >
Person "1" -right- - "0..*" Task:  defines >
Task "*" - - "1" Category:  categorized in >


@enduml

PlantUML version 1.2021.7(Sun May 23 13:40:07 WEST 2021)
(GPL source distribution)
Java Runtime: OpenJDK Runtime Environment
JVM: OpenJDK 64-Bit Server VM
Default Encoding: UTF-8
Language: en
Country: PT
--></g></svg>