@startuml
'https://plantuml.com/use-case-diagram

title Use Case Diagram - First Draft

left to right direction

actor :Time: as System
actor :Registered User / Person: as Person
actor :Unregistered User2: as NotAuthUser


(US?? - To create Category) as (CategoryCreate)
(US?? - To list Categories) as (CategoryList)
(US?? - To update Category) as (CategoryUpdate)
(US?? - To delete Category) as (CategoryDelete)

(US?? - To create Task) as (TaskCreate)
(US?? - To list Tasks) as (TaskList)
(US?? - To update Task) as (TaskUpdate)
(US?? - To delete Task) as (TaskDelete)

(US?? - To get a Report) as (GetReport)

(US?? - To alert for approaching tasks completion) as (TaskAlert)

(US?? - To consult system goals) as (SystemGoals)
(US?? - To consult system credits) as (SystemCredits)


NotAuthUser --> SystemGoals
NotAuthUser --> SystemCredits

Person --> CategoryCreate
Person --> CategoryList
Person --> CategoryUpdate
Person --> CategoryDelete
Person --> TaskCreate
Person --> TaskList
Person --> TaskUpdate
Person --> TaskDelete
Person --> GetReport

System --> TaskAlert
@enduml