<?xml version="1.0" encoding="UTF-8" standalone="no"?><svg xmlns="http://www.w3.org/2000/svg" xmlns:xlink="http://www.w3.org/1999/xlink" contentScriptType="application/ecmascript" contentStyleType="text/css" height="1008px" preserveAspectRatio="none" style="width:609px;height:1008px;background:#FFFFFF;" version="1.1" viewBox="0 0 609 1008" width="609px" zoomAndPan="magnify"><defs><filter height="300%" id="f1vc46x6wc1nue" width="300%" x="-1" y="-1"><feGaussianBlur result="blurOut" stdDeviation="2.0"/><feColorMatrix in="blurOut" result="blurOut2" type="matrix" values="0 0 0 0 0 0 0 0 0 0 0 0 0 0 0 0 0 0 .4 0"/><feOffset dx="4.0" dy="4.0" in="blurOut2" result="blurOut3"/><feBlend in="SourceGraphic" in2="blurOut3" mode="normal"/></filter></defs><g><text fill="#000000" font-family="sans-serif" font-size="18" lengthAdjust="spacing" textLength="267" x="164.843" y="17.4023">Use Case Diagram - First Draft</text><!--MD5=[abea0b42432aea0f9ce66e53feda8644]
entity System--><ellipse cx="91" cy="926.6992" fill="#FEFECE" filter="url(#f1vc46x6wc1nue)" rx="8" ry="8" style="stroke:#A80036;stroke-width:1.5;"/><path d="M91,934.6992 L91,961.6992 M78,942.6992 L104,942.6992 M91,961.6992 L78,976.6992 M91,961.6992 L104,976.6992 " fill="none" filter="url(#f1vc46x6wc1nue)" style="stroke:#A80036;stroke-width:1.5;"/><text fill="#000000" font-family="sans-serif" font-size="14" lengthAdjust="spacing" textLength="34" x="74" y="995.7344">Time</text><!--MD5=[aa9590aded7922f1f97871b066948052]
entity Person--><ellipse cx="91" cy="523.6992" fill="#FEFECE" filter="url(#f1vc46x6wc1nue)" rx="8" ry="8" style="stroke:#A80036;stroke-width:1.5;"/><path d="M91,531.6992 L91,558.6992 M78,539.6992 L104,539.6992 M91,558.6992 L78,573.6992 M91,558.6992 L104,573.6992 " fill="none" filter="url(#f1vc46x6wc1nue)" style="stroke:#A80036;stroke-width:1.5;"/><text fill="#000000" font-family="sans-serif" font-size="14" lengthAdjust="spacing" textLength="170" x="6" y="592.7344">Registered User / Person</text><!--MD5=[a58634d8713cc3fbf85876159aaa7682]
entity NotAuthUser--><ellipse cx="91" cy="67.6992" fill="#FEFECE" filter="url(#f1vc46x6wc1nue)" rx="8" ry="8" style="stroke:#A80036;stroke-width:1.5;"/><path d="M91,75.6992 L91,102.6992 M78,83.6992 L104,83.6992 M91,102.6992 L78,117.6992 M91,102.6992 L104,117.6992 " fill="none" filter="url(#f1vc46x6wc1nue)" style="stroke:#A80036;stroke-width:1.5;"/><text fill="#000000" font-family="sans-serif" font-size="14" lengthAdjust="spacing" textLength="124" x="29" y="136.7344">Unregistered User</text><ellipse cx="417.1409" cy="228.7274" fill="#FEFECE" filter="url(#f1vc46x6wc1nue)" rx="105.6409" ry="23.5282" style="stroke:#A80036;stroke-width:1.5;"/><text fill="#000000" font-family="sans-serif" font-size="14" lengthAdjust="spacing" textLength="176" x="329.1409" y="232.0184">US?? - To create Category</text><ellipse cx="417.0823" cy="309.8157" fill="#FEFECE" filter="url(#f1vc46x6wc1nue)" rx="101.0823" ry="22.6165" style="stroke:#A80036;stroke-width:1.5;"/><text fill="#000000" font-family="sans-serif" font-size="14" lengthAdjust="spacing" textLength="166" x="334.0823" y="313.1067">US?? - To list Categories</text><ellipse cx="416.8952" cy="391.7783" fill="#FEFECE" filter="url(#f1vc46x6wc1nue)" rx="108.3952" ry="24.079" style="stroke:#A80036;stroke-width:1.5;"/><text fill="#000000" font-family="sans-serif" font-size="14" lengthAdjust="spacing" textLength="182" x="325.8952" y="395.0693">US?? - To update Category</text><ellipse cx="417.1409" cy="474.7274" fill="#FEFECE" filter="url(#f1vc46x6wc1nue)" rx="105.6409" ry="23.5282" style="stroke:#A80036;stroke-width:1.5;"/><text fill="#000000" font-family="sans-serif" font-size="14" lengthAdjust="spacing" textLength="176" x="329.1409" y="478.0184">US?? - To delete Category</text><ellipse cx="417.1075" cy="554.5207" fill="#FEFECE" filter="url(#f1vc46x6wc1nue)" rx="92.1075" ry="20.8215" style="stroke:#A80036;stroke-width:1.5;"/><text fill="#000000" font-family="sans-serif" font-size="14" lengthAdjust="spacing" textLength="146" x="344.1075" y="557.8117">US?? - To create Task</text><ellipse cx="417.0312" cy="630.7055" fill="#FEFECE" filter="url(#f1vc46x6wc1nue)" rx="85.5312" ry="19.5062" style="stroke:#A80036;stroke-width:1.5;"/><text fill="#000000" font-family="sans-serif" font-size="14" lengthAdjust="spacing" textLength="131" x="351.5312" y="633.9965">US?? - To list Tasks</text><ellipse cx="416.7777" cy="706.5548" fill="#FEFECE" filter="url(#f1vc46x6wc1nue)" rx="94.7777" ry="21.3555" style="stroke:#A80036;stroke-width:1.5;"/><text fill="#000000" font-family="sans-serif" font-size="14" lengthAdjust="spacing" textLength="152" x="340.7777" y="709.8458">US?? - To update Task</text><ellipse cx="417.1075" cy="784.5207" fill="#FEFECE" filter="url(#f1vc46x6wc1nue)" rx="92.1075" ry="20.8215" style="stroke:#A80036;stroke-width:1.5;"/><text fill="#000000" font-family="sans-serif" font-size="14" lengthAdjust="spacing" textLength="146" x="344.1075" y="787.8117">US?? - To delete Task</text><ellipse cx="416.7777" cy="862.5548" fill="#FEFECE" filter="url(#f1vc46x6wc1nue)" rx="94.7777" ry="21.3555" style="stroke:#A80036;stroke-width:1.5;"/><text fill="#000000" font-family="sans-serif" font-size="14" lengthAdjust="spacing" textLength="152" x="340.7777" y="865.8458">US?? - To get a Report</text><ellipse cx="416.843" cy="957.7678" fill="#FEFECE" filter="url(#f1vc46x6wc1nue)" rx="180.843" ry="38.5686" style="stroke:#A80036;stroke-width:1.5;"/><text fill="#000000" font-family="sans-serif" font-size="14" lengthAdjust="spacing" textLength="334" x="249.843" y="961.0588">US?? - To alert for approaching tasks completion</text><ellipse cx="416.9067" cy="53.8806" fill="#FEFECE" filter="url(#f1vc46x6wc1nue)" rx="121.4067" ry="26.6813" style="stroke:#A80036;stroke-width:1.5;"/><text fill="#000000" font-family="sans-serif" font-size="14" lengthAdjust="spacing" textLength="210" x="311.9067" y="57.1716">US?? - To consult system goals</text><ellipse cx="417.1352" cy="142.7263" fill="#FEFECE" filter="url(#f1vc46x6wc1nue)" rx="125.6352" ry="27.527" style="stroke:#A80036;stroke-width:1.5;"/><text fill="#000000" font-family="sans-serif" font-size="14" lengthAdjust="spacing" textLength="219" x="307.6352" y="146.0173">US?? - To consult system credits</text><!--MD5=[302cce70b87bb89268ca49d0981d10ac]
link NotAuthUser to SystemGoals--><path d="M153.32,90.1792 C197.22,84.0892 257.46,75.7192 309.18,68.5392 " fill="none" id="NotAuthUser-to-SystemGoals" style="stroke:#A80036;stroke-width:1.0;"/><polygon fill="#A80036" points="314.16,67.8492,304.6968,65.1202,309.2072,68.5343,305.793,73.0447,314.16,67.8492" style="stroke:#A80036;stroke-width:1.0;"/><!--MD5=[850d32cb2de679455b7fa2f7be92f563]
link NotAuthUser to SystemCredits--><path d="M153.32,107.0292 C195.98,112.8192 254.07,120.7092 304.77,127.5892 " fill="none" id="NotAuthUser-to-SystemCredits" style="stroke:#A80036;stroke-width:1.0;"/><polygon fill="#A80036" points="309.97,128.2992,301.5883,123.1274,305.0152,127.6281,300.5146,131.055,309.97,128.2992" style="stroke:#A80036;stroke-width:1.0;"/><!--MD5=[80ae8bd2decfdc03eaceae912094d590]
link Person to CategoryCreate--><path d="M100.82,514.1492 C116.62,451.6192 155.85,332.3492 236,269.6992 C257.39,252.9792 284.34,242.8292 310.83,236.7392 " fill="none" id="Person-to-CategoryCreate" style="stroke:#A80036;stroke-width:1.0;"/><polygon fill="#A80036" points="315.77,235.6492,306.1221,233.6699,310.8861,236.7203,307.8357,241.4842,315.77,235.6492" style="stroke:#A80036;stroke-width:1.0;"/><!--MD5=[4910a1fd8213e36d98254e75cd714fa0]
link Person to CategoryList--><path d="M109.5,514.1592 C131.87,467.3092 175.12,391.4592 236,350.6992 C259.94,334.6692 289.27,324.8392 317.24,318.8292 " fill="none" id="Person-to-CategoryList" style="stroke:#A80036;stroke-width:1.0;"/><polygon fill="#A80036" points="322.45,317.7592,312.8248,315.6721,317.5544,318.7756,314.451,323.5051,322.45,317.7592" style="stroke:#A80036;stroke-width:1.0;"/><!--MD5=[d9c92f6fcfe4b1565d9e75316abc7952]
link Person to CategoryUpdate--><path d="M129.89,514.1292 C157.01,487.4492 195.7,453.8692 236,433.6992 C261.8,420.7892 291.68,411.7692 319.59,405.4892 " fill="none" id="Person-to-CategoryUpdate" style="stroke:#A80036;stroke-width:1.0;"/><polygon fill="#A80036" points="324.78,404.3492,315.1309,402.3759,319.8967,405.4233,316.8493,410.1891,324.78,404.3492" style="stroke:#A80036;stroke-width:1.0;"/><!--MD5=[bee2a82c2cf9f2858dce3c91668fbfd0]
link Person to CategoryDelete--><path d="M176.04,532.0892 C195.68,526.9192 216.55,521.5292 236,516.6992 C269.11,508.4692 305.76,499.8292 337.3,492.5492 " fill="none" id="Person-to-CategoryDelete" style="stroke:#A80036;stroke-width:1.0;"/><polygon fill="#A80036" points="342.32,491.3892,332.6547,489.4967,337.4459,492.5041,334.4385,497.2953,342.32,491.3892" style="stroke:#A80036;stroke-width:1.0;"/><!--MD5=[ff71a927db757ec5b3ae594f6aea4cf6]
link Person to TaskCreate--><path d="M176.28,554.6992 C220.15,554.6992 273.99,554.6992 319.52,554.6992 " fill="none" id="Person-to-TaskCreate" style="stroke:#A80036;stroke-width:1.0;"/><polygon fill="#A80036" points="324.75,554.6992,315.75,550.6992,319.75,554.6992,315.75,558.6992,324.75,554.6992" style="stroke:#A80036;stroke-width:1.0;"/><!--MD5=[ae5ea1c445338497bf54fa4bc1c36b9e]
link Person to TaskList--><path d="M176.3,578.4692 C195.84,583.7192 216.6,589.0792 236,593.6992 C271.94,602.2492 312.2,610.6392 345.51,617.2592 " fill="none" id="Person-to-TaskList" style="stroke:#A80036;stroke-width:1.0;"/><polygon fill="#A80036" points="350.8,618.3092,342.7497,612.6354,345.8955,617.3369,341.194,620.4827,350.8,618.3092" style="stroke:#A80036;stroke-width:1.0;"/><!--MD5=[388121b5b42bc3893abe4af860d0f2c2]
link Person to TaskUpdate--><path d="M133.29,595.4392 C160.38,619.9192 197.75,649.7192 236,667.6992 C264.31,681.0092 297.28,689.8392 327.2,695.6692 " fill="none" id="Person-to-TaskUpdate" style="stroke:#A80036;stroke-width:1.0;"/><polygon fill="#A80036" points="332.36,696.6592,324.2749,691.0351,327.4496,695.7171,322.7675,698.8918,332.36,696.6592" style="stroke:#A80036;stroke-width:1.0;"/><!--MD5=[8c089375d6ce8e65f22727ef781223c3]
link Person to TaskDelete--><path d="M111.56,595.5492 C134.88,639.6892 178.1,708.6692 236,745.6992 C261.97,762.3092 293.91,771.9392 323.65,777.4992 " fill="none" id="Person-to-TaskDelete" style="stroke:#A80036;stroke-width:1.0;"/><polygon fill="#A80036" points="328.78,778.4192,320.6294,772.8904,323.8588,777.5348,319.2144,780.7643,328.78,778.4192" style="stroke:#A80036;stroke-width:1.0;"/><!--MD5=[9a3f696a1c16e05fe92e67128cf0c101]
link Person to GetReport--><path d="M102.13,595.5692 C119.17,655.3892 159.46,765.9592 236,823.6992 C259.77,841.6292 290.06,851.6792 318.98,857.1992 " fill="none" id="Person-to-GetReport" style="stroke:#A80036;stroke-width:1.0;"/><polygon fill="#A80036" points="323.99,858.1192,315.8422,852.5863,319.0693,857.2323,314.4232,860.4594,323.99,858.1192" style="stroke:#A80036;stroke-width:1.0;"/><!--MD5=[f9fbaeb996faa275f09e4d741dd94b1a]
link System to TaskAlert--><path d="M108.07,957.6992 C132.02,957.6992 179.74,957.6992 230.61,957.6992 " fill="none" id="System-to-TaskAlert" style="stroke:#A80036;stroke-width:1.0;"/><polygon fill="#A80036" points="235.86,957.6992,226.86,953.6992,230.86,957.6992,226.86,961.6992,235.86,957.6992" style="stroke:#A80036;stroke-width:1.0;"/><!--MD5=[b59efe89a51b6ea0b5864476b779ab0a]
@startuml
'https://plantuml.com/use-case-diagram

'https://plantuml.com/use-case-diagram

title Use Case Diagram - First Draft

left to right direction

actor :Time: as System
actor :Registered User / Person: as Person
actor :Unregistered User: as NotAuthUser


(US?? - To create Category) as (CategoryCreate)
(US?? - To list Categories) as (CategoryList)
(US?? - To update Category) as (CategoryUpdate)
(US?? - To delete Category) as (CategoryDelete)

(US?? - To create Task) as (TaskCreate)
(US?? - To list Tasks) as (TaskList)
(US?? - To update Task) as (TaskUpdate)
(US?? - To delete Task) as (TaskDelete)

(US?? - To get a Report) as (GetReport)

(US?? - To alert for approaching tasks completion) as (TaskAlert)

(US?? - To consult system goals) as (SystemGoals)
(US?? - To consult system credits) as (SystemCredits)


NotAuthUser - -> SystemGoals
NotAuthUser - -> SystemCredits

Person - -> CategoryCreate
Person - -> CategoryList
Person - -> CategoryUpdate
Person - -> CategoryDelete
Person - -> TaskCreate
Person - -> TaskList
Person - -> TaskUpdate
Person - -> TaskDelete
Person - -> GetReport

System - -> TaskAlert
@enduml

@startuml


title Use Case Diagram - First Draft

left to right direction

actor :Time: as System
actor :Registered User / Person: as Person
actor :Unregistered User: as NotAuthUser


(US?? - To create Category) as (CategoryCreate)
(US?? - To list Categories) as (CategoryList)
(US?? - To update Category) as (CategoryUpdate)
(US?? - To delete Category) as (CategoryDelete)

(US?? - To create Task) as (TaskCreate)
(US?? - To list Tasks) as (TaskList)
(US?? - To update Task) as (TaskUpdate)
(US?? - To delete Task) as (TaskDelete)

(US?? - To get a Report) as (GetReport)

(US?? - To alert for approaching tasks completion) as (TaskAlert)

(US?? - To consult system goals) as (SystemGoals)
(US?? - To consult system credits) as (SystemCredits)


NotAuthUser - -> SystemGoals
NotAuthUser - -> SystemCredits

Person - -> CategoryCreate
Person - -> CategoryList
Person - -> CategoryUpdate
Person - -> CategoryDelete
Person - -> TaskCreate
Person - -> TaskList
Person - -> TaskUpdate
Person - -> TaskDelete
Person - -> GetReport

System - -> TaskAlert
@enduml

PlantUML version 1.2021.7(Sun May 23 13:40:07 WEST 2021)
(GPL source distribution)
Java Runtime: OpenJDK Runtime Environment
JVM: OpenJDK 64-Bit Server VM
Default Encoding: UTF-8
Language: en
Country: PT
--></g></svg>