@startuml
'https://plantuml.com/sequence-diagram
autoactivate on
autonumber

participant ":HTTPClient" as HTTPClient
participant ":HTTPServer" as HTTPServer
participant "req:HTTPRequest" as HTTPRequest
participant "resp:HTTPResponse" as HTTPResponse
participant "handler:RouteHandler" as System
participant ":CategoryController" as Ctrl
participant ":Person" as Person
participant "service:CategoryService" as Service
participant "factory:RepositoryFactory" as Factory
participant "repo:CategoryRepository" as Repo
participant "cat:Category" as Category
participant "result:HttpResult" as Result

activate HTTPClient

HTTPClient -> HTTPServer: POST(..., {...})
HTTPServer -> HTTPRequest**: create(..., {...})
HTTPServer -> HTTPResponse**: create(404)
HTTPServer -> HTTPServer: findHandler(req)
HTTPServer --> HTTPServer: handler
HTTPServer -> System: run(req,resp)

System -> Ctrl**: create(...)
System -> Ctrl: postCategory(code, description)
Ctrl -> Person: getCategoriesService()
Person -> Factory : getCategoriesRepository()
Factory --> Person: repo
Person -->Service**: create(repo)
Person --> Ctrl: service
Ctrl -> Service: create(code, description)
Service --> Category**: create(code, description)
Service --> Ctrl: cat
Ctrl -> Service: addOrUpdate(cat)
Service -> Service : validate(cat)
Service --> Service : ok
Service -> Repo: save(cat)
Repo --> Service : ok
Service --> Ctrl: ok
Ctrl --> Result**: create(201)
Ctrl --> System: result
System -> System: setHttpResult(resp, result)
System --> System:
System --> HTTPServer: resp
HTTPServer --> HTTPClient: resp
@enduml