<?xml version="1.0" encoding="UTF-8" standalone="no"?><svg xmlns="http://www.w3.org/2000/svg" xmlns:xlink="http://www.w3.org/1999/xlink" contentScriptType="application/ecmascript" contentStyleType="text/css" height="1099px" preserveAspectRatio="none" style="width:2093px;height:1099px;background:#FFFFFF;" version="1.1" viewBox="0 0 2093 1099" width="2093px" zoomAndPan="magnify"><defs><filter height="300%" id="fiionhr2fou7e" width="300%" x="-1" y="-1"><feGaussianBlur result="blurOut" stdDeviation="2.0"/><feColorMatrix in="blurOut" result="blurOut2" type="matrix" values="0 0 0 0 0 0 0 0 0 0 0 0 0 0 0 0 0 0 .4 0"/><feOffset dx="4.0" dy="4.0" in="blurOut2" result="blurOut3"/><feBlend in="SourceGraphic" in2="blurOut3" mode="normal"/></filter></defs><g><rect fill="#FFFFFF" filter="url(#fiionhr2fou7e)" height="996.7617" style="stroke:#A80036;stroke-width:1.0;" width="10" x="49" y="50.4883"/><rect fill="#FFFFFF" filter="url(#fiionhr2fou7e)" height="966.4512" style="stroke:#A80036;stroke-width:1.0;" width="10" x="171" y="71.7988"/><rect fill="#FFFFFF" filter="url(#fiionhr2fou7e)" height="40.3105" style="stroke:#A80036;stroke-width:1.0;" width="10" x="176" y="200.0859"/><rect fill="#FFFFFF" filter="url(#fiionhr2fou7e)" height="732.2324" style="stroke:#A80036;stroke-width:1.0;" width="10" x="693.5" y="276.707"/><rect fill="#FFFFFF" filter="url(#fiionhr2fou7e)" height="40.3105" style="stroke:#A80036;stroke-width:1.0;" width="10" x="698.5" y="932.3184"/><rect fill="#FFFFFF" filter="url(#fiionhr2fou7e)" height="543.502" style="stroke:#A80036;stroke-width:1.0;" width="10" x="936.5" y="351.5059"/><rect fill="#FFFFFF" filter="url(#fiionhr2fou7e)" height="133.4199" style="stroke:#A80036;stroke-width:1.0;" width="10" x="1117.5" y="380.8164"/><rect fill="#FFFFFF" filter="url(#fiionhr2fou7e)" height="74.7988" style="stroke:#A80036;stroke-width:1.0;" width="10" x="1332" y="543.5469"/><rect fill="#FFFFFF" filter="url(#fiionhr2fou7e)" height="172.5527" style="stroke:#A80036;stroke-width:1.0;" width="10" x="1332" y="647.6563"/><rect fill="#FFFFFF" filter="url(#fiionhr2fou7e)" height="40.3105" style="stroke:#A80036;stroke-width:1.0;" width="10" x="1337" y="684.9668"/><rect fill="#FFFFFF" filter="url(#fiionhr2fou7e)" height="29.3105" style="stroke:#A80036;stroke-width:1.0;" width="10" x="1527.5" y="410.127"/><rect fill="#FFFFFF" filter="url(#fiionhr2fou7e)" height="29.3105" style="stroke:#A80036;stroke-width:1.0;" width="10" x="1728" y="761.5879"/><line style="stroke:#A80036;stroke-width:1.0;stroke-dasharray:5.0,5.0;" x1="54" x2="54" y1="40.4883" y2="1056.25"/><line style="stroke:#A80036;stroke-width:1.0;stroke-dasharray:5.0,5.0;" x1="175.5" x2="175.5" y1="40.4883" y2="1056.25"/><line style="stroke:#A80036;stroke-width:1.0;stroke-dasharray:5.0,5.0;" x1="372" x2="372" y1="112.543" y2="1056.25"/><line style="stroke:#A80036;stroke-width:1.0;stroke-dasharray:5.0,5.0;" x1="527" x2="527" y1="158.0313" y2="1056.25"/><line style="stroke:#A80036;stroke-width:1.0;stroke-dasharray:5.0,5.0;" x1="698" x2="698" y1="40.4883" y2="1056.25"/><line style="stroke:#A80036;stroke-width:1.0;stroke-dasharray:5.0,5.0;" x1="941.5" x2="941.5" y1="317.4512" y2="1056.25"/><line style="stroke:#A80036;stroke-width:1.0;stroke-dasharray:5.0,5.0;" x1="1122" x2="1122" y1="40.4883" y2="1056.25"/><line style="stroke:#A80036;stroke-width:1.0;stroke-dasharray:5.0,5.0;" x1="1336.5" x2="1336.5" y1="480.1816" y2="1056.25"/><line style="stroke:#A80036;stroke-width:1.0;stroke-dasharray:5.0,5.0;" x1="1532.5" x2="1532.5" y1="40.4883" y2="1056.25"/><line style="stroke:#A80036;stroke-width:1.0;stroke-dasharray:5.0,5.0;" x1="1732.5" x2="1732.5" y1="40.4883" y2="1056.25"/><line style="stroke:#A80036;stroke-width:1.0;stroke-dasharray:5.0,5.0;" x1="1889.5" x2="1889.5" y1="584.291" y2="1056.25"/><line style="stroke:#A80036;stroke-width:1.0;stroke-dasharray:5.0,5.0;" x1="2017.5" x2="2017.5" y1="860.9531" y2="1056.25"/><rect fill="#FEFECE" filter="url(#fiionhr2fou7e)" height="30.4883" style="stroke:#A80036;stroke-width:1.5;" width="94" x="5" y="5"/><text fill="#000000" font-family="sans-serif" font-size="14" lengthAdjust="spacing" textLength="80" x="12" y="25.5352">:HTTPClient</text><rect fill="#FEFECE" filter="url(#fiionhr2fou7e)" height="30.4883" style="stroke:#A80036;stroke-width:1.5;" width="94" x="5" y="1055.25"/><text fill="#000000" font-family="sans-serif" font-size="14" lengthAdjust="spacing" textLength="80" x="12" y="1075.7852">:HTTPClient</text><rect fill="#FEFECE" filter="url(#fiionhr2fou7e)" height="30.4883" style="stroke:#A80036;stroke-width:1.5;" width="97" x="125.5" y="5"/><text fill="#000000" font-family="sans-serif" font-size="14" lengthAdjust="spacing" textLength="83" x="132.5" y="25.5352">:HTTPServer</text><rect fill="#FEFECE" filter="url(#fiionhr2fou7e)" height="30.4883" style="stroke:#A80036;stroke-width:1.5;" width="97" x="125.5" y="1055.25"/><text fill="#000000" font-family="sans-serif" font-size="14" lengthAdjust="spacing" textLength="83" x="132.5" y="1075.7852">:HTTPServer</text><rect fill="#FEFECE" filter="url(#fiionhr2fou7e)" height="30.4883" style="stroke:#A80036;stroke-width:1.5;" width="132" x="304" y="1055.25"/><text fill="#000000" font-family="sans-serif" font-size="14" lengthAdjust="spacing" textLength="118" x="311" y="1075.7852">req:HTTPRequest</text><rect fill="#FEFECE" filter="url(#fiionhr2fou7e)" height="30.4883" style="stroke:#A80036;stroke-width:1.5;" width="150" x="450" y="1055.25"/><text fill="#000000" font-family="sans-serif" font-size="14" lengthAdjust="spacing" textLength="136" x="457" y="1075.7852">resp:HTTPResponse</text><rect fill="#FEFECE" filter="url(#fiionhr2fou7e)" height="30.4883" style="stroke:#A80036;stroke-width:1.5;" width="165" x="614" y="5"/><text fill="#000000" font-family="sans-serif" font-size="14" lengthAdjust="spacing" textLength="151" x="621" y="25.5352">handler:RouteHandler</text><rect fill="#FEFECE" filter="url(#fiionhr2fou7e)" height="30.4883" style="stroke:#A80036;stroke-width:1.5;" width="165" x="614" y="1055.25"/><text fill="#000000" font-family="sans-serif" font-size="14" lengthAdjust="spacing" textLength="151" x="621" y="1075.7852">handler:RouteHandler</text><rect fill="#FEFECE" filter="url(#fiionhr2fou7e)" height="30.4883" style="stroke:#A80036;stroke-width:1.5;" width="150" x="864.5" y="1055.25"/><text fill="#000000" font-family="sans-serif" font-size="14" lengthAdjust="spacing" textLength="136" x="871.5" y="1075.7852">:CategoryController</text><rect fill="#FEFECE" filter="url(#fiionhr2fou7e)" height="30.4883" style="stroke:#A80036;stroke-width:1.5;" width="65" x="1088" y="5"/><text fill="#000000" font-family="sans-serif" font-size="14" lengthAdjust="spacing" textLength="51" x="1095" y="25.5352">:Person</text><rect fill="#FEFECE" filter="url(#fiionhr2fou7e)" height="30.4883" style="stroke:#A80036;stroke-width:1.5;" width="65" x="1088" y="1055.25"/><text fill="#000000" font-family="sans-serif" font-size="14" lengthAdjust="spacing" textLength="51" x="1095" y="1075.7852">:Person</text><rect fill="#FEFECE" filter="url(#fiionhr2fou7e)" height="30.4883" style="stroke:#A80036;stroke-width:1.5;" width="175" x="1247.5" y="1055.25"/><text fill="#000000" font-family="sans-serif" font-size="14" lengthAdjust="spacing" textLength="161" x="1254.5" y="1075.7852">service:CategoryService</text><rect fill="#FEFECE" filter="url(#fiionhr2fou7e)" height="30.4883" style="stroke:#A80036;stroke-width:1.5;" width="188" x="1436.5" y="5"/><text fill="#000000" font-family="sans-serif" font-size="14" lengthAdjust="spacing" textLength="174" x="1443.5" y="25.5352">factory:RepositoryFactory</text><rect fill="#FEFECE" filter="url(#fiionhr2fou7e)" height="30.4883" style="stroke:#A80036;stroke-width:1.5;" width="188" x="1436.5" y="1055.25"/><text fill="#000000" font-family="sans-serif" font-size="14" lengthAdjust="spacing" textLength="174" x="1443.5" y="1075.7852">factory:RepositoryFactory</text><rect fill="#FEFECE" filter="url(#fiionhr2fou7e)" height="30.4883" style="stroke:#A80036;stroke-width:1.5;" width="185" x="1638.5" y="5"/><text fill="#000000" font-family="sans-serif" font-size="14" lengthAdjust="spacing" textLength="171" x="1645.5" y="25.5352">repo:CategoryRepository</text><rect fill="#FEFECE" filter="url(#fiionhr2fou7e)" height="30.4883" style="stroke:#A80036;stroke-width:1.5;" width="185" x="1638.5" y="1055.25"/><text fill="#000000" font-family="sans-serif" font-size="14" lengthAdjust="spacing" textLength="171" x="1645.5" y="1075.7852">repo:CategoryRepository</text><rect fill="#FEFECE" filter="url(#fiionhr2fou7e)" height="30.4883" style="stroke:#A80036;stroke-width:1.5;" width="100" x="1837.5" y="1055.25"/><text fill="#000000" font-family="sans-serif" font-size="14" lengthAdjust="spacing" textLength="86" x="1844.5" y="1075.7852">cat:Category</text><rect fill="#FEFECE" filter="url(#fiionhr2fou7e)" height="30.4883" style="stroke:#A80036;stroke-width:1.5;" width="128" x="1951.5" y="1055.25"/><text fill="#000000" font-family="sans-serif" font-size="14" lengthAdjust="spacing" textLength="114" x="1958.5" y="1075.7852">result:HttpResult</text><rect fill="#FFFFFF" filter="url(#fiionhr2fou7e)" height="996.7617" style="stroke:#A80036;stroke-width:1.0;" width="10" x="49" y="50.4883"/><rect fill="#FFFFFF" filter="url(#fiionhr2fou7e)" height="966.4512" style="stroke:#A80036;stroke-width:1.0;" width="10" x="171" y="71.7988"/><rect fill="#FFFFFF" filter="url(#fiionhr2fou7e)" height="40.3105" style="stroke:#A80036;stroke-width:1.0;" width="10" x="176" y="200.0859"/><rect fill="#FFFFFF" filter="url(#fiionhr2fou7e)" height="732.2324" style="stroke:#A80036;stroke-width:1.0;" width="10" x="693.5" y="276.707"/><rect fill="#FFFFFF" filter="url(#fiionhr2fou7e)" height="40.3105" style="stroke:#A80036;stroke-width:1.0;" width="10" x="698.5" y="932.3184"/><rect fill="#FFFFFF" filter="url(#fiionhr2fou7e)" height="543.502" style="stroke:#A80036;stroke-width:1.0;" width="10" x="936.5" y="351.5059"/><rect fill="#FFFFFF" filter="url(#fiionhr2fou7e)" height="133.4199" style="stroke:#A80036;stroke-width:1.0;" width="10" x="1117.5" y="380.8164"/><rect fill="#FFFFFF" filter="url(#fiionhr2fou7e)" height="74.7988" style="stroke:#A80036;stroke-width:1.0;" width="10" x="1332" y="543.5469"/><rect fill="#FFFFFF" filter="url(#fiionhr2fou7e)" height="172.5527" style="stroke:#A80036;stroke-width:1.0;" width="10" x="1332" y="647.6563"/><rect fill="#FFFFFF" filter="url(#fiionhr2fou7e)" height="40.3105" style="stroke:#A80036;stroke-width:1.0;" width="10" x="1337" y="684.9668"/><rect fill="#FFFFFF" filter="url(#fiionhr2fou7e)" height="29.3105" style="stroke:#A80036;stroke-width:1.0;" width="10" x="1527.5" y="410.127"/><rect fill="#FFFFFF" filter="url(#fiionhr2fou7e)" height="29.3105" style="stroke:#A80036;stroke-width:1.0;" width="10" x="1728" y="761.5879"/><polygon fill="#A80036" points="159,67.7988,169,71.7988,159,75.7988,163,71.7988" style="stroke:#A80036;stroke-width:1.0;"/><line style="stroke:#A80036;stroke-width:1.0;" x1="59" x2="165" y1="71.7988" y2="71.7988"/><text fill="#000000" font-family="sans-serif" font-size="13" font-weight="bold" lengthAdjust="spacing" textLength="9" x="66" y="67.0566">1</text><text fill="#000000" font-family="sans-serif" font-size="13" lengthAdjust="spacing" textLength="80" x="79" y="67.0566">POST(..., {...})</text><polygon fill="#A80036" points="292,97.1094,302,101.1094,292,105.1094,296,101.1094" style="stroke:#A80036;stroke-width:1.0;"/><line style="stroke:#A80036;stroke-width:1.0;" x1="181" x2="298" y1="101.1094" y2="101.1094"/><text fill="#000000" font-family="sans-serif" font-size="13" font-weight="bold" lengthAdjust="spacing" textLength="9" x="188" y="96.3672">2</text><text fill="#000000" font-family="sans-serif" font-size="13" lengthAdjust="spacing" textLength="86" x="201" y="96.3672">create(..., {...})</text><rect fill="#FEFECE" filter="url(#fiionhr2fou7e)" height="30.4883" style="stroke:#A80036;stroke-width:1.5;" width="132" x="304" y="79.7988"/><text fill="#000000" font-family="sans-serif" font-size="14" lengthAdjust="spacing" textLength="118" x="311" y="100.334">req:HTTPRequest</text><polygon fill="#A80036" points="438,142.5977,448,146.5977,438,150.5977,442,146.5977" style="stroke:#A80036;stroke-width:1.0;"/><line style="stroke:#A80036;stroke-width:1.0;" x1="181" x2="444" y1="146.5977" y2="146.5977"/><text fill="#000000" font-family="sans-serif" font-size="13" font-weight="bold" lengthAdjust="spacing" textLength="9" x="188" y="141.8555">3</text><text fill="#000000" font-family="sans-serif" font-size="13" lengthAdjust="spacing" textLength="70" x="201" y="141.8555">create(404)</text><rect fill="#FEFECE" filter="url(#fiionhr2fou7e)" height="30.4883" style="stroke:#A80036;stroke-width:1.5;" width="150" x="450" y="125.2871"/><text fill="#000000" font-family="sans-serif" font-size="14" lengthAdjust="spacing" textLength="136" x="457" y="145.8223">resp:HTTPResponse</text><line style="stroke:#A80036;stroke-width:1.0;" x1="181" x2="228" y1="187.0859" y2="187.0859"/><line style="stroke:#A80036;stroke-width:1.0;" x1="228" x2="228" y1="187.0859" y2="200.0859"/><line style="stroke:#A80036;stroke-width:1.0;" x1="187" x2="228" y1="200.0859" y2="200.0859"/><polygon fill="#A80036" points="197,196.0859,187,200.0859,197,204.0859,193,200.0859" style="stroke:#A80036;stroke-width:1.0;"/><text fill="#000000" font-family="sans-serif" font-size="13" font-weight="bold" lengthAdjust="spacing" textLength="9" x="193" y="182.3438">4</text><text fill="#000000" font-family="sans-serif" font-size="13" lengthAdjust="spacing" textLength="102" x="206" y="182.3438">findHandler(req)</text><line style="stroke:#A80036;stroke-width:1.0;stroke-dasharray:2.0,2.0;" x1="186" x2="228" y1="239.3965" y2="239.3965"/><line style="stroke:#A80036;stroke-width:1.0;stroke-dasharray:2.0,2.0;" x1="228" x2="228" y1="239.3965" y2="252.3965"/><line style="stroke:#A80036;stroke-width:1.0;stroke-dasharray:2.0,2.0;" x1="181" x2="228" y1="252.3965" y2="252.3965"/><polygon fill="#A80036" points="191,248.3965,181,252.3965,191,256.3965,187,252.3965" style="stroke:#A80036;stroke-width:1.0;"/><text fill="#000000" font-family="sans-serif" font-size="13" font-weight="bold" lengthAdjust="spacing" textLength="9" x="193" y="234.6543">5</text><text fill="#000000" font-family="sans-serif" font-size="13" lengthAdjust="spacing" textLength="47" x="206" y="234.6543">handler</text><polygon fill="#A80036" points="681.5,272.707,691.5,276.707,681.5,280.707,685.5,276.707" style="stroke:#A80036;stroke-width:1.0;"/><line style="stroke:#A80036;stroke-width:1.0;" x1="181" x2="687.5" y1="276.707" y2="276.707"/><text fill="#000000" font-family="sans-serif" font-size="13" font-weight="bold" lengthAdjust="spacing" textLength="9" x="188" y="271.9648">6</text><text fill="#000000" font-family="sans-serif" font-size="13" lengthAdjust="spacing" textLength="80" x="201" y="271.9648">run(req,resp)</text><polygon fill="#A80036" points="852.5,302.0176,862.5,306.0176,852.5,310.0176,856.5,306.0176" style="stroke:#A80036;stroke-width:1.0;"/><line style="stroke:#A80036;stroke-width:1.0;" x1="703.5" x2="858.5" y1="306.0176" y2="306.0176"/><text fill="#000000" font-family="sans-serif" font-size="13" font-weight="bold" lengthAdjust="spacing" textLength="9" x="710.5" y="301.2754">7</text><text fill="#000000" font-family="sans-serif" font-size="13" lengthAdjust="spacing" textLength="58" x="723.5" y="301.2754">create(...)</text><rect fill="#FEFECE" filter="url(#fiionhr2fou7e)" height="30.4883" style="stroke:#A80036;stroke-width:1.5;" width="150" x="864.5" y="284.707"/><text fill="#000000" font-family="sans-serif" font-size="14" lengthAdjust="spacing" textLength="136" x="871.5" y="305.2422">:CategoryController</text><polygon fill="#A80036" points="924.5,347.5059,934.5,351.5059,924.5,355.5059,928.5,351.5059" style="stroke:#A80036;stroke-width:1.0;"/><line style="stroke:#A80036;stroke-width:1.0;" x1="703.5" x2="930.5" y1="351.5059" y2="351.5059"/><text fill="#000000" font-family="sans-serif" font-size="13" font-weight="bold" lengthAdjust="spacing" textLength="9" x="710.5" y="346.7637">8</text><text fill="#000000" font-family="sans-serif" font-size="13" lengthAdjust="spacing" textLength="201" x="723.5" y="346.7637">postCategory(code, description)</text><polygon fill="#A80036" points="1105.5,376.8164,1115.5,380.8164,1105.5,384.8164,1109.5,380.8164" style="stroke:#A80036;stroke-width:1.0;"/><line style="stroke:#A80036;stroke-width:1.0;" x1="946.5" x2="1111.5" y1="380.8164" y2="380.8164"/><text fill="#000000" font-family="sans-serif" font-size="13" font-weight="bold" lengthAdjust="spacing" textLength="9" x="953.5" y="376.0742">9</text><text fill="#000000" font-family="sans-serif" font-size="13" lengthAdjust="spacing" textLength="139" x="966.5" y="376.0742">getCategoriesService()</text><polygon fill="#A80036" points="1515.5,406.127,1525.5,410.127,1515.5,414.127,1519.5,410.127" style="stroke:#A80036;stroke-width:1.0;"/><line style="stroke:#A80036;stroke-width:1.0;" x1="1127.5" x2="1521.5" y1="410.127" y2="410.127"/><text fill="#000000" font-family="sans-serif" font-size="13" font-weight="bold" lengthAdjust="spacing" textLength="18" x="1134.5" y="405.3848">10</text><text fill="#000000" font-family="sans-serif" font-size="13" lengthAdjust="spacing" textLength="162" x="1156.5" y="405.3848">getCategoriesRepository()</text><polygon fill="#A80036" points="1138.5,435.4375,1128.5,439.4375,1138.5,443.4375,1134.5,439.4375" style="stroke:#A80036;stroke-width:1.0;"/><line style="stroke:#A80036;stroke-width:1.0;stroke-dasharray:2.0,2.0;" x1="1132.5" x2="1531.5" y1="439.4375" y2="439.4375"/><text fill="#000000" font-family="sans-serif" font-size="13" font-weight="bold" lengthAdjust="spacing" textLength="18" x="1144.5" y="434.6953">11</text><text fill="#000000" font-family="sans-serif" font-size="13" lengthAdjust="spacing" textLength="28" x="1166.5" y="434.6953">repo</text><polygon fill="#A80036" points="1235.5,464.748,1245.5,468.748,1235.5,472.748,1239.5,468.748" style="stroke:#A80036;stroke-width:1.0;"/><line style="stroke:#A80036;stroke-width:1.0;stroke-dasharray:2.0,2.0;" x1="1127.5" x2="1241.5" y1="468.748" y2="468.748"/><text fill="#000000" font-family="sans-serif" font-size="13" font-weight="bold" lengthAdjust="spacing" textLength="18" x="1134.5" y="464.0059">12</text><text fill="#000000" font-family="sans-serif" font-size="13" lengthAdjust="spacing" textLength="74" x="1156.5" y="464.0059">create(repo)</text><rect fill="#FEFECE" filter="url(#fiionhr2fou7e)" height="30.4883" style="stroke:#A80036;stroke-width:1.5;" width="175" x="1247.5" y="447.4375"/><text fill="#000000" font-family="sans-serif" font-size="14" lengthAdjust="spacing" textLength="161" x="1254.5" y="467.9727">service:CategoryService</text><polygon fill="#A80036" points="957.5,510.2363,947.5,514.2363,957.5,518.2363,953.5,514.2363" style="stroke:#A80036;stroke-width:1.0;"/><line style="stroke:#A80036;stroke-width:1.0;stroke-dasharray:2.0,2.0;" x1="951.5" x2="1121.5" y1="514.2363" y2="514.2363"/><text fill="#000000" font-family="sans-serif" font-size="13" font-weight="bold" lengthAdjust="spacing" textLength="18" x="963.5" y="509.4941">13</text><text fill="#000000" font-family="sans-serif" font-size="13" lengthAdjust="spacing" textLength="44" x="985.5" y="509.4941">service</text><polygon fill="#A80036" points="1320,539.5469,1330,543.5469,1320,547.5469,1324,543.5469" style="stroke:#A80036;stroke-width:1.0;"/><line style="stroke:#A80036;stroke-width:1.0;" x1="946.5" x2="1326" y1="543.5469" y2="543.5469"/><text fill="#000000" font-family="sans-serif" font-size="13" font-weight="bold" lengthAdjust="spacing" textLength="18" x="953.5" y="538.8047">14</text><text fill="#000000" font-family="sans-serif" font-size="13" lengthAdjust="spacing" textLength="155" x="975.5" y="538.8047">create(code, description)</text><polygon fill="#A80036" points="1825.5,568.8574,1835.5,572.8574,1825.5,576.8574,1829.5,572.8574" style="stroke:#A80036;stroke-width:1.0;"/><line style="stroke:#A80036;stroke-width:1.0;stroke-dasharray:2.0,2.0;" x1="1342" x2="1831.5" y1="572.8574" y2="572.8574"/><text fill="#000000" font-family="sans-serif" font-size="13" font-weight="bold" lengthAdjust="spacing" textLength="18" x="1349" y="568.1152">15</text><text fill="#000000" font-family="sans-serif" font-size="13" lengthAdjust="spacing" textLength="155" x="1371" y="568.1152">create(code, description)</text><rect fill="#FEFECE" filter="url(#fiionhr2fou7e)" height="30.4883" style="stroke:#A80036;stroke-width:1.5;" width="100" x="1837.5" y="551.5469"/><text fill="#000000" font-family="sans-serif" font-size="14" lengthAdjust="spacing" textLength="86" x="1844.5" y="572.082">cat:Category</text><polygon fill="#A80036" points="957.5,614.3457,947.5,618.3457,957.5,622.3457,953.5,618.3457" style="stroke:#A80036;stroke-width:1.0;"/><line style="stroke:#A80036;stroke-width:1.0;stroke-dasharray:2.0,2.0;" x1="951.5" x2="1336" y1="618.3457" y2="618.3457"/><text fill="#000000" font-family="sans-serif" font-size="13" font-weight="bold" lengthAdjust="spacing" textLength="18" x="963.5" y="613.6035">16</text><text fill="#000000" font-family="sans-serif" font-size="13" lengthAdjust="spacing" textLength="19" x="985.5" y="613.6035">cat</text><polygon fill="#A80036" points="1320,643.6563,1330,647.6563,1320,651.6563,1324,647.6563" style="stroke:#A80036;stroke-width:1.0;"/><line style="stroke:#A80036;stroke-width:1.0;" x1="946.5" x2="1326" y1="647.6563" y2="647.6563"/><text fill="#000000" font-family="sans-serif" font-size="13" font-weight="bold" lengthAdjust="spacing" textLength="18" x="953.5" y="642.9141">17</text><text fill="#000000" font-family="sans-serif" font-size="13" lengthAdjust="spacing" textLength="109" x="975.5" y="642.9141">addOrUpdate(cat)</text><line style="stroke:#A80036;stroke-width:1.0;" x1="1342" x2="1389" y1="671.9668" y2="671.9668"/><line style="stroke:#A80036;stroke-width:1.0;" x1="1389" x2="1389" y1="671.9668" y2="684.9668"/><line style="stroke:#A80036;stroke-width:1.0;" x1="1348" x2="1389" y1="684.9668" y2="684.9668"/><polygon fill="#A80036" points="1358,680.9668,1348,684.9668,1358,688.9668,1354,684.9668" style="stroke:#A80036;stroke-width:1.0;"/><text fill="#000000" font-family="sans-serif" font-size="13" font-weight="bold" lengthAdjust="spacing" textLength="18" x="1354" y="667.2246">18</text><text fill="#000000" font-family="sans-serif" font-size="13" lengthAdjust="spacing" textLength="76" x="1376" y="667.2246">validate(cat)</text><line style="stroke:#A80036;stroke-width:1.0;stroke-dasharray:2.0,2.0;" x1="1347" x2="1389" y1="724.2773" y2="724.2773"/><line style="stroke:#A80036;stroke-width:1.0;stroke-dasharray:2.0,2.0;" x1="1389" x2="1389" y1="724.2773" y2="737.2773"/><line style="stroke:#A80036;stroke-width:1.0;stroke-dasharray:2.0,2.0;" x1="1342" x2="1389" y1="737.2773" y2="737.2773"/><polygon fill="#A80036" points="1352,733.2773,1342,737.2773,1352,741.2773,1348,737.2773" style="stroke:#A80036;stroke-width:1.0;"/><text fill="#000000" font-family="sans-serif" font-size="13" font-weight="bold" lengthAdjust="spacing" textLength="18" x="1354" y="719.5352">19</text><text fill="#000000" font-family="sans-serif" font-size="13" lengthAdjust="spacing" textLength="16" x="1376" y="719.5352">ok</text><polygon fill="#A80036" points="1716,757.5879,1726,761.5879,1716,765.5879,1720,761.5879" style="stroke:#A80036;stroke-width:1.0;"/><line style="stroke:#A80036;stroke-width:1.0;" x1="1342" x2="1722" y1="761.5879" y2="761.5879"/><text fill="#000000" font-family="sans-serif" font-size="13" font-weight="bold" lengthAdjust="spacing" textLength="18" x="1349" y="756.8457">20</text><text fill="#000000" font-family="sans-serif" font-size="13" lengthAdjust="spacing" textLength="55" x="1371" y="756.8457">save(cat)</text><polygon fill="#A80036" points="1353,786.8984,1343,790.8984,1353,794.8984,1349,790.8984" style="stroke:#A80036;stroke-width:1.0;"/><line style="stroke:#A80036;stroke-width:1.0;stroke-dasharray:2.0,2.0;" x1="1347" x2="1732" y1="790.8984" y2="790.8984"/><text fill="#000000" font-family="sans-serif" font-size="13" font-weight="bold" lengthAdjust="spacing" textLength="18" x="1359" y="786.1563">21</text><text fill="#000000" font-family="sans-serif" font-size="13" lengthAdjust="spacing" textLength="16" x="1381" y="786.1563">ok</text><polygon fill="#A80036" points="957.5,816.209,947.5,820.209,957.5,824.209,953.5,820.209" style="stroke:#A80036;stroke-width:1.0;"/><line style="stroke:#A80036;stroke-width:1.0;stroke-dasharray:2.0,2.0;" x1="951.5" x2="1336" y1="820.209" y2="820.209"/><text fill="#000000" font-family="sans-serif" font-size="13" font-weight="bold" lengthAdjust="spacing" textLength="18" x="963.5" y="815.4668">22</text><text fill="#000000" font-family="sans-serif" font-size="13" lengthAdjust="spacing" textLength="16" x="985.5" y="815.4668">ok</text><polygon fill="#A80036" points="1939.5,845.5195,1949.5,849.5195,1939.5,853.5195,1943.5,849.5195" style="stroke:#A80036;stroke-width:1.0;"/><line style="stroke:#A80036;stroke-width:1.0;stroke-dasharray:2.0,2.0;" x1="946.5" x2="1945.5" y1="849.5195" y2="849.5195"/><text fill="#000000" font-family="sans-serif" font-size="13" font-weight="bold" lengthAdjust="spacing" textLength="18" x="953.5" y="844.7773">23</text><text fill="#000000" font-family="sans-serif" font-size="13" lengthAdjust="spacing" textLength="70" x="975.5" y="844.7773">create(201)</text><rect fill="#FEFECE" filter="url(#fiionhr2fou7e)" height="30.4883" style="stroke:#A80036;stroke-width:1.5;" width="128" x="1951.5" y="828.209"/><text fill="#000000" font-family="sans-serif" font-size="14" lengthAdjust="spacing" textLength="114" x="1958.5" y="848.7441">result:HttpResult</text><polygon fill="#A80036" points="714.5,891.0078,704.5,895.0078,714.5,899.0078,710.5,895.0078" style="stroke:#A80036;stroke-width:1.0;"/><line style="stroke:#A80036;stroke-width:1.0;stroke-dasharray:2.0,2.0;" x1="708.5" x2="940.5" y1="895.0078" y2="895.0078"/><text fill="#000000" font-family="sans-serif" font-size="13" font-weight="bold" lengthAdjust="spacing" textLength="18" x="720.5" y="890.2656">24</text><text fill="#000000" font-family="sans-serif" font-size="13" lengthAdjust="spacing" textLength="36" x="742.5" y="890.2656">result</text><line style="stroke:#A80036;stroke-width:1.0;" x1="703.5" x2="750.5" y1="919.3184" y2="919.3184"/><line style="stroke:#A80036;stroke-width:1.0;" x1="750.5" x2="750.5" y1="919.3184" y2="932.3184"/><line style="stroke:#A80036;stroke-width:1.0;" x1="709.5" x2="750.5" y1="932.3184" y2="932.3184"/><polygon fill="#A80036" points="719.5,928.3184,709.5,932.3184,719.5,936.3184,715.5,932.3184" style="stroke:#A80036;stroke-width:1.0;"/><text fill="#000000" font-family="sans-serif" font-size="13" font-weight="bold" lengthAdjust="spacing" textLength="18" x="715.5" y="914.5762">25</text><text fill="#000000" font-family="sans-serif" font-size="13" lengthAdjust="spacing" textLength="165" x="737.5" y="914.5762">setHttpResult(resp, result)</text><line style="stroke:#A80036;stroke-width:1.0;stroke-dasharray:2.0,2.0;" x1="708.5" x2="750.5" y1="971.6289" y2="971.6289"/><line style="stroke:#A80036;stroke-width:1.0;stroke-dasharray:2.0,2.0;" x1="750.5" x2="750.5" y1="971.6289" y2="984.6289"/><line style="stroke:#A80036;stroke-width:1.0;stroke-dasharray:2.0,2.0;" x1="703.5" x2="750.5" y1="984.6289" y2="984.6289"/><polygon fill="#A80036" points="713.5,980.6289,703.5,984.6289,713.5,988.6289,709.5,984.6289" style="stroke:#A80036;stroke-width:1.0;"/><text fill="#000000" font-family="sans-serif" font-size="13" font-weight="bold" lengthAdjust="spacing" textLength="18" x="715.5" y="966.8867">26</text><text fill="#000000" font-family="sans-serif" font-size="13" lengthAdjust="spacing" textLength="0" x="741.5" y="966.8867"/><polygon fill="#A80036" points="192,1004.9395,182,1008.9395,192,1012.9395,188,1008.9395" style="stroke:#A80036;stroke-width:1.0;"/><line style="stroke:#A80036;stroke-width:1.0;stroke-dasharray:2.0,2.0;" x1="186" x2="697.5" y1="1008.9395" y2="1008.9395"/><text fill="#000000" font-family="sans-serif" font-size="13" font-weight="bold" lengthAdjust="spacing" textLength="18" x="198" y="1004.1973">27</text><text fill="#000000" font-family="sans-serif" font-size="13" lengthAdjust="spacing" textLength="27" x="220" y="1004.1973">resp</text><polygon fill="#A80036" points="70,1034.25,60,1038.25,70,1042.25,66,1038.25" style="stroke:#A80036;stroke-width:1.0;"/><line style="stroke:#A80036;stroke-width:1.0;stroke-dasharray:2.0,2.0;" x1="64" x2="175" y1="1038.25" y2="1038.25"/><text fill="#000000" font-family="sans-serif" font-size="13" font-weight="bold" lengthAdjust="spacing" textLength="18" x="76" y="1033.5078">28</text><text fill="#000000" font-family="sans-serif" font-size="13" lengthAdjust="spacing" textLength="27" x="98" y="1033.5078">resp</text><!--MD5=[b4cfcbc651ad1acb303fd60254b340b1]
@startuml
'https://plantuml.com/sequence-diagram
autoactivate on
autonumber

participant ":HTTPClient" as HTTPClient
participant ":HTTPServer" as HTTPServer
participant "req:HTTPRequest" as HTTPRequest
participant "resp:HTTPResponse" as HTTPResponse
participant "handler:RouteHandler" as System
participant ":CategoryController" as Ctrl
participant ":Person" as Person
participant "service:CategoryService" as Service
participant "factory:RepositoryFactory" as Factory
participant "repo:CategoryRepository" as Repo
participant "cat:Category" as Category
participant "result:HttpResult" as Result

activate HTTPClient

HTTPClient -> HTTPServer: POST(..., {...})
HTTPServer -> HTTPRequest**: create(..., {...})
HTTPServer -> HTTPResponse**: create(404)
HTTPServer -> HTTPServer: findHandler(req)
HTTPServer - -> HTTPServer: handler
HTTPServer -> System: run(req,resp)

System -> Ctrl**: create(...)
System -> Ctrl: postCategory(code, description)
Ctrl -> Person: getCategoriesService()
Person -> Factory : getCategoriesRepository()
Factory - -> Person: repo
Person - ->Service**: create(repo)
Person - -> Ctrl: service
Ctrl -> Service: create(code, description)
Service - -> Category**: create(code, description)
Service - -> Ctrl: cat
Ctrl -> Service: addOrUpdate(cat)
Service -> Service : validate(cat)
Service - -> Service : ok
Service -> Repo: save(cat)
Repo - -> Service : ok
Service - -> Ctrl: ok
Ctrl - -> Result**: create(201)
Ctrl - -> System: result
System -> System: setHttpResult(resp, result)
System - -> System:
System - -> HTTPServer: resp
HTTPServer - -> HTTPClient: resp
@enduml

@startuml
autoactivate on
autonumber

participant ":HTTPClient" as HTTPClient
participant ":HTTPServer" as HTTPServer
participant "req:HTTPRequest" as HTTPRequest
participant "resp:HTTPResponse" as HTTPResponse
participant "handler:RouteHandler" as System
participant ":CategoryController" as Ctrl
participant ":Person" as Person
participant "service:CategoryService" as Service
participant "factory:RepositoryFactory" as Factory
participant "repo:CategoryRepository" as Repo
participant "cat:Category" as Category
participant "result:HttpResult" as Result

activate HTTPClient

HTTPClient -> HTTPServer: POST(..., {...})
HTTPServer -> HTTPRequest**: create(..., {...})
HTTPServer -> HTTPResponse**: create(404)
HTTPServer -> HTTPServer: findHandler(req)
HTTPServer - -> HTTPServer: handler
HTTPServer -> System: run(req,resp)

System -> Ctrl**: create(...)
System -> Ctrl: postCategory(code, description)
Ctrl -> Person: getCategoriesService()
Person -> Factory : getCategoriesRepository()
Factory - -> Person: repo
Person - ->Service**: create(repo)
Person - -> Ctrl: service
Ctrl -> Service: create(code, description)
Service - -> Category**: create(code, description)
Service - -> Ctrl: cat
Ctrl -> Service: addOrUpdate(cat)
Service -> Service : validate(cat)
Service - -> Service : ok
Service -> Repo: save(cat)
Repo - -> Service : ok
Service - -> Ctrl: ok
Ctrl - -> Result**: create(201)
Ctrl - -> System: result
System -> System: setHttpResult(resp, result)
System - -> System:
System - -> HTTPServer: resp
HTTPServer - -> HTTPClient: resp
@enduml

PlantUML version 1.2021.7(Sun May 23 13:40:07 WEST 2021)
(GPL source distribution)
Java Runtime: OpenJDK Runtime Environment
JVM: OpenJDK 64-Bit Server VM
Default Encoding: UTF-8
Language: en
Country: PT
--></g></svg>