<?xml version="1.0" encoding="UTF-8" standalone="no"?><svg xmlns="http://www.w3.org/2000/svg" xmlns:xlink="http://www.w3.org/1999/xlink" contentScriptType="application/ecmascript" contentStyleType="text/css" height="572px" preserveAspectRatio="none" style="width:1162px;height:572px;background:#FFFFFF;" version="1.1" viewBox="0 0 1162 572" width="1162px" zoomAndPan="magnify"><defs><filter height="300%" id="f1uo8mcvwdw7jt" width="300%" x="-1" y="-1"><feGaussianBlur result="blurOut" stdDeviation="2.0"/><feColorMatrix in="blurOut" result="blurOut2" type="matrix" values="0 0 0 0 0 0 0 0 0 0 0 0 0 0 0 0 0 0 .4 0"/><feOffset dx="4.0" dy="4.0" in="blurOut2" result="blurOut3"/><feBlend in="SourceGraphic" in2="blurOut3" mode="normal"/></filter></defs><g><text fill="#000000" font-family="sans-serif" font-size="18" lengthAdjust="spacing" textLength="232" x="462.75" y="29.4023">SD_PersonCreatingServices</text><rect fill="#FFFFFF" filter="url(#f1uo8mcvwdw7jt)" height="401.5703" style="stroke:#A80036;stroke-width:1.0;" width="10" x="64.5" y="102.1758"/><rect fill="#FFFFFF" filter="url(#f1uo8mcvwdw7jt)" height="149.9082" style="stroke:#A80036;stroke-width:1.0;" width="10" x="245.5" y="123.4863"/><rect fill="#FFFFFF" filter="url(#f1uo8mcvwdw7jt)" height="192.041" style="stroke:#A80036;stroke-width:1.0;" width="10" x="245.5" y="302.7051"/><rect fill="#FFFFFF" filter="url(#f1uo8mcvwdw7jt)" height="29.3105" style="stroke:#A80036;stroke-width:1.0;" width="10" x="771" y="152.7969"/><rect fill="#FFFFFF" filter="url(#f1uo8mcvwdw7jt)" height="29.3105" style="stroke:#A80036;stroke-width:1.0;" width="10" x="771" y="332.0156"/><rect fill="#FFFFFF" filter="url(#f1uo8mcvwdw7jt)" height="29.3105" style="stroke:#A80036;stroke-width:1.0;" width="10" x="771" y="390.6367"/><line style="stroke:#A80036;stroke-width:1.0;stroke-dasharray:5.0,5.0;" x1="69" x2="69" y1="92.1758" y2="512.7461"/><line style="stroke:#A80036;stroke-width:1.0;stroke-dasharray:5.0,5.0;" x1="250" x2="250" y1="92.1758" y2="512.7461"/><line style="stroke:#A80036;stroke-width:1.0;stroke-dasharray:5.0,5.0;" x1="458.5" x2="458.5" y1="231.0957" y2="512.7461"/><line style="stroke:#A80036;stroke-width:1.0;stroke-dasharray:5.0,5.0;" x1="612.5" x2="612.5" y1="460.6914" y2="512.7461"/><line style="stroke:#A80036;stroke-width:1.0;stroke-dasharray:5.0,5.0;" x1="775.5" x2="775.5" y1="92.1758" y2="512.7461"/><line style="stroke:#A80036;stroke-width:1.0;stroke-dasharray:5.0,5.0;" x1="921.5" x2="921.5" y1="92.1758" y2="512.7461"/><line style="stroke:#A80036;stroke-width:1.0;stroke-dasharray:5.0,5.0;" x1="1073.5" x2="1073.5" y1="92.1758" y2="512.7461"/><rect fill="#FEFECE" filter="url(#f1uo8mcvwdw7jt)" height="30.4883" style="stroke:#A80036;stroke-width:1.5;" width="125" x="5" y="56.6875"/><text fill="#000000" font-family="sans-serif" font-size="14" lengthAdjust="spacing" textLength="111" x="12" y="77.2227">:{XXX}Controller</text><rect fill="#FEFECE" filter="url(#f1uo8mcvwdw7jt)" height="30.4883" style="stroke:#A80036;stroke-width:1.5;" width="125" x="5" y="511.7461"/><text fill="#000000" font-family="sans-serif" font-size="14" lengthAdjust="spacing" textLength="111" x="12" y="532.2813">:{XXX}Controller</text><rect fill="#FEFECE" filter="url(#f1uo8mcvwdw7jt)" height="30.4883" style="stroke:#A80036;stroke-width:1.5;" width="65" x="216" y="56.6875"/><text fill="#000000" font-family="sans-serif" font-size="14" lengthAdjust="spacing" textLength="51" x="223" y="77.2227">:Person</text><rect fill="#FEFECE" filter="url(#f1uo8mcvwdw7jt)" height="30.4883" style="stroke:#A80036;stroke-width:1.5;" width="65" x="216" y="511.7461"/><text fill="#000000" font-family="sans-serif" font-size="14" lengthAdjust="spacing" textLength="51" x="223" y="532.2813">:Person</text><rect fill="#FEFECE" filter="url(#f1uo8mcvwdw7jt)" height="46.9766" style="stroke:#A80036;stroke-width:1.5;" width="124" x="394.5" y="511.7461"/><text fill="#000000" font-family="sans-serif" font-size="14" lengthAdjust="spacing" textLength="54" x="429.5" y="532.2813">srvCats:</text><text fill="#000000" font-family="sans-serif" font-size="14" lengthAdjust="spacing" textLength="110" x="401.5" y="548.7695">CategoryService</text><rect fill="#FEFECE" filter="url(#f1uo8mcvwdw7jt)" height="30.4883" style="stroke:#A80036;stroke-width:1.5;" width="157" x="532.5" y="511.7461"/><text fill="#000000" font-family="sans-serif" font-size="14" lengthAdjust="spacing" textLength="143" x="539.5" y="532.2813">srvTasks:TaskService</text><rect fill="#FEFECE" filter="url(#f1uo8mcvwdw7jt)" height="46.9766" style="stroke:#A80036;stroke-width:1.5;" width="141" x="703.5" y="40.1992"/><text fill="#000000" font-family="sans-serif" font-size="14" lengthAdjust="spacing" textLength="47" x="750.5" y="60.7344">factory</text><text fill="#000000" font-family="sans-serif" font-size="14" lengthAdjust="spacing" textLength="127" x="710.5" y="77.2227">:RepositoryFactory</text><rect fill="#FEFECE" filter="url(#f1uo8mcvwdw7jt)" height="46.9766" style="stroke:#A80036;stroke-width:1.5;" width="141" x="703.5" y="511.7461"/><text fill="#000000" font-family="sans-serif" font-size="14" lengthAdjust="spacing" textLength="47" x="750.5" y="532.2813">factory</text><text fill="#000000" font-family="sans-serif" font-size="14" lengthAdjust="spacing" textLength="127" x="710.5" y="548.7695">:RepositoryFactory</text><rect fill="#FEFECE" filter="url(#f1uo8mcvwdw7jt)" height="46.9766" style="stroke:#A80036;stroke-width:1.5;" width="123" x="858.5" y="40.1992"/><text fill="#000000" font-family="sans-serif" font-size="14" lengthAdjust="spacing" textLength="71" x="884.5" y="60.7344">repoTasks</text><text fill="#000000" font-family="sans-serif" font-size="14" lengthAdjust="spacing" textLength="109" x="865.5" y="77.2227">:TaskRepository</text><rect fill="#FEFECE" filter="url(#f1uo8mcvwdw7jt)" height="46.9766" style="stroke:#A80036;stroke-width:1.5;" width="123" x="858.5" y="511.7461"/><text fill="#000000" font-family="sans-serif" font-size="14" lengthAdjust="spacing" textLength="71" x="884.5" y="532.2813">repoTasks</text><text fill="#000000" font-family="sans-serif" font-size="14" lengthAdjust="spacing" textLength="109" x="865.5" y="548.7695">:TaskRepository</text><rect fill="#FEFECE" filter="url(#f1uo8mcvwdw7jt)" height="46.9766" style="stroke:#A80036;stroke-width:1.5;" width="153" x="995.5" y="40.1992"/><text fill="#000000" font-family="sans-serif" font-size="14" lengthAdjust="spacing" textLength="62" x="1041" y="60.7344">repoCats</text><text fill="#000000" font-family="sans-serif" font-size="14" lengthAdjust="spacing" textLength="139" x="1002.5" y="77.2227">:CategoryRepository</text><rect fill="#FEFECE" filter="url(#f1uo8mcvwdw7jt)" height="46.9766" style="stroke:#A80036;stroke-width:1.5;" width="153" x="995.5" y="511.7461"/><text fill="#000000" font-family="sans-serif" font-size="14" lengthAdjust="spacing" textLength="62" x="1041" y="532.2813">repoCats</text><text fill="#000000" font-family="sans-serif" font-size="14" lengthAdjust="spacing" textLength="139" x="1002.5" y="548.7695">:CategoryRepository</text><rect fill="#FFFFFF" filter="url(#f1uo8mcvwdw7jt)" height="401.5703" style="stroke:#A80036;stroke-width:1.0;" width="10" x="64.5" y="102.1758"/><rect fill="#FFFFFF" filter="url(#f1uo8mcvwdw7jt)" height="149.9082" style="stroke:#A80036;stroke-width:1.0;" width="10" x="245.5" y="123.4863"/><rect fill="#FFFFFF" filter="url(#f1uo8mcvwdw7jt)" height="192.041" style="stroke:#A80036;stroke-width:1.0;" width="10" x="245.5" y="302.7051"/><rect fill="#FFFFFF" filter="url(#f1uo8mcvwdw7jt)" height="29.3105" style="stroke:#A80036;stroke-width:1.0;" width="10" x="771" y="152.7969"/><rect fill="#FFFFFF" filter="url(#f1uo8mcvwdw7jt)" height="29.3105" style="stroke:#A80036;stroke-width:1.0;" width="10" x="771" y="332.0156"/><rect fill="#FFFFFF" filter="url(#f1uo8mcvwdw7jt)" height="29.3105" style="stroke:#A80036;stroke-width:1.0;" width="10" x="771" y="390.6367"/><polygon fill="#A80036" points="233.5,119.4863,243.5,123.4863,233.5,127.4863,237.5,123.4863" style="stroke:#A80036;stroke-width:1.0;"/><line style="stroke:#A80036;stroke-width:1.0;" x1="74.5" x2="239.5" y1="123.4863" y2="123.4863"/><text fill="#000000" font-family="sans-serif" font-size="13" font-weight="bold" lengthAdjust="spacing" textLength="9" x="81.5" y="118.7441">1</text><text fill="#000000" font-family="sans-serif" font-size="13" lengthAdjust="spacing" textLength="139" x="94.5" y="118.7441">getCategoriesService()</text><polygon fill="#A80036" points="759,148.7969,769,152.7969,759,156.7969,763,152.7969" style="stroke:#A80036;stroke-width:1.0;"/><line style="stroke:#A80036;stroke-width:1.0;" x1="255.5" x2="765" y1="152.7969" y2="152.7969"/><text fill="#000000" font-family="sans-serif" font-size="13" font-weight="bold" lengthAdjust="spacing" textLength="9" x="262.5" y="148.0547">2</text><text fill="#000000" font-family="sans-serif" font-size="13" lengthAdjust="spacing" textLength="162" x="275.5" y="148.0547">getCategoriesRepository()</text><polygon fill="#A80036" points="266.5,178.1074,256.5,182.1074,266.5,186.1074,262.5,182.1074" style="stroke:#A80036;stroke-width:1.0;"/><line style="stroke:#A80036;stroke-width:1.0;stroke-dasharray:2.0,2.0;" x1="260.5" x2="775" y1="182.1074" y2="182.1074"/><text fill="#000000" font-family="sans-serif" font-size="13" font-weight="bold" lengthAdjust="spacing" textLength="9" x="272.5" y="177.3652">3</text><text fill="#000000" font-family="sans-serif" font-size="13" lengthAdjust="spacing" textLength="56" x="285.5" y="177.3652">repoCats</text><polygon fill="#A80036" points="382.5,207.418,392.5,211.418,382.5,215.418,386.5,211.418" style="stroke:#A80036;stroke-width:1.0;"/><line style="stroke:#A80036;stroke-width:1.0;stroke-dasharray:2.0,2.0;" x1="255.5" x2="388.5" y1="211.418" y2="211.418"/><text fill="#000000" font-family="sans-serif" font-size="13" font-weight="bold" lengthAdjust="spacing" textLength="9" x="262.5" y="206.6758">4</text><text fill="#000000" font-family="sans-serif" font-size="13" lengthAdjust="spacing" textLength="102" x="275.5" y="206.6758">create(repoCats)</text><rect fill="#FEFECE" filter="url(#f1uo8mcvwdw7jt)" height="46.9766" style="stroke:#A80036;stroke-width:1.5;" width="124" x="394.5" y="190.1074"/><text fill="#000000" font-family="sans-serif" font-size="14" lengthAdjust="spacing" textLength="54" x="429.5" y="210.6426">srvCats:</text><text fill="#000000" font-family="sans-serif" font-size="14" lengthAdjust="spacing" textLength="110" x="401.5" y="227.1309">CategoryService</text><polygon fill="#A80036" points="85.5,269.3945,75.5,273.3945,85.5,277.3945,81.5,273.3945" style="stroke:#A80036;stroke-width:1.0;"/><line style="stroke:#A80036;stroke-width:1.0;stroke-dasharray:2.0,2.0;" x1="79.5" x2="249.5" y1="273.3945" y2="273.3945"/><text fill="#000000" font-family="sans-serif" font-size="13" font-weight="bold" lengthAdjust="spacing" textLength="9" x="91.5" y="268.6523">5</text><text fill="#000000" font-family="sans-serif" font-size="13" lengthAdjust="spacing" textLength="47" x="104.5" y="268.6523">srvCats</text><polygon fill="#A80036" points="233.5,298.7051,243.5,302.7051,233.5,306.7051,237.5,302.7051" style="stroke:#A80036;stroke-width:1.0;"/><line style="stroke:#A80036;stroke-width:1.0;" x1="74.5" x2="239.5" y1="302.7051" y2="302.7051"/><text fill="#000000" font-family="sans-serif" font-size="13" font-weight="bold" lengthAdjust="spacing" textLength="9" x="81.5" y="297.9629">6</text><text fill="#000000" font-family="sans-serif" font-size="13" lengthAdjust="spacing" textLength="102" x="94.5" y="297.9629">getTaskService()</text><polygon fill="#A80036" points="759,328.0156,769,332.0156,759,336.0156,763,332.0156" style="stroke:#A80036;stroke-width:1.0;"/><line style="stroke:#A80036;stroke-width:1.0;" x1="255.5" x2="765" y1="332.0156" y2="332.0156"/><text fill="#000000" font-family="sans-serif" font-size="13" font-weight="bold" lengthAdjust="spacing" textLength="9" x="262.5" y="327.2734">7</text><text fill="#000000" font-family="sans-serif" font-size="13" lengthAdjust="spacing" textLength="132" x="275.5" y="327.2734">getTasksRepository()</text><polygon fill="#A80036" points="266.5,357.3262,256.5,361.3262,266.5,365.3262,262.5,361.3262" style="stroke:#A80036;stroke-width:1.0;"/><line style="stroke:#A80036;stroke-width:1.0;stroke-dasharray:2.0,2.0;" x1="260.5" x2="775" y1="361.3262" y2="361.3262"/><text fill="#000000" font-family="sans-serif" font-size="13" font-weight="bold" lengthAdjust="spacing" textLength="9" x="272.5" y="356.584">8</text><text fill="#000000" font-family="sans-serif" font-size="13" lengthAdjust="spacing" textLength="65" x="285.5" y="356.584">repoTasks</text><polygon fill="#A80036" points="759,386.6367,769,390.6367,759,394.6367,763,390.6367" style="stroke:#A80036;stroke-width:1.0;"/><line style="stroke:#A80036;stroke-width:1.0;" x1="255.5" x2="765" y1="390.6367" y2="390.6367"/><text fill="#000000" font-family="sans-serif" font-size="13" font-weight="bold" lengthAdjust="spacing" textLength="9" x="262.5" y="385.8945">9</text><text fill="#000000" font-family="sans-serif" font-size="13" lengthAdjust="spacing" textLength="162" x="275.5" y="385.8945">getCategoriesRepository()</text><polygon fill="#A80036" points="266.5,415.9473,256.5,419.9473,266.5,423.9473,262.5,419.9473" style="stroke:#A80036;stroke-width:1.0;"/><line style="stroke:#A80036;stroke-width:1.0;stroke-dasharray:2.0,2.0;" x1="260.5" x2="775" y1="419.9473" y2="419.9473"/><text fill="#000000" font-family="sans-serif" font-size="13" font-weight="bold" lengthAdjust="spacing" textLength="18" x="272.5" y="415.2051">10</text><text fill="#000000" font-family="sans-serif" font-size="13" lengthAdjust="spacing" textLength="56" x="294.5" y="415.2051">repoCats</text><polygon fill="#A80036" points="520.5,445.2578,530.5,449.2578,520.5,453.2578,524.5,449.2578" style="stroke:#A80036;stroke-width:1.0;"/><line style="stroke:#A80036;stroke-width:1.0;stroke-dasharray:2.0,2.0;" x1="255.5" x2="526.5" y1="449.2578" y2="449.2578"/><text fill="#000000" font-family="sans-serif" font-size="13" font-weight="bold" lengthAdjust="spacing" textLength="18" x="262.5" y="444.5156">11</text><text fill="#000000" font-family="sans-serif" font-size="13" lengthAdjust="spacing" textLength="175" x="284.5" y="444.5156">create(repoTasks, repoCats)</text><rect fill="#FEFECE" filter="url(#f1uo8mcvwdw7jt)" height="30.4883" style="stroke:#A80036;stroke-width:1.5;" width="157" x="532.5" y="427.9473"/><text fill="#000000" font-family="sans-serif" font-size="14" lengthAdjust="spacing" textLength="143" x="539.5" y="448.4824">srvTasks:TaskService</text><polygon fill="#A80036" points="85.5,490.7461,75.5,494.7461,85.5,498.7461,81.5,494.7461" style="stroke:#A80036;stroke-width:1.0;"/><line style="stroke:#A80036;stroke-width:1.0;stroke-dasharray:2.0,2.0;" x1="79.5" x2="249.5" y1="494.7461" y2="494.7461"/><text fill="#000000" font-family="sans-serif" font-size="13" font-weight="bold" lengthAdjust="spacing" textLength="18" x="91.5" y="490.0039">12</text><text fill="#000000" font-family="sans-serif" font-size="13" lengthAdjust="spacing" textLength="56" x="113.5" y="490.0039">srvTasks</text><!--MD5=[44e44f572d8b2012a78a40d59fb2ceb7]
@startuml
'https://plantuml.com/sequence-diagram
title SD_PersonCreatingServices
autoactivate on
autonumber


participant ":{XXX}Controller" as Ctrl
participant ":Person" as Person
participant "srvCats:\nCategoryService" as SrvCategories
participant "srvTasks:TaskService" as Service

participant "factory\n:RepositoryFactory" as Factory
participant "repoTasks\n:TaskRepository" as RepoTask
participant "repoCats\n:CategoryRepository" as RepoCats



activate Ctrl

Ctrl -> Person: getCategoriesService()
Person -> Factory : getCategoriesRepository()
Factory - -> Person: repoCats
Person - ->SrvCategories**: create(repoCats)
Person - -> Ctrl: srvCats

Ctrl -> Person: getTaskService()
Person -> Factory : getTasksRepository()
Factory - -> Person: repoTasks
Person -> Factory : getCategoriesRepository()
Factory - -> Person: repoCats
Person - ->Service**: create(repoTasks, repoCats)
Person - -> Ctrl: srvTasks

@enduml

@startuml
title SD_PersonCreatingServices
autoactivate on
autonumber


participant ":{XXX}Controller" as Ctrl
participant ":Person" as Person
participant "srvCats:\nCategoryService" as SrvCategories
participant "srvTasks:TaskService" as Service

participant "factory\n:RepositoryFactory" as Factory
participant "repoTasks\n:TaskRepository" as RepoTask
participant "repoCats\n:CategoryRepository" as RepoCats



activate Ctrl

Ctrl -> Person: getCategoriesService()
Person -> Factory : getCategoriesRepository()
Factory - -> Person: repoCats
Person - ->SrvCategories**: create(repoCats)
Person - -> Ctrl: srvCats

Ctrl -> Person: getTaskService()
Person -> Factory : getTasksRepository()
Factory - -> Person: repoTasks
Person -> Factory : getCategoriesRepository()
Factory - -> Person: repoCats
Person - ->Service**: create(repoTasks, repoCats)
Person - -> Ctrl: srvTasks

@enduml

PlantUML version 1.2021.7(Sun May 23 13:40:07 WEST 2021)
(GPL source distribution)
Java Runtime: OpenJDK Runtime Environment
JVM: OpenJDK 64-Bit Server VM
Default Encoding: UTF-8
Language: en
Country: PT
--></g></svg>