<?xml version="1.0" encoding="UTF-8" standalone="no"?><svg xmlns="http://www.w3.org/2000/svg" xmlns:xlink="http://www.w3.org/1999/xlink" contentScriptType="application/ecmascript" contentStyleType="text/css" height="1523px" preserveAspectRatio="none" style="width:2093px;height:1523px;background:#FFFFFF;" version="1.1" viewBox="0 0 2093 1523" width="2093px" zoomAndPan="magnify"><defs><filter height="300%" id="f8wi10nu1gww1" width="300%" x="-1" y="-1"><feGaussianBlur result="blurOut" stdDeviation="2.0"/><feColorMatrix in="blurOut" result="blurOut2" type="matrix" values="0 0 0 0 0 0 0 0 0 0 0 0 0 0 0 0 0 0 .4 0"/><feOffset dx="4.0" dy="4.0" in="blurOut2" result="blurOut3"/><feBlend in="SourceGraphic" in2="blurOut3" mode="normal"/></filter></defs><g><rect fill="#FFFFFF" filter="url(#f8wi10nu1gww1)" height="1331.8867" style="stroke:#A80036;stroke-width:1.0;" width="10" x="26.5" y="98.4883"/><rect fill="#FFFFFF" filter="url(#f8wi10nu1gww1)" height="383.2148" style="stroke:#A80036;stroke-width:1.0;" width="10" x="406.5" y="119.7988"/><rect fill="#FFFFFF" filter="url(#f8wi10nu1gww1)" height="146.5527" style="stroke:#A80036;stroke-width:1.0;" width="10" x="406.5" y="532.3242"/><rect fill="#FFFFFF" filter="url(#f8wi10nu1gww1)" height="394.082" style="stroke:#A80036;stroke-width:1.0;" width="10" x="406.5" y="708.1875"/><rect fill="#FFFFFF" filter="url(#f8wi10nu1gww1)" height="289.7949" style="stroke:#A80036;stroke-width:1.0;" width="10" x="406.5" y="1131.5801"/><rect fill="#FFFFFF" filter="url(#f8wi10nu1gww1)" height="309.2832" style="stroke:#A80036;stroke-width:1.0;" width="10" x="571.5" y="149.1094"/><rect fill="#FFFFFF" filter="url(#f8wi10nu1gww1)" height="87.9316" style="stroke:#A80036;stroke-width:1.0;" width="10" x="571.5" y="561.6348"/><rect fill="#FFFFFF" filter="url(#f8wi10nu1gww1)" height="289.9727" style="stroke:#A80036;stroke-width:1.0;" width="10" x="571.5" y="782.9863"/><rect fill="#FFFFFF" filter="url(#f8wi10nu1gww1)" height="231.1738" style="stroke:#A80036;stroke-width:1.0;" width="10" x="571.5" y="1160.8906"/><rect fill="#FFFFFF" filter="url(#f8wi10nu1gww1)" height="29.3105" style="stroke:#A80036;stroke-width:1.0;" width="10" x="752.5" y="178.4199"/><rect fill="#FFFFFF" filter="url(#f8wi10nu1gww1)" height="192.041" style="stroke:#A80036;stroke-width:1.0;" width="10" x="752.5" y="237.041"/><rect fill="#FFFFFF" filter="url(#f8wi10nu1gww1)" height="29.3105" style="stroke:#A80036;stroke-width:1.0;" width="10" x="861" y="590.9453"/><rect fill="#FFFFFF" filter="url(#f8wi10nu1gww1)" height="231.3516" style="stroke:#A80036;stroke-width:1.0;" width="10" x="1053" y="812.2969"/><rect fill="#FFFFFF" filter="url(#f8wi10nu1gww1)" height="172.5527" style="stroke:#A80036;stroke-width:1.0;" width="10" x="1053" y="1190.2012"/><rect fill="#FFFFFF" filter="url(#f8wi10nu1gww1)" height="40.3105" style="stroke:#A80036;stroke-width:1.0;" width="10" x="1058" y="1227.5117"/><rect fill="#FFFFFF" filter="url(#f8wi10nu1gww1)" height="29.3105" style="stroke:#A80036;stroke-width:1.0;" width="10" x="1200" y="841.6074"/><rect fill="#FFFFFF" filter="url(#f8wi10nu1gww1)" height="29.3105" style="stroke:#A80036;stroke-width:1.0;" width="10" x="1333" y="266.3516"/><rect fill="#FFFFFF" filter="url(#f8wi10nu1gww1)" height="29.3105" style="stroke:#A80036;stroke-width:1.0;" width="10" x="1333" y="324.9727"/><rect fill="#FFFFFF" filter="url(#f8wi10nu1gww1)" height="29.3105" style="stroke:#A80036;stroke-width:1.0;" width="10" x="1479" y="1304.1328"/><rect fill="#FFFFFF" filter="url(#f8wi10nu1gww1)" height="29.3105" style="stroke:#A80036;stroke-width:1.0;" width="10" x="1631" y="900.2285"/><line style="stroke:#A80036;stroke-width:1.0;stroke-dasharray:5.0,5.0;" x1="31" x2="31" y1="88.4883" y2="1439.375"/><line style="stroke:#A80036;stroke-width:1.0;stroke-dasharray:5.0,5.0;" x1="411" x2="411" y1="88.4883" y2="1439.375"/><line style="stroke:#A80036;stroke-width:1.0;stroke-dasharray:5.0,5.0;" x1="576" x2="576" y1="88.4883" y2="1439.375"/><line style="stroke:#A80036;stroke-width:1.0;stroke-dasharray:5.0,5.0;" x1="757" x2="757" y1="88.4883" y2="1439.375"/><line style="stroke:#A80036;stroke-width:1.0;stroke-dasharray:5.0,5.0;" x1="866" x2="866" y1="88.4883" y2="1439.375"/><line style="stroke:#A80036;stroke-width:1.0;stroke-dasharray:5.0,5.0;" x1="1057.5" x2="1057.5" y1="395.0273" y2="1439.375"/><line style="stroke:#A80036;stroke-width:1.0;stroke-dasharray:5.0,5.0;" x1="1204.5" x2="1204.5" y1="748.9316" y2="1439.375"/><line style="stroke:#A80036;stroke-width:1.0;stroke-dasharray:5.0,5.0;" x1="1337.5" x2="1337.5" y1="88.4883" y2="1439.375"/><line style="stroke:#A80036;stroke-width:1.0;stroke-dasharray:5.0,5.0;" x1="1483.5" x2="1483.5" y1="88.4883" y2="1439.375"/><line style="stroke:#A80036;stroke-width:1.0;stroke-dasharray:5.0,5.0;" x1="1635.5" x2="1635.5" y1="88.4883" y2="1439.375"/><line style="stroke:#A80036;stroke-width:1.0;stroke-dasharray:5.0,5.0;" x1="1765.5" x2="1765.5" y1="1009.5938" y2="1439.375"/><line style="stroke:#A80036;stroke-width:1.0;stroke-dasharray:5.0,5.0;" x1="1868.5" x2="1868.5" y1="88.4883" y2="1439.375"/><line style="stroke:#A80036;stroke-width:1.0;stroke-dasharray:5.0,5.0;" x1="2006.5" x2="2006.5" y1="88.4883" y2="1439.375"/><text fill="#000000" font-family="sans-serif" font-size="14" lengthAdjust="spacing" textLength="47" x="5" y="85.5352">Person</text><ellipse cx="31.5" cy="15" fill="#FEFECE" filter="url(#f8wi10nu1gww1)" rx="8" ry="8" style="stroke:#A80036;stroke-width:2.0;"/><path d="M31.5,23 L31.5,50 M18.5,31 L44.5,31 M31.5,50 L18.5,65 M31.5,50 L44.5,65 " fill="none" filter="url(#f8wi10nu1gww1)" style="stroke:#A80036;stroke-width:2.0;"/><text fill="#000000" font-family="sans-serif" font-size="14" lengthAdjust="spacing" textLength="47" x="5" y="1451.9102">Person</text><ellipse cx="31.5" cy="1464.8633" fill="#FEFECE" filter="url(#f8wi10nu1gww1)" rx="8" ry="8" style="stroke:#A80036;stroke-width:2.0;"/><path d="M31.5,1472.8633 L31.5,1499.8633 M18.5,1480.8633 L44.5,1480.8633 M31.5,1499.8633 L18.5,1514.8633 M31.5,1499.8633 L44.5,1514.8633 " fill="none" filter="url(#f8wi10nu1gww1)" style="stroke:#A80036;stroke-width:2.0;"/><rect fill="#FEFECE" filter="url(#f8wi10nu1gww1)" height="30.4883" style="stroke:#A80036;stroke-width:1.5;" width="127" x="346" y="53"/><text fill="#000000" font-family="sans-serif" font-size="14" lengthAdjust="spacing" textLength="113" x="353" y="73.5352">:CreateTaskView</text><rect fill="#FEFECE" filter="url(#f8wi10nu1gww1)" height="30.4883" style="stroke:#A80036;stroke-width:1.5;" width="127" x="346" y="1438.375"/><text fill="#000000" font-family="sans-serif" font-size="14" lengthAdjust="spacing" textLength="113" x="353" y="1458.9102">:CreateTaskView</text><rect fill="#FEFECE" filter="url(#f8wi10nu1gww1)" height="30.4883" style="stroke:#A80036;stroke-width:1.5;" width="165" x="492" y="53"/><text fill="#000000" font-family="sans-serif" font-size="14" lengthAdjust="spacing" textLength="151" x="499" y="73.5352">:CreateTaskController</text><rect fill="#FEFECE" filter="url(#f8wi10nu1gww1)" height="30.4883" style="stroke:#A80036;stroke-width:1.5;" width="165" x="492" y="1438.375"/><text fill="#000000" font-family="sans-serif" font-size="14" lengthAdjust="spacing" textLength="151" x="499" y="1458.9102">:CreateTaskController</text><rect fill="#FEFECE" filter="url(#f8wi10nu1gww1)" height="30.4883" style="stroke:#A80036;stroke-width:1.5;" width="65" x="723" y="53"/><text fill="#000000" font-family="sans-serif" font-size="14" lengthAdjust="spacing" textLength="51" x="730" y="73.5352">:Person</text><rect fill="#FEFECE" filter="url(#f8wi10nu1gww1)" height="30.4883" style="stroke:#A80036;stroke-width:1.5;" width="65" x="723" y="1438.375"/><text fill="#000000" font-family="sans-serif" font-size="14" lengthAdjust="spacing" textLength="51" x="730" y="1458.9102">:Person</text><rect fill="#FEFECE" filter="url(#f8wi10nu1gww1)" height="46.9766" style="stroke:#A80036;stroke-width:1.5;" width="124" x="802" y="36.5117"/><text fill="#000000" font-family="sans-serif" font-size="14" lengthAdjust="spacing" textLength="54" x="837" y="57.0469">srvCats:</text><text fill="#000000" font-family="sans-serif" font-size="14" lengthAdjust="spacing" textLength="110" x="809" y="73.5352">CategoryService</text><rect fill="#FEFECE" filter="url(#f8wi10nu1gww1)" height="46.9766" style="stroke:#A80036;stroke-width:1.5;" width="124" x="802" y="1438.375"/><text fill="#000000" font-family="sans-serif" font-size="14" lengthAdjust="spacing" textLength="54" x="837" y="1458.9102">srvCats:</text><text fill="#000000" font-family="sans-serif" font-size="14" lengthAdjust="spacing" textLength="110" x="809" y="1475.3984">CategoryService</text><rect fill="#FEFECE" filter="url(#f8wi10nu1gww1)" height="30.4883" style="stroke:#A80036;stroke-width:1.5;" width="145" x="983.5" y="1438.375"/><text fill="#000000" font-family="sans-serif" font-size="14" lengthAdjust="spacing" textLength="131" x="990.5" y="1458.9102">service:TaskService</text><rect fill="#FEFECE" filter="url(#f8wi10nu1gww1)" height="30.4883" style="stroke:#A80036;stroke-width:1.5;" width="97" x="1154.5" y="1438.375"/><text fill="#000000" font-family="sans-serif" font-size="14" lengthAdjust="spacing" textLength="83" x="1161.5" y="1458.9102">dto:TaskDto</text><rect fill="#FEFECE" filter="url(#f8wi10nu1gww1)" height="46.9766" style="stroke:#A80036;stroke-width:1.5;" width="141" x="1265.5" y="36.5117"/><text fill="#000000" font-family="sans-serif" font-size="14" lengthAdjust="spacing" textLength="47" x="1312.5" y="57.0469">factory</text><text fill="#000000" font-family="sans-serif" font-size="14" lengthAdjust="spacing" textLength="127" x="1272.5" y="73.5352">:RepositoryFactory</text><rect fill="#FEFECE" filter="url(#f8wi10nu1gww1)" height="46.9766" style="stroke:#A80036;stroke-width:1.5;" width="141" x="1265.5" y="1438.375"/><text fill="#000000" font-family="sans-serif" font-size="14" lengthAdjust="spacing" textLength="47" x="1312.5" y="1458.9102">factory</text><text fill="#000000" font-family="sans-serif" font-size="14" lengthAdjust="spacing" textLength="127" x="1272.5" y="1475.3984">:RepositoryFactory</text><rect fill="#FEFECE" filter="url(#f8wi10nu1gww1)" height="46.9766" style="stroke:#A80036;stroke-width:1.5;" width="123" x="1420.5" y="36.5117"/><text fill="#000000" font-family="sans-serif" font-size="14" lengthAdjust="spacing" textLength="71" x="1446.5" y="57.0469">repoTasks</text><text fill="#000000" font-family="sans-serif" font-size="14" lengthAdjust="spacing" textLength="109" x="1427.5" y="73.5352">:TaskRepository</text><rect fill="#FEFECE" filter="url(#f8wi10nu1gww1)" height="46.9766" style="stroke:#A80036;stroke-width:1.5;" width="123" x="1420.5" y="1438.375"/><text fill="#000000" font-family="sans-serif" font-size="14" lengthAdjust="spacing" textLength="71" x="1446.5" y="1458.9102">repoTasks</text><text fill="#000000" font-family="sans-serif" font-size="14" lengthAdjust="spacing" textLength="109" x="1427.5" y="1475.3984">:TaskRepository</text><rect fill="#FEFECE" filter="url(#f8wi10nu1gww1)" height="46.9766" style="stroke:#A80036;stroke-width:1.5;" width="153" x="1557.5" y="36.5117"/><text fill="#000000" font-family="sans-serif" font-size="14" lengthAdjust="spacing" textLength="62" x="1603" y="57.0469">repoCats</text><text fill="#000000" font-family="sans-serif" font-size="14" lengthAdjust="spacing" textLength="139" x="1564.5" y="73.5352">:CategoryRepository</text><rect fill="#FEFECE" filter="url(#f8wi10nu1gww1)" height="46.9766" style="stroke:#A80036;stroke-width:1.5;" width="153" x="1557.5" y="1438.375"/><text fill="#000000" font-family="sans-serif" font-size="14" lengthAdjust="spacing" textLength="62" x="1603" y="1458.9102">repoCats</text><text fill="#000000" font-family="sans-serif" font-size="14" lengthAdjust="spacing" textLength="139" x="1564.5" y="1475.3984">:CategoryRepository</text><rect fill="#FEFECE" filter="url(#f8wi10nu1gww1)" height="30.4883" style="stroke:#A80036;stroke-width:1.5;" width="78" x="1724.5" y="1438.375"/><text fill="#000000" font-family="sans-serif" font-size="14" lengthAdjust="spacing" textLength="64" x="1731.5" y="1458.9102">task:Task</text><rect fill="#FEFECE" filter="url(#f8wi10nu1gww1)" height="30.4883" style="stroke:#A80036;stroke-width:1.5;" width="100" x="1816.5" y="53"/><text fill="#000000" font-family="sans-serif" font-size="14" lengthAdjust="spacing" textLength="86" x="1823.5" y="73.5352">cat:Category</text><rect fill="#FEFECE" filter="url(#f8wi10nu1gww1)" height="30.4883" style="stroke:#A80036;stroke-width:1.5;" width="100" x="1816.5" y="1438.375"/><text fill="#000000" font-family="sans-serif" font-size="14" lengthAdjust="spacing" textLength="86" x="1823.5" y="1458.9102">cat:Category</text><rect fill="#FEFECE" filter="url(#f8wi10nu1gww1)" height="46.9766" style="stroke:#A80036;stroke-width:1.5;" width="149" x="1930.5" y="36.5117"/><text fill="#000000" font-family="sans-serif" font-size="14" lengthAdjust="spacing" textLength="114" x="1948" y="57.0469">lstCategoriesDto</text><text fill="#000000" font-family="sans-serif" font-size="14" lengthAdjust="spacing" textLength="135" x="1937.5" y="73.5352">:List&lt;CategoryDto&gt;</text><rect fill="#FEFECE" filter="url(#f8wi10nu1gww1)" height="46.9766" style="stroke:#A80036;stroke-width:1.5;" width="149" x="1930.5" y="1438.375"/><text fill="#000000" font-family="sans-serif" font-size="14" lengthAdjust="spacing" textLength="114" x="1948" y="1458.9102">lstCategoriesDto</text><text fill="#000000" font-family="sans-serif" font-size="14" lengthAdjust="spacing" textLength="135" x="1937.5" y="1475.3984">:List&lt;CategoryDto&gt;</text><rect fill="#FFFFFF" filter="url(#f8wi10nu1gww1)" height="1331.8867" style="stroke:#A80036;stroke-width:1.0;" width="10" x="26.5" y="98.4883"/><rect fill="#FFFFFF" filter="url(#f8wi10nu1gww1)" height="383.2148" style="stroke:#A80036;stroke-width:1.0;" width="10" x="406.5" y="119.7988"/><rect fill="#FFFFFF" filter="url(#f8wi10nu1gww1)" height="146.5527" style="stroke:#A80036;stroke-width:1.0;" width="10" x="406.5" y="532.3242"/><rect fill="#FFFFFF" filter="url(#f8wi10nu1gww1)" height="394.082" style="stroke:#A80036;stroke-width:1.0;" width="10" x="406.5" y="708.1875"/><rect fill="#FFFFFF" filter="url(#f8wi10nu1gww1)" height="289.7949" style="stroke:#A80036;stroke-width:1.0;" width="10" x="406.5" y="1131.5801"/><rect fill="#FFFFFF" filter="url(#f8wi10nu1gww1)" height="309.2832" style="stroke:#A80036;stroke-width:1.0;" width="10" x="571.5" y="149.1094"/><rect fill="#FFFFFF" filter="url(#f8wi10nu1gww1)" height="87.9316" style="stroke:#A80036;stroke-width:1.0;" width="10" x="571.5" y="561.6348"/><rect fill="#FFFFFF" filter="url(#f8wi10nu1gww1)" height="289.9727" style="stroke:#A80036;stroke-width:1.0;" width="10" x="571.5" y="782.9863"/><rect fill="#FFFFFF" filter="url(#f8wi10nu1gww1)" height="231.1738" style="stroke:#A80036;stroke-width:1.0;" width="10" x="571.5" y="1160.8906"/><rect fill="#FFFFFF" filter="url(#f8wi10nu1gww1)" height="29.3105" style="stroke:#A80036;stroke-width:1.0;" width="10" x="752.5" y="178.4199"/><rect fill="#FFFFFF" filter="url(#f8wi10nu1gww1)" height="192.041" style="stroke:#A80036;stroke-width:1.0;" width="10" x="752.5" y="237.041"/><rect fill="#FFFFFF" filter="url(#f8wi10nu1gww1)" height="29.3105" style="stroke:#A80036;stroke-width:1.0;" width="10" x="861" y="590.9453"/><rect fill="#FFFFFF" filter="url(#f8wi10nu1gww1)" height="231.3516" style="stroke:#A80036;stroke-width:1.0;" width="10" x="1053" y="812.2969"/><rect fill="#FFFFFF" filter="url(#f8wi10nu1gww1)" height="172.5527" style="stroke:#A80036;stroke-width:1.0;" width="10" x="1053" y="1190.2012"/><rect fill="#FFFFFF" filter="url(#f8wi10nu1gww1)" height="40.3105" style="stroke:#A80036;stroke-width:1.0;" width="10" x="1058" y="1227.5117"/><rect fill="#FFFFFF" filter="url(#f8wi10nu1gww1)" height="29.3105" style="stroke:#A80036;stroke-width:1.0;" width="10" x="1200" y="841.6074"/><rect fill="#FFFFFF" filter="url(#f8wi10nu1gww1)" height="29.3105" style="stroke:#A80036;stroke-width:1.0;" width="10" x="1333" y="266.3516"/><rect fill="#FFFFFF" filter="url(#f8wi10nu1gww1)" height="29.3105" style="stroke:#A80036;stroke-width:1.0;" width="10" x="1333" y="324.9727"/><rect fill="#FFFFFF" filter="url(#f8wi10nu1gww1)" height="29.3105" style="stroke:#A80036;stroke-width:1.0;" width="10" x="1479" y="1304.1328"/><rect fill="#FFFFFF" filter="url(#f8wi10nu1gww1)" height="29.3105" style="stroke:#A80036;stroke-width:1.0;" width="10" x="1631" y="900.2285"/><polygon fill="#A80036" points="394.5,115.7988,404.5,119.7988,394.5,123.7988,398.5,119.7988" style="stroke:#A80036;stroke-width:1.0;"/><line style="stroke:#A80036;stroke-width:1.0;" x1="36.5" x2="400.5" y1="119.7988" y2="119.7988"/><text fill="#000000" font-family="sans-serif" font-size="13" font-weight="bold" lengthAdjust="spacing" textLength="9" x="43.5" y="115.0566">1</text><text fill="#000000" font-family="sans-serif" font-size="13" lengthAdjust="spacing" textLength="159" x="56.5" y="115.0566">asks to create a new task</text><polygon fill="#A80036" points="559.5,145.1094,569.5,149.1094,559.5,153.1094,563.5,149.1094" style="stroke:#A80036;stroke-width:1.0;"/><line style="stroke:#A80036;stroke-width:1.0;" x1="416.5" x2="565.5" y1="149.1094" y2="149.1094"/><text fill="#000000" font-family="sans-serif" font-size="13" font-weight="bold" lengthAdjust="spacing" textLength="9" x="423.5" y="144.3672">2</text><text fill="#000000" font-family="sans-serif" font-size="13" lengthAdjust="spacing" textLength="37" x="436.5" y="144.3672">start()</text><polygon fill="#A80036" points="740.5,174.4199,750.5,178.4199,740.5,182.4199,744.5,178.4199" style="stroke:#A80036;stroke-width:1.0;"/><line style="stroke:#A80036;stroke-width:1.0;" x1="581.5" x2="746.5" y1="178.4199" y2="178.4199"/><text fill="#000000" font-family="sans-serif" font-size="13" font-weight="bold" lengthAdjust="spacing" textLength="9" x="588.5" y="173.6777">3</text><text fill="#000000" font-family="sans-serif" font-size="13" lengthAdjust="spacing" textLength="139" x="601.5" y="173.6777">getCategoriesService()</text><polygon fill="#A80036" points="592.5,203.7305,582.5,207.7305,592.5,211.7305,588.5,207.7305" style="stroke:#A80036;stroke-width:1.0;"/><line style="stroke:#A80036;stroke-width:1.0;stroke-dasharray:2.0,2.0;" x1="586.5" x2="756.5" y1="207.7305" y2="207.7305"/><text fill="#000000" font-family="sans-serif" font-size="13" font-weight="bold" lengthAdjust="spacing" textLength="9" x="598.5" y="202.9883">4</text><text fill="#000000" font-family="sans-serif" font-size="13" lengthAdjust="spacing" textLength="47" x="611.5" y="202.9883">srvCats</text><polygon fill="#A80036" points="740.5,233.041,750.5,237.041,740.5,241.041,744.5,237.041" style="stroke:#A80036;stroke-width:1.0;"/><line style="stroke:#A80036;stroke-width:1.0;" x1="581.5" x2="746.5" y1="237.041" y2="237.041"/><text fill="#000000" font-family="sans-serif" font-size="13" font-weight="bold" lengthAdjust="spacing" textLength="9" x="588.5" y="232.2988">5</text><text fill="#000000" font-family="sans-serif" font-size="13" lengthAdjust="spacing" textLength="102" x="601.5" y="232.2988">getTaskService()</text><polygon fill="#A80036" points="1321,262.3516,1331,266.3516,1321,270.3516,1325,266.3516" style="stroke:#A80036;stroke-width:1.0;"/><line style="stroke:#A80036;stroke-width:1.0;" x1="762.5" x2="1327" y1="266.3516" y2="266.3516"/><text fill="#000000" font-family="sans-serif" font-size="13" font-weight="bold" lengthAdjust="spacing" textLength="9" x="769.5" y="261.6094">6</text><text fill="#000000" font-family="sans-serif" font-size="13" lengthAdjust="spacing" textLength="132" x="782.5" y="261.6094">getTasksRepository()</text><polygon fill="#A80036" points="773.5,291.6621,763.5,295.6621,773.5,299.6621,769.5,295.6621" style="stroke:#A80036;stroke-width:1.0;"/><line style="stroke:#A80036;stroke-width:1.0;stroke-dasharray:2.0,2.0;" x1="767.5" x2="1337" y1="295.6621" y2="295.6621"/><text fill="#000000" font-family="sans-serif" font-size="13" font-weight="bold" lengthAdjust="spacing" textLength="9" x="779.5" y="290.9199">7</text><text fill="#000000" font-family="sans-serif" font-size="13" lengthAdjust="spacing" textLength="65" x="792.5" y="290.9199">repoTasks</text><polygon fill="#A80036" points="1321,320.9727,1331,324.9727,1321,328.9727,1325,324.9727" style="stroke:#A80036;stroke-width:1.0;"/><line style="stroke:#A80036;stroke-width:1.0;" x1="762.5" x2="1327" y1="324.9727" y2="324.9727"/><text fill="#000000" font-family="sans-serif" font-size="13" font-weight="bold" lengthAdjust="spacing" textLength="9" x="769.5" y="320.2305">8</text><text fill="#000000" font-family="sans-serif" font-size="13" lengthAdjust="spacing" textLength="162" x="782.5" y="320.2305">getCategoriesRepository()</text><polygon fill="#A80036" points="773.5,350.2832,763.5,354.2832,773.5,358.2832,769.5,354.2832" style="stroke:#A80036;stroke-width:1.0;"/><line style="stroke:#A80036;stroke-width:1.0;stroke-dasharray:2.0,2.0;" x1="767.5" x2="1337" y1="354.2832" y2="354.2832"/><text fill="#000000" font-family="sans-serif" font-size="13" font-weight="bold" lengthAdjust="spacing" textLength="9" x="779.5" y="349.541">9</text><text fill="#000000" font-family="sans-serif" font-size="13" lengthAdjust="spacing" textLength="56" x="792.5" y="349.541">repoCats</text><polygon fill="#A80036" points="971.5,379.5938,981.5,383.5938,971.5,387.5938,975.5,383.5938" style="stroke:#A80036;stroke-width:1.0;"/><line style="stroke:#A80036;stroke-width:1.0;stroke-dasharray:2.0,2.0;" x1="762.5" x2="977.5" y1="383.5938" y2="383.5938"/><text fill="#000000" font-family="sans-serif" font-size="13" font-weight="bold" lengthAdjust="spacing" textLength="18" x="769.5" y="378.8516">10</text><text fill="#000000" font-family="sans-serif" font-size="13" lengthAdjust="spacing" textLength="175" x="791.5" y="378.8516">create(repoTasks, repoCats)</text><rect fill="#FEFECE" filter="url(#f8wi10nu1gww1)" height="30.4883" style="stroke:#A80036;stroke-width:1.5;" width="145" x="983.5" y="362.2832"/><text fill="#000000" font-family="sans-serif" font-size="14" lengthAdjust="spacing" textLength="131" x="990.5" y="382.8184">service:TaskService</text><polygon fill="#A80036" points="592.5,425.082,582.5,429.082,592.5,433.082,588.5,429.082" style="stroke:#A80036;stroke-width:1.0;"/><line style="stroke:#A80036;stroke-width:1.0;stroke-dasharray:2.0,2.0;" x1="586.5" x2="756.5" y1="429.082" y2="429.082"/><text fill="#000000" font-family="sans-serif" font-size="13" font-weight="bold" lengthAdjust="spacing" textLength="18" x="598.5" y="424.3398">11</text><text fill="#000000" font-family="sans-serif" font-size="13" lengthAdjust="spacing" textLength="44" x="620.5" y="424.3398">service</text><polygon fill="#A80036" points="427.5,454.3926,417.5,458.3926,427.5,462.3926,423.5,458.3926" style="stroke:#A80036;stroke-width:1.0;"/><line style="stroke:#A80036;stroke-width:1.0;stroke-dasharray:2.0,2.0;" x1="421.5" x2="575.5" y1="458.3926" y2="458.3926"/><text fill="#000000" font-family="sans-serif" font-size="13" font-weight="bold" lengthAdjust="spacing" textLength="18" x="433.5" y="453.6504">12</text><text fill="#000000" font-family="sans-serif" font-size="13" lengthAdjust="spacing" textLength="0" x="459.5" y="453.6504"/><polygon fill="#A80036" points="47.5,499.0137,37.5,503.0137,47.5,507.0137,43.5,503.0137" style="stroke:#A80036;stroke-width:1.0;"/><line style="stroke:#A80036;stroke-width:1.0;stroke-dasharray:2.0,2.0;" x1="41.5" x2="410.5" y1="503.0137" y2="503.0137"/><text fill="#000000" font-family="sans-serif" font-size="13" font-weight="bold" lengthAdjust="spacing" textLength="18" x="53.5" y="490.6162">13</text><text fill="#000000" font-family="sans-serif" font-size="13" lengthAdjust="spacing" textLength="324" x="75.5" y="482.9609">requests data (reference, title, informal description,</text><text fill="#000000" font-family="sans-serif" font-size="13" lengthAdjust="spacing" textLength="311" x="75.5" y="498.2715">technical description, effort estimation, deadline)</text><polygon fill="#A80036" points="394.5,528.3242,404.5,532.3242,394.5,536.3242,398.5,532.3242" style="stroke:#A80036;stroke-width:1.0;"/><line style="stroke:#A80036;stroke-width:1.0;" x1="36.5" x2="400.5" y1="532.3242" y2="532.3242"/><text fill="#000000" font-family="sans-serif" font-size="13" font-weight="bold" lengthAdjust="spacing" textLength="18" x="43.5" y="527.582">14</text><text fill="#000000" font-family="sans-serif" font-size="13" lengthAdjust="spacing" textLength="131" x="65.5" y="527.582">types requested data</text><polygon fill="#A80036" points="559.5,557.6348,569.5,561.6348,559.5,565.6348,563.5,561.6348" style="stroke:#A80036;stroke-width:1.0;"/><line style="stroke:#A80036;stroke-width:1.0;" x1="416.5" x2="565.5" y1="561.6348" y2="561.6348"/><text fill="#000000" font-family="sans-serif" font-size="13" font-weight="bold" lengthAdjust="spacing" textLength="18" x="423.5" y="556.8926">15</text><text fill="#000000" font-family="sans-serif" font-size="13" lengthAdjust="spacing" textLength="95" x="445.5" y="556.8926">getCategories()</text><polygon fill="#A80036" points="849,586.9453,859,590.9453,849,594.9453,853,590.9453" style="stroke:#A80036;stroke-width:1.0;"/><line style="stroke:#A80036;stroke-width:1.0;" x1="581.5" x2="855" y1="590.9453" y2="590.9453"/><text fill="#000000" font-family="sans-serif" font-size="13" font-weight="bold" lengthAdjust="spacing" textLength="18" x="588.5" y="586.2031">16</text><text fill="#000000" font-family="sans-serif" font-size="13" lengthAdjust="spacing" textLength="95" x="610.5" y="586.2031">getCategories()</text><polygon fill="#A80036" points="592.5,616.2559,582.5,620.2559,592.5,624.2559,588.5,620.2559" style="stroke:#A80036;stroke-width:1.0;"/><line style="stroke:#A80036;stroke-width:1.0;stroke-dasharray:2.0,2.0;" x1="586.5" x2="865" y1="620.2559" y2="620.2559"/><text fill="#000000" font-family="sans-serif" font-size="13" font-weight="bold" lengthAdjust="spacing" textLength="18" x="598.5" y="615.5137">17</text><text fill="#000000" font-family="sans-serif" font-size="13" lengthAdjust="spacing" textLength="106" x="620.5" y="615.5137">lstCategoriesDto</text><polygon fill="#A80036" points="427.5,645.5664,417.5,649.5664,427.5,653.5664,423.5,649.5664" style="stroke:#A80036;stroke-width:1.0;"/><line style="stroke:#A80036;stroke-width:1.0;stroke-dasharray:2.0,2.0;" x1="421.5" x2="575.5" y1="649.5664" y2="649.5664"/><text fill="#000000" font-family="sans-serif" font-size="13" font-weight="bold" lengthAdjust="spacing" textLength="18" x="433.5" y="644.8242">18</text><text fill="#000000" font-family="sans-serif" font-size="13" lengthAdjust="spacing" textLength="106" x="455.5" y="644.8242">lstCategoriesDto</text><polygon fill="#A80036" points="47.5,674.877,37.5,678.877,47.5,682.877,43.5,678.877" style="stroke:#A80036;stroke-width:1.0;"/><line style="stroke:#A80036;stroke-width:1.0;stroke-dasharray:2.0,2.0;" x1="41.5" x2="410.5" y1="678.877" y2="678.877"/><text fill="#000000" font-family="sans-serif" font-size="13" font-weight="bold" lengthAdjust="spacing" textLength="18" x="53.5" y="674.1348">19</text><text fill="#000000" font-family="sans-serif" font-size="13" lengthAdjust="spacing" textLength="302" x="75.5" y="674.1348">shows existing categories and ask to select one</text><polygon fill="#A80036" points="394.5,704.1875,404.5,708.1875,394.5,712.1875,398.5,708.1875" style="stroke:#A80036;stroke-width:1.0;"/><line style="stroke:#A80036;stroke-width:1.0;" x1="36.5" x2="400.5" y1="708.1875" y2="708.1875"/><text fill="#000000" font-family="sans-serif" font-size="13" font-weight="bold" lengthAdjust="spacing" textLength="18" x="43.5" y="703.4453">20</text><text fill="#000000" font-family="sans-serif" font-size="13" lengthAdjust="spacing" textLength="178" x="65.5" y="703.4453">select the intended category</text><polygon fill="#A80036" points="1142.5,733.498,1152.5,737.498,1142.5,741.498,1146.5,737.498" style="stroke:#A80036;stroke-width:1.0;"/><line style="stroke:#A80036;stroke-width:1.0;stroke-dasharray:2.0,2.0;" x1="416.5" x2="1148.5" y1="737.498" y2="737.498"/><text fill="#000000" font-family="sans-serif" font-size="13" font-weight="bold" lengthAdjust="spacing" textLength="18" x="423.5" y="732.7559">21</text><text fill="#000000" font-family="sans-serif" font-size="13" lengthAdjust="spacing" textLength="353" x="445.5" y="732.7559">create(ref, title, infDesc, tecDesc, effort, deadline, catId)</text><rect fill="#FEFECE" filter="url(#f8wi10nu1gww1)" height="30.4883" style="stroke:#A80036;stroke-width:1.5;" width="97" x="1154.5" y="716.1875"/><text fill="#000000" font-family="sans-serif" font-size="14" lengthAdjust="spacing" textLength="83" x="1161.5" y="736.7227">dto:TaskDto</text><polygon fill="#A80036" points="559.5,778.9863,569.5,782.9863,559.5,786.9863,563.5,782.9863" style="stroke:#A80036;stroke-width:1.0;"/><line style="stroke:#A80036;stroke-width:1.0;" x1="416.5" x2="565.5" y1="782.9863" y2="782.9863"/><text fill="#000000" font-family="sans-serif" font-size="13" font-weight="bold" lengthAdjust="spacing" textLength="18" x="423.5" y="778.2441">22</text><text fill="#000000" font-family="sans-serif" font-size="13" lengthAdjust="spacing" textLength="97" x="445.5" y="778.2441">createTask(dto)</text><polygon fill="#A80036" points="1041,808.2969,1051,812.2969,1041,816.2969,1045,812.2969" style="stroke:#A80036;stroke-width:1.0;"/><line style="stroke:#A80036;stroke-width:1.0;" x1="581.5" x2="1047" y1="812.2969" y2="812.2969"/><text fill="#000000" font-family="sans-serif" font-size="13" font-weight="bold" lengthAdjust="spacing" textLength="18" x="588.5" y="807.5547">23</text><text fill="#000000" font-family="sans-serif" font-size="13" lengthAdjust="spacing" textLength="67" x="610.5" y="807.5547">create(dto)</text><polygon fill="#A80036" points="1188,837.6074,1198,841.6074,1188,845.6074,1192,841.6074" style="stroke:#A80036;stroke-width:1.0;"/><line style="stroke:#A80036;stroke-width:1.0;" x1="1063" x2="1194" y1="841.6074" y2="841.6074"/><text fill="#000000" font-family="sans-serif" font-size="13" font-weight="bold" lengthAdjust="spacing" textLength="18" x="1070" y="836.8652">24</text><text fill="#000000" font-family="sans-serif" font-size="13" lengthAdjust="spacing" textLength="96" x="1092" y="836.8652">getCategoryId()</text><polygon fill="#A80036" points="1074,866.918,1064,870.918,1074,874.918,1070,870.918" style="stroke:#A80036;stroke-width:1.0;"/><line style="stroke:#A80036;stroke-width:1.0;stroke-dasharray:2.0,2.0;" x1="1068" x2="1204" y1="870.918" y2="870.918"/><text fill="#000000" font-family="sans-serif" font-size="13" font-weight="bold" lengthAdjust="spacing" textLength="18" x="1080" y="866.1758">25</text><text fill="#000000" font-family="sans-serif" font-size="13" lengthAdjust="spacing" textLength="31" x="1102" y="866.1758">catId</text><polygon fill="#A80036" points="1619,896.2285,1629,900.2285,1619,904.2285,1623,900.2285" style="stroke:#A80036;stroke-width:1.0;"/><line style="stroke:#A80036;stroke-width:1.0;" x1="1063" x2="1625" y1="900.2285" y2="900.2285"/><text fill="#000000" font-family="sans-serif" font-size="13" font-weight="bold" lengthAdjust="spacing" textLength="18" x="1070" y="895.4863">26</text><text fill="#000000" font-family="sans-serif" font-size="13" lengthAdjust="spacing" textLength="85" x="1092" y="895.4863">getById(catId)</text><polygon fill="#A80036" points="1074,925.5391,1064,929.5391,1074,933.5391,1070,929.5391" style="stroke:#A80036;stroke-width:1.0;"/><line style="stroke:#A80036;stroke-width:1.0;stroke-dasharray:2.0,2.0;" x1="1068" x2="1635" y1="929.5391" y2="929.5391"/><text fill="#000000" font-family="sans-serif" font-size="13" font-weight="bold" lengthAdjust="spacing" textLength="18" x="1080" y="924.7969">27</text><text fill="#000000" font-family="sans-serif" font-size="13" lengthAdjust="spacing" textLength="19" x="1102" y="924.7969">cat</text><path d="M998,942.5391 L998,967.5391 L1265,967.5391 L1265,952.5391 L1255,942.5391 L998,942.5391 " fill="#FBFB77" filter="url(#f8wi10nu1gww1)" style="stroke:#A80036;stroke-width:1.0;"/><path d="M1255,942.5391 L1255,952.5391 L1265,952.5391 L1255,942.5391 " fill="#FBFB77" style="stroke:#A80036;stroke-width:1.0;"/><text fill="#000000" font-family="sans-serif" font-size="13" lengthAdjust="spacing" textLength="214" x="1018" y="960.1074">extracting more data from the dto</text><polygon fill="#A80036" points="1712.5,994.1602,1722.5,998.1602,1712.5,1002.1602,1716.5,998.1602" style="stroke:#A80036;stroke-width:1.0;"/><line style="stroke:#A80036;stroke-width:1.0;stroke-dasharray:2.0,2.0;" x1="1063" x2="1718.5" y1="998.1602" y2="998.1602"/><text fill="#000000" font-family="sans-serif" font-size="13" font-weight="bold" lengthAdjust="spacing" textLength="18" x="1070" y="993.418">28</text><text fill="#000000" font-family="sans-serif" font-size="13" lengthAdjust="spacing" textLength="314" x="1092" y="993.418">create(ref, title, infDesc, tecDesc, effort, deadline,</text><text fill="#000000" font-family="sans-serif" font-size="13" font-weight="bold" lengthAdjust="spacing" textLength="20" x="1410" y="993.418">cat</text><text fill="#000000" font-family="sans-serif" font-size="13" lengthAdjust="spacing" textLength="4" x="1430" y="993.418">)</text><rect fill="#FEFECE" filter="url(#f8wi10nu1gww1)" height="30.4883" style="stroke:#A80036;stroke-width:1.5;" width="78" x="1724.5" y="976.8496"/><text fill="#000000" font-family="sans-serif" font-size="14" lengthAdjust="spacing" textLength="64" x="1731.5" y="997.3848">task:Task</text><polygon fill="#A80036" points="592.5,1039.6484,582.5,1043.6484,592.5,1047.6484,588.5,1043.6484" style="stroke:#A80036;stroke-width:1.0;"/><line style="stroke:#A80036;stroke-width:1.0;stroke-dasharray:2.0,2.0;" x1="586.5" x2="1057" y1="1043.6484" y2="1043.6484"/><text fill="#000000" font-family="sans-serif" font-size="13" font-weight="bold" lengthAdjust="spacing" textLength="18" x="598.5" y="1038.9063">29</text><text fill="#000000" font-family="sans-serif" font-size="13" lengthAdjust="spacing" textLength="27" x="620.5" y="1038.9063">task</text><polygon fill="#A80036" points="427.5,1068.959,417.5,1072.959,427.5,1076.959,423.5,1072.959" style="stroke:#A80036;stroke-width:1.0;"/><line style="stroke:#A80036;stroke-width:1.0;stroke-dasharray:2.0,2.0;" x1="421.5" x2="575.5" y1="1072.959" y2="1072.959"/><text fill="#000000" font-family="sans-serif" font-size="13" font-weight="bold" lengthAdjust="spacing" textLength="18" x="433.5" y="1068.2168">30</text><text fill="#000000" font-family="sans-serif" font-size="13" lengthAdjust="spacing" textLength="16" x="455.5" y="1068.2168">ok</text><polygon fill="#A80036" points="47.5,1098.2695,37.5,1102.2695,47.5,1106.2695,43.5,1102.2695" style="stroke:#A80036;stroke-width:1.0;"/><line style="stroke:#A80036;stroke-width:1.0;stroke-dasharray:2.0,2.0;" x1="41.5" x2="410.5" y1="1102.2695" y2="1102.2695"/><text fill="#000000" font-family="sans-serif" font-size="13" font-weight="bold" lengthAdjust="spacing" textLength="18" x="53.5" y="1097.5273">31</text><text fill="#000000" font-family="sans-serif" font-size="13" lengthAdjust="spacing" textLength="260" x="75.5" y="1097.5273">shows all data and requests confirmation</text><polygon fill="#A80036" points="394.5,1127.5801,404.5,1131.5801,394.5,1135.5801,398.5,1131.5801" style="stroke:#A80036;stroke-width:1.0;"/><line style="stroke:#A80036;stroke-width:1.0;" x1="36.5" x2="400.5" y1="1131.5801" y2="1131.5801"/><text fill="#000000" font-family="sans-serif" font-size="13" font-weight="bold" lengthAdjust="spacing" textLength="18" x="43.5" y="1126.8379">32</text><text fill="#000000" font-family="sans-serif" font-size="13" lengthAdjust="spacing" textLength="111" x="65.5" y="1126.8379">confirms the data</text><polygon fill="#A80036" points="559.5,1156.8906,569.5,1160.8906,559.5,1164.8906,563.5,1160.8906" style="stroke:#A80036;stroke-width:1.0;"/><line style="stroke:#A80036;stroke-width:1.0;" x1="416.5" x2="565.5" y1="1160.8906" y2="1160.8906"/><text fill="#000000" font-family="sans-serif" font-size="13" font-weight="bold" lengthAdjust="spacing" textLength="18" x="423.5" y="1156.1484">33</text><text fill="#000000" font-family="sans-serif" font-size="13" lengthAdjust="spacing" textLength="114" x="445.5" y="1156.1484">saveCreatedTask()</text><polygon fill="#A80036" points="1041,1186.2012,1051,1190.2012,1041,1194.2012,1045,1190.2012" style="stroke:#A80036;stroke-width:1.0;"/><line style="stroke:#A80036;stroke-width:1.0;" x1="581.5" x2="1047" y1="1190.2012" y2="1190.2012"/><text fill="#000000" font-family="sans-serif" font-size="13" font-weight="bold" lengthAdjust="spacing" textLength="18" x="588.5" y="1185.459">34</text><text fill="#000000" font-family="sans-serif" font-size="13" lengthAdjust="spacing" textLength="63" x="610.5" y="1185.459">save(task)</text><line style="stroke:#A80036;stroke-width:1.0;" x1="1063" x2="1110" y1="1214.5117" y2="1214.5117"/><line style="stroke:#A80036;stroke-width:1.0;" x1="1110" x2="1110" y1="1214.5117" y2="1227.5117"/><line style="stroke:#A80036;stroke-width:1.0;" x1="1069" x2="1110" y1="1227.5117" y2="1227.5117"/><polygon fill="#A80036" points="1079,1223.5117,1069,1227.5117,1079,1231.5117,1075,1227.5117" style="stroke:#A80036;stroke-width:1.0;"/><text fill="#000000" font-family="sans-serif" font-size="13" font-weight="bold" lengthAdjust="spacing" textLength="18" x="1075" y="1209.7695">35</text><text fill="#000000" font-family="sans-serif" font-size="13" lengthAdjust="spacing" textLength="84" x="1097" y="1209.7695">validate(task)</text><line style="stroke:#A80036;stroke-width:1.0;stroke-dasharray:2.0,2.0;" x1="1068" x2="1110" y1="1266.8223" y2="1266.8223"/><line style="stroke:#A80036;stroke-width:1.0;stroke-dasharray:2.0,2.0;" x1="1110" x2="1110" y1="1266.8223" y2="1279.8223"/><line style="stroke:#A80036;stroke-width:1.0;stroke-dasharray:2.0,2.0;" x1="1063" x2="1110" y1="1279.8223" y2="1279.8223"/><polygon fill="#A80036" points="1073,1275.8223,1063,1279.8223,1073,1283.8223,1069,1279.8223" style="stroke:#A80036;stroke-width:1.0;"/><text fill="#000000" font-family="sans-serif" font-size="13" font-weight="bold" lengthAdjust="spacing" textLength="18" x="1075" y="1262.0801">36</text><text fill="#000000" font-family="sans-serif" font-size="13" lengthAdjust="spacing" textLength="16" x="1097" y="1262.0801">ok</text><polygon fill="#A80036" points="1467,1300.1328,1477,1304.1328,1467,1308.1328,1471,1304.1328" style="stroke:#A80036;stroke-width:1.0;"/><line style="stroke:#A80036;stroke-width:1.0;" x1="1063" x2="1473" y1="1304.1328" y2="1304.1328"/><text fill="#000000" font-family="sans-serif" font-size="13" font-weight="bold" lengthAdjust="spacing" textLength="18" x="1070" y="1299.3906">37</text><text fill="#000000" font-family="sans-serif" font-size="13" lengthAdjust="spacing" textLength="63" x="1092" y="1299.3906">save(task)</text><polygon fill="#A80036" points="1074,1329.4434,1064,1333.4434,1074,1337.4434,1070,1333.4434" style="stroke:#A80036;stroke-width:1.0;"/><line style="stroke:#A80036;stroke-width:1.0;stroke-dasharray:2.0,2.0;" x1="1068" x2="1483" y1="1333.4434" y2="1333.4434"/><text fill="#000000" font-family="sans-serif" font-size="13" font-weight="bold" lengthAdjust="spacing" textLength="18" x="1080" y="1328.7012">38</text><text fill="#000000" font-family="sans-serif" font-size="13" lengthAdjust="spacing" textLength="16" x="1102" y="1328.7012">ok</text><polygon fill="#A80036" points="592.5,1358.7539,582.5,1362.7539,592.5,1366.7539,588.5,1362.7539" style="stroke:#A80036;stroke-width:1.0;"/><line style="stroke:#A80036;stroke-width:1.0;stroke-dasharray:2.0,2.0;" x1="586.5" x2="1057" y1="1362.7539" y2="1362.7539"/><text fill="#000000" font-family="sans-serif" font-size="13" font-weight="bold" lengthAdjust="spacing" textLength="18" x="598.5" y="1358.0117">39</text><text fill="#000000" font-family="sans-serif" font-size="13" lengthAdjust="spacing" textLength="16" x="620.5" y="1358.0117">ok</text><polygon fill="#A80036" points="427.5,1388.0645,417.5,1392.0645,427.5,1396.0645,423.5,1392.0645" style="stroke:#A80036;stroke-width:1.0;"/><line style="stroke:#A80036;stroke-width:1.0;stroke-dasharray:2.0,2.0;" x1="421.5" x2="575.5" y1="1392.0645" y2="1392.0645"/><text fill="#000000" font-family="sans-serif" font-size="13" font-weight="bold" lengthAdjust="spacing" textLength="18" x="433.5" y="1387.3223">40</text><text fill="#000000" font-family="sans-serif" font-size="13" lengthAdjust="spacing" textLength="16" x="455.5" y="1387.3223">ok</text><polygon fill="#A80036" points="47.5,1417.375,37.5,1421.375,47.5,1425.375,43.5,1421.375" style="stroke:#A80036;stroke-width:1.0;"/><line style="stroke:#A80036;stroke-width:1.0;stroke-dasharray:2.0,2.0;" x1="41.5" x2="410.5" y1="1421.375" y2="1421.375"/><text fill="#000000" font-family="sans-serif" font-size="13" font-weight="bold" lengthAdjust="spacing" textLength="18" x="53.5" y="1416.6328">41</text><text fill="#000000" font-family="sans-serif" font-size="13" lengthAdjust="spacing" textLength="167" x="75.5" y="1416.6328">informs operation success</text><!--MD5=[6b029f19f1a3b14eb656369d1c5b8c8b]
@startuml
'https://plantuml.com/sequence-diagram
autoactivate on
autonumber

actor "Person" as User
participant ":CreateTaskView" as System
participant ":CreateTaskController" as Ctrl
participant ":Person" as Person
participant "srvCats:\nCategoryService" as SrvCategories
participant "service:TaskService" as Service
participant "dto:TaskDto" as TaskDto
participant "factory\n:RepositoryFactory" as Factory
participant "repoTasks\n:TaskRepository" as RepoTask
participant "repoCats\n:CategoryRepository" as RepoCats
participant "task:Task" as Task
participant "cat:Category" as Category
participant "lstCategoriesDto\n:List<CategoryDto>" as LstCategoriesDto



activate User

User -> System: asks to create a new task
System -> Ctrl: start()
Ctrl -> Person: getCategoriesService()
Person - -> Ctrl: srvCats
Ctrl -> Person: getTaskService()
Person -> Factory : getTasksRepository()
Factory - -> Person: repoTasks
Person -> Factory : getCategoriesRepository()
Factory - -> Person: repoCats
Person - ->Service**: create(repoTasks, repoCats)
Person - -> Ctrl: service
Ctrl - -> System:
System - -> User: requests data (reference, title, informal description,\ntechnical description, effort estimation, deadline)

User -> System: types requested data
System -> Ctrl: getCategories()

Ctrl -> SrvCategories : getCategories()
SrvCategories - -> Ctrl: lstCategoriesDto
Ctrl- -> System: lstCategoriesDto
System - -> User: shows existing categories and ask to select one

User -> System: select the intended category
System - -> TaskDto**: create(ref, title, infDesc, tecDesc, effort, deadline, catId)
System -> Ctrl: createTask(dto)

Ctrl -> Service: create(dto)
Service -> TaskDto: getCategoryId()
TaskDto - -> Service: catId
Service -> RepoCats: getById(catId)
RepoCats - -> Service : cat
note over Service, TaskDto: extracting more data from the dto
Service - -> Task**: create(ref, title, infDesc, tecDesc, effort, deadline, **cat**)
Service - -> Ctrl: task
Ctrl - -> System: ok
System - -> User: shows all data and requests confirmation

User -> System: confirms the data
System -> Ctrl: saveCreatedTask()
Ctrl -> Service: save(task)
Service -> Service : validate(task)
Service - -> Service : ok
Service -> RepoTask: save(task)
RepoTask - -> Service : ok
Service - -> Ctrl: ok
Ctrl - -> System: ok
System - -> User: informs operation success
@enduml

@startuml
autoactivate on
autonumber

actor "Person" as User
participant ":CreateTaskView" as System
participant ":CreateTaskController" as Ctrl
participant ":Person" as Person
participant "srvCats:\nCategoryService" as SrvCategories
participant "service:TaskService" as Service
participant "dto:TaskDto" as TaskDto
participant "factory\n:RepositoryFactory" as Factory
participant "repoTasks\n:TaskRepository" as RepoTask
participant "repoCats\n:CategoryRepository" as RepoCats
participant "task:Task" as Task
participant "cat:Category" as Category
participant "lstCategoriesDto\n:List<CategoryDto>" as LstCategoriesDto



activate User

User -> System: asks to create a new task
System -> Ctrl: start()
Ctrl -> Person: getCategoriesService()
Person - -> Ctrl: srvCats
Ctrl -> Person: getTaskService()
Person -> Factory : getTasksRepository()
Factory - -> Person: repoTasks
Person -> Factory : getCategoriesRepository()
Factory - -> Person: repoCats
Person - ->Service**: create(repoTasks, repoCats)
Person - -> Ctrl: service
Ctrl - -> System:
System - -> User: requests data (reference, title, informal description,\ntechnical description, effort estimation, deadline)

User -> System: types requested data
System -> Ctrl: getCategories()

Ctrl -> SrvCategories : getCategories()
SrvCategories - -> Ctrl: lstCategoriesDto
Ctrl- -> System: lstCategoriesDto
System - -> User: shows existing categories and ask to select one

User -> System: select the intended category
System - -> TaskDto**: create(ref, title, infDesc, tecDesc, effort, deadline, catId)
System -> Ctrl: createTask(dto)

Ctrl -> Service: create(dto)
Service -> TaskDto: getCategoryId()
TaskDto - -> Service: catId
Service -> RepoCats: getById(catId)
RepoCats - -> Service : cat
note over Service, TaskDto: extracting more data from the dto
Service - -> Task**: create(ref, title, infDesc, tecDesc, effort, deadline, **cat**)
Service - -> Ctrl: task
Ctrl - -> System: ok
System - -> User: shows all data and requests confirmation

User -> System: confirms the data
System -> Ctrl: saveCreatedTask()
Ctrl -> Service: save(task)
Service -> Service : validate(task)
Service - -> Service : ok
Service -> RepoTask: save(task)
RepoTask - -> Service : ok
Service - -> Ctrl: ok
Ctrl - -> System: ok
System - -> User: informs operation success
@enduml

PlantUML version 1.2021.7(Sun May 23 13:40:07 WEST 2021)
(GPL source distribution)
Java Runtime: OpenJDK Runtime Environment
JVM: OpenJDK 64-Bit Server VM
Default Encoding: UTF-8
Language: en
Country: PT
--></g></svg>