@startuml
'https://plantuml.com/sequence-diagram
title SD_PersonCreatingServices
autoactivate on
autonumber


participant ":{XXX}Controller" as Ctrl
participant ":Person" as Person
participant "srvCats:\nCategoryService" as SrvCategories
participant "srvTasks:TaskService" as Service

participant "factory\n:RepositoryFactory" as Factory
participant "repoTasks\n:TaskRepository" as RepoTask
participant "repoCats\n:CategoryRepository" as RepoCats



activate Ctrl

Ctrl -> Person: getCategoriesService()
Person -> Factory : getCategoriesRepository()
Factory --> Person: repoCats
Person -->SrvCategories**: create(repoCats)
Person --> Ctrl: srvCats

Ctrl -> Person: getTaskService()
Person -> Factory : getTasksRepository()
Factory --> Person: repoTasks
Person -> Factory : getCategoriesRepository()
Factory --> Person: repoCats
Person -->Service**: create(repoTasks, repoCats)
Person --> Ctrl: srvTasks

@enduml