@startuml
'https://plantuml.com/sequence-diagram
autoactivate on
autonumber

actor "Person" as User
participant ":CreateTaskView" as System
participant ":CreateTaskController" as Ctrl
participant ":Person" as Person
participant "srvCats:\nCategoryService" as SrvCategories
participant "service:TaskService" as Service
participant "dto:TaskDto" as TaskDto
participant "factory\n:RepositoryFactory" as Factory
participant "repoTasks\n:TaskRepository" as RepoTask
participant "repoCats\n:CategoryRepository" as RepoCats
participant "task:Task" as Task
participant "cat:Category" as Category
participant "lstCategoriesDto\n:List<CategoryDto>" as LstCategoriesDto



activate User

User -> System: asks to create a new task
System -> Ctrl: start()
Ctrl -> Person: getCategoriesService()
Person --> Ctrl: srvCats
Ctrl -> Person: getTaskService()
Person -> Factory : getTasksRepository()
Factory --> Person: repoTasks
Person -> Factory : getCategoriesRepository()
Factory --> Person: repoCats
Person -->Service**: create(repoTasks, repoCats)
Person --> Ctrl: service
Ctrl --> System:
System --> User: requests data (reference, title, informal description,\ntechnical description, effort estimation, deadline)

User -> System: types requested data
System -> Ctrl: getCategories()

Ctrl -> SrvCategories : getCategories()
SrvCategories --> Ctrl: lstCategoriesDto
Ctrl--> System: lstCategoriesDto
System --> User: shows existing categories and ask to select one

User -> System: select the intended category
System --> TaskDto**: create(ref, title, infDesc, tecDesc, effort, deadline, catId)
System -> Ctrl: createTask(dto)

Ctrl -> Service: create(dto)
Service -> TaskDto: getCategoryId()
TaskDto --> Service: catId
Service -> RepoCats: getById(catId)
RepoCats --> Service : cat
note over Service, TaskDto: extracting more data from the dto
Service --> Task**: create(ref, title, infDesc, tecDesc, effort, deadline, **cat**)
Service --> Ctrl: task
Ctrl --> System: ok
System --> User: shows all data and requests confirmation

User -> System: confirms the data
System -> Ctrl: saveCreatedTask()
Ctrl -> Service: save(task)
Service -> Service : validate(task)
Service --> Service : ok
Service -> RepoTask: save(task)
RepoTask --> Service : ok
Service --> Ctrl: ok
Ctrl --> System: ok
System --> User: informs operation success
@enduml