<?xml version="1.0" encoding="UTF-8" standalone="no"?><svg xmlns="http://www.w3.org/2000/svg" xmlns:xlink="http://www.w3.org/1999/xlink" contentScriptType="application/ecmascript" contentStyleType="text/css" height="1011px" preserveAspectRatio="none" style="width:1383px;height:1011px;background:#FFFFFF;" version="1.1" viewBox="0 0 1383 1011" width="1383px" zoomAndPan="magnify"><defs><filter height="300%" id="f1r07w3kplnrgp" width="300%" x="-1" y="-1"><feGaussianBlur result="blurOut" stdDeviation="2.0"/><feColorMatrix in="blurOut" result="blurOut2" type="matrix" values="0 0 0 0 0 0 0 0 0 0 0 0 0 0 0 0 0 0 .4 0"/><feOffset dx="4.0" dy="4.0" in="blurOut2" result="blurOut3"/><feBlend in="SourceGraphic" in2="blurOut3" mode="normal"/></filter></defs><g><rect fill="#FFFFFF" filter="url(#f1r07w3kplnrgp)" height="819.6953" style="stroke:#A80036;stroke-width:1.0;" width="10" x="26.5" y="98.4883"/><rect fill="#FFFFFF" filter="url(#f1r07w3kplnrgp)" height="220.4844" style="stroke:#A80036;stroke-width:1.0;" width="10" x="341.5" y="119.7988"/><rect fill="#FFFFFF" filter="url(#f1r07w3kplnrgp)" height="187.8633" style="stroke:#A80036;stroke-width:1.0;" width="10" x="341.5" y="369.5938"/><rect fill="#FFFFFF" filter="url(#f1r07w3kplnrgp)" height="40.3105" style="stroke:#A80036;stroke-width:1.0;" width="10" x="346.5" y="406.9043"/><rect fill="#FFFFFF" filter="url(#f1r07w3kplnrgp)" height="322.416" style="stroke:#A80036;stroke-width:1.0;" width="10" x="341.5" y="586.7676"/><rect fill="#FFFFFF" filter="url(#f1r07w3kplnrgp)" height="146.5527" style="stroke:#A80036;stroke-width:1.0;" width="10" x="635.5" y="149.1094"/><rect fill="#FFFFFF" filter="url(#f1r07w3kplnrgp)" height="205.1738" style="stroke:#A80036;stroke-width:1.0;" width="10" x="635.5" y="674.6992"/><rect fill="#FFFFFF" filter="url(#f1r07w3kplnrgp)" height="29.3105" style="stroke:#A80036;stroke-width:1.0;" width="10" x="833.5" y="178.4199"/><rect fill="#FFFFFF" filter="url(#f1r07w3kplnrgp)" height="29.3105" style="stroke:#A80036;stroke-width:1.0;" width="10" x="986.5" y="237.041"/><rect fill="#FFFFFF" filter="url(#f1r07w3kplnrgp)" height="29.3105" style="stroke:#A80036;stroke-width:1.0;" width="10" x="986.5" y="704.0098"/><rect fill="#FFFFFF" filter="url(#f1r07w3kplnrgp)" height="29.3105" style="stroke:#A80036;stroke-width:1.0;" width="10" x="986.5" y="821.252"/><rect fill="#FFFFFF" filter="url(#f1r07w3kplnrgp)" height="29.3105" style="stroke:#A80036;stroke-width:1.0;" width="10" x="1316" y="483.5254"/><rect fill="#FFFFFF" filter="url(#f1r07w3kplnrgp)" height="29.3105" style="stroke:#A80036;stroke-width:1.0;" width="10" x="1316" y="616.0781"/><rect fill="#FFFFFF" filter="url(#f1r07w3kplnrgp)" height="29.3105" style="stroke:#A80036;stroke-width:1.0;" width="10" x="1316" y="762.6309"/><line style="stroke:#A80036;stroke-width:1.0;stroke-dasharray:5.0,5.0;" x1="31" x2="31" y1="88.4883" y2="927.1836"/><line style="stroke:#A80036;stroke-width:1.0;stroke-dasharray:5.0,5.0;" x1="346" x2="346" y1="88.4883" y2="927.1836"/><line style="stroke:#A80036;stroke-width:1.0;stroke-dasharray:5.0,5.0;" x1="640" x2="640" y1="88.4883" y2="927.1836"/><line style="stroke:#A80036;stroke-width:1.0;stroke-dasharray:5.0,5.0;" x1="838" x2="838" y1="88.4883" y2="927.1836"/><line style="stroke:#A80036;stroke-width:1.0;stroke-dasharray:5.0,5.0;" x1="991" x2="991" y1="88.4883" y2="927.1836"/><line style="stroke:#A80036;stroke-width:1.0;stroke-dasharray:5.0,5.0;" x1="1184" x2="1184" y1="88.4883" y2="927.1836"/><line style="stroke:#A80036;stroke-width:1.0;stroke-dasharray:5.0,5.0;" x1="1321" x2="1321" y1="88.4883" y2="927.1836"/><text fill="#000000" font-family="sans-serif" font-size="14" lengthAdjust="spacing" textLength="47" x="5" y="85.5352">Person</text><ellipse cx="31.5" cy="15" fill="#FEFECE" filter="url(#f1r07w3kplnrgp)" rx="8" ry="8" style="stroke:#A80036;stroke-width:2.0;"/><path d="M31.5,23 L31.5,50 M18.5,31 L44.5,31 M31.5,50 L18.5,65 M31.5,50 L44.5,65 " fill="none" filter="url(#f1r07w3kplnrgp)" style="stroke:#A80036;stroke-width:2.0;"/><text fill="#000000" font-family="sans-serif" font-size="14" lengthAdjust="spacing" textLength="47" x="5" y="939.7188">Person</text><ellipse cx="31.5" cy="952.6719" fill="#FEFECE" filter="url(#f1r07w3kplnrgp)" rx="8" ry="8" style="stroke:#A80036;stroke-width:2.0;"/><path d="M31.5,960.6719 L31.5,987.6719 M18.5,968.6719 L44.5,968.6719 M31.5,987.6719 L18.5,1002.6719 M31.5,987.6719 L44.5,1002.6719 " fill="none" filter="url(#f1r07w3kplnrgp)" style="stroke:#A80036;stroke-width:2.0;"/><rect fill="#FEFECE" filter="url(#f1r07w3kplnrgp)" height="30.4883" style="stroke:#A80036;stroke-width:1.5;" width="161" x="264" y="53"/><text fill="#000000" font-family="sans-serif" font-size="14" lengthAdjust="spacing" textLength="147" x="271" y="73.5352">:UpdateCategoryView</text><rect fill="#FEFECE" filter="url(#f1r07w3kplnrgp)" height="30.4883" style="stroke:#A80036;stroke-width:1.5;" width="161" x="264" y="926.1836"/><text fill="#000000" font-family="sans-serif" font-size="14" lengthAdjust="spacing" textLength="147" x="271" y="946.7188">:UpdateCategoryView</text><rect fill="#FEFECE" filter="url(#f1r07w3kplnrgp)" height="30.4883" style="stroke:#A80036;stroke-width:1.5;" width="199" x="539" y="53"/><text fill="#000000" font-family="sans-serif" font-size="14" lengthAdjust="spacing" textLength="185" x="546" y="73.5352">:UpdateCategoryController</text><rect fill="#FEFECE" filter="url(#f1r07w3kplnrgp)" height="30.4883" style="stroke:#A80036;stroke-width:1.5;" width="199" x="539" y="926.1836"/><text fill="#000000" font-family="sans-serif" font-size="14" lengthAdjust="spacing" textLength="185" x="546" y="946.7188">:UpdateCategoryController</text><rect fill="#FEFECE" filter="url(#f1r07w3kplnrgp)" height="30.4883" style="stroke:#A80036;stroke-width:1.5;" width="65" x="804" y="53"/><text fill="#000000" font-family="sans-serif" font-size="14" lengthAdjust="spacing" textLength="51" x="811" y="73.5352">:Person</text><rect fill="#FEFECE" filter="url(#f1r07w3kplnrgp)" height="30.4883" style="stroke:#A80036;stroke-width:1.5;" width="65" x="804" y="926.1836"/><text fill="#000000" font-family="sans-serif" font-size="14" lengthAdjust="spacing" textLength="51" x="811" y="946.7188">:Person</text><rect fill="#FEFECE" filter="url(#f1r07w3kplnrgp)" height="30.4883" style="stroke:#A80036;stroke-width:1.5;" width="213" x="883" y="53"/><text fill="#000000" font-family="sans-serif" font-size="14" lengthAdjust="spacing" textLength="199" x="890" y="73.5352">container:CategoryContainer</text><rect fill="#FEFECE" filter="url(#f1r07w3kplnrgp)" height="30.4883" style="stroke:#A80036;stroke-width:1.5;" width="213" x="883" y="926.1836"/><text fill="#000000" font-family="sans-serif" font-size="14" lengthAdjust="spacing" textLength="199" x="890" y="946.7188">container:CategoryContainer</text><rect fill="#FEFECE" filter="url(#f1r07w3kplnrgp)" height="30.4883" style="stroke:#A80036;stroke-width:1.5;" width="145" x="1110" y="53"/><text fill="#000000" font-family="sans-serif" font-size="14" lengthAdjust="spacing" textLength="131" x="1117" y="73.5352">list:List&lt;Category&gt;</text><rect fill="#FEFECE" filter="url(#f1r07w3kplnrgp)" height="30.4883" style="stroke:#A80036;stroke-width:1.5;" width="145" x="1110" y="926.1836"/><text fill="#000000" font-family="sans-serif" font-size="14" lengthAdjust="spacing" textLength="131" x="1117" y="946.7188">list:List&lt;Category&gt;</text><rect fill="#FEFECE" filter="url(#f1r07w3kplnrgp)" height="30.4883" style="stroke:#A80036;stroke-width:1.5;" width="100" x="1269" y="53"/><text fill="#000000" font-family="sans-serif" font-size="14" lengthAdjust="spacing" textLength="86" x="1276" y="73.5352">cat:Category</text><rect fill="#FEFECE" filter="url(#f1r07w3kplnrgp)" height="30.4883" style="stroke:#A80036;stroke-width:1.5;" width="100" x="1269" y="926.1836"/><text fill="#000000" font-family="sans-serif" font-size="14" lengthAdjust="spacing" textLength="86" x="1276" y="946.7188">cat:Category</text><rect fill="#FFFFFF" filter="url(#f1r07w3kplnrgp)" height="819.6953" style="stroke:#A80036;stroke-width:1.0;" width="10" x="26.5" y="98.4883"/><rect fill="#FFFFFF" filter="url(#f1r07w3kplnrgp)" height="220.4844" style="stroke:#A80036;stroke-width:1.0;" width="10" x="341.5" y="119.7988"/><rect fill="#FFFFFF" filter="url(#f1r07w3kplnrgp)" height="187.8633" style="stroke:#A80036;stroke-width:1.0;" width="10" x="341.5" y="369.5938"/><rect fill="#FFFFFF" filter="url(#f1r07w3kplnrgp)" height="40.3105" style="stroke:#A80036;stroke-width:1.0;" width="10" x="346.5" y="406.9043"/><rect fill="#FFFFFF" filter="url(#f1r07w3kplnrgp)" height="322.416" style="stroke:#A80036;stroke-width:1.0;" width="10" x="341.5" y="586.7676"/><rect fill="#FFFFFF" filter="url(#f1r07w3kplnrgp)" height="146.5527" style="stroke:#A80036;stroke-width:1.0;" width="10" x="635.5" y="149.1094"/><rect fill="#FFFFFF" filter="url(#f1r07w3kplnrgp)" height="205.1738" style="stroke:#A80036;stroke-width:1.0;" width="10" x="635.5" y="674.6992"/><rect fill="#FFFFFF" filter="url(#f1r07w3kplnrgp)" height="29.3105" style="stroke:#A80036;stroke-width:1.0;" width="10" x="833.5" y="178.4199"/><rect fill="#FFFFFF" filter="url(#f1r07w3kplnrgp)" height="29.3105" style="stroke:#A80036;stroke-width:1.0;" width="10" x="986.5" y="237.041"/><rect fill="#FFFFFF" filter="url(#f1r07w3kplnrgp)" height="29.3105" style="stroke:#A80036;stroke-width:1.0;" width="10" x="986.5" y="704.0098"/><rect fill="#FFFFFF" filter="url(#f1r07w3kplnrgp)" height="29.3105" style="stroke:#A80036;stroke-width:1.0;" width="10" x="986.5" y="821.252"/><rect fill="#FFFFFF" filter="url(#f1r07w3kplnrgp)" height="29.3105" style="stroke:#A80036;stroke-width:1.0;" width="10" x="1316" y="483.5254"/><rect fill="#FFFFFF" filter="url(#f1r07w3kplnrgp)" height="29.3105" style="stroke:#A80036;stroke-width:1.0;" width="10" x="1316" y="616.0781"/><rect fill="#FFFFFF" filter="url(#f1r07w3kplnrgp)" height="29.3105" style="stroke:#A80036;stroke-width:1.0;" width="10" x="1316" y="762.6309"/><polygon fill="#A80036" points="329.5,115.7988,339.5,119.7988,329.5,123.7988,333.5,119.7988" style="stroke:#A80036;stroke-width:1.0;"/><line style="stroke:#A80036;stroke-width:1.0;" x1="36.5" x2="335.5" y1="119.7988" y2="119.7988"/><text fill="#000000" font-family="sans-serif" font-size="13" font-weight="bold" lengthAdjust="spacing" textLength="9" x="43.5" y="115.0566">1</text><text fill="#000000" font-family="sans-serif" font-size="13" lengthAdjust="spacing" textLength="254" x="56.5" y="115.0566">asks to update description of a category</text><polygon fill="#A80036" points="623.5,145.1094,633.5,149.1094,623.5,153.1094,627.5,149.1094" style="stroke:#A80036;stroke-width:1.0;"/><line style="stroke:#A80036;stroke-width:1.0;" x1="351.5" x2="629.5" y1="149.1094" y2="149.1094"/><text fill="#000000" font-family="sans-serif" font-size="13" font-weight="bold" lengthAdjust="spacing" textLength="9" x="358.5" y="144.3672">2</text><text fill="#000000" font-family="sans-serif" font-size="13" lengthAdjust="spacing" textLength="45" x="371.5" y="144.3672">getAll()</text><polygon fill="#A80036" points="821.5,174.4199,831.5,178.4199,821.5,182.4199,825.5,178.4199" style="stroke:#A80036;stroke-width:1.0;"/><line style="stroke:#A80036;stroke-width:1.0;" x1="645.5" x2="827.5" y1="178.4199" y2="178.4199"/><text fill="#000000" font-family="sans-serif" font-size="13" font-weight="bold" lengthAdjust="spacing" textLength="9" x="652.5" y="173.6777">3</text><text fill="#000000" font-family="sans-serif" font-size="13" lengthAdjust="spacing" textLength="156" x="665.5" y="173.6777">getCategoriesContainer()</text><polygon fill="#A80036" points="656.5,203.7305,646.5,207.7305,656.5,211.7305,652.5,207.7305" style="stroke:#A80036;stroke-width:1.0;"/><line style="stroke:#A80036;stroke-width:1.0;stroke-dasharray:2.0,2.0;" x1="650.5" x2="837.5" y1="207.7305" y2="207.7305"/><text fill="#000000" font-family="sans-serif" font-size="13" font-weight="bold" lengthAdjust="spacing" textLength="9" x="662.5" y="202.9883">4</text><text fill="#000000" font-family="sans-serif" font-size="13" lengthAdjust="spacing" textLength="59" x="675.5" y="202.9883">container</text><polygon fill="#A80036" points="974.5,233.041,984.5,237.041,974.5,241.041,978.5,237.041" style="stroke:#A80036;stroke-width:1.0;"/><line style="stroke:#A80036;stroke-width:1.0;" x1="645.5" x2="980.5" y1="237.041" y2="237.041"/><text fill="#000000" font-family="sans-serif" font-size="13" font-weight="bold" lengthAdjust="spacing" textLength="9" x="652.5" y="232.2988">5</text><text fill="#000000" font-family="sans-serif" font-size="13" lengthAdjust="spacing" textLength="45" x="665.5" y="232.2988">getAll()</text><polygon fill="#A80036" points="656.5,262.3516,646.5,266.3516,656.5,270.3516,652.5,266.3516" style="stroke:#A80036;stroke-width:1.0;"/><line style="stroke:#A80036;stroke-width:1.0;stroke-dasharray:2.0,2.0;" x1="650.5" x2="990.5" y1="266.3516" y2="266.3516"/><text fill="#000000" font-family="sans-serif" font-size="13" font-weight="bold" lengthAdjust="spacing" textLength="9" x="662.5" y="261.6094">6</text><text fill="#000000" font-family="sans-serif" font-size="13" lengthAdjust="spacing" textLength="20" x="675.5" y="261.6094">list</text><polygon fill="#A80036" points="362.5,291.6621,352.5,295.6621,362.5,299.6621,358.5,295.6621" style="stroke:#A80036;stroke-width:1.0;"/><line style="stroke:#A80036;stroke-width:1.0;stroke-dasharray:2.0,2.0;" x1="356.5" x2="639.5" y1="295.6621" y2="295.6621"/><text fill="#000000" font-family="sans-serif" font-size="13" font-weight="bold" lengthAdjust="spacing" textLength="9" x="368.5" y="290.9199">7</text><text fill="#000000" font-family="sans-serif" font-size="13" lengthAdjust="spacing" textLength="20" x="381.5" y="290.9199">list</text><polygon fill="#A80036" points="47.5,336.2832,37.5,340.2832,47.5,344.2832,43.5,340.2832" style="stroke:#A80036;stroke-width:1.0;"/><line style="stroke:#A80036;stroke-width:1.0;stroke-dasharray:2.0,2.0;" x1="41.5" x2="345.5" y1="340.2832" y2="340.2832"/><text fill="#000000" font-family="sans-serif" font-size="13" font-weight="bold" lengthAdjust="spacing" textLength="9" x="53.5" y="327.8857">8</text><text fill="#000000" font-family="sans-serif" font-size="13" lengthAdjust="spacing" textLength="210" x="66.5" y="320.2305">shows all existing categories and</text><text fill="#000000" font-family="sans-serif" font-size="13" lengthAdjust="spacing" textLength="229" x="70.5" y="335.541">asks to select the one to be updated</text><polygon fill="#A80036" points="329.5,365.5938,339.5,369.5938,329.5,373.5938,333.5,369.5938" style="stroke:#A80036;stroke-width:1.0;"/><line style="stroke:#A80036;stroke-width:1.0;" x1="36.5" x2="335.5" y1="369.5938" y2="369.5938"/><text fill="#000000" font-family="sans-serif" font-size="13" font-weight="bold" lengthAdjust="spacing" textLength="9" x="43.5" y="364.8516">9</text><text fill="#000000" font-family="sans-serif" font-size="13" lengthAdjust="spacing" textLength="185" x="56.5" y="364.8516">selects the intended category</text><line style="stroke:#A80036;stroke-width:1.0;" x1="351.5" x2="398.5" y1="393.9043" y2="393.9043"/><line style="stroke:#A80036;stroke-width:1.0;" x1="398.5" x2="398.5" y1="393.9043" y2="406.9043"/><line style="stroke:#A80036;stroke-width:1.0;" x1="357.5" x2="398.5" y1="406.9043" y2="406.9043"/><polygon fill="#A80036" points="367.5,402.9043,357.5,406.9043,367.5,410.9043,363.5,406.9043" style="stroke:#A80036;stroke-width:1.0;"/><text fill="#000000" font-family="sans-serif" font-size="13" font-weight="bold" lengthAdjust="spacing" textLength="18" x="363.5" y="389.1621">10</text><text fill="#000000" font-family="sans-serif" font-size="13" lengthAdjust="spacing" textLength="141" x="385.5" y="389.1621">findSelectedCategory()</text><line style="stroke:#A80036;stroke-width:1.0;stroke-dasharray:2.0,2.0;" x1="356.5" x2="398.5" y1="446.2148" y2="446.2148"/><line style="stroke:#A80036;stroke-width:1.0;stroke-dasharray:2.0,2.0;" x1="398.5" x2="398.5" y1="446.2148" y2="459.2148"/><line style="stroke:#A80036;stroke-width:1.0;stroke-dasharray:2.0,2.0;" x1="351.5" x2="398.5" y1="459.2148" y2="459.2148"/><polygon fill="#A80036" points="361.5,455.2148,351.5,459.2148,361.5,463.2148,357.5,459.2148" style="stroke:#A80036;stroke-width:1.0;"/><text fill="#000000" font-family="sans-serif" font-size="13" font-weight="bold" lengthAdjust="spacing" textLength="18" x="363.5" y="441.4727">11</text><text fill="#000000" font-family="sans-serif" font-size="13" lengthAdjust="spacing" textLength="19" x="385.5" y="441.4727">cat</text><polygon fill="#A80036" points="1304,479.5254,1314,483.5254,1304,487.5254,1308,483.5254" style="stroke:#A80036;stroke-width:1.0;"/><line style="stroke:#A80036;stroke-width:1.0;" x1="351.5" x2="1310" y1="483.5254" y2="483.5254"/><text fill="#000000" font-family="sans-serif" font-size="13" font-weight="bold" lengthAdjust="spacing" textLength="18" x="358.5" y="478.7832">12</text><text fill="#000000" font-family="sans-serif" font-size="13" lengthAdjust="spacing" textLength="101" x="380.5" y="478.7832">getDescription()</text><polygon fill="#A80036" points="362.5,508.8359,352.5,512.8359,362.5,516.8359,358.5,512.8359" style="stroke:#A80036;stroke-width:1.0;"/><line style="stroke:#A80036;stroke-width:1.0;stroke-dasharray:2.0,2.0;" x1="356.5" x2="1320" y1="512.8359" y2="512.8359"/><text fill="#000000" font-family="sans-serif" font-size="13" font-weight="bold" lengthAdjust="spacing" textLength="18" x="368.5" y="508.0938">13</text><text fill="#000000" font-family="sans-serif" font-size="13" lengthAdjust="spacing" textLength="71" x="390.5" y="508.0938">description</text><polygon fill="#A80036" points="47.5,553.457,37.5,557.457,47.5,561.457,43.5,557.457" style="stroke:#A80036;stroke-width:1.0;"/><line style="stroke:#A80036;stroke-width:1.0;stroke-dasharray:2.0,2.0;" x1="41.5" x2="345.5" y1="557.457" y2="557.457"/><text fill="#000000" font-family="sans-serif" font-size="13" font-weight="bold" lengthAdjust="spacing" textLength="18" x="53.5" y="545.0596">14</text><text fill="#000000" font-family="sans-serif" font-size="13" lengthAdjust="spacing" textLength="255" x="75.5" y="537.4043">shows description of the select category</text><text fill="#000000" font-family="sans-serif" font-size="13" lengthAdjust="spacing" textLength="209" x="79.5" y="552.7148">and requests the new description</text><polygon fill="#A80036" points="329.5,582.7676,339.5,586.7676,329.5,590.7676,333.5,586.7676" style="stroke:#A80036;stroke-width:1.0;"/><line style="stroke:#A80036;stroke-width:1.0;" x1="36.5" x2="335.5" y1="586.7676" y2="586.7676"/><text fill="#000000" font-family="sans-serif" font-size="13" font-weight="bold" lengthAdjust="spacing" textLength="18" x="43.5" y="582.0254">15</text><text fill="#000000" font-family="sans-serif" font-size="13" lengthAdjust="spacing" textLength="162" x="65.5" y="582.0254">types the new description</text><polygon fill="#A80036" points="1304,612.0781,1314,616.0781,1304,620.0781,1308,616.0781" style="stroke:#A80036;stroke-width:1.0;"/><line style="stroke:#A80036;stroke-width:1.0;" x1="351.5" x2="1310" y1="616.0781" y2="616.0781"/><text fill="#000000" font-family="sans-serif" font-size="13" font-weight="bold" lengthAdjust="spacing" textLength="18" x="358.5" y="611.3359">16</text><text fill="#000000" font-family="sans-serif" font-size="13" lengthAdjust="spacing" textLength="60" x="380.5" y="611.3359">getCode()</text><polygon fill="#A80036" points="362.5,641.3887,352.5,645.3887,362.5,649.3887,358.5,645.3887" style="stroke:#A80036;stroke-width:1.0;"/><line style="stroke:#A80036;stroke-width:1.0;stroke-dasharray:2.0,2.0;" x1="356.5" x2="1320" y1="645.3887" y2="645.3887"/><text fill="#000000" font-family="sans-serif" font-size="13" font-weight="bold" lengthAdjust="spacing" textLength="18" x="368.5" y="640.6465">17</text><text fill="#000000" font-family="sans-serif" font-size="13" lengthAdjust="spacing" textLength="30" x="390.5" y="640.6465">code</text><polygon fill="#A80036" points="623.5,670.6992,633.5,674.6992,623.5,678.6992,627.5,674.6992" style="stroke:#A80036;stroke-width:1.0;"/><line style="stroke:#A80036;stroke-width:1.0;" x1="351.5" x2="629.5" y1="674.6992" y2="674.6992"/><text fill="#000000" font-family="sans-serif" font-size="13" font-weight="bold" lengthAdjust="spacing" textLength="18" x="358.5" y="669.957">18</text><text fill="#000000" font-family="sans-serif" font-size="13" lengthAdjust="spacing" textLength="243" x="380.5" y="669.957">updateCategory(code, newDescription)</text><polygon fill="#A80036" points="974.5,700.0098,984.5,704.0098,974.5,708.0098,978.5,704.0098" style="stroke:#A80036;stroke-width:1.0;"/><line style="stroke:#A80036;stroke-width:1.0;" x1="645.5" x2="980.5" y1="704.0098" y2="704.0098"/><text fill="#000000" font-family="sans-serif" font-size="13" font-weight="bold" lengthAdjust="spacing" textLength="18" x="652.5" y="699.2676">19</text><text fill="#000000" font-family="sans-serif" font-size="13" lengthAdjust="spacing" textLength="89" x="674.5" y="699.2676">findById(code)</text><polygon fill="#A80036" points="656.5,729.3203,646.5,733.3203,656.5,737.3203,652.5,733.3203" style="stroke:#A80036;stroke-width:1.0;"/><line style="stroke:#A80036;stroke-width:1.0;stroke-dasharray:2.0,2.0;" x1="650.5" x2="990.5" y1="733.3203" y2="733.3203"/><text fill="#000000" font-family="sans-serif" font-size="13" font-weight="bold" lengthAdjust="spacing" textLength="18" x="662.5" y="728.5781">20</text><text fill="#000000" font-family="sans-serif" font-size="13" lengthAdjust="spacing" textLength="19" x="684.5" y="728.5781">cat</text><polygon fill="#A80036" points="1304,758.6309,1314,762.6309,1304,766.6309,1308,762.6309" style="stroke:#A80036;stroke-width:1.0;"/><line style="stroke:#A80036;stroke-width:1.0;" x1="645.5" x2="1310" y1="762.6309" y2="762.6309"/><text fill="#000000" font-family="sans-serif" font-size="13" font-weight="bold" lengthAdjust="spacing" textLength="18" x="652.5" y="757.8887">21</text><text fill="#000000" font-family="sans-serif" font-size="13" lengthAdjust="spacing" textLength="224" x="674.5" y="757.8887">changeDescription(newDescription)</text><polygon fill="#A80036" points="656.5,787.9414,646.5,791.9414,656.5,795.9414,652.5,791.9414" style="stroke:#A80036;stroke-width:1.0;"/><line style="stroke:#A80036;stroke-width:1.0;stroke-dasharray:2.0,2.0;" x1="650.5" x2="1320" y1="791.9414" y2="791.9414"/><text fill="#000000" font-family="sans-serif" font-size="13" font-weight="bold" lengthAdjust="spacing" textLength="18" x="662.5" y="787.1992">22</text><text fill="#000000" font-family="sans-serif" font-size="13" lengthAdjust="spacing" textLength="16" x="684.5" y="787.1992">ok</text><polygon fill="#A80036" points="974.5,817.252,984.5,821.252,974.5,825.252,978.5,821.252" style="stroke:#A80036;stroke-width:1.0;"/><line style="stroke:#A80036;stroke-width:1.0;" x1="645.5" x2="980.5" y1="821.252" y2="821.252"/><text fill="#000000" font-family="sans-serif" font-size="13" font-weight="bold" lengthAdjust="spacing" textLength="18" x="652.5" y="816.5098">23</text><text fill="#000000" font-family="sans-serif" font-size="13" lengthAdjust="spacing" textLength="55" x="674.5" y="816.5098">save(cat)</text><polygon fill="#A80036" points="656.5,846.5625,646.5,850.5625,656.5,854.5625,652.5,850.5625" style="stroke:#A80036;stroke-width:1.0;"/><line style="stroke:#A80036;stroke-width:1.0;stroke-dasharray:2.0,2.0;" x1="650.5" x2="990.5" y1="850.5625" y2="850.5625"/><text fill="#000000" font-family="sans-serif" font-size="13" font-weight="bold" lengthAdjust="spacing" textLength="18" x="662.5" y="845.8203">24</text><text fill="#000000" font-family="sans-serif" font-size="13" lengthAdjust="spacing" textLength="16" x="684.5" y="845.8203">ok</text><polygon fill="#A80036" points="362.5,875.873,352.5,879.873,362.5,883.873,358.5,879.873" style="stroke:#A80036;stroke-width:1.0;"/><line style="stroke:#A80036;stroke-width:1.0;stroke-dasharray:2.0,2.0;" x1="356.5" x2="639.5" y1="879.873" y2="879.873"/><text fill="#000000" font-family="sans-serif" font-size="13" font-weight="bold" lengthAdjust="spacing" textLength="18" x="368.5" y="875.1309">25</text><text fill="#000000" font-family="sans-serif" font-size="13" lengthAdjust="spacing" textLength="16" x="390.5" y="875.1309">ok</text><polygon fill="#A80036" points="47.5,905.1836,37.5,909.1836,47.5,913.1836,43.5,909.1836" style="stroke:#A80036;stroke-width:1.0;"/><line style="stroke:#A80036;stroke-width:1.0;stroke-dasharray:2.0,2.0;" x1="41.5" x2="345.5" y1="909.1836" y2="909.1836"/><text fill="#000000" font-family="sans-serif" font-size="13" font-weight="bold" lengthAdjust="spacing" textLength="18" x="53.5" y="904.4414">26</text><text fill="#000000" font-family="sans-serif" font-size="13" lengthAdjust="spacing" textLength="167" x="75.5" y="904.4414">informs operation success</text><!--MD5=[51facd4d3f9dd98df2a7793f93be7ae8]
@startuml
'https://plantuml.com/sequence-diagram

autoactivate on
autonumber

actor "Person" as User
participant ":UpdateCategoryView" as System
participant ":UpdateCategoryController" as Ctrl
participant ":Person" as Person
participant "container:CategoryContainer" as Container
participant "list:List<Category>" as List
participant "cat:Category" as Category

activate User

User -> System: asks to update description of a category
System -> Ctrl: getAll()
Ctrl -> Person: getCategoriesContainer()
Person - -> Ctrl: container
Ctrl -> Container: getAll()
Container - -> Ctrl: list
Ctrl - -> System: list
System - -> User: shows all existing categories and \n asks to select the one to be updated


User -> System: selects the intended category
System -> System: findSelectedCategory()
System - -> System: cat
System -> Category: getDescription()
Category - -> System: description
System - -> User: shows description of the select category \n and requests the new description

User -> System: types the new description
System -> Category: getCode()
Category - -> System: code
System -> Ctrl:updateCategory(code, newDescription)
Ctrl -> Container: findById(code)
Container - -> Ctrl: cat
Ctrl -> Category: changeDescription(newDescription)
Category - -> Ctrl : ok
Ctrl -> Container: save(cat)
Container - -> Ctrl: ok
Ctrl - -> System: ok
System - -> User: informs operation success

@enduml

@startuml

autoactivate on
autonumber

actor "Person" as User
participant ":UpdateCategoryView" as System
participant ":UpdateCategoryController" as Ctrl
participant ":Person" as Person
participant "container:CategoryContainer" as Container
participant "list:List<Category>" as List
participant "cat:Category" as Category

activate User

User -> System: asks to update description of a category
System -> Ctrl: getAll()
Ctrl -> Person: getCategoriesContainer()
Person - -> Ctrl: container
Ctrl -> Container: getAll()
Container - -> Ctrl: list
Ctrl - -> System: list
System - -> User: shows all existing categories and \n asks to select the one to be updated


User -> System: selects the intended category
System -> System: findSelectedCategory()
System - -> System: cat
System -> Category: getDescription()
Category - -> System: description
System - -> User: shows description of the select category \n and requests the new description

User -> System: types the new description
System -> Category: getCode()
Category - -> System: code
System -> Ctrl:updateCategory(code, newDescription)
Ctrl -> Container: findById(code)
Container - -> Ctrl: cat
Ctrl -> Category: changeDescription(newDescription)
Category - -> Ctrl : ok
Ctrl -> Container: save(cat)
Container - -> Ctrl: ok
Ctrl - -> System: ok
System - -> User: informs operation success

@enduml

PlantUML version 1.2021.7(Sun May 23 13:40:07 WEST 2021)
(GPL source distribution)
Java Runtime: OpenJDK Runtime Environment
JVM: OpenJDK 64-Bit Server VM
Default Encoding: UTF-8
Language: en
Country: PT
--></g></svg>