<?xml version="1.0" encoding="UTF-8" standalone="no"?><svg xmlns="http://www.w3.org/2000/svg" xmlns:xlink="http://www.w3.org/1999/xlink" contentScriptType="application/ecmascript" contentStyleType="text/css" height="366px" preserveAspectRatio="none" style="width:921px;height:366px;background:#FFFFFF;" version="1.1" viewBox="0 0 921 366" width="921px" zoomAndPan="magnify"><defs><filter height="300%" id="f1hcjhh24q4fkd" width="300%" x="-1" y="-1"><feGaussianBlur result="blurOut" stdDeviation="2.0"/><feColorMatrix in="blurOut" result="blurOut2" type="matrix" values="0 0 0 0 0 0 0 0 0 0 0 0 0 0 0 0 0 0 .4 0"/><feOffset dx="4.0" dy="4.0" in="blurOut2" result="blurOut3"/><feBlend in="SourceGraphic" in2="blurOut3" mode="normal"/></filter></defs><g><!--MD5=[089d205fe172a675bd1a40aade0b2a0c]
class UpdateCategoryView--><rect codeLine="6" fill="#FEFECE" filter="url(#f1hcjhh24q4fkd)" height="40.1328" id="UpdateCategoryView" style="stroke:#A80036;stroke-width:1.5;" width="126" x="592.5" y="7"/><text fill="#000000" font-family="sans-serif" font-size="12" lengthAdjust="spacing" textLength="120" x="595.5" y="23.6016">UpdateCategoryView</text><line style="stroke:#A80036;stroke-width:1.5;" x1="593.5" x2="717.5" y1="31.1328" y2="31.1328"/><line style="stroke:#A80036;stroke-width:1.5;" x1="593.5" x2="717.5" y1="39.1328" y2="39.1328"/><!--MD5=[d04424212d9b3649630a69e6d386bb40]
class UpdateCategoryController--><rect codeLine="9" fill="#FEFECE" filter="url(#f1hcjhh24q4fkd)" height="66.043" id="UpdateCategoryController" style="stroke:#A80036;stroke-width:1.5;" width="317" x="367" y="108"/><text fill="#000000" font-family="sans-serif" font-size="12" lengthAdjust="spacing" textLength="149" x="451" y="124.6016">UpdateCategoryController</text><line style="stroke:#A80036;stroke-width:1.5;" x1="368" x2="683" y1="132.1328" y2="132.1328"/><line style="stroke:#A80036;stroke-width:1.5;" x1="368" x2="683" y1="140.1328" y2="140.1328"/><text fill="#000000" font-family="sans-serif" font-size="11" lengthAdjust="spacing" textLength="140" x="373" y="154.7676">+getAll(): List&lt;Category&gt;</text><text fill="#000000" font-family="sans-serif" font-size="11" lengthAdjust="spacing" textLength="305" x="373" y="167.7227">+updateCategory(string code, string description): Result</text><!--MD5=[09ce52be0ee7de43c61b6e2d59bf108b]
class Person--><rect codeLine="14" fill="#FEFECE" filter="url(#f1hcjhh24q4fkd)" height="66.043" id="Person" style="stroke:#A80036;stroke-width:1.5;" width="265" x="7" y="261"/><text fill="#000000" font-family="sans-serif" font-size="12" lengthAdjust="spacing" textLength="39" x="120" y="277.6016">Person</text><line style="stroke:#A80036;stroke-width:1.5;" x1="8" x2="271" y1="285.1328" y2="285.1328"/><text fill="#000000" font-family="sans-serif" font-size="11" lengthAdjust="spacing" textLength="35" x="13" y="299.7676">-name</text><line style="stroke:#A80036;stroke-width:1.5;" x1="8" x2="271" y1="306.0879" y2="306.0879"/><text fill="#000000" font-family="sans-serif" font-size="11" lengthAdjust="spacing" textLength="253" x="13" y="320.7227">+getCategoriesContainer(): CategoryContainer</text><!--MD5=[f5b151c31b11bd3e4ed70274aa943786]
class CategoryContainer--><rect codeLine="19" fill="#FEFECE" filter="url(#f1hcjhh24q4fkd)" height="78.998" id="CategoryContainer" style="stroke:#A80036;stroke-width:1.5;" width="188" x="370.5" y="254.5"/><text fill="#000000" font-family="sans-serif" font-size="12" lengthAdjust="spacing" textLength="106" x="411.5" y="271.1016">CategoryContainer</text><line style="stroke:#A80036;stroke-width:1.5;" x1="371.5" x2="557.5" y1="278.6328" y2="278.6328"/><line style="stroke:#A80036;stroke-width:1.5;" x1="371.5" x2="557.5" y1="286.6328" y2="286.6328"/><text fill="#000000" font-family="sans-serif" font-size="11" lengthAdjust="spacing" textLength="140" x="376.5" y="301.2676">+getAll(): List&lt;Category&gt;</text><text fill="#000000" font-family="sans-serif" font-size="11" lengthAdjust="spacing" textLength="149" x="376.5" y="314.2227">+save(Category obj): Result</text><text fill="#000000" font-family="sans-serif" font-size="11" lengthAdjust="spacing" textLength="176" x="376.5" y="327.1777">+findById(string code): Category</text><!--MD5=[a96594a83e2ecdc78cbf17c2ddf01934]
class Category--><rect codeLine="25" fill="#FEFECE" filter="url(#f1hcjhh24q4fkd)" height="117.8633" id="Category" style="stroke:#A80036;stroke-width:1.5;" width="265" x="642" y="235"/><text fill="#000000" font-family="sans-serif" font-size="12" lengthAdjust="spacing" textLength="51" x="749" y="251.6016">Category</text><line style="stroke:#A80036;stroke-width:1.5;" x1="643" x2="906" y1="259.1328" y2="259.1328"/><text fill="#000000" font-family="sans-serif" font-size="11" lengthAdjust="spacing" textLength="32" x="648" y="273.7676">-code</text><text fill="#000000" font-family="sans-serif" font-size="11" lengthAdjust="spacing" textLength="67" x="648" y="286.7227">-description</text><line style="stroke:#A80036;stroke-width:1.5;" x1="643" x2="906" y1="293.043" y2="293.043"/><text fill="#000000" font-family="sans-serif" font-size="11" lengthAdjust="spacing" textLength="220" x="648" y="307.6777">Category(string code, string description)</text><text fill="#000000" font-family="sans-serif" font-size="11" lengthAdjust="spacing" textLength="100" x="648" y="320.6328">+getCode(): string</text><text fill="#000000" font-family="sans-serif" font-size="11" lengthAdjust="spacing" textLength="134" x="648" y="333.5879">+getDescription(): string</text><text fill="#000000" font-family="sans-serif" font-size="11" lengthAdjust="spacing" textLength="253" x="648" y="346.543">+changeDescription(string description): Result</text><!--MD5=[6251f0ee7009ec8a0f6b1dc69a8079f4]
link Person to CategoryContainer--><path codeLine="34" d="M272.16,294 C303.19,294 335.72,294 365.01,294 " fill="none" id="Person-to-CategoryContainer" style="stroke:#A80036;stroke-width:1.0;"/><polygon fill="#A80036" points="370.06,294,361.06,290,365.06,294,361.06,298,370.06,294" style="stroke:#A80036;stroke-width:1.0;"/><text fill="#000000" font-family="sans-serif" font-size="13" lengthAdjust="spacing" textLength="62" x="290.25" y="287.5684">maintains</text><text fill="#000000" font-family="sans-serif" font-size="13" lengthAdjust="spacing" textLength="8" x="280.0607" y="291.1425">1</text><text fill="#000000" font-family="sans-serif" font-size="13" lengthAdjust="spacing" textLength="8" x="354.5232" y="291.0061">1</text><!--MD5=[73983d0cb4f063243986bcdbad934025]
link CategoryContainer to Category--><path codeLine="35" d="M558.77,294 C583.32,294 610.28,294 636.58,294 " fill="none" id="CategoryContainer-to-Category" style="stroke:#A80036;stroke-width:1.0;"/><polygon fill="#A80036" points="641.83,294,632.83,290,636.83,294,632.83,298,641.83,294" style="stroke:#A80036;stroke-width:1.0;"/><text fill="#000000" font-family="sans-serif" font-size="13" lengthAdjust="spacing" textLength="47" x="576.75" y="287.5684">records</text><text fill="#000000" font-family="sans-serif" font-size="13" lengthAdjust="spacing" textLength="8" x="566.6009" y="290.9832">1</text><text fill="#000000" font-family="sans-serif" font-size="13" lengthAdjust="spacing" textLength="22" x="611.973" y="306.9907">0..*</text><!--MD5=[120a8a5572376afd3f367507ca979a2b]
link UpdateCategoryView to UpdateCategoryController--><path codeLine="37" d="M633.15,47.25 C614.97,62.92 588.83,85.44 566.85,104.37 " fill="none" id="UpdateCategoryView-to-UpdateCategoryController" style="stroke:#A80036;stroke-width:1.0;stroke-dasharray:7.0,7.0;"/><polygon fill="#A80036" points="562.8,107.86,572.2365,105.0399,566.5963,104.606,567.0301,98.9659,562.8,107.86" style="stroke:#A80036;stroke-width:1.0;"/><!--MD5=[da7cadab02f532cef57028dfb3a9a3b2]
link UpdateCategoryView to Category--><path codeLine="38" d="M667.66,47.29 C677.44,63.24 691.21,86.64 701.5,108 C720.64,147.74 738.86,193.9 752.31,230.16 " fill="none" id="UpdateCategoryView-to-Category" style="stroke:#A80036;stroke-width:1.0;stroke-dasharray:7.0,7.0;"/><polygon fill="#A80036" points="754.09,234.99,754.7279,225.1618,752.3595,230.299,747.2223,227.9306,754.09,234.99" style="stroke:#A80036;stroke-width:1.0;"/><!--MD5=[30a4014da4c3ad03b6f6b1e7f13d0743]
link UpdateCategoryController to Person--><path codeLine="39" d="M443.64,174.02 C379.9,198.96 291.64,233.48 226.61,258.92 " fill="none" id="UpdateCategoryController-to-Person" style="stroke:#A80036;stroke-width:1.0;stroke-dasharray:7.0,7.0;"/><polygon fill="#A80036" points="221.57,260.89,231.4093,261.324,226.2241,259.0626,228.4855,253.8774,221.57,260.89" style="stroke:#A80036;stroke-width:1.0;"/><!--MD5=[38197ea5a63b45ea4e3a93c8e97be732]
link UpdateCategoryController to CategoryContainer--><path codeLine="40" d="M512.56,174.02 C503.68,196.02 491.78,225.48 482.04,249.58 " fill="none" id="UpdateCategoryController-to-CategoryContainer" style="stroke:#A80036;stroke-width:1.0;stroke-dasharray:7.0,7.0;"/><polygon fill="#A80036" points="480.12,254.33,487.1946,247.478,481.9892,249.6926,479.7747,244.4872,480.12,254.33" style="stroke:#A80036;stroke-width:1.0;"/><!--MD5=[276e3aeae79210ab1c20b50f5a0161f6]
link UpdateCategoryController to Category--><path codeLine="41" d="M578.31,174.02 C606.25,190.97 641.49,212.34 674.38,232.28 " fill="none" id="UpdateCategoryController-to-Category" style="stroke:#A80036;stroke-width:1.0;stroke-dasharray:7.0,7.0;"/><polygon fill="#A80036" points="678.79,234.96,673.1622,226.8774,674.5127,232.3707,669.0194,233.7211,678.79,234.96" style="stroke:#A80036;stroke-width:1.0;"/><!--MD5=[7b6019e48be17e9c5052189be9e6d150]
@startuml
'https://plantuml.com/class-diagram

hide circle
skinparam classAttributeIconSize 0

class UpdateCategoryView {
}

class UpdateCategoryController {
    +getAll(): List<Category>
    +updateCategory(string code, string description): Result
}

class Person {
    - name
    +getCategoriesContainer(): CategoryContainer
}

class CategoryContainer {
    +getAll(): List<Category>
    +save(Category obj): Result
    +findById(string code): Category
}

class Category {
    - code
    - description
    Category(string code, string description)
    +getCode(): string
    +getDescription(): string
    +changeDescription(string description): Result
}

Person "1" -right-> "1" CategoryContainer:  maintains
CategoryContainer "1" -right-> "0..*" Category:  records

UpdateCategoryView ..> UpdateCategoryController
UpdateCategoryView ..> Category
UpdateCategoryController ..> Person
UpdateCategoryController ..> CategoryContainer
UpdateCategoryController ..> Category

@enduml

@startuml

hide circle
skinparam classAttributeIconSize 0

class UpdateCategoryView {
}

class UpdateCategoryController {
    +getAll(): List<Category>
    +updateCategory(string code, string description): Result
}

class Person {
    - name
    +getCategoriesContainer(): CategoryContainer
}

class CategoryContainer {
    +getAll(): List<Category>
    +save(Category obj): Result
    +findById(string code): Category
}

class Category {
    - code
    - description
    Category(string code, string description)
    +getCode(): string
    +getDescription(): string
    +changeDescription(string description): Result
}

Person "1" -right-> "1" CategoryContainer:  maintains
CategoryContainer "1" -right-> "0..*" Category:  records

UpdateCategoryView ..> UpdateCategoryController
UpdateCategoryView ..> Category
UpdateCategoryController ..> Person
UpdateCategoryController ..> CategoryContainer
UpdateCategoryController ..> Category

@enduml

PlantUML version 1.2021.7(Sun May 23 13:40:07 WEST 2021)
(GPL source distribution)
Java Runtime: OpenJDK Runtime Environment
JVM: OpenJDK 64-Bit Server VM
Default Encoding: UTF-8
Language: en
Country: PT
--></g></svg>