<?xml version="1.0" encoding="UTF-8" standalone="no"?><svg xmlns="http://www.w3.org/2000/svg" xmlns:xlink="http://www.w3.org/1999/xlink" contentScriptType="application/ecmascript" contentStyleType="text/css" height="265px" preserveAspectRatio="none" style="width:511px;height:265px;background:#FFFFFF;" version="1.1" viewBox="0 0 511 265" width="511px" zoomAndPan="magnify"><defs><filter height="300%" id="fivbreciyfxur" width="300%" x="-1" y="-1"><feGaussianBlur result="blurOut" stdDeviation="2.0"/><feColorMatrix in="blurOut" result="blurOut2" type="matrix" values="0 0 0 0 0 0 0 0 0 0 0 0 0 0 0 0 0 0 .4 0"/><feOffset dx="4.0" dy="4.0" in="blurOut2" result="blurOut3"/><feBlend in="SourceGraphic" in2="blurOut3" mode="normal"/></filter></defs><g><!--MD5=[3ee15c8315d28b1cee168b0da5921b58]
class CategoryController--><rect codeLine="7" fill="#FEFECE" filter="url(#fivbreciyfxur)" height="53.0879" id="CategoryController" style="stroke:#A80036;stroke-width:1.5;" width="122" x="7" y="83.5"/><text fill="#000000" font-family="sans-serif" font-size="12" lengthAdjust="spacing" textLength="107" x="14.5" y="100.1016">CategoryController</text><line style="stroke:#A80036;stroke-width:1.5;" x1="8" x2="128" y1="107.6328" y2="107.6328"/><line style="stroke:#A80036;stroke-width:1.5;" x1="8" x2="128" y1="115.6328" y2="115.6328"/><text fill="#000000" font-family="sans-serif" font-size="11" lengthAdjust="spacing" textLength="110" x="13" y="130.2676">+getAll(): HttpResult</text><!--MD5=[867476cd2a5db62f3ac412e45787ce2b]
class CategoryMapper--><rect codeLine="11" fill="#FEFECE" filter="url(#fivbreciyfxur)" height="66.043" id="CategoryMapper" style="stroke:#A80036;stroke-width:1.5;" width="203" x="241.5" y="7"/><text fill="#000000" font-family="sans-serif" font-size="12" lengthAdjust="spacing" textLength="96" x="295" y="23.6016">CategoryMapper</text><line style="stroke:#A80036;stroke-width:1.5;" x1="242.5" x2="443.5" y1="31.1328" y2="31.1328"/><line style="stroke:#A80036;stroke-width:1.5;" x1="242.5" x2="443.5" y1="39.1328" y2="39.1328"/><text fill="#000000" font-family="sans-serif" font-size="11" lengthAdjust="spacing" textLength="148" x="247.5" y="53.7676">+toJson(Category cat): json</text><text fill="#000000" font-family="sans-serif" font-size="11" lengthAdjust="spacing" textLength="191" x="247.5" y="66.7227">+toJson(List&lt;Category&gt; cats): json</text><!--MD5=[dbe5f81d45cf3e1ac1d2aadd8dc86821]
class HttpResult--><rect codeLine="16" fill="#FEFECE" filter="url(#fivbreciyfxur)" height="143.7734" id="HttpResult" style="stroke:#A80036;stroke-width:1.5;" width="308" x="189" y="108"/><text fill="#000000" font-family="sans-serif" font-size="12" lengthAdjust="spacing" textLength="60" x="313" y="124.6016">HttpResult</text><line style="stroke:#A80036;stroke-width:1.5;" x1="190" x2="496" y1="132.1328" y2="132.1328"/><text fill="#000000" font-family="sans-serif" font-size="11" lengthAdjust="spacing" textLength="101" x="195" y="146.7676">-status: HttpStatus</text><text fill="#000000" font-family="sans-serif" font-size="11" lengthAdjust="spacing" textLength="66" x="195" y="159.7227">-result: json</text><line style="stroke:#A80036;stroke-width:1.5;" x1="190" x2="496" y1="166.043" y2="166.043"/><text fill="#000000" font-family="sans-serif" font-size="11" lengthAdjust="spacing" textLength="67" x="195" y="180.6777">HttpResult();</text><text fill="#000000" font-family="sans-serif" font-size="11" lengthAdjust="spacing" textLength="159" x="195" y="193.6328">HttpResult(HttpStatus status);</text><text fill="#000000" font-family="sans-serif" font-size="11" lengthAdjust="spacing" textLength="296" x="195" y="206.5879">HttpResult(HttpStatus status, const wstring &amp;message);</text><text fill="#000000" font-family="sans-serif" font-size="11" lengthAdjust="spacing" textLength="288" x="195" y="219.543">HttpResult(HttpStatus status, const string &amp;message);</text><text fill="#000000" font-family="sans-serif" font-size="11" lengthAdjust="spacing" textLength="277" x="195" y="232.498">HttpResult(HttpStatus status, const char *message);</text><text fill="#000000" font-family="sans-serif" font-size="11" lengthAdjust="spacing" textLength="263" x="195" y="245.4531">HttpResult(HttpStatus status, const json &amp;result);</text><!--MD5=[bb77d5a1df164ed277470f1b1b3dcac9]
link CategoryController to CategoryMapper--><path codeLine="27" d="M129.25,94.55 C160.73,86.48 200.18,76.36 236.53,67.04 " fill="none" id="CategoryController-to-CategoryMapper" style="stroke:#A80036;stroke-width:1.0;stroke-dasharray:7.0,7.0;"/><polygon fill="#A80036" points="241.41,65.79,231.6982,64.1528,236.5669,67.0329,233.6868,71.9017,241.41,65.79" style="stroke:#A80036;stroke-width:1.0;"/><!--MD5=[47c424eecdbdb23d15475f72049695ab]
link CategoryController to HttpResult--><path codeLine="28" d="M129.25,125.45 C145.82,129.7 164.61,134.51 183.98,139.48 " fill="none" id="CategoryController-to-HttpResult" style="stroke:#A80036;stroke-width:1.0;stroke-dasharray:7.0,7.0;"/><polygon fill="#A80036" points="188.92,140.75,181.1968,134.6383,184.0769,139.5071,179.2082,142.3872,188.92,140.75" style="stroke:#A80036;stroke-width:1.0;"/><!--MD5=[f864eed633e6ac090430e636649f980c]
@startuml
'https://plantuml.com/class-diagram
left to right direction

hide circle
skinparam classAttributeIconSize 0

class CategoryController {
    +getAll(): HttpResult
}

class CategoryMapper {
    +toJson(Category cat): json
    +toJson(List<Category> cats): json
}

class HttpResult {
    -status: HttpStatus
    -result: json
    HttpResult();
    HttpResult(HttpStatus status);
    HttpResult(HttpStatus status, const wstring &message);
    HttpResult(HttpStatus status, const string &message);
    HttpResult(HttpStatus status, const char *message);
    HttpResult(HttpStatus status, const json &result);
}

CategoryController ..> CategoryMapper
CategoryController ..> HttpResult
@enduml

@startuml
left to right direction

hide circle
skinparam classAttributeIconSize 0

class CategoryController {
    +getAll(): HttpResult
}

class CategoryMapper {
    +toJson(Category cat): json
    +toJson(List<Category> cats): json
}

class HttpResult {
    -status: HttpStatus
    -result: json
    HttpResult();
    HttpResult(HttpStatus status);
    HttpResult(HttpStatus status, const wstring &message);
    HttpResult(HttpStatus status, const string &message);
    HttpResult(HttpStatus status, const char *message);
    HttpResult(HttpStatus status, const json &result);
}

CategoryController ..> CategoryMapper
CategoryController ..> HttpResult
@enduml

PlantUML version 1.2021.7(Sun May 23 13:40:07 WEST 2021)
(GPL source distribution)
Java Runtime: OpenJDK Runtime Environment
JVM: OpenJDK 64-Bit Server VM
Default Encoding: UTF-8
Language: en
Country: PT
--></g></svg>