@startuml
'https://plantuml.com/class-diagram
skinparam classAttributeIconSize 0
hide circle
hide methods

class Person {
    - name
}

class Category {
    - code
    - description
}

Person "1" -right-- "0..*" Category:  maintains >


@enduml